{
  "folder": "TyYruoWurwpkxeA6",
  "name": "2 Círculo",
  "sorting": "a",
  "type": "Item",
  "_id": "YtMKgj5IsnTkXwlL",
  "sort": 0,
  "flags": {},
  "_stats": {
    "systemId": null,
    "systemVersion": null,
    "coreVersion": null,
    "createdTime": null,
    "modifiedTime": null,
    "lastModifiedBy": null
  },
  "_key": "!folders!YtMKgj5IsnTkXwlL"
}
