{
  "folder": "TyYruoWurwpkxeA6",
  "name": "5 Círculo",
  "sorting": "a",
  "type": "Item",
  "_id": "LZ2k92nnx4pnVojl",
  "sort": 0,
  "flags": {},
  "_stats": {
    "systemId": null,
    "systemVersion": null,
    "coreVersion": null,
    "createdTime": null,
    "modifiedTime": null,
    "lastModifiedBy": null
  },
  "_key": "!folders!LZ2k92nnx4pnVojl"
}
