{
  "folder": "RBZAuchWiAVeyFjL",
  "name": "A1 Abjuração",
  "sorting": "a",
  "type": "Item",
  "_id": "OkpR6UdPNpR8mrad",
  "sort": 0,
  "flags": {},
  "_stats": {
    "systemId": null,
    "systemVersion": null,
    "coreVersion": null,
    "createdTime": null,
    "modifiedTime": null,
    "lastModifiedBy": null
  },
  "_key": "!folders!OkpR6UdPNpR8mrad"
}
