{
  "folder": "RBZAuchWiAVeyFjL",
  "name": "A1 Adivinhação",
  "sorting": "a",
  "type": "Item",
  "_id": "zl8Wtl7gm1bEGc2W",
  "sort": 0,
  "flags": {},
  "_stats": {
    "systemId": null,
    "systemVersion": null,
    "coreVersion": null,
    "createdTime": null,
    "modifiedTime": null,
    "lastModifiedBy": null
  },
  "_key": "!folders!zl8Wtl7gm1bEGc2W"
}
