{
  "folder": "RBZAuchWiAVeyFjL",
  "name": "A1 Necromancia",
  "sorting": "a",
  "type": "Item",
  "_id": "Bqm3t71TUGy5F5OI",
  "sort": 0,
  "flags": {},
  "_stats": {
    "systemId": null,
    "systemVersion": null,
    "coreVersion": null,
    "createdTime": null,
    "modifiedTime": null,
    "lastModifiedBy": null
  },
  "_key": "!folders!Bqm3t71TUGy5F5OI"
}
