{
  "folder": "2G9nqjSzgxMa2POf",
  "name": "A3 Evocação",
  "sorting": "a",
  "type": "Item",
  "_id": "S9YMO5Jyr0D1dsWK",
  "sort": 0,
  "flags": {},
  "_stats": {
    "systemId": null,
    "systemVersion": null,
    "coreVersion": null,
    "createdTime": null,
    "modifiedTime": null,
    "lastModifiedBy": null
  },
  "_key": "!folders!S9YMO5Jyr0D1dsWK"
}
