{
  "folder": "3vLGG9iTfdcoZaTn",
  "name": "A4 Adivinhação",
  "sorting": "a",
  "type": "Item",
  "_id": "KXIH9cJob20GWu3K",
  "sort": 0,
  "flags": {},
  "_stats": {
    "systemId": null,
    "systemVersion": null,
    "coreVersion": null,
    "createdTime": null,
    "modifiedTime": null,
    "lastModifiedBy": null
  },
  "_key": "!folders!KXIH9cJob20GWu3K"
}
