{
  "folder": "3vLGG9iTfdcoZaTn",
  "name": "A4 Evocação",
  "sorting": "a",
  "type": "Item",
  "_id": "dxIW3dYs0c4ADJzO",
  "sort": 0,
  "flags": {},
  "_stats": {
    "systemId": null,
    "systemVersion": null,
    "coreVersion": null,
    "createdTime": null,
    "modifiedTime": null,
    "lastModifiedBy": null
  },
  "_key": "!folders!dxIW3dYs0c4ADJzO"
}
