{
  "_id": "mQeWRsFwBWENaVeD",
  "name": "Acalmar Animal",
  "type": "magia",
  "img": "systems/tormenta20/icons/magias/acalmar-animal.webp",
  "effects": [
    {
      "_id": "IFsWkZiplumHPzOu",
      "flags": {
        "onuse": true,
        "t20": null,
        "tormenta20": {
          "self": true,
          "attack": false,
          "skill": false,
          "ability": false,
          "power": false,
          "spell": false,
          "consumable": false,
          "aumenta": false,
          "custo": "1",
          "durationScene": false,
          "onuse": true
        }
      },
      "changes": [
        {
          "key": "alcance",
          "value": "médio",
          "mode": 5,
          "priority": null
        }
      ],
      "disabled": true,
      "duration": {
        "startTime": null,
        "seconds": null,
        "combat": null,
        "rounds": null,
        "turns": null,
        "startRound": null,
        "startTurn": null
      },
      "icon": "icons/svg/aura.svg",
      "label": "muda o alcance para médio.",
      "origin": "Item.uQOZKckUmRrVHgIS",
      "tint": null,
      "transfer": false,
      "_key": "!items.effects!mQeWRsFwBWENaVeD.IFsWkZiplumHPzOu"
    },
    {
      "_id": "UhozPblJ0Hv6mhCA",
      "flags": {
        "onuse": true,
        "t20": null,
        "tormenta20": {
          "self": true,
          "attack": false,
          "skill": false,
          "ability": false,
          "power": false,
          "spell": false,
          "consumable": false,
          "aumenta": false,
          "custo": "1",
          "durationScene": false,
          "onuse": true
        }
      },
      "changes": [
        {
          "key": "alvo",
          "value": "1 monstro ou espírito com Inteligência 1 ou 2.",
          "mode": 5,
          "priority": null
        }
      ],
      "disabled": true,
      "duration": {
        "startTime": null,
        "seconds": null,
        "combat": null,
        "rounds": null,
        "turns": null,
        "startRound": null,
        "startTurn": null
      },
      "icon": "icons/svg/aura.svg",
      "label": "muda o alvo para 1 monstro ou espírito com Inteligência 1 ou 2.",
      "origin": "Item.uQOZKckUmRrVHgIS",
      "tint": null,
      "transfer": false,
      "_key": "!items.effects!mQeWRsFwBWENaVeD.UhozPblJ0Hv6mhCA"
    },
    {
      "_id": "8TDoOR0QqftWHvjK",
      "flags": {
        "onuse": true,
        "t20": null,
        "tormenta20": {
          "self": true,
          "attack": false,
          "skill": false,
          "ability": false,
          "power": false,
          "spell": false,
          "consumable": false,
          "aumenta": true,
          "custo": "2",
          "durationScene": false,
          "onuse": true
        }
      },
      "changes": [
        {
          "key": "alvo",
          "value": "1",
          "mode": 2,
          "priority": null
        }
      ],
      "disabled": true,
      "duration": {
        "startTime": null,
        "seconds": null,
        "combat": null,
        "rounds": null,
        "turns": null,
        "startRound": null,
        "startTurn": null
      },
      "icon": "icons/svg/aura.svg",
      "label": "aumenta o número de alvos em +1.",
      "origin": "Item.uQOZKckUmRrVHgIS",
      "tint": null,
      "transfer": false,
      "_key": "!items.effects!mQeWRsFwBWENaVeD.8TDoOR0QqftWHvjK"
    },
    {
      "_id": "9bY0f5WMRIYhgsiY",
      "flags": {
        "onuse": true,
        "t20": null,
        "tormenta20": {
          "self": true,
          "attack": false,
          "skill": false,
          "ability": false,
          "power": false,
          "spell": false,
          "consumable": false,
          "aumenta": false,
          "custo": "5",
          "durationScene": false,
          "onuse": true
        }
      },
      "changes": [
        {
          "key": "alvo",
          "value": "1 monstro ou espírito.",
          "mode": 5,
          "priority": null
        }
      ],
      "disabled": true,
      "duration": {
        "startTime": null,
        "seconds": null,
        "combat": null,
        "rounds": null,
        "turns": null,
        "startRound": null,
        "startTurn": null
      },
      "icon": "icons/svg/aura.svg",
      "label": "muda o alvo para 1 monstro ou espírito. Requer 3o círculo.",
      "origin": "Item.uQOZKckUmRrVHgIS",
      "tint": null,
      "transfer": false,
      "_key": "!items.effects!mQeWRsFwBWENaVeD.9bY0f5WMRIYhgsiY"
    },
    {
      "_id": "rruGYEasKqs9DiE9",
      "changes": [
        {
          "key": "system.pericias.ades.bonus",
          "mode": 2,
          "value": "10",
          "priority": null
        }
      ],
      "disabled": false,
      "duration": {
        "rounds": 99,
        "startTime": null,
        "seconds": null,
        "combat": null,
        "turns": null,
        "startRound": null,
        "startTurn": null
      },
      "icon": "systems/tormenta20/icons/magias/acalmar-animal.webp",
      "label": "Acalmar Animal (Bônus de +10)",
      "origin": "Item.p3Ytw7UhxzS0NWKX",
      "transfer": false,
      "flags": {
        "tormenta20": {
          "onuse": false,
          "durationScene": true
        }
      },
      "tint": null,
      "_key": "!items.effects!mQeWRsFwBWENaVeD.rruGYEasKqs9DiE9"
    },
    {
      "label": "Alvo Afetado",
      "icon": "systems/tormenta20/icons/magias/acalmar-animal.webp",
      "origin": "Item.mQeWRsFwBWENaVeD",
      "tint": "#FFFFFF",
      "flags": {
        "tormenta20": {
          "onuse": false,
          "durationScene": true
        }
      },
      "duration": {
        "rounds": 1,
        "startTime": null,
        "seconds": null,
        "combat": null,
        "turns": null,
        "startRound": null,
        "startTurn": null
      },
      "disabled": false,
      "_id": "xi1mZPM5ajwoVbY2",
      "changes": [],
      "transfer": false,
      "_key": "!items.effects!mQeWRsFwBWENaVeD.xi1mZPM5ajwoVbY2"
    }
  ],
  "folder": "rYuXjvRuDEXa7GNY",
  "sort": 0,
  "flags": {
    "core": {
      "sourceId": "Item.SLFkHSHeOfTdtfrF"
    },
    "cf": null
  },
  "system": {
    "description": {
      "value": "<p style=\"text-align: justify;\">O animal fica prestativo em rela&ccedil;&atilde;o a voc&ecirc;. Ele n&atilde;o fica sob seu controle, mas percebe suas palavras e a&ccedil;&otilde;es da maneira mais favor&aacute;vel poss&iacute;vel. Voc&ecirc; recebe +10 nos testes de Adestramento e Diplomacia que fizer contra o animal.</p>\n<p style=\"text-align: justify;\">Um alvo hostil ou que esteja envolvido em um combate recebe +5 em seu teste de resist&ecirc;ncia. Se voc&ecirc; ou seus aliados tomarem qualquer a&ccedil;&atilde;o hostil contra o alvo, a magia &eacute; dissipada e ele retorna &agrave; atitude que tinha antes (ou piorada, de acordo com o mestre). Se tratar bem o alvo, a atitude pode permanecer mesmo ap&oacute;s o t&eacute;rmino da magia.</p>",
      "chat": "",
      "unidentified": ""
    },
    "source": "T20, pg. 178 (JdA)",
    "ativacao": {
      "execucao": "action",
      "custo": 1,
      "qtd": "",
      "condicao": "",
      "special": ""
    },
    "duracao": {
      "value": 0,
      "units": "scene",
      "special": ""
    },
    "target": {
      "value": null,
      "width": null,
      "units": "",
      "type": ""
    },
    "range": {
      "value": null,
      "units": ""
    },
    "consume": {
      "type": "",
      "target": "",
      "amount": null,
      "mpMultiplier": false
    },
    "efeito": "",
    "alcance": "short",
    "alvo": "1 animal",
    "area": "",
    "resistencia": {
      "pericia": "",
      "atributo": "sab",
      "bonus": 0,
      "txt": "Vontade anula"
    },
    "rolls": [],
    "tipo": "div",
    "circulo": "1",
    "preparada": false,
    "escola": "enc",
    "chatFlavor": "",
    "origin": "",
    "tags": [],
    "chatGif": ""
  },
  "ownership": {
    "default": 0
  },
  "_stats": {
    "systemId": "tormenta20",
    "systemVersion": "1.4.116",
    "coreVersion": "11.298",
    "createdTime": 1664310462808,
    "modifiedTime": 1684622830660,
    "lastModifiedBy": "ZWR5Tn3AhSIFqwp6"
  },
  "_key": "!items!mQeWRsFwBWENaVeD"
}
