{
  "_id": "G918QZzj9ln4mpMn",
  "name": "Alterar Destino",
  "type": "magia",
  "img": "systems/tormenta20/icons/magias/alterar-destino.webp",
  "effects": [
    {
      "label": "Alterar Destino",
      "icon": "systems/tormenta20/icons/magias/alterar-destino.webp",
      "origin": "Item.G918QZzj9ln4mpMn",
      "tint": "#FFFFFF",
      "flags": {
        "tormenta20": {
          "onuse": true,
          "durationScene": false,
          "self": true,
          "attack": false,
          "skill": false,
          "ability": false,
          "power": false,
          "equipment": false,
          "spell": false,
          "consumable": false,
          "items": "",
          "aumenta": false,
          "custo": ""
        }
      },
      "duration": {
        "rounds": 1,
        "startTime": null,
        "seconds": null,
        "combat": null,
        "turns": null,
        "startRound": null,
        "startTurn": null
      },
      "disabled": true,
      "_id": "l770NqNV1HNzuwXB",
      "changes": [
        {
          "key": "system.pericias.fort.bonus",
          "mode": 2,
          "value": "10",
          "priority": 0
        },
        {
          "key": "system.pericias.refl.bonus",
          "mode": 2,
          "value": "10",
          "priority": 0
        },
        {
          "key": "system.pericias.vont.bonus",
          "mode": 2,
          "value": "10",
          "priority": 0
        }
      ],
      "transfer": false,
      "_key": "!items.effects!G918QZzj9ln4mpMn.l770NqNV1HNzuwXB"
    },
    {
      "label": "Alterar Destino",
      "icon": "systems/tormenta20/icons/magias/alterar-destino.webp",
      "origin": "Item.G918QZzj9ln4mpMn",
      "tint": "#FFFFFF",
      "flags": {
        "tormenta20": {
          "onuse": false,
          "durationScene": false
        }
      },
      "duration": {
        "rounds": 1,
        "startTime": null,
        "seconds": null,
        "combat": null,
        "turns": null,
        "startRound": null,
        "startTurn": null
      },
      "disabled": false,
      "_id": "9HWZmaknsooS766L",
      "changes": [
        {
          "key": "system.pericias.fort.bonus",
          "mode": 2,
          "value": "0",
          "priority": null
        },
        {
          "key": "system.pericias.refl.bonus",
          "mode": 2,
          "value": "0",
          "priority": null
        },
        {
          "key": "system.pericias.vont.bonus",
          "mode": 2,
          "value": "0",
          "priority": null
        }
      ],
      "transfer": true,
      "_key": "!items.effects!G918QZzj9ln4mpMn.9HWZmaknsooS766L"
    }
  ],
  "folder": "SfUO0nNPwnoFC3gT",
  "sort": 0,
  "flags": {
    "core": {
      "sourceId": "Item.JOpGmxRAQQ9w9UJ5"
    }
  },
  "system": {
    "description": {
      "value": "<p style=\"text-align: justify;\">Sua mente visualiza todas as possibilidades de um evento, permitindo a voc&ecirc; escolher o melhor curso de a&ccedil;&atilde;o. Voc&ecirc; pode rolar novamente um teste de resist&ecirc;ncia com um b&ocirc;nus de +10 ou um inimigo deve rolar novamente um ataque contra voc&ecirc; com uma penalidade de &ndash;10</p>",
      "chat": "",
      "unidentified": ""
    },
    "source": "T20, pg. 179 (JdA)",
    "ativacao": {
      "execucao": "reaction",
      "custo": 15,
      "qtd": "",
      "condicao": "",
      "special": ""
    },
    "duracao": {
      "value": 0,
      "units": "inst",
      "special": ""
    },
    "target": {
      "value": null,
      "width": null,
      "units": "",
      "type": ""
    },
    "range": {
      "value": null,
      "units": ""
    },
    "consume": {
      "type": "",
      "target": "",
      "amount": null,
      "mpMultiplier": false
    },
    "efeito": "",
    "alcance": "self",
    "alvo": "Você",
    "area": "",
    "resistencia": {
      "pericia": "",
      "atributo": "int",
      "bonus": 0,
      "txt": ""
    },
    "rolls": [],
    "tipo": "arc",
    "circulo": "5",
    "preparada": false,
    "escola": "abj",
    "chatFlavor": "",
    "origin": "",
    "tags": [],
    "chatGif": ""
  },
  "ownership": {
    "default": 0
  },
  "_stats": {
    "systemId": "tormenta20",
    "systemVersion": "1.4.116",
    "coreVersion": "11.298",
    "createdTime": 1664310461811,
    "modifiedTime": 1684622830660,
    "lastModifiedBy": "ZWR5Tn3AhSIFqwp6"
  },
  "_key": "!items!G918QZzj9ln4mpMn"
}
