{
  "_id": "oyIcPlsAaASUEJpT",
  "name": "Arma Espiritual",
  "type": "magia",
  "img": "systems/tormenta20/icons/magias/arma-espiritual.webp",
  "effects": [
    {
      "_id": "NE7A9gt5vGem326j",
      "flags": {
        "t20": null,
        "tormenta20": {
          "onuse": true,
          "self": true,
          "custo": "1",
          "attack": false,
          "skill": false,
          "ability": false,
          "power": false,
          "spell": false,
          "consumable": false,
          "aumenta": false,
          "durationScene": false,
          "items": "",
          "equipment": false
        }
      },
      "changes": [
        {
          "key": "system.attributes.defesa.bonus",
          "mode": 2,
          "value": "1",
          "priority": 0
        }
      ],
      "disabled": true,
      "duration": {
        "startTime": null,
        "seconds": null,
        "combat": null,
        "rounds": null,
        "turns": null,
        "startRound": null,
        "startTurn": null
      },
      "icon": "icons/svg/upgrade.svg",
      "label": "além do normal, a arma o protege. Você recebe +1 na Defesa.",
      "origin": "Item.TRX7bQoCQlkBofMm",
      "tint": null,
      "transfer": false,
      "_key": "!items.effects!oyIcPlsAaASUEJpT.NE7A9gt5vGem326j"
    },
    {
      "_id": "YOyqYFFJIde7GpRt",
      "flags": {
        "t20": null,
        "tormenta20": {
          "onuse": true,
          "self": true,
          "custo": "2",
          "attack": false,
          "skill": false,
          "ability": false,
          "power": false,
          "spell": false,
          "consumable": false,
          "aumenta": true,
          "durationScene": false
        }
      },
      "changes": [
        {
          "key": "system.attributes.defesa.bonus",
          "mode": 2,
          "value": "1",
          "priority": null
        }
      ],
      "disabled": true,
      "duration": {
        "startTime": null,
        "seconds": null,
        "combat": null,
        "rounds": null,
        "turns": null,
        "startRound": null,
        "startTurn": null
      },
      "icon": "icons/svg/upgrade.svg",
      "label": "aumenta o bônus na Defesa em +1.",
      "origin": "Item.TRX7bQoCQlkBofMm",
      "tint": null,
      "transfer": false,
      "_key": "!items.effects!oyIcPlsAaASUEJpT.YOyqYFFJIde7GpRt"
    },
    {
      "_id": "13m69ZFjBms7pxGq",
      "flags": {
        "t20": null,
        "tormenta20": {
          "onuse": true,
          "self": true,
          "custo": "2",
          "attack": false,
          "skill": false,
          "ability": false,
          "power": false,
          "spell": false,
          "consumable": false,
          "aumenta": false,
          "durationScene": false,
          "items": ""
        }
      },
      "changes": [
        {
          "key": "duracao",
          "mode": 5,
          "value": "sustentada",
          "priority": 0
        }
      ],
      "disabled": true,
      "duration": {
        "startTime": null,
        "seconds": null,
        "combat": null,
        "rounds": null,
        "turns": null,
        "startRound": null,
        "startTurn": null
      },
      "icon": "icons/svg/upgrade.svg",
      "label": "muda a duração para sustentada. Além do normal, uma vez por rodada, você pode gastar uma ação livre para fazer a arma acertar automaticamente um alvo adjacente. Se a arma atacar, não poderá contra-atacar até seu próximo turno. Requer 2o círculo.",
      "origin": "Item.TRX7bQoCQlkBofMm",
      "tint": null,
      "transfer": false,
      "_key": "!items.effects!oyIcPlsAaASUEJpT.13m69ZFjBms7pxGq"
    },
    {
      "_id": "5GTi8H6gTNQECJ2r",
      "flags": {
        "t20": null,
        "tormenta20": {
          "onuse": true,
          "self": true,
          "custo": "2"
        }
      },
      "changes": [],
      "disabled": true,
      "duration": {
        "startTime": null,
        "seconds": null,
        "combat": null,
        "rounds": null,
        "turns": null,
        "startRound": null,
        "startTurn": null
      },
      "icon": "icons/svg/upgrade.svg",
      "label": "muda o tipo do dano para essência. Requer 2o círculo.",
      "origin": "Item.TRX7bQoCQlkBofMm",
      "transfer": false,
      "tint": null,
      "_key": "!items.effects!oyIcPlsAaASUEJpT.5GTi8H6gTNQECJ2r"
    },
    {
      "_id": "y4ZDPyYeLnGbVG0d",
      "flags": {
        "t20": null,
        "tormenta20": {
          "onuse": true,
          "self": true,
          "custo": "5"
        }
      },
      "changes": [],
      "disabled": true,
      "duration": {
        "startTime": null,
        "seconds": null,
        "combat": null,
        "rounds": null,
        "turns": null,
        "startRound": null,
        "startTurn": null
      },
      "icon": "icons/svg/upgrade.svg",
      "label": "invoca duas armas, permitindo que você contra-ataque (ou ataque, se usar o aprimoramento acima) duas vezes por rodada. Requer 3o círculo.",
      "origin": "Item.TRX7bQoCQlkBofMm",
      "transfer": false,
      "tint": null,
      "_key": "!items.effects!oyIcPlsAaASUEJpT.y4ZDPyYeLnGbVG0d"
    },
    {
      "_id": "nPQrQvRyaiL8xq7M",
      "changes": [
        {
          "key": "system.attributes.defesa.bonus",
          "mode": 2,
          "value": "0",
          "priority": null
        }
      ],
      "disabled": false,
      "duration": {
        "rounds": 1,
        "startTime": null,
        "seconds": null,
        "combat": null,
        "turns": null,
        "startRound": null,
        "startTurn": null
      },
      "icon": "systems/tormenta20/icons/magias/arma-espiritual.webp",
      "label": "Arma Espiritual",
      "origin": "Item.2E85Xv836bjrcoLj",
      "transfer": false,
      "flags": {
        "tormenta20": {
          "onuse": false,
          "durationScene": true
        }
      },
      "tint": null,
      "_key": "!items.effects!oyIcPlsAaASUEJpT.nPQrQvRyaiL8xq7M"
    },
    {
      "label": "aumenta o dano causado pela arma em +1d6, limitado pelo círculo máximo de magia que você pode lançar.",
      "icon": "icons/svg/upgrade.svg",
      "origin": "Item.oyIcPlsAaASUEJpT",
      "tint": "#FFFFFF",
      "flags": {
        "tormenta20": {
          "onuse": true,
          "durationScene": false,
          "self": true,
          "attack": false,
          "skill": false,
          "ability": false,
          "power": false,
          "spell": false,
          "consumable": false,
          "items": "",
          "aumenta": true,
          "custo": "2"
        }
      },
      "duration": {
        "startTime": null,
        "seconds": null,
        "combat": null,
        "rounds": null,
        "turns": null,
        "startRound": null,
        "startTurn": null
      },
      "disabled": true,
      "_id": "y8eGxrNhKBgF4BW5",
      "changes": [],
      "transfer": false,
      "_key": "!items.effects!oyIcPlsAaASUEJpT.y8eGxrNhKBgF4BW5"
    }
  ],
  "folder": "UeqtCFS3KD27OAUk",
  "sort": 0,
  "flags": {
    "core": {
      "sourceId": "Item.eS7C2MlLC6iCAG5o"
    },
    "cf": null
  },
  "system": {
    "description": {
      "value": "<p style=\"text-align: justify;\">Voc&ecirc; invoca a arma preferida de sua divindade (se tiver uma), que surge flutuando a seu lado. Uma vez por rodada, quando voc&ecirc; sofre um ataque corpo a corpo, pode usar uma rea&ccedil;&atilde;o para que a arma cause automaticamente 2d6&nbsp;pontos de dano do tipo da arma &mdash; por exemplo, uma espada longa causa dano de corte &mdash; no oponente que fez o ataque. Esta magia se dissipa se voc&ecirc; morrer.</p>",
      "chat": "",
      "unidentified": ""
    },
    "source": "T20, pg. 180 (JdA)",
    "ativacao": {
      "execucao": "action",
      "custo": 1,
      "qtd": "",
      "condicao": "",
      "special": ""
    },
    "duracao": {
      "value": 0,
      "units": "scene",
      "special": ""
    },
    "target": {
      "value": null,
      "width": null,
      "units": "",
      "type": ""
    },
    "range": {
      "value": null,
      "units": ""
    },
    "consume": {
      "type": "",
      "target": "",
      "amount": null,
      "mpMultiplier": false
    },
    "efeito": "",
    "alcance": "self",
    "alvo": "Você",
    "area": "",
    "resistencia": {
      "pericia": "",
      "atributo": "sab",
      "bonus": 0,
      "txt": ""
    },
    "rolls": [
      {
        "name": "Dano",
        "key": "dano0",
        "type": "dano",
        "parts": [
          [
            "2d6",
            "corte",
            ""
          ]
        ],
        "versatil": ""
      }
    ],
    "tipo": "div",
    "circulo": "1",
    "preparada": false,
    "escola": "con",
    "chatFlavor": "",
    "origin": "",
    "tags": [],
    "chatGif": ""
  },
  "ownership": {
    "default": 0
  },
  "_stats": {
    "systemId": "tormenta20",
    "systemVersion": "1.4.116",
    "coreVersion": "11.298",
    "createdTime": 1664310462812,
    "modifiedTime": 1684622830660,
    "lastModifiedBy": "ZWR5Tn3AhSIFqwp6"
  },
  "_key": "!items!oyIcPlsAaASUEJpT"
}
