{
  "_id": "YDxLaaDhfXOkSfnF",
  "name": "Arma Mágica",
  "type": "magia",
  "img": "systems/tormenta20/icons/magias/arma-magica.webp",
  "effects": [
    {
      "_id": "CsxccmtGU6cmoFwn",
      "flags": {
        "t20": null,
        "tormenta20": {
          "onuse": true,
          "self": true,
          "custo": "2",
          "aumenta": true,
          "attack": false,
          "skill": false,
          "ability": false,
          "power": false,
          "spell": false,
          "consumable": false,
          "durationScene": false,
          "items": "",
          "equipment": false
        }
      },
      "changes": [
        {
          "key": "ataque",
          "mode": 2,
          "value": "1",
          "priority": 0
        },
        {
          "key": "dano&magico",
          "mode": 2,
          "value": "1",
          "priority": 0
        }
      ],
      "disabled": true,
      "duration": {
        "startTime": null,
        "seconds": null,
        "combat": null,
        "rounds": null,
        "turns": null,
        "startRound": null,
        "startTurn": null
      },
      "icon": "icons/svg/upgrade.svg",
      "label": "aumenta o bônus em +1 (bônus máximo limitado pelo círculo máximo de magia que você pode lançar).",
      "origin": "Item.N0VolSuZqafQ4qdh",
      "tint": null,
      "transfer": false,
      "_key": "!items.effects!YDxLaaDhfXOkSfnF.CsxccmtGU6cmoFwn"
    },
    {
      "_id": "2B720KAGoTazOT5e",
      "flags": {
        "t20": null,
        "tormenta20": {
          "onuse": true,
          "self": true,
          "custo": "2",
          "aumenta": false,
          "attack": false,
          "skill": false,
          "ability": false,
          "power": false,
          "spell": false,
          "consumable": false,
          "durationScene": false,
          "items": "",
          "equipment": false
        }
      },
      "changes": [
        {
          "key": "dano",
          "mode": 2,
          "value": "1d6",
          "priority": 0
        }
      ],
      "disabled": true,
      "duration": {
        "startTime": null,
        "seconds": null,
        "combat": null,
        "rounds": null,
        "turns": null,
        "startRound": null,
        "startTurn": null
      },
      "icon": "icons/svg/upgrade.svg",
      "label": "a arma passa a causar +1d6 de dano de ácido, eletricidade, fogo ou frio, escolhido no momento em que a magia é lançada. Este aprimoramento só pode ser usado uma vez.",
      "origin": "Item.N0VolSuZqafQ4qdh",
      "tint": null,
      "transfer": false,
      "_key": "!items.effects!YDxLaaDhfXOkSfnF.2B720KAGoTazOT5e"
    },
    {
      "label": "muda o bônus de dano do aprimoramento elemental para +2d6. (Custo do aprimoramento incluso)",
      "icon": "icons/svg/upgrade.svg",
      "origin": "Item.YDxLaaDhfXOkSfnF",
      "tint": "#FFFFFF",
      "flags": {
        "tormenta20": {
          "onuse": true,
          "durationScene": false,
          "self": true,
          "attack": false,
          "skill": false,
          "ability": false,
          "power": false,
          "equipment": false,
          "spell": false,
          "consumable": false,
          "items": "",
          "aumenta": false,
          "custo": "5"
        }
      },
      "duration": {
        "startTime": null,
        "seconds": null,
        "combat": null,
        "rounds": null,
        "turns": null,
        "startRound": null,
        "startTurn": null
      },
      "disabled": true,
      "_id": "RZOdJ2cuNeEPfdQ7",
      "changes": [
        {
          "key": "dano",
          "mode": 2,
          "value": "2d6",
          "priority": 0
        }
      ],
      "transfer": false,
      "_key": "!items.effects!YDxLaaDhfXOkSfnF.RZOdJ2cuNeEPfdQ7"
    },
    {
      "label": "Arma Mágica",
      "icon": "icons/svg/upgrade.svg",
      "origin": "Item.YDxLaaDhfXOkSfnF",
      "tint": "#FFFFFF",
      "flags": {
        "tormenta20": {
          "onuse": true,
          "durationScene": true,
          "self": false,
          "attack": true,
          "skill": false,
          "ability": false,
          "power": false,
          "equipment": false,
          "spell": false,
          "consumable": false,
          "items": "",
          "aumenta": false,
          "custo": "0"
        }
      },
      "duration": {
        "rounds": 99,
        "startTime": null,
        "seconds": null,
        "combat": null,
        "turns": null,
        "startRound": null,
        "startTurn": null
      },
      "disabled": false,
      "_id": "Mz54PvtVdDzg7kl3",
      "changes": [
        {
          "key": "ataque",
          "mode": 2,
          "value": "1",
          "priority": 0
        },
        {
          "key": "dano&magico",
          "mode": 2,
          "value": "1",
          "priority": 0
        },
        {
          "key": "?.items.arma",
          "mode": 0,
          "value": "items.name",
          "priority": 0
        }
      ],
      "transfer": false,
      "_key": "!items.effects!YDxLaaDhfXOkSfnF.Mz54PvtVdDzg7kl3"
    }
  ],
  "folder": "6ksljPhLT1OAcmt1",
  "sort": 0,
  "flags": {
    "core": {
      "sourceId": "Item.GHPogramaHOYtMYH"
    },
    "cf": null
  },
  "system": {
    "description": {
      "value": "<p style=\"text-align: justify;\">A arma fornece um b&ocirc;nus de +1 nos testes de ataque e rolagens de dano e &eacute; considerada m&aacute;gica (n&atilde;o cumulativo com b&ocirc;nus de encantos). Caso voc&ecirc; esteja empunhando a arma, pode usar seu atributo-chave de magias em vez do atributo original nos testes de ataque (n&atilde;o cumulativo com efeitos que somam este atributo).</p>",
      "chat": "",
      "unidentified": ""
    },
    "source": "T20, pg. 181 (JdA)",
    "ativacao": {
      "execucao": "action",
      "custo": 1,
      "qtd": "",
      "condicao": "",
      "special": ""
    },
    "duracao": {
      "value": 0,
      "units": "scene",
      "special": ""
    },
    "target": {
      "value": null,
      "width": null,
      "units": "",
      "type": ""
    },
    "range": {
      "value": null,
      "units": ""
    },
    "consume": {
      "type": "",
      "target": "",
      "amount": null,
      "mpMultiplier": false
    },
    "efeito": "",
    "alcance": "touch",
    "alvo": "1 arma empunhada",
    "area": "",
    "resistencia": {
      "pericia": "",
      "atributo": "sab",
      "bonus": 0,
      "txt": ""
    },
    "rolls": [],
    "tipo": "uni",
    "circulo": "1",
    "preparada": false,
    "escola": "tra",
    "chatFlavor": "",
    "origin": "",
    "tags": [],
    "chatGif": ""
  },
  "ownership": {
    "default": 0
  },
  "_stats": {
    "systemId": "tormenta20",
    "systemVersion": "1.4.116",
    "coreVersion": "11.298",
    "createdTime": 1664310462760,
    "modifiedTime": 1684622830660,
    "lastModifiedBy": "ZWR5Tn3AhSIFqwp6"
  },
  "_key": "!items!YDxLaaDhfXOkSfnF"
}
