{
  "_id": "kTzPm7Dy3UqZNli8",
  "name": "Aviso",
  "type": "magia",
  "img": "systems/tormenta20/icons/magias/aviso.webp",
  "effects": [
    {
      "_id": "Yhot21vYrR3vKU8d",
      "flags": {
        "t20": null,
        "tormenta20": {
          "onuse": true,
          "self": true,
          "custo": "1",
          "aumenta": true,
          "attack": false,
          "skill": false,
          "ability": false,
          "power": false,
          "spell": false,
          "consumable": false,
          "durationScene": false
        }
      },
      "changes": [],
      "disabled": true,
      "duration": {
        "startTime": null,
        "seconds": null,
        "combat": null,
        "rounds": null,
        "turns": null,
        "startRound": null,
        "startTurn": null
      },
      "icon": "icons/svg/upgrade.svg",
      "label": "aumenta o alcance em um fator de 10 (90m para 900m, 900m para 9km e assim por diante).",
      "origin": "Item.NAiIhVt6LzQAd6JB",
      "tint": null,
      "transfer": false,
      "_key": "!items.effects!kTzPm7Dy3UqZNli8.Yhot21vYrR3vKU8d"
    },
    {
      "_id": "Fa13IV0BmrO2Rpcn",
      "flags": {
        "t20": null,
        "tormenta20": {
          "onuse": true,
          "self": true,
          "custo": "1",
          "aumenta": false
        }
      },
      "changes": [],
      "disabled": true,
      "duration": {
        "startTime": null,
        "seconds": null,
        "combat": null,
        "rounds": null,
        "turns": null,
        "startRound": null,
        "startTurn": null
      },
      "icon": "icons/svg/upgrade.svg",
      "label": "se escolher mensagem, o alvo pode enviar uma resposta de até 25 palavras para você até o fim de seu próximo turno.",
      "origin": "Item.NAiIhVt6LzQAd6JB",
      "transfer": false,
      "tint": null,
      "_key": "!items.effects!kTzPm7Dy3UqZNli8.Fa13IV0BmrO2Rpcn"
    },
    {
      "_id": "ocrf6jCRuVl2F5Uc",
      "flags": {
        "t20": null,
        "tormenta20": {
          "onuse": true,
          "self": true,
          "custo": "2",
          "aumenta": false,
          "attack": false,
          "skill": false,
          "ability": false,
          "power": false,
          "spell": false,
          "consumable": false,
          "durationScene": false
        }
      },
      "changes": [
        {
          "key": "duracao",
          "value": "Cena",
          "mode": 5,
          "priority": null
        }
      ],
      "disabled": true,
      "duration": {
        "startTime": null,
        "seconds": null,
        "combat": null,
        "rounds": null,
        "turns": null,
        "startRound": null,
        "startTurn": null
      },
      "icon": "icons/svg/upgrade.svg",
      "label": "se escolher localização, muda a duração para cena. O alvo sabe onde você está mesmo que você mude de posição.",
      "origin": "Item.NAiIhVt6LzQAd6JB",
      "tint": null,
      "transfer": false,
      "_key": "!items.effects!kTzPm7Dy3UqZNli8.ocrf6jCRuVl2F5Uc"
    },
    {
      "_id": "3yk8ibptmBzFMghM",
      "flags": {
        "t20": null,
        "tormenta20": {
          "onuse": true,
          "self": true,
          "custo": "3",
          "aumenta": true,
          "attack": false,
          "skill": false,
          "ability": false,
          "power": false,
          "spell": false,
          "consumable": false,
          "durationScene": false
        }
      },
      "changes": [],
      "disabled": true,
      "duration": {
        "startTime": null,
        "seconds": null,
        "combat": null,
        "rounds": null,
        "turns": null,
        "startRound": null,
        "startTurn": null
      },
      "icon": "icons/svg/upgrade.svg",
      "label": "aumenta o número de alvos em +1.",
      "origin": "Item.NAiIhVt6LzQAd6JB",
      "tint": null,
      "transfer": false,
      "_key": "!items.effects!kTzPm7Dy3UqZNli8.3yk8ibptmBzFMghM"
    },
    {
      "_id": "zrrOQECVSy8RNTlj",
      "changes": [
        {
          "key": "system.pericias.perc.bonus",
          "mode": 2,
          "value": "5",
          "priority": null
        },
        {
          "key": "system.pericias.inic.bonus",
          "mode": 2,
          "value": "5",
          "priority": null
        }
      ],
      "disabled": false,
      "duration": {
        "rounds": 999,
        "startTime": null,
        "seconds": null,
        "combat": null,
        "turns": null,
        "startRound": null,
        "startTurn": null
      },
      "icon": "systems/tormenta20/icons/magias/aviso.webp",
      "label": "Aviso (Alerta)",
      "origin": "Item.lH4bKSnFbZQ7hJ2J",
      "transfer": false,
      "flags": {
        "tormenta20": {
          "onuse": false,
          "durationScene": true
        }
      },
      "tint": null,
      "_key": "!items.effects!kTzPm7Dy3UqZNli8.zrrOQECVSy8RNTlj"
    }
  ],
  "folder": "OhlDY7Kb0SwIJ11P",
  "sort": 0,
  "flags": {
    "core": {
      "sourceId": "Item.IR4HtftvUdp76xAc"
    },
    "cf": null
  },
  "system": {
    "description": {
      "value": "<p>Envia um aviso telep&aacute;tico para uma criatura, mesmo que n&atilde;o possa v&ecirc;-la nem tenha linha de efeito.</p>\n<p>Escolha um:</p>\n<p>Alerta: o alvo recebe +5 em seu pr&oacute;ximo teste de Iniciativa e de Percep&ccedil;&atilde;o dentro da cena.</p>\n<p>Mensagem: o alvo recebe uma mensagem sua de at&eacute; 25 palavras. Voc&ecirc;s devem ter um idioma em comum para o alvo poder entend&ecirc;-lo.</p>\n<p>Localiza&ccedil;&atilde;o: o alvo sabe onde voc&ecirc; est&aacute; naquele momento. Se voc&ecirc; mudar de posi&ccedil;&atilde;o, ele n&atilde;o saber&aacute;.</p>",
      "chat": "",
      "unidentified": ""
    },
    "source": "T20, pg. 182 (JdA)",
    "ativacao": {
      "execucao": "move",
      "custo": 1,
      "qtd": "",
      "condicao": "",
      "special": ""
    },
    "duracao": {
      "value": 0,
      "units": "inst",
      "special": ""
    },
    "target": {
      "value": null,
      "width": null,
      "units": "",
      "type": ""
    },
    "range": {
      "value": null,
      "units": ""
    },
    "consume": {
      "type": "",
      "target": "",
      "amount": null,
      "mpMultiplier": false
    },
    "efeito": "",
    "alcance": "long",
    "alvo": "1 criatura",
    "area": "",
    "resistencia": {
      "pericia": "",
      "atributo": "sab",
      "bonus": 0,
      "txt": ""
    },
    "rolls": [],
    "tipo": "uni",
    "circulo": "1",
    "preparada": false,
    "escola": "adv",
    "chatFlavor": "",
    "origin": "",
    "tags": [],
    "chatGif": ""
  },
  "ownership": {
    "default": 0
  },
  "_stats": {
    "systemId": "tormenta20",
    "systemVersion": "1.4.116",
    "coreVersion": "11.298",
    "createdTime": 1664310462796,
    "modifiedTime": 1684622830660,
    "lastModifiedBy": "ZWR5Tn3AhSIFqwp6"
  },
  "_key": "!items!kTzPm7Dy3UqZNli8"
}
