{
  "_id": "s6QK5uGb7SBlVXMp",
  "name": "Barragem Elemental",
  "type": "magia",
  "img": "systems/tormenta20/icons/magias/barragem-elemental.webp",
  "effects": [
    {
      "_id": "fymYz7rNSFuVXYmd",
      "flags": {
        "t20": null,
        "tormenta20": {
          "onuse": true,
          "self": true,
          "custo": "5",
          "aumenta": true,
          "attack": false,
          "skill": false,
          "ability": false,
          "power": false,
          "spell": false,
          "consumable": false,
          "durationScene": false,
          "equipment": false,
          "items": ""
        }
      },
      "changes": [
        {
          "key": "dano:acido",
          "mode": 0,
          "value": "2d6",
          "priority": 0
        },
        {
          "key": "dano:eletricidade",
          "mode": 0,
          "value": "2d6",
          "priority": 0
        },
        {
          "key": "dano:fogo",
          "mode": 0,
          "value": "2d6",
          "priority": 0
        },
        {
          "key": "dano:frio",
          "mode": 0,
          "value": "2d6",
          "priority": 0
        }
      ],
      "disabled": true,
      "duration": {
        "startTime": null,
        "seconds": null,
        "combat": null,
        "rounds": null,
        "turns": null,
        "startRound": null,
        "startTurn": null
      },
      "icon": "icons/svg/upgrade.svg",
      "label": "aumenta o dano de cada esfera em +2d6.",
      "origin": "Compendium.tormenta20.magias.s6QK5uGb7SBlVXMp",
      "transfer": false,
      "tint": null,
      "_key": "!items.effects!s6QK5uGb7SBlVXMp.fymYz7rNSFuVXYmd"
    },
    {
      "_id": "MzegepIlmQDbaq82",
      "flags": {
        "t20": null,
        "tormenta20": {
          "onuse": true,
          "self": true,
          "custo": "5",
          "aumenta": false
        }
      },
      "changes": [],
      "disabled": true,
      "duration": {
        "startTime": null,
        "seconds": null,
        "combat": null,
        "rounds": null,
        "turns": null,
        "startRound": null,
        "startTurn": null
      },
      "icon": "icons/svg/upgrade.svg",
      "label": "muda o tipo de dano de todas as esferas para essência (mas elas ainda causam os outros efeitos como se seu tipo de dano não mudasse).",
      "origin": "Compendium.tormenta20.magias.s6QK5uGb7SBlVXMp",
      "transfer": false,
      "tint": null,
      "_key": "!items.effects!s6QK5uGb7SBlVXMp.MzegepIlmQDbaq82"
    }
  ],
  "folder": "S9r2zpzj6Mm6KnQl",
  "sort": 0,
  "flags": {
    "core": {
      "sourceId": "Item.BautUansTRJLLIo1"
    }
  },
  "system": {
    "description": {
      "value": "<p style=\"text-align: justify;\">Criada por um arquimago, esta magia produz quatro esferas elementais (&aacute;cido, eletricidade, fogo e frio) que voam at&eacute; um ponto a sua escolha. Quando atingem o ponto escolhido, explodem causando 6d6 pontos de dano&nbsp; do seu respectivo tipo numa &aacute;rea com 12m de raio. Um teste de Reflexos reduz o dano &agrave; metade. Voc&ecirc; pode mirar cada esfera em uma criatura ou ponto diferente. Uma criatura ao alcance da explos&atilde;o de mais de uma esfera deve fazer um teste de resist&ecirc;ncia para cada uma. Al&eacute;m disso, as esferas causam os seguintes efeitos em criaturas que falharem em seus respectivos testes de resist&ecirc;ncia:</p>\n<p style=\"text-align: justify;\">&bull; <em>&Aacute;cido:</em> <a class=\"content-link\" draggable=\"true\" data-uuid=\"JournalEntry.s15J5SOYixL3Ajzr.JournalEntryPage.iGWU5WVm57STW7am\" data-id=\"iGWU5WVm57STW7am\" data-type=\"JournalEntryPage\" data-tooltip=\"Text Page\">Vulner&aacute;vel</a> at&eacute; o fim da cena.</p>\n<p style=\"text-align: justify;\">&bull; <em>El&eacute;trica:</em> <a class=\"content-link\" draggable=\"true\" data-uuid=\"JournalEntry.s15J5SOYixL3Ajzr.JournalEntryPage.bD6XAyHQrWYr0BTQ\" data-id=\"bD6XAyHQrWYr0BTQ\" data-type=\"JournalEntryPage\" data-tooltip=\"Text Page\">Atordoado</a> por uma rodada. (apenas uma vez por cena).</p>\n<p style=\"text-align: justify;\">&bull; <em>Fogo: <a class=\"content-link\" draggable=\"true\" data-uuid=\"JournalEntry.s15J5SOYixL3Ajzr.JournalEntryPage.2M8CXrGavdU6g1ZI\" data-id=\"2M8CXrGavdU6g1ZI\" data-type=\"JournalEntryPage\" data-tooltip=\"Text Page\">Em Chamas</a></em>.</p>\n<p style=\"text-align: justify;\">&bull; <em>Frio: @UUID[JournalEntry.s15J5SOYixL3Ajzr.JournalEntryPage.e8JmqkgvL3H26vbi]{Lento}</em>at&eacute; o fim da cena.</p>",
      "chat": "",
      "unidentified": ""
    },
    "source": "T20, pg. 182 (JdA)",
    "ativacao": {
      "execucao": "action",
      "custo": 15,
      "qtd": "",
      "condicao": "",
      "special": ""
    },
    "duracao": {
      "value": 0,
      "units": "inst",
      "special": ""
    },
    "target": {
      "value": null,
      "width": null,
      "units": "",
      "type": ""
    },
    "range": {
      "value": null,
      "units": ""
    },
    "consume": {
      "type": "",
      "target": "",
      "amount": null,
      "mpMultiplier": false
    },
    "efeito": "4 esferas elementais",
    "alcance": "long",
    "alvo": "",
    "area": "",
    "resistencia": {
      "pericia": "",
      "atributo": "int",
      "bonus": 0,
      "txt": "Reflexos parcial"
    },
    "rolls": [
      {
        "name": "Ácido",
        "key": "dano0",
        "type": "dano",
        "parts": [
          [
            "6d6",
            "acido",
            ""
          ],
          [
            "6d6",
            "eletricidade",
            ""
          ],
          [
            "6d6",
            "fogo",
            ""
          ],
          [
            "6d6",
            "frio",
            ""
          ]
        ],
        "versatil": ""
      }
    ],
    "tipo": "arc",
    "circulo": "5",
    "preparada": false,
    "escola": "evo",
    "chatFlavor": "",
    "origin": "",
    "tags": [],
    "chatGif": ""
  },
  "ownership": {
    "default": 0
  },
  "_stats": {
    "systemId": "tormenta20",
    "systemVersion": "1.4.116",
    "coreVersion": "11.298",
    "createdTime": 1664310462817,
    "modifiedTime": 1684622830660,
    "lastModifiedBy": "ZWR5Tn3AhSIFqwp6"
  },
  "_key": "!items!s6QK5uGb7SBlVXMp"
}
