{
  "_id": "Rf5JM994mdEuYBMS",
  "name": "Círculo da Justiça",
  "type": "magia",
  "img": "systems/tormenta20/icons/magias/circulo-da-justica.webp",
  "effects": [
    {
      "_id": "K7v6Zb57lbm1FYwo",
      "flags": {
        "t20": null,
        "tormenta20": {
          "onuse": true,
          "self": true,
          "custo": "1",
          "aumenta": false
        }
      },
      "changes": [
        {
          "key": "execucao",
          "value": "Padrão",
          "mode": 5,
          "priority": null
        },
        {
          "key": "alcance",
          "value": "pessoal",
          "mode": 5,
          "priority": null
        },
        {
          "key": "alvo",
          "value": "você",
          "mode": 5,
          "priority": null
        },
        {
          "key": "duracao",
          "value": "Cena",
          "mode": 5,
          "priority": null
        },
        {
          "key": "resistencia",
          "value": "nenhuma",
          "mode": 5,
          "priority": null
        }
      ],
      "disabled": true,
      "duration": {
        "startTime": null,
        "seconds": null,
        "combat": null,
        "rounds": null,
        "turns": null,
        "startRound": null,
        "startTurn": null
      },
      "icon": "icons/svg/upgrade.svg",
      "label": "muda a execução para ação padrão, o alcance para pessoal, o alvo para você, a duração para cena e a resistência para nenhuma. Em vez do normal, qualquer criatura ou objeto invisível em alcance curto se torna visível. Isso não dissipa o efeito mágico; se sair do seu alcance, a criatura ou objeto voltam a ficar invisíveis.",
      "origin": "Compendium.tormenta20.magias.Rf5JM994mdEuYBMS",
      "transfer": false,
      "tint": null,
      "_key": "!items.effects!Rf5JM994mdEuYBMS.K7v6Zb57lbm1FYwo"
    },
    {
      "_id": "upmsgufg5QeMPila",
      "changes": [
        {
          "key": "system.pericias.acro.bonus",
          "mode": 2,
          "value": "-10",
          "priority": null
        },
        {
          "key": "system.pericias.enga.bonus",
          "mode": 2,
          "value": "-10",
          "priority": null
        },
        {
          "key": "system.pericias.furt.bonus",
          "mode": 2,
          "value": "-10",
          "priority": null
        },
        {
          "key": "system.pericias.ladi.bonus",
          "mode": 2,
          "value": "-10",
          "priority": null
        }
      ],
      "disabled": false,
      "duration": {
        "rounds": 1,
        "startTime": null,
        "seconds": null,
        "combat": null,
        "turns": null,
        "startRound": null,
        "startTurn": null
      },
      "icon": "systems/tormenta20/icons/magias/circulo-da-justica.webp",
      "label": "Círculo da Justiça (Penalidade)",
      "origin": "Item.x7v8U3hByjtwgaVC",
      "transfer": false,
      "flags": {
        "tormenta20": {
          "onuse": false,
          "durationScene": true
        }
      },
      "tint": null,
      "_key": "!items.effects!Rf5JM994mdEuYBMS.upmsgufg5QeMPila"
    },
    {
      "_id": "ebwqxg2dc1uXhHXc",
      "changes": [
        {
          "key": "system.pericias.acro.bonus",
          "mode": 2,
          "value": "-5",
          "priority": null
        },
        {
          "key": "system.pericias.enga.bonus",
          "mode": 2,
          "value": "-5",
          "priority": null
        },
        {
          "key": "system.pericias.furt.bonus",
          "mode": 2,
          "value": "-5",
          "priority": null
        },
        {
          "key": "system.pericias.ladi.bonus",
          "mode": 2,
          "value": "-5",
          "priority": null
        }
      ],
      "disabled": false,
      "duration": {
        "rounds": 1,
        "startTime": null,
        "seconds": null,
        "combat": null,
        "turns": null,
        "startRound": null,
        "startTurn": null
      },
      "icon": "systems/tormenta20/icons/magias/circulo-da-justica.webp",
      "label": "Círculo da Justiça (Penalidade Parcial)",
      "origin": "Item.x7v8U3hByjtwgaVC",
      "transfer": false,
      "flags": {
        "tormenta20": {
          "onuse": false,
          "durationScene": true
        }
      },
      "tint": null,
      "_key": "!items.effects!Rf5JM994mdEuYBMS.ebwqxg2dc1uXhHXc"
    },
    {
      "_id": "nVcX9n0PDQn7Qk6z",
      "changes": [
        {
          "key": "system.pericias.acro.bonus",
          "mode": 2,
          "value": "-10",
          "priority": null
        },
        {
          "key": "system.pericias.enga.bonus",
          "mode": 2,
          "value": "-10",
          "priority": null
        },
        {
          "key": "system.pericias.furt.bonus",
          "mode": 2,
          "value": "-10",
          "priority": null
        },
        {
          "key": "system.pericias.ladi.bonus",
          "mode": 2,
          "value": "-10",
          "priority": null
        }
      ],
      "disabled": false,
      "duration": {
        "rounds": 1,
        "startTime": null,
        "seconds": null,
        "combat": null,
        "turns": null,
        "startRound": null,
        "startTurn": null
      },
      "icon": "systems/tormenta20/icons/magias/circulo-da-justica.webp",
      "label": "Círculo da Justiça (Penalidade Parcial Aprimorada)",
      "origin": "Item.x7v8U3hByjtwgaVC",
      "transfer": false,
      "flags": {
        "tormenta20": {
          "onuse": false,
          "durationScene": true
        }
      },
      "tint": null,
      "_key": "!items.effects!Rf5JM994mdEuYBMS.nVcX9n0PDQn7Qk6z"
    },
    {
      "_id": "AQGlJJFaH2TvCjtv",
      "changes": [],
      "disabled": true,
      "duration": {
        "startTime": null,
        "seconds": null,
        "combat": null,
        "rounds": null,
        "turns": null,
        "startRound": null,
        "startTurn": null
      },
      "icon": "icons/svg/upgrade.svg",
      "label": "muda a penalidade nas perícias para –10 (se passar na resistência) e –20 (se falhar). Requer 4º círculo.",
      "origin": "Item.x7v8U3hByjtwgaVC",
      "transfer": false,
      "flags": {
        "tormenta20": {
          "onuse": true,
          "self": true,
          "attack": false,
          "skill": false,
          "ability": false,
          "power": false,
          "spell": false,
          "consumable": false,
          "aumenta": false,
          "custo": "3",
          "durationScene": false
        }
      },
      "tint": null,
      "_key": "!items.effects!Rf5JM994mdEuYBMS.AQGlJJFaH2TvCjtv"
    },
    {
      "_id": "eAS6FbcvG6ZdwJNl",
      "changes": [],
      "disabled": true,
      "duration": {
        "startTime": null,
        "seconds": null,
        "combat": null,
        "rounds": null,
        "turns": null,
        "startRound": null,
        "startTurn": null
      },
      "icon": "icons/svg/upgrade.svg",
      "label": "muda a duração para permanente e adiciona componente material (balança de prata no valor de T$ 5.000).",
      "origin": "Item.x7v8U3hByjtwgaVC",
      "transfer": false,
      "flags": {
        "tormenta20": {
          "onuse": true,
          "self": true,
          "attack": false,
          "skill": false,
          "ability": false,
          "power": false,
          "spell": false,
          "consumable": false,
          "aumenta": false,
          "custo": "7",
          "durationScene": false
        }
      },
      "tint": null,
      "_key": "!items.effects!Rf5JM994mdEuYBMS.eAS6FbcvG6ZdwJNl"
    },
    {
      "_id": "d6FPubGl9QLSV5Uo",
      "changes": [
        {
          "key": "system.pericias.acro.bonus",
          "mode": 2,
          "value": "-20",
          "priority": null
        },
        {
          "key": "system.pericias.enga.bonus",
          "mode": 2,
          "value": "-20",
          "priority": null
        },
        {
          "key": "system.pericias.furt.bonus",
          "mode": 2,
          "value": "-20",
          "priority": null
        },
        {
          "key": "system.pericias.ladi.bonus",
          "mode": 2,
          "value": "-20",
          "priority": null
        }
      ],
      "disabled": false,
      "duration": {
        "rounds": 1,
        "startTime": null,
        "seconds": null,
        "combat": null,
        "turns": null,
        "startRound": null,
        "startTurn": null
      },
      "icon": "systems/tormenta20/icons/magias/circulo-da-justica.webp",
      "label": "Círculo da Justiça (Penalidade Aprimorada)",
      "origin": "Item.x7v8U3hByjtwgaVC",
      "transfer": false,
      "flags": {
        "tormenta20": {
          "onuse": false,
          "durationScene": true
        }
      },
      "tint": null,
      "_key": "!items.effects!Rf5JM994mdEuYBMS.d6FPubGl9QLSV5Uo"
    }
  ],
  "folder": "C87MrWNlRCw1rLAT",
  "sort": 0,
  "flags": {
    "core": {
      "sourceId": "Item.DOo3let6a3YC5K5f"
    }
  },
  "system": {
    "description": {
      "value": "<p style=\"text-align: justify;\">Tamb&eacute;m conhecida como <em>L&aacute;grimas do Deus da Trapa&ccedil;a</em>, esta magia &eacute; usada em tribunais e para proteger &aacute;reas sens&iacute;veis. Criaturas na &aacute;rea sofrem &ndash;10 em testes de Acrobacia, Engana&ccedil;&atilde;o, Furtividade e Ladinagem e n&atilde;o podem mentir deliberadamente &mdash; mas podem tentar evitar perguntas que normalmente responderiam com uma mentira (sendo evasivas ou cometendo omiss&otilde;es, por exemplo). Uma criatura que passe na resist&ecirc;ncia tem as penalidades reduzidas para &ndash;5 e pode mentir.</p>",
      "chat": "",
      "unidentified": ""
    },
    "source": "T20, pg. 183 (JdA)",
    "ativacao": {
      "execucao": "full",
      "custo": 3,
      "qtd": "",
      "condicao": "",
      "special": ""
    },
    "duracao": {
      "value": 1,
      "units": "day",
      "special": ""
    },
    "target": {
      "value": null,
      "width": null,
      "units": "",
      "type": ""
    },
    "range": {
      "value": null,
      "units": ""
    },
    "consume": {
      "type": "",
      "target": "",
      "amount": null,
      "mpMultiplier": false
    },
    "efeito": "",
    "alcance": "short",
    "alvo": "",
    "area": "cubo com 9m de lado;",
    "resistencia": {
      "pericia": "",
      "atributo": "sab",
      "bonus": 0,
      "txt": "Vontade parcial"
    },
    "rolls": [],
    "tipo": "div",
    "circulo": "2",
    "preparada": false,
    "escola": "abj",
    "chatFlavor": "",
    "origin": "",
    "tags": [],
    "chatGif": ""
  },
  "ownership": {
    "default": 0
  },
  "_stats": {
    "systemId": "tormenta20",
    "systemVersion": "1.4.116",
    "coreVersion": "11.298",
    "createdTime": 1664310461910,
    "modifiedTime": 1684622830660,
    "lastModifiedBy": "ZWR5Tn3AhSIFqwp6"
  },
  "_key": "!items!Rf5JM994mdEuYBMS"
}
