{
  "_id": "8F0FVSRN1dAIrTwj",
  "name": "Caminhos da Natureza",
  "type": "magia",
  "img": "systems/tormenta20/icons/magias/caminhos-da-natureza.webp",
  "effects": [
    {
      "_id": "d4lsVBX7UR2N2EwM",
      "flags": {
        "t20": null,
        "tormenta20": {
          "onuse": true,
          "self": true,
          "custo": "",
          "aumenta": false
        }
      },
      "changes": [
        {
          "key": "alcance",
          "value": "pessoal",
          "mode": 5,
          "priority": null
        },
        {
          "key": "alvo",
          "value": "você",
          "mode": 5,
          "priority": null
        }
      ],
      "disabled": true,
      "duration": {
        "startTime": null,
        "seconds": null,
        "combat": null,
        "rounds": null,
        "turns": null,
        "startRound": null,
        "startTurn": null
      },
      "icon": "icons/svg/upgrade.svg",
      "label": "muda o alcance para pessoal e o alvo para você. Em vez do normal, você sabe onde fica o norte e recebe +5 em testes de Sobrevivência para se orientar.",
      "origin": "Compendium.tormenta20.magias.8F0FVSRN1dAIrTwj",
      "transfer": false,
      "tint": null,
      "_key": "!items.effects!8F0FVSRN1dAIrTwj.d4lsVBX7UR2N2EwM"
    },
    {
      "_id": "rHkbtx8EX7uV2xre",
      "flags": {
        "t20": null,
        "tormenta20": {
          "onuse": true,
          "self": true,
          "custo": "1",
          "aumenta": false
        }
      },
      "changes": [],
      "disabled": true,
      "duration": {
        "startTime": null,
        "seconds": null,
        "combat": null,
        "rounds": null,
        "turns": null,
        "startRound": null,
        "startTurn": null
      },
      "icon": "icons/svg/upgrade.svg",
      "label": "além do normal, a CD para rastrear os alvos em terreno natural aumenta em +10.",
      "origin": "Compendium.tormenta20.magias.8F0FVSRN1dAIrTwj",
      "transfer": false,
      "tint": null,
      "_key": "!items.effects!8F0FVSRN1dAIrTwj.rHkbtx8EX7uV2xre"
    },
    {
      "_id": "b0Nb7JycFEEJSMBh",
      "flags": {
        "t20": null,
        "tormenta20": {
          "onuse": true,
          "self": true,
          "custo": "2",
          "aumenta": true,
          "attack": false,
          "skill": false,
          "ability": false,
          "power": false,
          "spell": false,
          "consumable": false,
          "durationScene": false
        }
      },
      "changes": [
        {
          "key": "system.attributes.movement.walk",
          "mode": 2,
          "value": "3",
          "priority": null
        },
        {
          "key": "system.attributes.movement.swim",
          "mode": 2,
          "value": "3",
          "priority": null
        },
        {
          "key": "system.attributes.movement.dig",
          "mode": 2,
          "value": "3",
          "priority": null
        },
        {
          "key": "system.attributes.movement.climb",
          "mode": 2,
          "value": "3",
          "priority": null
        },
        {
          "key": "system.attributes.movement.fly",
          "mode": 2,
          "value": "3",
          "priority": null
        }
      ],
      "disabled": true,
      "duration": {
        "startTime": null,
        "seconds": null,
        "combat": null,
        "rounds": null,
        "turns": null,
        "startRound": null,
        "startTurn": null
      },
      "icon": "icons/svg/upgrade.svg",
      "label": "aumenta o bônus de deslocamento em +3m.",
      "origin": "Compendium.tormenta20.magias.8F0FVSRN1dAIrTwj",
      "transfer": false,
      "tint": null,
      "_key": "!items.effects!8F0FVSRN1dAIrTwj.b0Nb7JycFEEJSMBh"
    },
    {
      "_id": "WBbIZh4nMSf8VPRa",
      "changes": [
        {
          "key": "system.attributes.movement.walk",
          "mode": 2,
          "value": "3",
          "priority": null
        },
        {
          "key": "system.attributes.movement.swim",
          "mode": 2,
          "value": "3",
          "priority": null
        },
        {
          "key": "system.attributes.movement.dig",
          "mode": 2,
          "value": "3",
          "priority": null
        },
        {
          "key": "system.attributes.movement.climb",
          "mode": 2,
          "value": "3",
          "priority": null
        },
        {
          "key": "system.attributes.movement.fly",
          "mode": 2,
          "value": "3",
          "priority": null
        }
      ],
      "disabled": false,
      "duration": {
        "rounds": 1,
        "startTime": null,
        "seconds": null,
        "combat": null,
        "turns": null,
        "startRound": null,
        "startTurn": null
      },
      "icon": "systems/tormenta20/icons/magias/caminhos-da-natureza.webp",
      "label": "Caminhos da Natureza",
      "origin": "Item.Q520TTfKWf7eqDkX",
      "transfer": false,
      "flags": {
        "tormenta20": {
          "onuse": false,
          "durationScene": true
        }
      },
      "tint": null,
      "_key": "!items.effects!8F0FVSRN1dAIrTwj.WBbIZh4nMSf8VPRa"
    },
    {
      "_id": "EUzBiW7MQ7HfFtZV",
      "changes": [
        {
          "key": "system.pericias.sobr.bonus",
          "mode": 2,
          "value": "5",
          "priority": null
        }
      ],
      "disabled": false,
      "duration": {
        "rounds": 1,
        "startTime": null,
        "seconds": null,
        "combat": null,
        "turns": null,
        "startRound": null,
        "startTurn": null
      },
      "icon": "systems/tormenta20/icons/magias/caminhos-da-natureza.webp",
      "label": "Caminhos da Natureza (Truque)",
      "origin": "Item.Q520TTfKWf7eqDkX",
      "transfer": false,
      "flags": {
        "tormenta20": {
          "onuse": false,
          "durationScene": true
        }
      },
      "tint": null,
      "_key": "!items.effects!8F0FVSRN1dAIrTwj.EUzBiW7MQ7HfFtZV"
    }
  ],
  "folder": "UeqtCFS3KD27OAUk",
  "sort": 0,
  "flags": {
    "core": {
      "sourceId": "Item.6XS1N42jHEOtm0rd"
    }
  },
  "system": {
    "description": {
      "value": "<p style=\"text-align:justify;\">Você invoca espíritos da natureza, pedindo que eles abram seu caminho. As criaturas afetadas recebem deslocamento +3m e ignoram penalidades por terreno difícil em terrenos naturais.</p>",
      "chat": "",
      "unidentified": ""
    },
    "source": "T20, pg. 183 (JdA)",
    "ativacao": {
      "execucao": "action",
      "custo": 1,
      "qtd": "",
      "condicao": "",
      "special": ""
    },
    "duracao": {
      "value": 1,
      "units": "day",
      "special": ""
    },
    "target": {
      "value": null,
      "width": null,
      "units": "",
      "type": ""
    },
    "range": {
      "value": null,
      "units": ""
    },
    "consume": {
      "type": "",
      "target": "",
      "amount": null,
      "mpMultiplier": false
    },
    "efeito": "",
    "alcance": "short",
    "alvo": "criaturas escolhidas",
    "area": "",
    "resistencia": {
      "pericia": "",
      "atributo": "sab",
      "bonus": 0,
      "txt": ""
    },
    "rolls": [],
    "tipo": "div",
    "circulo": "1",
    "preparada": false,
    "escola": "con",
    "chatFlavor": "",
    "origin": "",
    "tags": [],
    "chatGif": ""
  },
  "ownership": {
    "default": 0
  },
  "_stats": {
    "systemId": "tormenta20",
    "systemVersion": "1.4.116",
    "coreVersion": "11.298",
    "createdTime": 1664310461766,
    "modifiedTime": 1684622830660,
    "lastModifiedBy": "ZWR5Tn3AhSIFqwp6"
  },
  "_key": "!items!8F0FVSRN1dAIrTwj"
}
