{
  "_id": "fQ3D9t4VPsVjLbz1",
  "name": "Camuflagem Ilusória",
  "type": "magia",
  "img": "systems/tormenta20/icons/magias/camuflagem-ilusoria.webp",
  "effects": [
    {
      "_id": "KLQsMwsmxz7baXdx",
      "flags": {
        "t20": null,
        "tormenta20": {
          "onuse": true,
          "self": true,
          "custo": "3",
          "aumenta": false,
          "attack": false,
          "skill": false,
          "ability": false,
          "power": false,
          "spell": false,
          "consumable": false,
          "items": "",
          "durationScene": false
        }
      },
      "changes": [],
      "disabled": true,
      "duration": {
        "startTime": null,
        "seconds": null,
        "combat": null,
        "rounds": null,
        "turns": null,
        "startRound": null,
        "startTurn": null
      },
      "icon": "icons/svg/upgrade.svg",
      "label": "a imagem do alvo fica mais distorcida, aumentando a chance de falha da camuflagem leve para 50%.",
      "origin": "Compendium.tormenta20.magias.fQ3D9t4VPsVjLbz1",
      "transfer": false,
      "tint": null,
      "_key": "!items.effects!fQ3D9t4VPsVjLbz1.KLQsMwsmxz7baXdx"
    },
    {
      "_id": "pKglQPDURDrJqLE4",
      "flags": {
        "t20": null,
        "tormenta20": {
          "onuse": true,
          "self": true,
          "custo": "7",
          "aumenta": false
        }
      },
      "changes": [
        {
          "key": "alcance",
          "value": "curto",
          "mode": 5,
          "priority": null
        },
        {
          "key": "alvo",
          "value": "criaturas escolhidas",
          "mode": 5,
          "priority": null
        }
      ],
      "disabled": true,
      "duration": {
        "startTime": null,
        "seconds": null,
        "combat": null,
        "rounds": null,
        "turns": null,
        "startRound": null,
        "startTurn": null
      },
      "icon": "icons/svg/upgrade.svg",
      "label": "muda o alcance para curto e o alvo para criaturas escolhidas. Requer 4º círculo.",
      "origin": "Compendium.tormenta20.magias.fQ3D9t4VPsVjLbz1",
      "transfer": false,
      "tint": null,
      "_key": "!items.effects!fQ3D9t4VPsVjLbz1.pKglQPDURDrJqLE4"
    },
    {
      "_id": "f1LcNebKj8pv5Ljc",
      "changes": [],
      "disabled": false,
      "duration": {
        "rounds": 1,
        "startTime": null,
        "seconds": null,
        "combat": null,
        "turns": null,
        "startRound": null,
        "startTurn": null
      },
      "icon": "systems/tormenta20/icons/magias/camuflagem-ilusoria.webp",
      "label": "Camuflagem Ilusória",
      "origin": "Item.pZNwli327h2aW39A",
      "transfer": false,
      "flags": {
        "tormenta20": {
          "onuse": false,
          "durationScene": true
        }
      },
      "tint": null,
      "_key": "!items.effects!fQ3D9t4VPsVjLbz1.f1LcNebKj8pv5Ljc"
    }
  ],
  "folder": "JF3PQ5Q84KVTjyxv",
  "sort": 0,
  "flags": {
    "core": {
      "sourceId": "Item.qF2MlZAfalfNVmEs"
    },
    "cf": null
  },
  "system": {
    "description": {
      "value": "<p style=\"text-align: justify;\">O alvo fica com sua imagem nublada, como se vista atrav&eacute;s de um l&iacute;quido, recebendo os efeitos de camuflagem leve.</p>",
      "chat": "",
      "unidentified": ""
    },
    "source": "T20, pg. 183 (JdA)",
    "ativacao": {
      "execucao": "action",
      "custo": 3,
      "qtd": "",
      "condicao": "",
      "special": ""
    },
    "duracao": {
      "value": 0,
      "units": "scene",
      "special": ""
    },
    "target": {
      "value": null,
      "width": null,
      "units": "",
      "type": ""
    },
    "range": {
      "value": null,
      "units": ""
    },
    "consume": {
      "type": "",
      "target": "",
      "amount": null,
      "mpMultiplier": false
    },
    "efeito": "",
    "alcance": "touch",
    "alvo": "1 criatura",
    "area": "",
    "resistencia": {
      "pericia": "",
      "atributo": "car",
      "bonus": 0,
      "txt": ""
    },
    "rolls": [],
    "tipo": "arc",
    "circulo": "2",
    "preparada": false,
    "escola": "ilu",
    "chatFlavor": "",
    "origin": "",
    "tags": [],
    "chatGif": ""
  },
  "ownership": {
    "default": 0
  },
  "_stats": {
    "systemId": "tormenta20",
    "systemVersion": "1.4.116",
    "coreVersion": "11.298",
    "createdTime": 1664310462776,
    "modifiedTime": 1684622830660,
    "lastModifiedBy": "ZWR5Tn3AhSIFqwp6"
  },
  "_key": "!items!fQ3D9t4VPsVjLbz1"
}
