{
  "_id": "ZwM3J3oEjFz8cCt0",
  "name": "Conceder Milagre",
  "type": "magia",
  "img": "systems/tormenta20/icons/magias/conceder-milagre.webp",
  "effects": [
    {
      "_id": "huOA1zSiiJL2Ffjv",
      "flags": {
        "t20": null,
        "tormenta20": {
          "onuse": true,
          "self": true,
          "custo": "4",
          "aumenta": false
        }
      },
      "changes": [],
      "disabled": true,
      "duration": {
        "startTime": null,
        "seconds": null,
        "combat": null,
        "rounds": null,
        "turns": null,
        "startRound": null,
        "startTurn": null
      },
      "icon": "icons/svg/upgrade.svg",
      "label": "muda o círculo da magia concedida para 3º e a penalidade de PM para –6.",
      "origin": "Compendium.tormenta20.magias.ZwM3J3oEjFz8cCt0",
      "transfer": false,
      "tint": null,
      "_key": "!items.effects!ZwM3J3oEjFz8cCt0.huOA1zSiiJL2Ffjv"
    },
    {
      "_id": "JLj04JvTNJmckzGh",
      "changes": [],
      "disabled": false,
      "duration": {
        "rounds": 1,
        "startTime": null,
        "seconds": null,
        "combat": null,
        "turns": null,
        "startRound": null,
        "startTurn": null
      },
      "icon": "systems/tormenta20/icons/magias/conceder-milagre.webp",
      "label": "Conceder Milagre",
      "origin": "Item.xoO82iq18dQtgham",
      "transfer": false,
      "flags": {
        "tormenta20": {
          "onuse": false,
          "durationScene": true
        }
      },
      "tint": null,
      "_key": "!items.effects!ZwM3J3oEjFz8cCt0.JLj04JvTNJmckzGh"
    }
  ],
  "folder": "FtrjFKnA5K0Qkyqn",
  "sort": 0,
  "flags": {
    "core": {
      "sourceId": "Item.Lg9tzYZmrTxFO0q6"
    }
  },
  "system": {
    "description": {
      "value": "<p style=\"text-align: justify;\">Voc&ecirc; transfere um pouco de seu poder divino a outra criatura. Escolha uma magia de at&eacute; 2&ordm; c&iacute;rculo que voc&ecirc; conhe&ccedil;a; o alvo pode lan&ccedil;ar essa magia uma vez, sem pagar o custo base dela em PM (aprimoramentos podem ser usados, mas o alvo deve gastar seus pr&oacute;prios PM). Voc&ecirc; sofre uma penalidade de &ndash;3 PM at&eacute; que o alvo lance a magia.</p>",
      "chat": "",
      "unidentified": ""
    },
    "source": "T20, pg. 186 (JdA)",
    "ativacao": {
      "execucao": "action",
      "custo": 10,
      "qtd": "",
      "condicao": "",
      "special": ""
    },
    "duracao": {
      "value": 0,
      "units": "special",
      "special": "permanente ou até ser descarregada"
    },
    "target": {
      "value": null,
      "width": null,
      "units": "",
      "type": ""
    },
    "range": {
      "value": null,
      "units": ""
    },
    "consume": {
      "type": "",
      "target": "",
      "amount": null,
      "mpMultiplier": false
    },
    "efeito": "",
    "alcance": "touch",
    "alvo": "1 criatura",
    "area": "",
    "resistencia": {
      "pericia": "",
      "atributo": "sab",
      "bonus": 0,
      "txt": ""
    },
    "rolls": [],
    "tipo": "div",
    "circulo": "4",
    "preparada": false,
    "escola": "enc",
    "chatFlavor": "",
    "origin": "",
    "tags": [],
    "chatGif": ""
  },
  "ownership": {
    "default": 0
  },
  "_stats": {
    "systemId": "tormenta20",
    "systemVersion": "1.4.116",
    "coreVersion": "11.298",
    "createdTime": 1664310462763,
    "modifiedTime": 1684622830660,
    "lastModifiedBy": "ZWR5Tn3AhSIFqwp6"
  },
  "_key": "!items!ZwM3J3oEjFz8cCt0"
}
