{
  "_id": "uAomjSrbq2JpCcz0",
  "name": "Consagrar",
  "type": "magia",
  "img": "systems/tormenta20/icons/magias/consagrar.webp",
  "effects": [
    {
      "_id": "zjkaNWLGzSmvwWLX",
      "flags": {
        "t20": null,
        "tormenta20": {
          "onuse": true,
          "self": true,
          "custo": "1",
          "aumenta": false
        }
      },
      "changes": [],
      "disabled": true,
      "duration": {
        "startTime": null,
        "seconds": null,
        "combat": null,
        "rounds": null,
        "turns": null,
        "startRound": null,
        "startTurn": null
      },
      "icon": "icons/svg/upgrade.svg",
      "label": "além do normal, mortos-vivos na área sofrem –2 em testes e Defesa.",
      "origin": "Compendium.tormenta20.magias.uAomjSrbq2JpCcz0",
      "transfer": false,
      "tint": null,
      "_key": "!items.effects!uAomjSrbq2JpCcz0.zjkaNWLGzSmvwWLX"
    },
    {
      "_id": "TQzuS6ucn9K3jaZO",
      "flags": {
        "t20": null,
        "tormenta20": {
          "onuse": true,
          "self": true,
          "custo": "2",
          "aumenta": true,
          "attack": false,
          "skill": false,
          "ability": false,
          "power": false,
          "spell": false,
          "consumable": false,
          "durationScene": false
        }
      },
      "changes": [
        {
          "key": "system.modificadores.pericias.geral",
          "mode": 2,
          "value": "-1",
          "priority": null
        },
        {
          "key": "system.attributes.defesa.bonus",
          "mode": 2,
          "value": "-1",
          "priority": null
        }
      ],
      "disabled": true,
      "duration": {
        "startTime": null,
        "seconds": null,
        "combat": null,
        "rounds": null,
        "turns": null,
        "startRound": null,
        "startTurn": null
      },
      "icon": "icons/svg/upgrade.svg",
      "label": "aumenta as penalidades para mortos-vivos em –1.",
      "origin": "Compendium.tormenta20.magias.uAomjSrbq2JpCcz0",
      "transfer": false,
      "tint": null,
      "_key": "!items.effects!uAomjSrbq2JpCcz0.TQzuS6ucn9K3jaZO"
    },
    {
      "_id": "6wnjMrwszCAfHMwN",
      "flags": {
        "t20": null,
        "tormenta20": {
          "onuse": true,
          "self": true,
          "custo": "9",
          "aumenta": false
        }
      },
      "changes": [
        {
          "key": "execucao",
          "value": "1 hora",
          "mode": 5,
          "priority": null
        },
        {
          "key": "duracao",
          "value": "permanente",
          "mode": 5,
          "priority": null
        }
      ],
      "disabled": true,
      "duration": {
        "startTime": null,
        "seconds": null,
        "combat": null,
        "rounds": null,
        "turns": null,
        "startRound": null,
        "startTurn": null
      },
      "icon": "icons/svg/upgrade.svg",
      "label": "muda a execução para 1 hora, a duração para permanente e adiciona componente material (incenso e óleos no valor de T$ 1.000). Requer 4º círculo.",
      "origin": "Compendium.tormenta20.magias.uAomjSrbq2JpCcz0",
      "transfer": false,
      "tint": null,
      "_key": "!items.effects!uAomjSrbq2JpCcz0.6wnjMrwszCAfHMwN"
    },
    {
      "_id": "m53luwH5h5g7ihnZ",
      "changes": [
        {
          "key": "system.modificadores.pericias.geral",
          "mode": 2,
          "value": "-2",
          "priority": null
        },
        {
          "key": "system.attributes.defesa.bonus",
          "mode": 2,
          "value": "-2",
          "priority": null
        }
      ],
      "disabled": false,
      "duration": {
        "rounds": 1,
        "startTime": null,
        "seconds": null,
        "combat": null,
        "turns": null,
        "startRound": null,
        "startTurn": null
      },
      "icon": "systems/tormenta20/icons/magias/consagrar.webp",
      "label": "Penalidade em Mortos-Vivos",
      "origin": "Item.2AmeIlEpP4vtCqyF",
      "transfer": false,
      "flags": {
        "tormenta20": {
          "onuse": false,
          "durationScene": true
        }
      },
      "tint": null,
      "_key": "!items.effects!uAomjSrbq2JpCcz0.m53luwH5h5g7ihnZ"
    }
  ],
  "folder": "uZDKASy3zyVwtvJP",
  "sort": 0,
  "flags": {
    "core": {
      "sourceId": "Item.gfQM43TBWF5K1Pui"
    },
    "cf": null
  },
  "system": {
    "description": {
      "value": "<p style=\"text-align: justify;\">Voc&ecirc; enche a &aacute;rea com energia positiva. Pontos de vida curados por efeitos de luz s&atilde;o maximizados dentro da &aacute;rea. Isso tamb&eacute;m afeta dano causado em mortos-vivos por esses efeitos.</p>\n<p style=\"text-align: justify;\">Por exemplo, Curar Ferimentos cura automaticamente 18 PV. Esta magia n&atilde;o pode ser lan&ccedil;ada em uma &aacute;rea contendo um s&iacute;mbolo vis&iacute;vel dedicado a uma divindade que n&atilde;o a sua. Consagrar anula Profanar.</p>",
      "chat": "",
      "unidentified": ""
    },
    "source": "T20, pg. 186 (JdA)",
    "ativacao": {
      "execucao": "action",
      "custo": 1,
      "qtd": "",
      "condicao": "",
      "special": ""
    },
    "duracao": {
      "value": 1,
      "units": "day",
      "special": ""
    },
    "target": {
      "value": null,
      "width": null,
      "units": "",
      "type": ""
    },
    "range": {
      "value": null,
      "units": ""
    },
    "consume": {
      "type": "",
      "target": "",
      "amount": null,
      "mpMultiplier": false
    },
    "efeito": "",
    "alcance": "long",
    "alvo": "",
    "area": "esfera com 9m de raio",
    "resistencia": {
      "pericia": "",
      "atributo": "sab",
      "bonus": 0,
      "txt": ""
    },
    "rolls": [],
    "tipo": "div",
    "circulo": "1",
    "preparada": false,
    "escola": "evo",
    "chatFlavor": "",
    "origin": "",
    "tags": [],
    "chatGif": ""
  },
  "ownership": {
    "default": 0
  },
  "_stats": {
    "systemId": "tormenta20",
    "systemVersion": "1.4.116",
    "coreVersion": "11.298",
    "createdTime": 1664310462830,
    "modifiedTime": 1684622830660,
    "lastModifiedBy": "ZWR5Tn3AhSIFqwp6"
  },
  "_key": "!items!uAomjSrbq2JpCcz0"
}
