{
  "_id": "dlRCSddITrSwAdtc",
  "name": "Controlar o Tempo",
  "type": "magia",
  "img": "systems/tormenta20/icons/magias/controlar-tempo.webp",
  "effects": [
    {
      "_id": "zmLjUlz4Ilhttv1G",
      "changes": [],
      "disabled": false,
      "duration": {
        "rounds": 1,
        "startTime": null,
        "seconds": null,
        "combat": null,
        "turns": null,
        "startRound": null,
        "startTurn": null
      },
      "icon": "systems/tormenta20/icons/magias/controlar-tempo.webp",
      "label": "Controlar o Tempo",
      "origin": "Item.rVviaQ1tiMr65FuJ",
      "transfer": false,
      "flags": {
        "tormenta20": {
          "onuse": false,
          "durationScene": false
        }
      },
      "tint": null,
      "_key": "!items.effects!dlRCSddITrSwAdtc.zmLjUlz4Ilhttv1G"
    }
  ],
  "folder": "lGEQToBaEy9gxaO5",
  "sort": 0,
  "flags": {
    "core": {
      "sourceId": "Item.rpfs1Gxeh3pdftiy"
    }
  },
  "system": {
    "description": {
      "value": "<p style=\"text-align: justify;\">Aquele que controla o tempo controla o mundo. Escolha um dos efeitos a seguir.</p>\n<p style=\"text-align: justify;\"><em>Congelar o tempo:</em> voc&ecirc; gera uma bolha na qual o tempo passa mais lentamente. Para outras criaturas, a bolha surge e desaparece instantaneamente, mas, para voc&ecirc;, ela dura 3 rodadas, durante as quais voc&ecirc; pode agir e n&atilde;o &eacute; afetado por efeitos cont&iacute;nuos (como chamas). Por&eacute;m, durante essas 3 rodadas, voc&ecirc; e quaisquer efeitos que voc&ecirc; gerar n&atilde;o podem sair da &aacute;rea que voc&ecirc; ocupava quando lan&ccedil;ou esta magia. Efeitos de &aacute;rea com dura&ccedil;&atilde;o maior que a da bolha voltam a agir normalmente quando ela termina.</p>\n<p style=\"text-align: justify;\"><em>Saltar no tempo:</em> voc&ecirc; e at&eacute; 5 criaturas volunt&aacute;rias s&atilde;o transportadas de 1 a 24 horas para o futuro, desaparecendo com um brilho. Voc&ecirc;s ressurgem no mesmo lugar, com a mesma velocidade e orienta&ccedil;&atilde;o; do seu ponto de vista, nenhum tempo se passou. Se um objeto s&oacute;lido agora ocupa o espa&ccedil;o de uma criatura, ela ressurge na &aacute;rea vazia mais pr&oacute;xima.</p>\n<p style=\"text-align: justify;\"><em>Voltar no tempo: </em>voc&ecirc; revive os &uacute;ltimos segundos. Todas as a&ccedil;&otilde;es da rodada anterior s&atilde;o desfeitas (incluindo perda de PV e PM). Tudo retorna &agrave; posi&ccedil;&atilde;o em que estava no in&iacute;cio do seu turno na &uacute;ltima rodada e voc&ecirc; &eacute; o &uacute;nico que sabe o que acontecer&aacute;. Todos os outros personagens envolvidos na cena devem repetir as mesmas a&ccedil;&otilde;es &mdash; exceto se voc&ecirc; fizer algo a respeito (como avisar seus aliados sobre o que vai acontecer).</p>",
      "chat": "",
      "unidentified": ""
    },
    "source": "T20, pg. 187 (JdA)",
    "ativacao": {
      "execucao": "action",
      "custo": 15,
      "qtd": "",
      "condicao": "",
      "special": ""
    },
    "duracao": {
      "value": 0,
      "units": "special",
      "special": "veja texto"
    },
    "target": {
      "value": null,
      "width": null,
      "units": "",
      "type": ""
    },
    "range": {
      "value": null,
      "units": ""
    },
    "consume": {
      "type": "",
      "target": "",
      "amount": null,
      "mpMultiplier": false
    },
    "efeito": "",
    "alcance": "short",
    "alvo": "veja texto",
    "area": "",
    "resistencia": {
      "pericia": "",
      "atributo": "int",
      "bonus": 0,
      "txt": ""
    },
    "rolls": [],
    "tipo": "arc",
    "circulo": "5",
    "preparada": false,
    "escola": "tra",
    "chatFlavor": "",
    "origin": "",
    "tags": [],
    "chatGif": ""
  },
  "ownership": {
    "default": 0
  },
  "_stats": {
    "systemId": "tormenta20",
    "systemVersion": "1.4.116",
    "coreVersion": "11.298",
    "createdTime": 1664310462769,
    "modifiedTime": 1684622830660,
    "lastModifiedBy": "ZWR5Tn3AhSIFqwp6"
  },
  "_key": "!items!dlRCSddITrSwAdtc"
}
