{
  "_id": "ZzibqJnR2Cd0efWX",
  "name": "Convocação Instantânea",
  "type": "magia",
  "img": "systems/tormenta20/icons/magias/convocacao-instantanea.webp",
  "effects": [
    {
      "_id": "QQoGixlukm4d28Xs",
      "flags": {
        "t20": null,
        "tormenta20": {
          "onuse": true,
          "self": true,
          "custo": "1",
          "aumenta": false
        }
      },
      "changes": [],
      "disabled": true,
      "duration": {
        "startTime": null,
        "seconds": null,
        "combat": null,
        "rounds": null,
        "turns": null,
        "startRound": null,
        "startTurn": null
      },
      "icon": "icons/svg/upgrade.svg",
      "label": "além do normal, até 1 hora após ter lançado a magia, você pode gastar uma ação de movimento para enviar o objeto de volta para o local em que ele estava antes.",
      "origin": "Compendium.tormenta20.magias.ZzibqJnR2Cd0efWX",
      "transfer": false,
      "tint": null,
      "_key": "!items.effects!ZzibqJnR2Cd0efWX.QQoGixlukm4d28Xs"
    },
    {
      "_id": "NcDNYaGsMh9A71TX",
      "flags": {
        "t20": null,
        "tormenta20": {
          "onuse": true,
          "self": true,
          "custo": "1",
          "aumenta": false,
          "attack": false,
          "skill": false,
          "ability": false,
          "power": false,
          "spell": false,
          "consumable": false,
          "items": "",
          "durationScene": false
        }
      },
      "changes": [
        {
          "key": "alvo",
          "mode": 5,
          "value": "um baú Médio",
          "priority": 0
        },
        {
          "key": "duracao",
          "mode": 5,
          "value": "permanente",
          "priority": 0
        }
      ],
      "disabled": true,
      "duration": {
        "startTime": null,
        "seconds": null,
        "combat": null,
        "rounds": null,
        "turns": null,
        "startRound": null,
        "startTurn": null
      },
      "icon": "icons/svg/upgrade.svg",
      "label": "muda o alvo para um baú Médio, a duração para permanente e adiciona sacrifício de 1 PM. Em vez do normal, você esconde o baú alvo no Etér Entre Mundos, com até 20 espaços de equipamento. A magia faz com que qualquer objeto caiba no baú, independentemente do seu tamanho. Uma vez escondido, você pode convocar o baú para um espaço livre adjacente, ou de volta para o Etér, com uma ação padrão. Componente material: baú construído com matéria-prima da melhor qualidade (T$ 1.000). Você deve ter em mãos uma miniatura do baú, no valor de T$ 100, para invocar o baú verdadeiro.",
      "origin": "Compendium.tormenta20.magias.ZzibqJnR2Cd0efWX",
      "transfer": false,
      "tint": null,
      "_key": "!items.effects!ZzibqJnR2Cd0efWX.NcDNYaGsMh9A71TX"
    },
    {
      "_id": "9nWgAXltywJKiZ2I",
      "flags": {
        "t20": null,
        "tormenta20": {
          "onuse": true,
          "self": true,
          "custo": "2",
          "aumenta": true
        }
      },
      "changes": [],
      "disabled": true,
      "duration": {
        "startTime": null,
        "seconds": null,
        "combat": null,
        "rounds": null,
        "turns": null,
        "startRound": null,
        "startTurn": null
      },
      "icon": "icons/svg/upgrade.svg",
      "label": "aumenta o número de alvos em +1.",
      "origin": "Compendium.tormenta20.magias.ZzibqJnR2Cd0efWX",
      "transfer": false,
      "tint": null,
      "_key": "!items.effects!ZzibqJnR2Cd0efWX.9nWgAXltywJKiZ2I"
    },
    {
      "_id": "v9QZtJ7jjE7Vl6ik",
      "flags": {
        "t20": null,
        "tormenta20": {
          "onuse": true,
          "self": true,
          "custo": "2",
          "aumenta": true,
          "attack": false,
          "skill": false,
          "ability": false,
          "power": false,
          "spell": false,
          "consumable": false,
          "items": "",
          "durationScene": false
        }
      },
      "changes": [],
      "disabled": true,
      "duration": {
        "startTime": null,
        "seconds": null,
        "combat": null,
        "rounds": null,
        "turns": null,
        "startRound": null,
        "startTurn": null
      },
      "icon": "icons/svg/upgrade.svg",
      "label": "muda o alvo para 1 objeto de até 10 espaços. Um objeto muito grande ou pesado para aparecer em suas mãos surge em um espaço adjacente a sua escolha.",
      "origin": "Compendium.tormenta20.magias.ZzibqJnR2Cd0efWX",
      "transfer": false,
      "tint": null,
      "_key": "!items.effects!ZzibqJnR2Cd0efWX.v9QZtJ7jjE7Vl6ik"
    }
  ],
  "folder": "q3HWop0SV641gJ2W",
  "sort": 0,
  "flags": {
    "core": {
      "sourceId": "Item.CP6zrXJTTjbH9NIh"
    }
  },
  "system": {
    "description": {
      "value": "<p style=\"text-align:justify;\">Você invoca um objeto de qualquer lugar para sua mão. O item deve ter sido previamente preparado com uma runa ou marca pessoal sua (ao custo de T$ 5). A magia não funciona se o objeto estiver com outra criatura, mas você saberá onde ele está e quem o está carregando (ou sua descrição física, caso não conheça a criatura).</p>",
      "chat": "",
      "unidentified": ""
    },
    "source": "T20, pg. 188 (JdA)",
    "ativacao": {
      "execucao": "action",
      "custo": 6,
      "qtd": "",
      "condicao": "",
      "special": ""
    },
    "duracao": {
      "value": 0,
      "units": "inst",
      "special": ""
    },
    "target": {
      "value": null,
      "width": null,
      "units": "",
      "type": ""
    },
    "range": {
      "value": null,
      "units": ""
    },
    "consume": {
      "type": "",
      "target": "",
      "amount": null,
      "mpMultiplier": false
    },
    "efeito": "",
    "alcance": "any",
    "alvo": "1 objeto de 2 espaços",
    "area": "",
    "resistencia": {
      "pericia": "",
      "atributo": "int",
      "bonus": 0,
      "txt": ""
    },
    "rolls": [],
    "tipo": "arc",
    "circulo": "3",
    "preparada": false,
    "escola": "con",
    "chatFlavor": "",
    "origin": "",
    "tags": [],
    "chatGif": ""
  },
  "ownership": {
    "default": 0
  },
  "_stats": {
    "systemId": "tormenta20",
    "systemVersion": "1.4.116",
    "coreVersion": "11.298",
    "createdTime": 1664310462764,
    "modifiedTime": 1684622830660,
    "lastModifiedBy": "ZWR5Tn3AhSIFqwp6"
  },
  "_key": "!items!ZzibqJnR2Cd0efWX"
}
