{
  "_id": "CgK2xhGbfCc6BkWy",
  "name": "Crânio Voador",
  "type": "magia",
  "img": "systems/tormenta20/icons/magias/cranio-voador.webp",
  "effects": [
    {
      "_id": "x0QdIwqPvXe9Bzfb",
      "flags": {
        "t20": null,
        "tormenta20": {
          "onuse": true,
          "self": true,
          "custo": "2",
          "aumenta": true,
          "attack": false,
          "skill": false,
          "ability": false,
          "power": false,
          "spell": false,
          "consumable": false,
          "durationScene": false
        }
      },
      "changes": [
        {
          "key": "dano",
          "mode": 0,
          "value": "1d8",
          "priority": null
        }
      ],
      "disabled": true,
      "duration": {
        "startTime": null,
        "seconds": null,
        "combat": null,
        "rounds": null,
        "turns": null,
        "startRound": null,
        "startTurn": null
      },
      "icon": "icons/svg/upgrade.svg",
      "label": "aumenta o dano em +1d8+1.",
      "origin": "Compendium.tormenta20.magias.CgK2xhGbfCc6BkWy",
      "transfer": false,
      "tint": null,
      "_key": "!items.effects!CgK2xhGbfCc6BkWy.x0QdIwqPvXe9Bzfb"
    },
    {
      "_id": "1bhqEPuTjaCOg8O9",
      "flags": {
        "t20": null,
        "tormenta20": {
          "onuse": true,
          "self": true,
          "custo": "2",
          "aumenta": true
        }
      },
      "changes": [],
      "disabled": true,
      "duration": {
        "startTime": null,
        "seconds": null,
        "combat": null,
        "rounds": null,
        "turns": null,
        "startRound": null,
        "startTurn": null
      },
      "icon": "icons/svg/upgrade.svg",
      "label": "aumenta o número de alvos em +1.",
      "origin": "Compendium.tormenta20.magias.CgK2xhGbfCc6BkWy",
      "transfer": false,
      "tint": null,
      "_key": "!items.effects!CgK2xhGbfCc6BkWy.1bhqEPuTjaCOg8O9"
    }
  ],
  "folder": "hgVJ2SkCy4c6y6u1",
  "sort": 0,
  "flags": {
    "core": {
      "sourceId": "Item.tfbIOeQgec4chEX9"
    }
  },
  "system": {
    "description": {
      "value": "<p style=\"text-align: justify;\">Esta magia cria um cr&acirc;nio envolto em energia negativa. Quando atinge o alvo, causa 4d8+4 pontos de dano de trevas e se desfaz emitindo um som horrendo, deixando abalado o alvo e todos os inimigos num raio de 3m dele (criaturas j&aacute; abaladas ficam apavoradas por 1d4 rodadas). Passar no teste de resist&ecirc;ncia diminui o dano &agrave; metade e evita a condi&ccedil;&atilde;o (as demais criaturas na &aacute;rea tamb&eacute;m tem direito ao teste de resist&ecirc;ncia, para evitar a condi&ccedil;&atilde;o).</p>\n<p style=\"text-align: justify;\"><a class=\"content-link\" draggable=\"true\" data-uuid=\"JournalEntry.s15J5SOYixL3Ajzr.JournalEntryPage.ccqJXj25EVIzUhzo\" data-id=\"ccqJXj25EVIzUhzo\" data-type=\"JournalEntryPage\" data-tooltip=\"Text Page\">Abalado</a></p>\n<p style=\"text-align: justify;\"><a class=\"content-link\" draggable=\"true\" data-uuid=\"JournalEntry.s15J5SOYixL3Ajzr.JournalEntryPage.5n105JaAFlwIfkyX\" data-id=\"5n105JaAFlwIfkyX\" data-type=\"JournalEntryPage\" data-tooltip=\"Text Page\">Apavorado</a></p>",
      "chat": "",
      "unidentified": ""
    },
    "source": "T20, pg. 188 (JdA)",
    "ativacao": {
      "execucao": "action",
      "custo": 3,
      "qtd": "",
      "condicao": "",
      "special": ""
    },
    "duracao": {
      "value": 0,
      "units": "inst",
      "special": ""
    },
    "target": {
      "value": null,
      "width": null,
      "units": "",
      "type": ""
    },
    "range": {
      "value": null,
      "units": ""
    },
    "consume": {
      "type": "",
      "target": "",
      "amount": null,
      "mpMultiplier": false
    },
    "efeito": "",
    "alcance": "medium",
    "alvo": "1 criatura",
    "area": "",
    "resistencia": {
      "pericia": "",
      "atributo": "int",
      "bonus": 0,
      "txt": "Fortitude reduz à metade"
    },
    "rolls": [
      {
        "name": "Dano",
        "key": "dano0",
        "type": "dano",
        "parts": [
          [
            "4d8+4",
            "trevas",
            ""
          ]
        ],
        "versatil": ""
      }
    ],
    "tipo": "arc",
    "circulo": "2",
    "preparada": false,
    "escola": "nec",
    "chatFlavor": "",
    "origin": "",
    "tags": [],
    "chatGif": ""
  },
  "ownership": {
    "default": 0
  },
  "_stats": {
    "systemId": "tormenta20",
    "systemVersion": "1.4.116",
    "coreVersion": "11.298",
    "createdTime": 1664310461799,
    "modifiedTime": 1684622830660,
    "lastModifiedBy": "ZWR5Tn3AhSIFqwp6"
  },
  "_key": "!items!CgK2xhGbfCc6BkWy"
}
