{
  "_id": "soVAGPRWQmKxOrPm",
  "name": "Curar Ferimentos",
  "type": "magia",
  "img": "systems/tormenta20/icons/magias/curar-ferimentos.webp",
  "effects": [
    {
      "_id": "E5Ynb8D45IFPkqGc",
      "flags": {
        "t20": null,
        "tormenta20": {
          "onuse": true,
          "self": true,
          "custo": "",
          "aumenta": false
        }
      },
      "changes": [
        {
          "key": "alvo",
          "value": "1 morto-vivo",
          "mode": 5,
          "priority": null
        }
      ],
      "disabled": true,
      "duration": {
        "startTime": null,
        "seconds": null,
        "combat": null,
        "rounds": null,
        "turns": null,
        "startRound": null,
        "startTurn": null
      },
      "icon": "icons/svg/upgrade.svg",
      "label": "muda o alvo para 1 morto-vivo. Em vez do normal, causa 1d8 pontos de dano de luz (Vontade reduz à metade).",
      "origin": "Compendium.tormenta20.magias.soVAGPRWQmKxOrPm",
      "transfer": false,
      "tint": null,
      "_key": "!items.effects!soVAGPRWQmKxOrPm.E5Ynb8D45IFPkqGc"
    },
    {
      "_id": "T7W1dpep8KKLNdPQ",
      "flags": {
        "t20": null,
        "tormenta20": {
          "onuse": true,
          "self": true,
          "custo": "1",
          "aumenta": true
        }
      },
      "changes": [
        {
          "key": "dano",
          "value": "1d8+1",
          "mode": 0,
          "priority": null
        }
      ],
      "disabled": true,
      "duration": {
        "startTime": null,
        "seconds": null,
        "combat": null,
        "rounds": null,
        "turns": null,
        "startRound": null,
        "startTurn": null
      },
      "icon": "icons/svg/upgrade.svg",
      "label": "aumenta a cura em +1d8+1.",
      "origin": "Compendium.tormenta20.magias.soVAGPRWQmKxOrPm",
      "transfer": false,
      "tint": null,
      "_key": "!items.effects!soVAGPRWQmKxOrPm.T7W1dpep8KKLNdPQ"
    },
    {
      "_id": "xncd3c6sRimZD4nY",
      "flags": {
        "t20": null,
        "tormenta20": {
          "onuse": true,
          "self": true,
          "custo": "2",
          "aumenta": false
        }
      },
      "changes": [],
      "disabled": true,
      "duration": {
        "startTime": null,
        "seconds": null,
        "combat": null,
        "rounds": null,
        "turns": null,
        "startRound": null,
        "startTurn": null
      },
      "icon": "icons/svg/upgrade.svg",
      "label": "também remove uma condição de fadiga do alvo.",
      "origin": "Compendium.tormenta20.magias.soVAGPRWQmKxOrPm",
      "transfer": false,
      "tint": null,
      "_key": "!items.effects!soVAGPRWQmKxOrPm.xncd3c6sRimZD4nY"
    },
    {
      "_id": "8NiPKz2Ks17aIGcT",
      "flags": {
        "t20": null,
        "tormenta20": {
          "onuse": true,
          "self": true,
          "custo": "2",
          "aumenta": false
        }
      },
      "changes": [
        {
          "key": "alcance",
          "value": "curto",
          "mode": 5,
          "priority": null
        }
      ],
      "disabled": true,
      "duration": {
        "startTime": null,
        "seconds": null,
        "combat": null,
        "rounds": null,
        "turns": null,
        "startRound": null,
        "startTurn": null
      },
      "icon": "icons/svg/upgrade.svg",
      "label": "muda o alcance para curto.",
      "origin": "Compendium.tormenta20.magias.soVAGPRWQmKxOrPm",
      "transfer": false,
      "tint": null,
      "_key": "!items.effects!soVAGPRWQmKxOrPm.8NiPKz2Ks17aIGcT"
    },
    {
      "_id": "lcjBzJa7QT1xtM5I",
      "flags": {
        "t20": null,
        "tormenta20": {
          "onuse": true,
          "self": true,
          "custo": "5",
          "aumenta": false
        }
      },
      "changes": [
        {
          "key": "alcance",
          "value": "curto",
          "mode": 5,
          "priority": null
        },
        {
          "key": "alvo",
          "value": "criaturas escolhidas",
          "mode": 5,
          "priority": null
        }
      ],
      "disabled": true,
      "duration": {
        "startTime": null,
        "seconds": null,
        "combat": null,
        "rounds": null,
        "turns": null,
        "startRound": null,
        "startTurn": null
      },
      "icon": "icons/svg/upgrade.svg",
      "label": "muda o alcance para curto e o alvo para criaturas escolhidas.",
      "origin": "Compendium.tormenta20.magias.soVAGPRWQmKxOrPm",
      "transfer": false,
      "tint": null,
      "_key": "!items.effects!soVAGPRWQmKxOrPm.lcjBzJa7QT1xtM5I"
    }
  ],
  "folder": "uZDKASy3zyVwtvJP",
  "sort": 0,
  "flags": {
    "core": {
      "sourceId": "Item.galK4UUS6FxYz22S"
    }
  },
  "system": {
    "description": {
      "value": "<p style=\"text-align: justify;\">Voc&ecirc; canaliza energia positiva que recupera 2d8+2 pontos de vida na criatura tocada.</p>",
      "chat": "",
      "unidentified": ""
    },
    "source": "T20, pg. 189 (JdA)",
    "ativacao": {
      "execucao": "action",
      "custo": 1,
      "qtd": "",
      "condicao": "",
      "special": ""
    },
    "duracao": {
      "value": 0,
      "units": "inst",
      "special": ""
    },
    "target": {
      "value": null,
      "width": null,
      "units": "",
      "type": ""
    },
    "range": {
      "value": null,
      "units": ""
    },
    "consume": {
      "type": "",
      "target": "",
      "amount": null,
      "mpMultiplier": false
    },
    "efeito": "",
    "alcance": "touch",
    "alvo": "1 criatura",
    "area": "",
    "resistencia": {
      "pericia": "",
      "atributo": "sab",
      "bonus": 0,
      "txt": ""
    },
    "rolls": [
      {
        "name": "Cura",
        "key": "dano0",
        "type": "dano",
        "parts": [
          [
            "2d8+2",
            "curapv",
            ""
          ]
        ],
        "versatil": ""
      }
    ],
    "tipo": "div",
    "circulo": "1",
    "preparada": false,
    "escola": "evo",
    "chatFlavor": "",
    "origin": "",
    "tags": [],
    "chatGif": ""
  },
  "ownership": {
    "default": 0
  },
  "_stats": {
    "systemId": "tormenta20",
    "systemVersion": "1.4.116",
    "coreVersion": "11.298",
    "createdTime": 1664310462822,
    "modifiedTime": 1684622830660,
    "lastModifiedBy": "ZWR5Tn3AhSIFqwp6"
  },
  "_key": "!items!soVAGPRWQmKxOrPm"
}
