{
  "folder": "9JHwQ2z00Gs58phl",
  "name": "D1 Convocação",
  "sorting": "a",
  "type": "Item",
  "_id": "UeqtCFS3KD27OAUk",
  "sort": 0,
  "flags": {},
  "_stats": {
    "systemId": null,
    "systemVersion": null,
    "coreVersion": null,
    "createdTime": null,
    "modifiedTime": null,
    "lastModifiedBy": null
  },
  "_key": "!folders!UeqtCFS3KD27OAUk"
}
