{
  "folder": "9JHwQ2z00Gs58phl",
  "name": "D1 Encantamento",
  "sorting": "a",
  "type": "Item",
  "_id": "rYuXjvRuDEXa7GNY",
  "sort": 0,
  "flags": {},
  "_stats": {
    "systemId": null,
    "systemVersion": null,
    "coreVersion": null,
    "createdTime": null,
    "modifiedTime": null,
    "lastModifiedBy": null
  },
  "_key": "!folders!rYuXjvRuDEXa7GNY"
}
