{
  "folder": "WLMWYYg9fshNSVpV",
  "name": "D2 Abjuração",
  "sorting": "a",
  "type": "Item",
  "_id": "C87MrWNlRCw1rLAT",
  "sort": 0,
  "flags": {},
  "_stats": {
    "systemId": null,
    "systemVersion": null,
    "coreVersion": null,
    "createdTime": null,
    "modifiedTime": null,
    "lastModifiedBy": null
  },
  "_key": "!folders!C87MrWNlRCw1rLAT"
}
