{
  "folder": "WLMWYYg9fshNSVpV",
  "name": "D2 Adivinhação",
  "sorting": "a",
  "type": "Item",
  "_id": "7qHtGvSoffZXEVGU",
  "sort": 0,
  "flags": {},
  "_stats": {
    "systemId": null,
    "systemVersion": null,
    "coreVersion": null,
    "createdTime": null,
    "modifiedTime": null,
    "lastModifiedBy": null
  },
  "_key": "!folders!7qHtGvSoffZXEVGU"
}
