{
  "folder": "WLMWYYg9fshNSVpV",
  "name": "D2 Evocação",
  "sorting": "a",
  "type": "Item",
  "_id": "nUZzjRZCyl2p92SC",
  "sort": 0,
  "flags": {},
  "_stats": {
    "systemId": null,
    "systemVersion": null,
    "coreVersion": null,
    "createdTime": null,
    "modifiedTime": null,
    "lastModifiedBy": null
  },
  "_key": "!folders!nUZzjRZCyl2p92SC"
}
