{
  "_id": "Bi0qxZaqWT0O2wBh",
  "name": "Deflagração de Mana",
  "type": "magia",
  "img": "systems/tormenta20/icons/magias/deflagracao-de-mana.webp",
  "effects": [
    {
      "_id": "aIdp8LiWQX25fW7e",
      "flags": {
        "t20": null,
        "tormenta20": {
          "onuse": true,
          "self": true,
          "custo": "1",
          "aumenta": true,
          "attack": false,
          "skill": false,
          "ability": false,
          "power": false,
          "spell": false,
          "consumable": false,
          "durationScene": false
        }
      },
      "changes": [
        {
          "key": "dano",
          "mode": 2,
          "value": "10",
          "priority": null
        }
      ],
      "disabled": true,
      "duration": {
        "startTime": null,
        "seconds": null,
        "combat": null,
        "rounds": null,
        "turns": null,
        "startRound": null,
        "startTurn": null
      },
      "icon": "icons/svg/upgrade.svg",
      "label": "aumenta o dano em 10.",
      "origin": "Compendium.tormenta20.magias.Bi0qxZaqWT0O2wBh",
      "transfer": false,
      "tint": null,
      "_key": "!items.effects!Bi0qxZaqWT0O2wBh.aIdp8LiWQX25fW7e"
    },
    {
      "_id": "q0Fcn0Z7QyokwWZ9",
      "flags": {
        "t20": null,
        "tormenta20": {
          "onuse": true,
          "self": true,
          "custo": "5",
          "aumenta": false
        }
      },
      "changes": [],
      "disabled": true,
      "duration": {
        "startTime": null,
        "seconds": null,
        "combat": null,
        "rounds": null,
        "turns": null,
        "startRound": null,
        "startTurn": null
      },
      "icon": "icons/svg/upgrade.svg",
      "label": "afeta apenas criaturas a sua escolha.",
      "origin": "Compendium.tormenta20.magias.Bi0qxZaqWT0O2wBh",
      "transfer": false,
      "tint": null,
      "_key": "!items.effects!Bi0qxZaqWT0O2wBh.q0Fcn0Z7QyokwWZ9"
    }
  ],
  "folder": "S9r2zpzj6Mm6KnQl",
  "sort": 0,
  "flags": {
    "core": {
      "sourceId": "Item.7H84m4XT2kKhqeHY"
    }
  },
  "system": {
    "description": {
      "value": "<p style=\"text-align:justify;\">Após concentrar seu mana, você emana energia, como uma estrela em plena terra. Todas as criaturas na área sofrem 150 pontos de dano de essência e todos os itens mágicos (exceto artefatos) tornam-se mundanos. Você não é afetado pela magia. Alvos que passem no teste de Fortitude sofrem metade do dano e seus itens mágicos voltam a funcionar após um dia.</p>",
      "chat": "",
      "unidentified": ""
    },
    "source": "T20, pg. 189 (JdA)",
    "ativacao": {
      "execucao": "full",
      "custo": 15,
      "qtd": "",
      "condicao": "",
      "special": ""
    },
    "duracao": {
      "value": 0,
      "units": "inst",
      "special": ""
    },
    "target": {
      "value": null,
      "width": null,
      "units": "",
      "type": ""
    },
    "range": {
      "value": null,
      "units": ""
    },
    "consume": {
      "type": "",
      "target": "",
      "amount": null,
      "mpMultiplier": false
    },
    "efeito": "",
    "alcance": "self",
    "alvo": "",
    "area": "esfera de 15m de raio",
    "resistencia": {
      "pericia": "",
      "atributo": "int",
      "bonus": 0,
      "txt": "Fortitude parcial"
    },
    "rolls": [
      {
        "name": "Dano",
        "key": "dano0",
        "type": "dano",
        "parts": [
          [
            "150",
            "essencia",
            ""
          ]
        ],
        "versatil": ""
      }
    ],
    "tipo": "arc",
    "circulo": "5",
    "preparada": false,
    "escola": "evo",
    "chatFlavor": "",
    "origin": "",
    "tags": [],
    "chatGif": ""
  },
  "ownership": {
    "default": 0
  },
  "_stats": {
    "systemId": "tormenta20",
    "systemVersion": "1.4.116",
    "coreVersion": "11.298",
    "createdTime": 1664310461778,
    "modifiedTime": 1684622830660,
    "lastModifiedBy": "ZWR5Tn3AhSIFqwp6"
  },
  "_key": "!items!Bi0qxZaqWT0O2wBh"
}
