{
  "_id": "oFPOvZqHlPTyj4XD",
  "name": "Desintegrar",
  "type": "magia",
  "img": "systems/tormenta20/icons/magias/desintegrar.webp",
  "effects": [
    {
      "_id": "qeqZ9ZhouJ48lEj9",
      "flags": {
        "t20": null,
        "tormenta20": {
          "onuse": true,
          "self": true,
          "custo": "4",
          "aumenta": true,
          "attack": false,
          "skill": false,
          "ability": false,
          "power": false,
          "spell": false,
          "consumable": false,
          "durationScene": false
        }
      },
      "changes": [
        {
          "key": "dano",
          "mode": 0,
          "value": "2d12",
          "priority": null
        }
      ],
      "disabled": true,
      "duration": {
        "startTime": null,
        "seconds": null,
        "combat": null,
        "rounds": null,
        "turns": null,
        "startRound": null,
        "startTurn": null
      },
      "icon": "icons/svg/upgrade.svg",
      "label": "aumenta o dano total em +2d12 e o dano mínimo em +1d12.",
      "origin": "Compendium.tormenta20.magias.oFPOvZqHlPTyj4XD",
      "transfer": false,
      "tint": null,
      "_key": "!items.effects!oFPOvZqHlPTyj4XD.qeqZ9ZhouJ48lEj9"
    }
  ],
  "folder": "911fHy1VvyYmffKK",
  "sort": 0,
  "flags": {
    "core": {
      "sourceId": "Item.cMRNoSnkc0i085Wx"
    }
  },
  "system": {
    "description": {
      "value": "<p style=\"text-align: justify;\">Voc&ecirc; dispara um raio fino e esverdeado que causa 10d12 pontos de dano de ess&ecirc;ncia. Se o alvo passar no teste de resist&ecirc;ncia, em vez disso sofre 2d12 pontos de dano.</p>\n<p style=\"text-align: justify;\">Independentemente do resultado do teste de Fortitude, se os PV do alvo forem reduzidos a 0 ou menos, ele ser&aacute; completamente desintegrado, restando apenas p&oacute;.</p>",
      "chat": "",
      "unidentified": ""
    },
    "source": "T20, pg. 190 (JdA)",
    "ativacao": {
      "execucao": "action",
      "custo": 10,
      "qtd": "",
      "condicao": "",
      "special": ""
    },
    "duracao": {
      "value": 0,
      "units": "inst",
      "special": ""
    },
    "target": {
      "value": null,
      "width": null,
      "units": "",
      "type": ""
    },
    "range": {
      "value": null,
      "units": ""
    },
    "consume": {
      "type": "",
      "target": "",
      "amount": null,
      "mpMultiplier": false
    },
    "efeito": "",
    "alcance": "medium",
    "alvo": "1 criatura ou objeto",
    "area": "",
    "resistencia": {
      "pericia": "",
      "atributo": "int",
      "bonus": 0,
      "txt": "Fortitude parcial"
    },
    "rolls": [
      {
        "name": "Dano",
        "key": "dano0",
        "type": "dano",
        "parts": [
          [
            "10d12",
            "essencia",
            ""
          ]
        ],
        "versatil": ""
      },
      {
        "name": "Dano parcial",
        "key": "dano1",
        "type": "dano",
        "parts": [
          [
            "2d12",
            "essencia",
            ""
          ]
        ],
        "versatil": ""
      }
    ],
    "tipo": "arc",
    "circulo": "4",
    "preparada": false,
    "escola": "tra",
    "chatFlavor": "",
    "origin": "",
    "tags": [],
    "chatGif": ""
  },
  "ownership": {
    "default": 0
  },
  "_stats": {
    "systemId": "tormenta20",
    "systemVersion": "1.4.116",
    "coreVersion": "11.298",
    "createdTime": 1664310462811,
    "modifiedTime": 1684622830660,
    "lastModifiedBy": "ZWR5Tn3AhSIFqwp6"
  },
  "_key": "!items!oFPOvZqHlPTyj4XD"
}
