{
  "_id": "UIQajfvegC0ptC7O",
  "name": "Dispersar as Trevas",
  "type": "magia",
  "img": "systems/tormenta20/icons/magias/dispersar-trevas.webp",
  "effects": [
    {
      "_id": "BAALs1pqe6qAvRCS",
      "flags": {
        "t20": null,
        "tormenta20": {
          "onuse": true,
          "self": true,
          "custo": "2",
          "aumenta": true,
          "attack": false,
          "skill": false,
          "ability": false,
          "power": false,
          "spell": false,
          "consumable": false,
          "durationScene": false,
          "items": ""
        }
      },
      "changes": [
        {
          "key": "system.pericias.fort.bonus",
          "mode": 2,
          "value": "1",
          "priority": 0
        },
        {
          "key": "system.pericias.refl.bonus",
          "mode": 2,
          "value": "1",
          "priority": 0
        },
        {
          "key": "system.pericias.vont.bonus",
          "mode": 2,
          "value": "1",
          "priority": 0
        }
      ],
      "disabled": true,
      "duration": {
        "startTime": null,
        "seconds": null,
        "combat": null,
        "rounds": null,
        "turns": null,
        "startRound": null,
        "startTurn": null
      },
      "icon": "icons/svg/upgrade.svg",
      "label": "aumenta o bônus nas resistências em +1.",
      "origin": "Compendium.tormenta20.magias.UIQajfvegC0ptC7O",
      "transfer": false,
      "tint": null,
      "_key": "!items.effects!UIQajfvegC0ptC7O.BAALs1pqe6qAvRCS"
    },
    {
      "_id": "HVAXTTFcfJE6WkQu",
      "flags": {
        "t20": null,
        "tormenta20": {
          "onuse": true,
          "self": true,
          "custo": "4",
          "aumenta": false
        }
      },
      "changes": [
        {
          "key": "alcance",
          "value": "curto",
          "mode": 5,
          "priority": null
        },
        {
          "key": "area",
          "value": "alvo 1 criatura",
          "mode": 5,
          "priority": null
        },
        {
          "key": "duracao",
          "value": "Cena",
          "mode": 5,
          "priority": null
        }
      ],
      "disabled": true,
      "duration": {
        "startTime": null,
        "seconds": null,
        "combat": null,
        "rounds": null,
        "turns": null,
        "startRound": null,
        "startTurn": null
      },
      "icon": "icons/svg/upgrade.svg",
      "label": "muda o alcance para curto, a área para alvo 1 criatura e a duração para cena. O alvo fica imune a efeitos de necromancia e trevas.",
      "origin": "Compendium.tormenta20.magias.UIQajfvegC0ptC7O",
      "transfer": false,
      "tint": null,
      "_key": "!items.effects!UIQajfvegC0ptC7O.HVAXTTFcfJE6WkQu"
    },
    {
      "_id": "u2D4Npvi3ebOqo6I",
      "flags": {
        "t20": null,
        "tormenta20": {
          "onuse": true,
          "self": true,
          "custo": "4",
          "aumenta": false
        }
      },
      "changes": [],
      "disabled": true,
      "duration": {
        "startTime": null,
        "seconds": null,
        "combat": null,
        "rounds": null,
        "turns": null,
        "startRound": null,
        "startTurn": null
      },
      "icon": "icons/svg/upgrade.svg",
      "label": "muda o círculo máximo de magias dissipadas para 4º. Requer 4º círculo.",
      "origin": "Compendium.tormenta20.magias.UIQajfvegC0ptC7O",
      "transfer": false,
      "tint": null,
      "_key": "!items.effects!UIQajfvegC0ptC7O.u2D4Npvi3ebOqo6I"
    },
    {
      "_id": "dU6FV0gkSnFKJz79",
      "flags": {
        "t20": null,
        "tormenta20": {
          "onuse": true,
          "self": true,
          "custo": "9",
          "aumenta": false
        }
      },
      "changes": [],
      "disabled": true,
      "duration": {
        "startTime": null,
        "seconds": null,
        "combat": null,
        "rounds": null,
        "turns": null,
        "startRound": null,
        "startTurn": null
      },
      "icon": "icons/svg/upgrade.svg",
      "label": "muda o círculo máximo de magias dissipadas para 5º. Requer 5º círculo.",
      "origin": "Compendium.tormenta20.magias.UIQajfvegC0ptC7O",
      "transfer": false,
      "tint": null,
      "_key": "!items.effects!UIQajfvegC0ptC7O.dU6FV0gkSnFKJz79"
    },
    {
      "_id": "Kp6MQS1nSURuLfaC",
      "changes": [
        {
          "key": "system.tracos.resistencias.trevas.value",
          "mode": 2,
          "value": "10",
          "priority": null
        },
        {
          "key": "system.pericias.fort.bonus",
          "mode": 2,
          "value": "4",
          "priority": null
        },
        {
          "key": "system.pericias.refl.bonus",
          "mode": 2,
          "value": "4",
          "priority": null
        },
        {
          "key": "system.pericias.vont.bonus",
          "mode": 2,
          "value": "4",
          "priority": null
        }
      ],
      "disabled": false,
      "duration": {
        "rounds": 1,
        "startTime": null,
        "seconds": null,
        "combat": null,
        "turns": null,
        "startRound": null,
        "startTurn": null
      },
      "icon": "systems/tormenta20/icons/magias/dispersar-trevas.webp",
      "label": "Dispersar as Trevas",
      "origin": "Item.dgWCjcKWomv1B5NH",
      "transfer": false,
      "flags": {
        "tormenta20": {
          "onuse": false,
          "durationScene": true
        }
      },
      "tint": null,
      "_key": "!items.effects!UIQajfvegC0ptC7O.Kp6MQS1nSURuLfaC"
    }
  ],
  "folder": "g3m5JWv836MEhs83",
  "sort": 0,
  "flags": {
    "core": {
      "sourceId": "Item.XijvwjCU2BVx9ddl"
    }
  },
  "system": {
    "description": {
      "value": "<p style=\"text-align: justify;\">Esta magia cria um forte brilho (multicolorido ou de uma cor que remeta a sua divindade) que causa diversos efeitos. Todas as magias de 3&ordm; c&iacute;rculo ou menor ativas na &aacute;rea s&atilde;o dissipadas se voc&ecirc; passar num teste de Religi&atilde;o contra a CD de cada magia. Seus aliados na &aacute;rea recebem +4 em testes de resist&ecirc;ncia e redu&ccedil;&atilde;o de trevas 10 at&eacute; o fim da cena, protegidos por uma aura sutil da mesma cor. Inimigos na &aacute;rea ficam @UUID[JournalEntry.s15J5SOYixL3Ajzr.JournalEntryPage.qN5JjvnXDq4Xak1K]{Cego} por 1d4 rodadas (apenas uma vez pela magia). <em>Dispersar as Trevas </em>anula <em>Anular a Luz </em>(este efeito tem dura&ccedil;&atilde;o instant&acirc;nea).</p>",
      "chat": "",
      "unidentified": ""
    },
    "source": "T20, pg. 199 (JdA)",
    "ativacao": {
      "execucao": "action",
      "custo": 6,
      "qtd": "",
      "condicao": "",
      "special": ""
    },
    "duracao": {
      "value": 0,
      "units": "special",
      "special": "veja texto"
    },
    "target": {
      "value": null,
      "width": null,
      "units": "",
      "type": ""
    },
    "range": {
      "value": null,
      "units": ""
    },
    "consume": {
      "type": "",
      "target": "",
      "amount": null,
      "mpMultiplier": false
    },
    "efeito": "",
    "alcance": "self",
    "alvo": "",
    "area": "Esfera de 6m de raio",
    "resistencia": {
      "pericia": "",
      "atributo": "sab",
      "bonus": 0,
      "txt": ""
    },
    "rolls": [],
    "tipo": "div",
    "circulo": "3",
    "preparada": false,
    "escola": "evo",
    "chatFlavor": "",
    "origin": "",
    "tags": [],
    "chatGif": ""
  },
  "ownership": {
    "default": 0
  },
  "_stats": {
    "systemId": "tormenta20",
    "systemVersion": "1.4.116",
    "coreVersion": "11.298",
    "createdTime": 1664310461914,
    "modifiedTime": 1684622830660,
    "lastModifiedBy": "ZWR5Tn3AhSIFqwp6"
  },
  "_key": "!items!UIQajfvegC0ptC7O"
}
