{
  "_id": "BbPDW78AmxKBMhHS",
  "name": "Engenho de Mana",
  "type": "magia",
  "img": "systems/tormenta20/icons/magias/engenho-de-mana.webp",
  "effects": [
    {
      "_id": "UflQ9JpRut6N6xGU",
      "flags": {
        "t20": null,
        "tormenta20": {
          "onuse": true,
          "self": true,
          "custo": "1",
          "aumenta": false
        }
      },
      "changes": [],
      "disabled": true,
      "duration": {
        "startTime": null,
        "seconds": null,
        "combat": null,
        "rounds": null,
        "turns": null,
        "startRound": null,
        "startTurn": null
      },
      "icon": "icons/svg/upgrade.svg",
      "label": "em vez de flutuar no ponto em que foi conjurado, o disco flutua atrás de você, mantendo-se sempre adjacente.",
      "origin": "Compendium.tormenta20.magias.BbPDW78AmxKBMhHS",
      "transfer": false,
      "tint": null,
      "_key": "!items.effects!BbPDW78AmxKBMhHS.UflQ9JpRut6N6xGU"
    },
    {
      "_id": "yfHbJc2R6bWlz2UO",
      "flags": {
        "t20": null,
        "tormenta20": {
          "onuse": true,
          "self": true,
          "custo": "4",
          "aumenta": false
        }
      },
      "changes": [
        {
          "key": "duracao",
          "value": "1 dia",
          "mode": 5,
          "priority": null
        }
      ],
      "disabled": true,
      "duration": {
        "startTime": null,
        "seconds": null,
        "combat": null,
        "rounds": null,
        "turns": null,
        "startRound": null,
        "startTurn": null
      },
      "icon": "icons/svg/upgrade.svg",
      "label": "muda a duração para 1 dia.",
      "origin": "Compendium.tormenta20.magias.BbPDW78AmxKBMhHS",
      "transfer": false,
      "tint": null,
      "_key": "!items.effects!BbPDW78AmxKBMhHS.yfHbJc2R6bWlz2UO"
    },
    {
      "_id": "TunAFqHtRCPOwBdO",
      "changes": [],
      "disabled": false,
      "duration": {
        "rounds": 1,
        "startTime": null,
        "seconds": null,
        "combat": null,
        "turns": null,
        "startRound": null,
        "startTurn": null
      },
      "icon": "systems/tormenta20/icons/magias/engenho-de-mana.webp",
      "label": "Engenho de Mana",
      "origin": "Item.E0JxDomGFRc6pQB8",
      "transfer": false,
      "flags": {
        "tormenta20": {
          "onuse": false,
          "durationScene": true
        }
      },
      "tint": null,
      "_key": "!items.effects!BbPDW78AmxKBMhHS.TunAFqHtRCPOwBdO"
    }
  ],
  "folder": "mCDYVjEU9bEesaBu",
  "sort": 0,
  "flags": {
    "core": {
      "sourceId": "Item.i47JjbzrUUywSS6a"
    }
  },
  "system": {
    "description": {
      "value": "<p style=\"text-align: justify;\">Voc&ecirc; cria um disco de energia que lembra uma roda de engenho e flutua no ponto em que foi conjurado. O disco &eacute; imune a dano, n&atilde;o pode ser movido e faz uma contram&aacute;gica autom&aacute;tica contra qualquer magia lan&ccedil;ada em alcance m&eacute;dio dele (exceto as suas), usando seu teste de Misticismo. Caso ven&ccedil;a o teste, o engenho n&atilde;o s&oacute; anula a magia como absorve os PM usados para lan&ccedil;&aacute;-la, acumulando PM tempor&aacute;rios. No seu turno, se estiver ao alcance do disco, voc&ecirc; pode gastar PM nele para lan&ccedil;ar magias.</p>",
      "chat": "",
      "unidentified": ""
    },
    "source": "T20, pg. 192 (JdA)",
    "ativacao": {
      "execucao": "action",
      "custo": 15,
      "qtd": "",
      "condicao": "",
      "special": ""
    },
    "duracao": {
      "value": 0,
      "units": "sust",
      "special": ""
    },
    "target": {
      "value": null,
      "width": null,
      "units": "",
      "type": ""
    },
    "range": {
      "value": null,
      "units": ""
    },
    "consume": {
      "type": "",
      "target": "",
      "amount": null,
      "mpMultiplier": false
    },
    "efeito": "disco de energia com 1,5m de diâmetro",
    "alcance": "medium",
    "alvo": "",
    "area": "",
    "resistencia": {
      "pericia": "",
      "atributo": "sab",
      "bonus": 0,
      "txt": ""
    },
    "rolls": [],
    "tipo": "div",
    "circulo": "5",
    "preparada": false,
    "escola": "abj",
    "chatFlavor": "",
    "origin": "",
    "tags": [],
    "chatGif": ""
  },
  "ownership": {
    "default": 0
  },
  "_stats": {
    "systemId": "tormenta20",
    "systemVersion": "1.4.116",
    "coreVersion": "11.298",
    "createdTime": 1664310461776,
    "modifiedTime": 1684622830660,
    "lastModifiedBy": "ZWR5Tn3AhSIFqwp6"
  },
  "_key": "!items!BbPDW78AmxKBMhHS"
}
