{
  "_id": "Lo49R4kuZV1bZHr4",
  "name": "Esculpir Sons",
  "type": "magia",
  "img": "systems/tormenta20/icons/magias/esculpir-sons.webp",
  "effects": [
    {
      "_id": "PFybBH0Hj4GYkpE8",
      "flags": {
        "t20": null,
        "tormenta20": {
          "onuse": true,
          "self": true,
          "custo": "2",
          "aumenta": true
        }
      },
      "changes": [],
      "disabled": true,
      "duration": {
        "startTime": null,
        "seconds": null,
        "combat": null,
        "rounds": null,
        "turns": null,
        "startRound": null,
        "startTurn": null
      },
      "icon": "icons/svg/upgrade.svg",
      "label": "aumenta o número de alvos em +1. Todas as criaturas e objetos devem ser afetadas da mesma forma.",
      "origin": "Compendium.tormenta20.magias.Lo49R4kuZV1bZHr4",
      "transfer": false,
      "tint": null,
      "_key": "!items.effects!Lo49R4kuZV1bZHr4.PFybBH0Hj4GYkpE8"
    },
    {
      "_id": "DXFYimT4ePIOLuv0",
      "changes": [],
      "disabled": false,
      "duration": {
        "rounds": 1,
        "startTime": null,
        "seconds": null,
        "combat": null,
        "turns": null,
        "startRound": null,
        "startTurn": null
      },
      "icon": "systems/tormenta20/icons/magias/esculpir-sons.webp",
      "label": "Esculpir Sons",
      "origin": "Item.uTTuZBUTRo5mE5AV",
      "transfer": false,
      "flags": {
        "tormenta20": {
          "onuse": false,
          "durationScene": true
        }
      },
      "tint": null,
      "_key": "!items.effects!Lo49R4kuZV1bZHr4.DXFYimT4ePIOLuv0"
    }
  ],
  "folder": "JF3PQ5Q84KVTjyxv",
  "sort": 0,
  "flags": {
    "core": {
      "sourceId": "Item.IzSJs3ttKE2KTSQJ"
    }
  },
  "system": {
    "description": {
      "value": "<p style=\"text-align:justify;\">Esta magia altera os sons emitidos pelo alvo. Ela não é capaz de criar sons, mas pode omiti-los (como fazer uma carroça ficar silenciosa) ou transformá-los (como fazer uma pessoa ficar com voz de passarinho). Você não pode criar sons que não conhece (não pode fazer uma criatura falar num idioma que não conheça). Uma vez que escolha a alteração, ela não pode ser mudada. Um conjurador que tenha a voz modificada drasticamente não poderá lançar magias.</p>",
      "chat": "",
      "unidentified": ""
    },
    "source": "T20, pg. 192 (JdA)",
    "ativacao": {
      "execucao": "action",
      "custo": 3,
      "qtd": "",
      "condicao": "",
      "special": ""
    },
    "duracao": {
      "value": 0,
      "units": "scene",
      "special": ""
    },
    "target": {
      "value": null,
      "width": null,
      "units": "",
      "type": ""
    },
    "range": {
      "value": null,
      "units": ""
    },
    "consume": {
      "type": "",
      "target": "",
      "amount": null,
      "mpMultiplier": false
    },
    "efeito": "",
    "alcance": "medium",
    "alvo": "1 criatura ou objeto",
    "area": "",
    "resistencia": {
      "pericia": "",
      "atributo": "int",
      "bonus": 0,
      "txt": "Vontade anula"
    },
    "rolls": [],
    "tipo": "arc",
    "circulo": "2",
    "preparada": false,
    "escola": "ilu",
    "chatFlavor": "",
    "origin": "",
    "tags": [],
    "chatGif": ""
  },
  "ownership": {
    "default": 0
  },
  "_stats": {
    "systemId": "tormenta20",
    "systemVersion": "1.4.116",
    "coreVersion": "11.298",
    "createdTime": 1664310461897,
    "modifiedTime": 1684622830660,
    "lastModifiedBy": "ZWR5Tn3AhSIFqwp6"
  },
  "_key": "!items!Lo49R4kuZV1bZHr4"
}
