{
  "_id": "cgJPXzVbOQLjyXfe",
  "name": "Físico Divino",
  "type": "magia",
  "img": "systems/tormenta20/icons/magias/fisico-divino.webp",
  "effects": [
    {
      "_id": "Iw1Su6f48hP42yjc",
      "flags": {
        "t20": null,
        "tormenta20": {
          "onuse": true,
          "self": true,
          "custo": "3",
          "aumenta": false,
          "attack": false,
          "skill": false,
          "ability": false,
          "power": false,
          "spell": false,
          "consumable": false,
          "items": "",
          "durationScene": false
        }
      },
      "changes": [],
      "disabled": true,
      "duration": {
        "startTime": null,
        "seconds": null,
        "combat": null,
        "rounds": null,
        "turns": null,
        "startRound": null,
        "startTurn": null
      },
      "icon": "icons/svg/upgrade.svg",
      "label": "muda o alcance para curto e o alvo para criaturas escolhidas.",
      "origin": "Compendium.tormenta20.magias.cgJPXzVbOQLjyXfe",
      "transfer": false,
      "tint": null,
      "_key": "!items.effects!cgJPXzVbOQLjyXfe.Iw1Su6f48hP42yjc"
    },
    {
      "_id": "aSIzUL1KZZbcLibV",
      "flags": {
        "t20": null,
        "tormenta20": {
          "onuse": true,
          "self": true,
          "custo": "3",
          "aumenta": false,
          "attack": false,
          "skill": false,
          "ability": false,
          "power": false,
          "spell": false,
          "consumable": false,
          "items": "",
          "durationScene": false
        }
      },
      "changes": [
        {
          "key": "alcance",
          "mode": 5,
          "value": "curto",
          "priority": 0
        },
        {
          "key": "alvo",
          "mode": 5,
          "value": "criaturas escolhidas",
          "priority": 0
        }
      ],
      "disabled": true,
      "duration": {
        "startTime": null,
        "seconds": null,
        "combat": null,
        "rounds": null,
        "turns": null,
        "startRound": null,
        "startTurn": null
      },
      "icon": "icons/svg/upgrade.svg",
      "label": "em vez do normal, o alvo recebe +2 nos três atributos físicos. Requer 3º círculo.",
      "origin": "Compendium.tormenta20.magias.cgJPXzVbOQLjyXfe",
      "transfer": false,
      "tint": null,
      "_key": "!items.effects!cgJPXzVbOQLjyXfe.aSIzUL1KZZbcLibV"
    },
    {
      "_id": "scy3EyDVbAGydVTq",
      "flags": {
        "t20": null,
        "tormenta20": {
          "onuse": true,
          "self": true,
          "custo": "7",
          "aumenta": false,
          "ability": false,
          "attack": false,
          "skill": false,
          "power": false,
          "spell": false,
          "consumable": false,
          "durationScene": false,
          "items": "",
          "equipment": false
        }
      },
      "changes": [
        {
          "key": "system.atributos.for.value",
          "mode": 2,
          "value": "2",
          "priority": 0
        }
      ],
      "disabled": true,
      "duration": {
        "startTime": null,
        "seconds": null,
        "combat": null,
        "rounds": null,
        "turns": null,
        "startRound": null,
        "startTurn": null
      },
      "icon": "icons/svg/upgrade.svg",
      "label": "em vez do normal, o alvo recebe +4 no atributo escolhido. Requer 4º círculo.",
      "origin": "Compendium.tormenta20.magias.cgJPXzVbOQLjyXfe",
      "transfer": false,
      "tint": null,
      "_key": "!items.effects!cgJPXzVbOQLjyXfe.scy3EyDVbAGydVTq"
    },
    {
      "_id": "APuBh1yBMnCE4zBH",
      "changes": [
        {
          "key": "system.atributos.for.value",
          "mode": 2,
          "value": "0",
          "priority": null
        },
        {
          "key": "system.atributos.des.value",
          "mode": 2,
          "value": "0",
          "priority": null
        },
        {
          "key": "system.atributos.con.value",
          "mode": 2,
          "value": "0",
          "priority": null
        }
      ],
      "disabled": false,
      "duration": {
        "rounds": 1,
        "startTime": null,
        "seconds": null,
        "combat": null,
        "turns": null,
        "startRound": null,
        "startTurn": null
      },
      "icon": "systems/tormenta20/icons/magias/fisico-divino.webp",
      "label": "Físico Divino",
      "origin": "Item.4zu34o2w2P5bC2Xb",
      "transfer": false,
      "flags": {
        "tormenta20": {
          "onuse": false,
          "durationScene": true
        }
      },
      "tint": null,
      "_key": "!items.effects!cgJPXzVbOQLjyXfe.APuBh1yBMnCE4zBH"
    },
    {
      "_id": "GarfwwQ94a8zMSak",
      "changes": [],
      "disabled": true,
      "duration": {
        "startTime": null,
        "seconds": null,
        "combat": null,
        "rounds": null,
        "turns": null,
        "startRound": null,
        "startTurn": null
      },
      "icon": "icons/svg/upgrade.svg",
      "label": "em vez do normal, o alvo recebe +4 nos três atributos físicos. Requer 5º círculo.",
      "origin": "Item.4zu34o2w2P5bC2Xb",
      "transfer": false,
      "flags": {
        "tormenta20": {
          "onuse": true,
          "ability": false,
          "self": true,
          "attack": false,
          "skill": false,
          "power": false,
          "spell": false,
          "consumable": false,
          "aumenta": false,
          "custo": "15",
          "durationScene": false,
          "items": ""
        }
      },
      "tint": null,
      "_key": "!items.effects!cgJPXzVbOQLjyXfe.GarfwwQ94a8zMSak"
    },
    {
      "_id": "TXbZz91XvGCAtmTP",
      "changes": [
        {
          "key": "system.atributos.for.value",
          "mode": 2,
          "value": "2",
          "priority": 0
        }
      ],
      "disabled": true,
      "duration": {
        "startTime": null,
        "seconds": null,
        "combat": null,
        "rounds": null,
        "turns": null,
        "startRound": null,
        "startTurn": null
      },
      "icon": "icons/svg/upgrade.svg",
      "label": "+2 em Força",
      "origin": "Item.4zu34o2w2P5bC2Xb",
      "transfer": false,
      "flags": {
        "tormenta20": {
          "onuse": true,
          "ability": false,
          "self": true,
          "attack": false,
          "skill": false,
          "power": false,
          "spell": false,
          "consumable": false,
          "aumenta": true,
          "custo": "0",
          "durationScene": false,
          "items": "",
          "equipment": false
        }
      },
      "tint": null,
      "_key": "!items.effects!cgJPXzVbOQLjyXfe.TXbZz91XvGCAtmTP"
    },
    {
      "_id": "bBshs5Hf8uEhDIAv",
      "changes": [
        {
          "key": "system.atributos.des.value",
          "mode": 2,
          "value": "2",
          "priority": 0
        }
      ],
      "disabled": true,
      "duration": {
        "startTime": null,
        "seconds": null,
        "combat": null,
        "rounds": null,
        "turns": null,
        "startRound": null,
        "startTurn": null
      },
      "icon": "icons/svg/upgrade.svg",
      "label": "+2 em Destreza",
      "origin": "Item.4zu34o2w2P5bC2Xb",
      "transfer": false,
      "flags": {
        "tormenta20": {
          "onuse": true,
          "ability": false,
          "self": true,
          "attack": false,
          "skill": false,
          "power": false,
          "spell": false,
          "consumable": false,
          "aumenta": true,
          "custo": "0",
          "durationScene": false,
          "items": "",
          "equipment": false
        }
      },
      "tint": null,
      "_key": "!items.effects!cgJPXzVbOQLjyXfe.bBshs5Hf8uEhDIAv"
    },
    {
      "_id": "wqOXTqAQYZRk92CG",
      "changes": [
        {
          "key": "system.atributos.con.value",
          "mode": 2,
          "value": "2",
          "priority": 0
        }
      ],
      "disabled": true,
      "duration": {
        "startTime": null,
        "seconds": null,
        "combat": null,
        "rounds": null,
        "turns": null,
        "startRound": null,
        "startTurn": null
      },
      "icon": "icons/svg/upgrade.svg",
      "label": "+2 em Constituição",
      "origin": "Item.4zu34o2w2P5bC2Xb",
      "transfer": false,
      "flags": {
        "tormenta20": {
          "onuse": true,
          "self": true,
          "attack": false,
          "skill": false,
          "ability": false,
          "power": false,
          "spell": false,
          "consumable": false,
          "aumenta": true,
          "custo": "0",
          "durationScene": false,
          "items": "",
          "equipment": false
        }
      },
      "tint": null,
      "_key": "!items.effects!cgJPXzVbOQLjyXfe.wqOXTqAQYZRk92CG"
    }
  ],
  "folder": "qywU2r4WYPZtCRR1",
  "sort": 0,
  "flags": {
    "core": {
      "sourceId": "Item.3uSMwDV1wkKi1h6B"
    },
    "cf": null
  },
  "system": {
    "description": {
      "value": "<p style=\"text-align: justify;\">Voc&ecirc; fortalece o corpo do alvo. Ele recebe +2 em For&ccedil;a, Destreza ou Constitui&ccedil;&atilde;o, a sua escolha. Esse aumento n&atilde;o oferece PV ou PM adicionais.</p>",
      "chat": "",
      "unidentified": ""
    },
    "source": "T20, pg. 193 (JdA)",
    "ativacao": {
      "execucao": "action",
      "custo": 3,
      "qtd": "",
      "condicao": "",
      "special": ""
    },
    "duracao": {
      "value": 0,
      "units": "scene",
      "special": ""
    },
    "target": {
      "value": null,
      "width": null,
      "units": "",
      "type": ""
    },
    "range": {
      "value": null,
      "units": ""
    },
    "consume": {
      "type": "",
      "target": "",
      "amount": null,
      "mpMultiplier": false
    },
    "efeito": "",
    "alcance": "touch",
    "alvo": "1 criatura",
    "area": "",
    "resistencia": {
      "pericia": "",
      "atributo": "sab",
      "bonus": 0,
      "txt": ""
    },
    "rolls": [],
    "tipo": "div",
    "circulo": "2",
    "preparada": false,
    "escola": "tra",
    "chatFlavor": "",
    "origin": "",
    "tags": [],
    "chatGif": ""
  },
  "ownership": {
    "default": 0
  },
  "_stats": {
    "systemId": "tormenta20",
    "systemVersion": "1.4.116",
    "coreVersion": "11.298",
    "createdTime": 1664310462768,
    "modifiedTime": 1684622830660,
    "lastModifiedBy": "ZWR5Tn3AhSIFqwp6"
  },
  "_key": "!items!cgJPXzVbOQLjyXfe"
}
