{
  "_id": "tVxVarpB0GaAoCp5",
  "name": "Ferver Sangue",
  "type": "magia",
  "img": "systems/tormenta20/icons/magias/ferver-sangue.webp",
  "effects": [
    {
      "_id": "Bxba43zea5xHivv6",
      "flags": {
        "t20": null,
        "tormenta20": {
          "onuse": true,
          "self": true,
          "custo": "2",
          "aumenta": true,
          "attack": false,
          "skill": false,
          "ability": false,
          "power": false,
          "spell": false,
          "consumable": false,
          "items": "",
          "durationScene": false
        }
      },
      "changes": [
        {
          "key": "dano",
          "mode": 0,
          "value": "1d6",
          "priority": 0
        }
      ],
      "disabled": true,
      "duration": {
        "startTime": null,
        "seconds": null,
        "combat": null,
        "rounds": null,
        "turns": null,
        "startRound": null,
        "startTurn": null
      },
      "icon": "icons/svg/upgrade.svg",
      "label": "aumenta o dano em +1d8.",
      "origin": "Compendium.tormenta20.magias.tVxVarpB0GaAoCp5",
      "transfer": false,
      "tint": null,
      "_key": "!items.effects!tVxVarpB0GaAoCp5.Bxba43zea5xHivv6"
    },
    {
      "_id": "tLIrRjfeyDLLV8Q3",
      "flags": {
        "t20": null,
        "tormenta20": {
          "onuse": true,
          "self": true,
          "custo": "9",
          "aumenta": false
        }
      },
      "changes": [
        {
          "key": "alvo",
          "value": "criaturas escolhidas",
          "mode": 5,
          "priority": null
        }
      ],
      "disabled": true,
      "duration": {
        "startTime": null,
        "seconds": null,
        "combat": null,
        "rounds": null,
        "turns": null,
        "startRound": null,
        "startTurn": null
      },
      "icon": "icons/svg/upgrade.svg",
      "label": "muda alvo para criaturas escolhidas. Requer 5º círculo.",
      "origin": "Compendium.tormenta20.magias.tVxVarpB0GaAoCp5",
      "transfer": false,
      "tint": null,
      "_key": "!items.effects!tVxVarpB0GaAoCp5.tLIrRjfeyDLLV8Q3"
    },
    {
      "_id": "DEij8bV7eUeqE3fE",
      "changes": [],
      "disabled": false,
      "duration": {
        "rounds": 1,
        "startTime": null,
        "seconds": null,
        "combat": null,
        "turns": null,
        "startRound": null,
        "startTurn": null
      },
      "icon": "systems/tormenta20/icons/magias/ferver-sangue.webp",
      "label": "Criaturas Escolhidas",
      "origin": "Item.tj3iMUCTzv8AKjnh",
      "transfer": false,
      "flags": {
        "tormenta20": {
          "onuse": false,
          "durationScene": true
        }
      },
      "tint": null,
      "_key": "!items.effects!tVxVarpB0GaAoCp5.DEij8bV7eUeqE3fE"
    }
  ],
  "folder": "sIwCZpQmdkUJpruy",
  "sort": 0,
  "flags": {
    "core": {
      "sourceId": "Item.nH9O86YqO06Gr5mm"
    }
  },
  "system": {
    "description": {
      "value": "<p style=\"text-align: justify;\">O sangue do alvo aquece rapidamente at&eacute; entrar em ebuli&ccedil;&atilde;o. Quando a magia &eacute; lan&ccedil;ada, e no in&iacute;cio de cada um de seus turnos, o alvo sofre 4d8 pontos de dano de fogo e fica @UUID[JournalEntry.s15J5SOYixL3Ajzr.JournalEntryPage.BUMyxT4YI9mdC8Aj]{Enjoado} por uma rodada (Fortitude reduz o dano &agrave; metade e evita a condi&ccedil;&atilde;o). Se o alvo passar em dois testes de Fortitude seguidos, dissipa a magia. Se o alvo for reduzido a 0 PV pelo dano desta magia, seu corpo explode, matando-o e causando 6d6 pontos de dano de fogo em todas as criaturas a at&eacute; 3m (Reflexos reduz &agrave; metade). Essa magia n&atilde;o afeta criaturas sem sangue, como construtos ou mortos-vivos.</p>",
      "chat": "",
      "unidentified": ""
    },
    "source": "T20, pg. 195 (JdA)",
    "ativacao": {
      "execucao": "action",
      "custo": 6,
      "qtd": "",
      "condicao": "",
      "special": ""
    },
    "duracao": {
      "value": 0,
      "units": "sust",
      "special": ""
    },
    "target": {
      "value": null,
      "width": null,
      "units": "",
      "type": ""
    },
    "range": {
      "value": null,
      "units": ""
    },
    "consume": {
      "type": "",
      "target": "",
      "amount": null,
      "mpMultiplier": false
    },
    "efeito": "",
    "alcance": "short",
    "alvo": "1 criatura",
    "area": "",
    "resistencia": {
      "pericia": "",
      "atributo": "int",
      "bonus": 0,
      "txt": "Fortitude parcial"
    },
    "rolls": [
      {
        "name": "Dano",
        "key": "dano0",
        "type": "dano",
        "parts": [
          [
            "4d8",
            "fogo",
            ""
          ]
        ],
        "versatil": ""
      }
    ],
    "tipo": "arc",
    "circulo": "3",
    "preparada": false,
    "escola": "nec",
    "chatFlavor": "",
    "origin": "",
    "tags": [],
    "chatGif": ""
  },
  "ownership": {
    "default": 0
  },
  "_stats": {
    "systemId": "tormenta20",
    "systemVersion": "1.4.116",
    "coreVersion": "11.298",
    "createdTime": 1664310462826,
    "modifiedTime": 1684622830660,
    "lastModifiedBy": "ZWR5Tn3AhSIFqwp6"
  },
  "_key": "!items!tVxVarpB0GaAoCp5"
}
