{
  "_id": "secWy6zyYamo3Xnx",
  "name": "Imagem Espelhada",
  "type": "magia",
  "img": "systems/tormenta20/icons/magias/imagem-espelhada.webp",
  "effects": [
    {
      "_id": "Ie29TxOU55m47buZ",
      "flags": {
        "t20": null,
        "tormenta20": {
          "onuse": true,
          "self": true,
          "custo": "2",
          "aumenta": true,
          "attack": false,
          "skill": false,
          "ability": false,
          "power": false,
          "spell": false,
          "consumable": false,
          "durationScene": false
        }
      },
      "changes": [
        {
          "key": "system.attributes.defesa.bonus",
          "mode": 2,
          "value": "2",
          "priority": null
        }
      ],
      "disabled": true,
      "duration": {
        "startTime": null,
        "seconds": null,
        "combat": null,
        "rounds": null,
        "turns": null,
        "startRound": null,
        "startTurn": null
      },
      "icon": "icons/svg/upgrade.svg",
      "label": "aumenta o número de cópias em +1 (e o bônus na Defesa em +2).",
      "origin": "Compendium.tormenta20.magias.secWy6zyYamo3Xnx",
      "transfer": false,
      "tint": null,
      "_key": "!items.effects!secWy6zyYamo3Xnx.Ie29TxOU55m47buZ"
    },
    {
      "_id": "vGmIE4QLA0WTxIt9",
      "flags": {
        "t20": null,
        "tormenta20": {
          "onuse": true,
          "self": true,
          "custo": "2",
          "aumenta": false
        }
      },
      "changes": [],
      "disabled": true,
      "duration": {
        "startTime": null,
        "seconds": null,
        "combat": null,
        "rounds": null,
        "turns": null,
        "startRound": null,
        "startTurn": null
      },
      "icon": "icons/svg/upgrade.svg",
      "label": "além do normal, toda vez que uma cópia é destruída, emite um clarão de luz. A criatura que destruiu a cópia fica ofuscada por uma rodada. Requer 2º círculo.",
      "origin": "Compendium.tormenta20.magias.secWy6zyYamo3Xnx",
      "transfer": false,
      "tint": null,
      "_key": "!items.effects!secWy6zyYamo3Xnx.vGmIE4QLA0WTxIt9"
    },
    {
      "_id": "caDtz2AyMaR6qYkX",
      "changes": [
        {
          "key": "system.attributes.defesa.bonus",
          "mode": 2,
          "value": "6",
          "priority": null
        }
      ],
      "disabled": false,
      "duration": {
        "rounds": 1,
        "startTime": null,
        "seconds": null,
        "combat": null,
        "turns": null,
        "startRound": null,
        "startTurn": null
      },
      "icon": "systems/tormenta20/icons/magias/imagem-espelhada.webp",
      "label": "Imagem Espelhada",
      "origin": "Item.zJjM1i69MWx3xcBT",
      "transfer": false,
      "flags": {
        "tormenta20": {
          "onuse": false,
          "durationScene": true
        }
      },
      "tint": null,
      "_key": "!items.effects!secWy6zyYamo3Xnx.caDtz2AyMaR6qYkX"
    }
  ],
  "folder": "eOR9yLzI2EByQRJv",
  "sort": 0,
  "flags": {
    "core": {
      "sourceId": "Item.w2JCxtC9wEAu6FQk"
    },
    "cf": null
  },
  "system": {
    "description": {
      "value": "<p style=\"text-align:justify;\">Três cópias ilusórias suas aparecem. As duplicatas ficam ao seu redor e imitam suas ações, tornando difícil para um inimigo saber quem atacar. Você recebe +6 na Defesa. Cada vez que um ataque contra você erra, uma das imagens desaparece e o bônus na Defesa diminui em 2. Um oponente deve ver as cópias para ser confundido. Se você estiver invisível, ou o atacante fechar os olhos, você não recebe o bônus (mas o atacante ainda sofre penalidades normais por não enxergar).</p>",
      "chat": "",
      "unidentified": ""
    },
    "source": "T20, pg. 195 (JdA)",
    "ativacao": {
      "execucao": "action",
      "custo": 1,
      "qtd": "",
      "condicao": "",
      "special": ""
    },
    "duracao": {
      "value": 0,
      "units": "scene",
      "special": ""
    },
    "target": {
      "value": null,
      "width": null,
      "units": "",
      "type": ""
    },
    "range": {
      "value": null,
      "units": ""
    },
    "consume": {
      "type": "",
      "target": "",
      "amount": null,
      "mpMultiplier": false
    },
    "efeito": "",
    "alcance": "self",
    "alvo": "Você",
    "area": "",
    "resistencia": {
      "pericia": "",
      "atributo": "int",
      "bonus": 0,
      "txt": ""
    },
    "rolls": [],
    "tipo": "arc",
    "circulo": "1",
    "preparada": false,
    "escola": "ilu",
    "chatFlavor": "",
    "origin": "",
    "tags": [],
    "chatGif": ""
  },
  "ownership": {
    "default": 0
  },
  "_stats": {
    "systemId": "tormenta20",
    "systemVersion": "1.4.116",
    "coreVersion": "11.298",
    "createdTime": 1664310462821,
    "modifiedTime": 1684622830660,
    "lastModifiedBy": "ZWR5Tn3AhSIFqwp6"
  },
  "_key": "!items!secWy6zyYamo3Xnx"
}
