{
  "_id": "AQaBKvwWmWE4vmu3",
  "name": "Infligir Ferimentos",
  "type": "magia",
  "img": "systems/tormenta20/icons/magias/infligir-ferimentos.webp",
  "effects": [
    {
      "_id": "wdioRsnBHbXZjnzC",
      "flags": {
        "t20": null,
        "tormenta20": {
          "onuse": true,
          "self": true,
          "custo": "1",
          "aumenta": false
        }
      },
      "changes": [
        {
          "key": "condicao",
          "value": "fraco",
          "mode": 0,
          "priority": null
        }
      ],
      "disabled": true,
      "duration": {
        "startTime": null,
        "seconds": null,
        "combat": null,
        "rounds": null,
        "turns": null,
        "startRound": null,
        "startTurn": null
      },
      "icon": "icons/svg/upgrade.svg",
      "label": "além do normal, se falhar na resistência, o alvo fica fraco pela cena.",
      "origin": "Compendium.tormenta20.magias.AQaBKvwWmWE4vmu3",
      "transfer": false,
      "tint": null,
      "_key": "!items.effects!AQaBKvwWmWE4vmu3.wdioRsnBHbXZjnzC"
    },
    {
      "_id": "nF4ZhfO9HrFaHHfw",
      "flags": {
        "t20": null,
        "tormenta20": {
          "onuse": true,
          "self": true,
          "custo": "2",
          "aumenta": true,
          "attack": false,
          "skill": false,
          "ability": false,
          "power": false,
          "spell": false,
          "consumable": false,
          "durationScene": false
        }
      },
      "changes": [
        {
          "key": "dano",
          "mode": 0,
          "value": "1d8+1",
          "priority": null
        }
      ],
      "disabled": true,
      "duration": {
        "startTime": null,
        "seconds": null,
        "combat": null,
        "rounds": null,
        "turns": null,
        "startRound": null,
        "startTurn": null
      },
      "icon": "icons/svg/upgrade.svg",
      "label": "aumenta o dano em 1d8+1.",
      "origin": "Compendium.tormenta20.magias.AQaBKvwWmWE4vmu3",
      "transfer": false,
      "tint": null,
      "_key": "!items.effects!AQaBKvwWmWE4vmu3.nF4ZhfO9HrFaHHfw"
    },
    {
      "_id": "Q2JBj0p8GZ0y3W5Y",
      "flags": {
        "t20": null,
        "tormenta20": {
          "onuse": true,
          "self": true,
          "custo": "2",
          "aumenta": false,
          "attack": false,
          "skill": false,
          "ability": false,
          "power": false,
          "spell": false,
          "consumable": false,
          "items": "",
          "durationScene": false
        }
      },
      "changes": [],
      "disabled": true,
      "duration": {
        "startTime": null,
        "seconds": null,
        "combat": null,
        "rounds": null,
        "turns": null,
        "startRound": null,
        "startTurn": null
      },
      "icon": "icons/svg/upgrade.svg",
      "label": "muda a resistência para nenhum. Como parte da execução da magia, você pode fazer um ataque corpo a corpo contra o alvo. Se acertar, causa o dano do ataque e o efeito da magia.",
      "origin": "Compendium.tormenta20.magias.AQaBKvwWmWE4vmu3",
      "transfer": false,
      "tint": null,
      "_key": "!items.effects!AQaBKvwWmWE4vmu3.Q2JBj0p8GZ0y3W5Y"
    },
    {
      "_id": "EdBhXnQ6ht6u3rB1",
      "flags": {
        "t20": null,
        "tormenta20": {
          "onuse": true,
          "self": true,
          "custo": "5",
          "aumenta": false
        }
      },
      "changes": [
        {
          "key": "alcance",
          "value": "curto",
          "mode": 5,
          "priority": null
        },
        {
          "key": "alvo",
          "value": "criaturas escolhidas",
          "mode": 5,
          "priority": null
        }
      ],
      "disabled": true,
      "duration": {
        "startTime": null,
        "seconds": null,
        "combat": null,
        "rounds": null,
        "turns": null,
        "startRound": null,
        "startTurn": null
      },
      "icon": "icons/svg/upgrade.svg",
      "label": "muda o alcance para curto e o alvo para criaturas escolhidas.",
      "origin": "Compendium.tormenta20.magias.AQaBKvwWmWE4vmu3",
      "transfer": false,
      "tint": null,
      "_key": "!items.effects!AQaBKvwWmWE4vmu3.EdBhXnQ6ht6u3rB1"
    }
  ],
  "folder": "exKmpBOKJtRjgbsN",
  "sort": 0,
  "flags": {
    "core": {
      "sourceId": "Item.ebsrmaNcpkKL4zXI"
    }
  },
  "system": {
    "description": {
      "value": "<p style=\"text-align: justify;\">Voc&ecirc; canaliza energia negativa contra um alvo, causando 2d8+2 pontos de dano de trevas (ou curando 2d8+2 PV, se for um morto-vivo). <em>Infligir Ferimentos</em> anula <em>Curar Ferimentos</em>.</p>",
      "chat": "",
      "unidentified": ""
    },
    "source": "T20, pg. 195 (JdA)",
    "ativacao": {
      "execucao": "action",
      "custo": 1,
      "qtd": "",
      "condicao": "",
      "special": ""
    },
    "duracao": {
      "value": 0,
      "units": "inst",
      "special": ""
    },
    "target": {
      "value": null,
      "width": null,
      "units": "",
      "type": ""
    },
    "range": {
      "value": null,
      "units": ""
    },
    "consume": {
      "type": "",
      "target": "",
      "amount": null,
      "mpMultiplier": false
    },
    "efeito": "",
    "alcance": "touch",
    "alvo": "1 criatura",
    "area": "",
    "resistencia": {
      "pericia": "",
      "atributo": "sab",
      "bonus": 0,
      "txt": "Fortitude reduz à metade"
    },
    "rolls": [
      {
        "name": "Dano",
        "key": "dano0",
        "type": "dano",
        "parts": [
          [
            "2d8+2",
            "trevas",
            ""
          ]
        ],
        "versatil": ""
      }
    ],
    "tipo": "div",
    "circulo": "1",
    "preparada": false,
    "escola": "nec",
    "chatFlavor": "",
    "origin": "",
    "tags": [],
    "chatGif": ""
  },
  "ownership": {
    "default": 0
  },
  "_stats": {
    "systemId": "tormenta20",
    "systemVersion": "1.4.116",
    "coreVersion": "11.298",
    "createdTime": 1664310461774,
    "modifiedTime": 1684622830660,
    "lastModifiedBy": "ZWR5Tn3AhSIFqwp6"
  },
  "_key": "!items!AQaBKvwWmWE4vmu3"
}
