{
  "_id": "RzK5XmyDjKEYWel5",
  "name": "Lança Ígnea",
  "type": "magia",
  "img": "systems/tormenta20/icons/magias/lanca-ignea.webp",
  "effects": [
    {
      "_id": "pYnMbgG93GxeTt5q",
      "flags": {
        "t20": null,
        "tormenta20": {
          "onuse": true,
          "self": true,
          "custo": "3",
          "aumenta": true,
          "attack": false,
          "skill": false,
          "ability": false,
          "power": false,
          "equipment": false,
          "spell": false,
          "consumable": false,
          "items": "",
          "durationScene": false
        }
      },
      "changes": [
        {
          "key": "dano:fogo",
          "mode": 0,
          "value": "1d6",
          "priority": 0
        },
        {
          "key": "condicao",
          "mode": 0,
          "value": "em chamas",
          "priority": 0
        },
        {
          "key": "dano:perfuracao",
          "mode": 0,
          "value": "1d6",
          "priority": 0
        }
      ],
      "disabled": true,
      "duration": {
        "startTime": null,
        "seconds": null,
        "combat": null,
        "rounds": null,
        "turns": null,
        "startRound": null,
        "startTurn": null
      },
      "icon": "icons/svg/upgrade.svg",
      "label": "aumenta o dano inicial em +2d6 e o dano do efeito em chamas em +1d6.",
      "origin": "Compendium.tormenta20.magias.RzK5XmyDjKEYWel5",
      "transfer": false,
      "tint": null,
      "_key": "!items.effects!RzK5XmyDjKEYWel5.pYnMbgG93GxeTt5q"
    },
    {
      "_id": "q0RizI5ZTqZFUh4R",
      "flags": {
        "t20": null,
        "tormenta20": {
          "onuse": true,
          "self": true,
          "custo": "4",
          "aumenta": false
        }
      },
      "changes": [
        {
          "key": "duracao",
          "value": "cena ou até ser descarregada",
          "mode": 5,
          "priority": null
        }
      ],
      "disabled": true,
      "duration": {
        "startTime": null,
        "seconds": null,
        "combat": null,
        "rounds": null,
        "turns": null,
        "startRound": null,
        "startTurn": null
      },
      "icon": "icons/svg/upgrade.svg",
      "label": "muda a duração para cena ou até ser descarregada. Em vez do efeito normal, a magia cria quatro dardos de lava que flutuam ao lado do conjurador. Uma vez por rodada, como uma ação livre, você pode disparar um dos dardos em uma criatura, causando o efeito normal da magia. Requer 4º Círculo.",
      "origin": "Compendium.tormenta20.magias.RzK5XmyDjKEYWel5",
      "transfer": false,
      "tint": null,
      "_key": "!items.effects!RzK5XmyDjKEYWel5.q0RizI5ZTqZFUh4R"
    },
    {
      "_id": "tk2TFX5v8C8zGeeW",
      "changes": [],
      "disabled": false,
      "duration": {
        "rounds": 1,
        "startTime": null,
        "seconds": null,
        "combat": null,
        "turns": null,
        "startRound": null,
        "startTurn": null
      },
      "icon": "systems/tormenta20/icons/magias/lanca-ignea.webp",
      "label": "Em chamas",
      "origin": "Item.jqivb1xiblRAiN8o",
      "transfer": false,
      "flags": {
        "tormenta20": {
          "onuse": false,
          "durationScene": true
        }
      },
      "tint": null,
      "_key": "!items.effects!RzK5XmyDjKEYWel5.tk2TFX5v8C8zGeeW"
    }
  ],
  "folder": "S9YMO5Jyr0D1dsWK",
  "sort": 0,
  "flags": {
    "core": {
      "sourceId": "Item.sPQUNMjFQ0OG9v41"
    }
  },
  "system": {
    "description": {
      "value": "<p style=\"text-align: justify;\">Esta magia foi desenvolvida por um mago imortal, um entusiasta dos estudos vulc&acirc;nicos. Ela dispara um proj&eacute;til de magma contra o alvo, que sofre 4d6 pontos de dano de fogo e 4d6 pontos de dano de perfura&ccedil;&atilde;o e fica em chamas. As chamas causam 2d6 pontos de dano por rodada, em vez do dano normal. Se passar no teste de resist&ecirc;ncia, o alvo sofre metade do dano e n&atilde;o fica em chamas.</p>\n<p style=\"text-align: justify;\">Respingos de rocha incandescente se espalham com a explos&atilde;o, atingindo todas as criaturas adjacentes ao alvo, que devem fazer um teste de Reflexos. Se falharem, ficam em chamas, como descrito acima.</p>",
      "chat": "",
      "unidentified": ""
    },
    "source": "T20, pg. 196 (JdA)",
    "ativacao": {
      "execucao": "action",
      "custo": 6,
      "qtd": "",
      "condicao": "",
      "special": ""
    },
    "duracao": {
      "value": 0,
      "units": "inst",
      "special": ""
    },
    "target": {
      "value": null,
      "width": null,
      "units": "",
      "type": ""
    },
    "range": {
      "value": null,
      "units": ""
    },
    "consume": {
      "type": "",
      "target": "",
      "amount": null,
      "mpMultiplier": false
    },
    "efeito": "",
    "alcance": "medium",
    "alvo": "1 criatura",
    "area": "",
    "resistencia": {
      "pericia": "",
      "atributo": "int",
      "bonus": 0,
      "txt": "Reflexos parcial"
    },
    "rolls": [
      {
        "name": "Dano",
        "key": "dano0",
        "type": "dano",
        "parts": [
          [
            "4d6",
            "fogo",
            ""
          ],
          [
            "4d6",
            "perfuracao",
            ""
          ]
        ],
        "versatil": ""
      }
    ],
    "tipo": "arc",
    "circulo": "3",
    "preparada": false,
    "escola": "evo",
    "chatFlavor": "",
    "origin": "",
    "tags": [],
    "chatGif": ""
  },
  "ownership": {
    "default": 0
  },
  "_stats": {
    "systemId": "tormenta20",
    "systemVersion": "1.4.116",
    "coreVersion": "11.298",
    "createdTime": 1664310461911,
    "modifiedTime": 1684622830660,
    "lastModifiedBy": "ZWR5Tn3AhSIFqwp6"
  },
  "_key": "!items!RzK5XmyDjKEYWel5"
}
