{
  "_id": "PS9AQUuhxRBnUeS4",
  "name": "Legião",
  "type": "magia",
  "img": "systems/tormenta20/icons/magias/legiao.webp",
  "effects": [
    {
      "_id": "AuPZAFB8KdmEmVoC",
      "flags": {
        "t20": null,
        "tormenta20": {
          "onuse": true,
          "self": true,
          "custo": "1",
          "aumenta": true
        }
      },
      "changes": [],
      "disabled": true,
      "duration": {
        "startTime": null,
        "seconds": null,
        "combat": null,
        "rounds": null,
        "turns": null,
        "startRound": null,
        "startTurn": null
      },
      "icon": "icons/svg/upgrade.svg",
      "label": "aumenta o número de alvos em +1.",
      "origin": "Compendium.tormenta20.magias.PS9AQUuhxRBnUeS4",
      "transfer": false,
      "tint": null,
      "_key": "!items.effects!PS9AQUuhxRBnUeS4.AuPZAFB8KdmEmVoC"
    },
    {
      "_id": "c2dgWhqQu3iLb2tt",
      "changes": [],
      "disabled": false,
      "duration": {
        "rounds": 1,
        "startTime": null,
        "seconds": null,
        "combat": null,
        "turns": null,
        "startRound": null,
        "startTurn": null
      },
      "icon": "systems/tormenta20/icons/magias/legiao.webp",
      "label": "Alvos Controlados",
      "origin": "Item.2jiIING3oBlNWZwf",
      "transfer": false,
      "flags": {
        "tormenta20": {
          "onuse": false,
          "durationScene": true
        }
      },
      "tint": null,
      "_key": "!items.effects!PS9AQUuhxRBnUeS4.c2dgWhqQu3iLb2tt"
    }
  ],
  "folder": "qdNPlLqrk4tOV6Tp",
  "sort": 0,
  "flags": {
    "core": {
      "sourceId": "Item.jTZjIE4q4EKOolSB"
    }
  },
  "system": {
    "description": {
      "value": "<p style=\"text-align: justify;\">Voc&ecirc; domina a mente dos alvos. Os alvos obedecem cegamente a seus comandos, exceto ordens claramente suicidas. Um alvo tem direito a um teste no final de cada um de seus turnos para se livrar do efeito. Alvos que passarem no teste ficam @UUID[JournalEntry.s15J5SOYixL3Ajzr.JournalEntryPage.ccqJXj25EVIzUhzo]{Abalado} por 1 rodada enquanto recuperam a consci&ecirc;ncia.</p>",
      "chat": "",
      "unidentified": ""
    },
    "source": "T20, pg. 196 (JdA)",
    "ativacao": {
      "execucao": "action",
      "custo": 15,
      "qtd": "",
      "condicao": "",
      "special": ""
    },
    "duracao": {
      "value": 0,
      "units": "sust",
      "special": ""
    },
    "target": {
      "value": null,
      "width": null,
      "units": "",
      "type": ""
    },
    "range": {
      "value": null,
      "units": ""
    },
    "consume": {
      "type": "",
      "target": "",
      "amount": null,
      "mpMultiplier": false
    },
    "efeito": "",
    "alcance": "medium",
    "alvo": "até 10 criaturas na área",
    "area": "",
    "resistencia": {
      "pericia": "",
      "atributo": "int",
      "bonus": 0,
      "txt": "Vontade parcial"
    },
    "rolls": [],
    "tipo": "arc",
    "circulo": "5",
    "preparada": false,
    "escola": "enc",
    "chatFlavor": "",
    "origin": "",
    "tags": [],
    "chatGif": ""
  },
  "ownership": {
    "default": 0
  },
  "_stats": {
    "systemId": "tormenta20",
    "systemVersion": "1.4.116",
    "coreVersion": "11.298",
    "createdTime": 1664310461906,
    "modifiedTime": 1684622830660,
    "lastModifiedBy": "ZWR5Tn3AhSIFqwp6"
  },
  "_key": "!items!PS9AQUuhxRBnUeS4"
}
