{
  "_id": "hJ7eYMyWFf0i1jBn",
  "name": "Ligação Sombria",
  "type": "magia",
  "img": "systems/tormenta20/icons/magias/ligacao-sombria.webp",
  "effects": [
    {
      "_id": "1CIyRJBmaEBhQQZl",
      "flags": {
        "t20": null,
        "tormenta20": {
          "onuse": true,
          "self": true,
          "custo": "5",
          "aumenta": false
        }
      },
      "changes": [],
      "disabled": true,
      "duration": {
        "startTime": null,
        "seconds": null,
        "combat": null,
        "rounds": null,
        "turns": null,
        "startRound": null,
        "startTurn": null
      },
      "icon": "icons/svg/upgrade.svg",
      "label": "além do normal, o alvo também pode morrer por perda de PV ou se você morrer (um teste de Fortitude anula a morte).",
      "origin": "Compendium.tormenta20.magias.hJ7eYMyWFf0i1jBn",
      "transfer": false,
      "tint": null,
      "_key": "!items.effects!hJ7eYMyWFf0i1jBn.1CIyRJBmaEBhQQZl"
    },
    {
      "_id": "eutYN40NmTDMBA76",
      "changes": [],
      "disabled": false,
      "duration": {
        "rounds": 1,
        "startTime": null,
        "seconds": null,
        "combat": null,
        "turns": null,
        "startRound": null,
        "startTurn": null
      },
      "icon": "systems/tormenta20/icons/magias/ligacao-sombria.webp",
      "label": "Ligaçao Sombria",
      "origin": "Item.MaQpWm7kCs0Ns5jo",
      "transfer": false,
      "flags": {
        "tormenta20": {
          "onuse": false,
          "durationScene": true
        }
      },
      "tint": null,
      "_key": "!items.effects!hJ7eYMyWFf0i1jBn.eutYN40NmTDMBA76"
    }
  ],
  "folder": "4fqBodz9EQCtUpJF",
  "sort": 0,
  "flags": {
    "core": {
      "sourceId": "Item.7tg5XIwHI0SN8NCz"
    }
  },
  "system": {
    "description": {
      "value": "<p style=\"text-align:justify;\">Cria uma conexão entre seu corpo e o da criatura alvo, deixando uma marca idêntica na pele de ambos. Enquanto a magia durar, sempre que você sofrer qualquer dano ou condição, o alvo desta magia deve fazer um teste de Fortitude; se falhar, sofre o mesmo dano que você ou adquire a mesma condição. A magia termina se o alvo chegar a 0 pontos de vida.</p>",
      "chat": "",
      "unidentified": ""
    },
    "source": "T20, pg. 196 (JdA)",
    "ativacao": {
      "execucao": "action",
      "custo": 10,
      "qtd": "",
      "condicao": "",
      "special": ""
    },
    "duracao": {
      "value": 1,
      "units": "day",
      "special": ""
    },
    "target": {
      "value": null,
      "width": null,
      "units": "",
      "type": ""
    },
    "range": {
      "value": null,
      "units": ""
    },
    "consume": {
      "type": "",
      "target": "",
      "amount": null,
      "mpMultiplier": false
    },
    "efeito": "",
    "alcance": "long",
    "alvo": "1 criatura",
    "area": "",
    "resistencia": {
      "pericia": "",
      "atributo": "sab",
      "bonus": 0,
      "txt": "Fortitude anula"
    },
    "rolls": [],
    "tipo": "div",
    "circulo": "4",
    "preparada": false,
    "escola": "nec",
    "chatFlavor": "",
    "origin": "",
    "tags": [],
    "chatGif": ""
  },
  "ownership": {
    "default": 0
  },
  "_stats": {
    "systemId": "tormenta20",
    "systemVersion": "1.4.116",
    "coreVersion": "11.298",
    "createdTime": 1664310462781,
    "modifiedTime": 1684622830660,
    "lastModifiedBy": "ZWR5Tn3AhSIFqwp6"
  },
  "_key": "!items!hJ7eYMyWFf0i1jBn"
}
