{
  "_id": "iHOlYjBeNhqDVYbQ",
  "name": "Manto de Sombras",
  "type": "magia",
  "img": "systems/tormenta20/icons/magias/manto-de-sombras.webp",
  "effects": [
    {
      "_id": "TRhjtRauX2pys3Dz",
      "flags": {
        "t20": null,
        "tormenta20": {
          "onuse": true,
          "self": true,
          "custo": "4",
          "aumenta": false
        }
      },
      "changes": [
        {
          "key": "alcance",
          "value": "Toque",
          "mode": 5,
          "priority": null
        },
        {
          "key": "alvo",
          "value": "1 criatura",
          "mode": 5,
          "priority": null
        }
      ],
      "disabled": true,
      "duration": {
        "startTime": null,
        "seconds": null,
        "combat": null,
        "rounds": null,
        "turns": null,
        "startRound": null,
        "startTurn": null
      },
      "icon": "icons/svg/upgrade.svg",
      "label": "muda o alcance para toque e o alvo para 1 criatura. Requer 4º círculo.",
      "origin": "Compendium.tormenta20.magias.iHOlYjBeNhqDVYbQ",
      "transfer": false,
      "tint": null,
      "_key": "!items.effects!iHOlYjBeNhqDVYbQ.TRhjtRauX2pys3Dz"
    },
    {
      "_id": "uzz47NJXJQyyN3n1",
      "changes": [],
      "disabled": false,
      "duration": {
        "rounds": 1,
        "startTime": null,
        "seconds": null,
        "combat": null,
        "turns": null,
        "startRound": null,
        "startTurn": null
      },
      "icon": "systems/tormenta20/icons/magias/manto-de-sombras.webp",
      "label": "Manto de Sombras",
      "origin": "Item.17Vdl7dStTWnjAZY",
      "transfer": false,
      "flags": {
        "tormenta20": {
          "onuse": false,
          "durationScene": true
        }
      },
      "tint": null,
      "_key": "!items.effects!iHOlYjBeNhqDVYbQ.uzz47NJXJQyyN3n1"
    }
  ],
  "folder": "7c0MzjFa6ZE6n4gl",
  "sort": 0,
  "flags": {
    "core": {
      "sourceId": "Item.ah80wZBkSqnDO35i"
    }
  },
  "system": {
    "description": {
      "value": "<p style=\"text-align: justify;\">Voc&ecirc; fica coberto por um manto de energia sombria. Nesta forma, torna-se incorp&oacute;reo (inclui seu equipamento): s&oacute; pode ser afetado por armas m&aacute;gicas,&nbsp; ou por outras criaturas incorp&oacute;reas e pode atravessar objetos s&oacute;lidos, mas n&atilde;o manipul&aacute;-los. Tamb&eacute;m n&atilde;o pode atacar criaturas normais (mas ainda pode lan&ccedil;ar magias nelas). Al&eacute;m disso, se torna vulner&aacute;vel &agrave; luz direta: se exposto a uma fonte de luz, sofre 1 ponto de dano por rodada.</p>\n<p style=\"text-align: justify;\">Voc&ecirc; pode gastar uma a&ccedil;&atilde;o de movimento e 1 PM para &ldquo;entrar&rdquo; em uma sombra do seu tamanho ou maior e se teletransportar para outra sombra, tamb&eacute;m do seu tamanho ou maior, em alcance m&eacute;dio.</p>",
      "chat": "",
      "unidentified": ""
    },
    "source": "T20, pg. 197 (JdA)",
    "ativacao": {
      "execucao": "action",
      "custo": 6,
      "qtd": "",
      "condicao": "",
      "special": ""
    },
    "duracao": {
      "value": 0,
      "units": "sust",
      "special": ""
    },
    "target": {
      "value": null,
      "width": null,
      "units": "",
      "type": ""
    },
    "range": {
      "value": null,
      "units": ""
    },
    "consume": {
      "type": "",
      "target": "",
      "amount": null,
      "mpMultiplier": false
    },
    "efeito": "",
    "alcance": "self",
    "alvo": "você",
    "area": "",
    "resistencia": {
      "pericia": "",
      "atributo": "sab",
      "bonus": 0,
      "txt": ""
    },
    "rolls": [],
    "tipo": "uni",
    "circulo": "3",
    "preparada": false,
    "escola": "ilu",
    "chatFlavor": "",
    "origin": "",
    "tags": [],
    "chatGif": ""
  },
  "ownership": {
    "default": 0
  },
  "_stats": {
    "systemId": "tormenta20",
    "systemVersion": "1.4.116",
    "coreVersion": "11.298",
    "createdTime": 1664310462782,
    "modifiedTime": 1684622830660,
    "lastModifiedBy": "ZWR5Tn3AhSIFqwp6"
  },
  "_key": "!items!iHOlYjBeNhqDVYbQ"
}
