{
  "_id": "hyrMxy1zmRDWJbmB",
  "name": "Manto do Cruzado",
  "type": "magia",
  "img": "systems/tormenta20/icons/magias/manto-do-cruzado.webp",
  "effects": [
    {
      "_id": "tpVQeMpu7R1uub2U",
      "changes": [
        {
          "key": "system.modificadores.dano.cac",
          "mode": 2,
          "value": "2d8",
          "priority": null
        }
      ],
      "disabled": false,
      "duration": {
        "rounds": 1,
        "startTime": null,
        "seconds": null,
        "combat": null,
        "turns": null,
        "startRound": null,
        "startTurn": null
      },
      "icon": "systems/tormenta20/icons/magias/manto-do-cruzado.webp",
      "label": "Manto de Luz",
      "origin": "Item.rayAzLYgDBfc2cvv",
      "transfer": false,
      "flags": {
        "tormenta20": {
          "onuse": false,
          "durationScene": true
        }
      },
      "tint": null,
      "_key": "!items.effects!hyrMxy1zmRDWJbmB.tpVQeMpu7R1uub2U"
    },
    {
      "_id": "GIvosxSBsp5Xd9Be",
      "changes": [],
      "disabled": false,
      "duration": {
        "rounds": 1,
        "startTime": null,
        "seconds": null,
        "combat": null,
        "turns": null,
        "startRound": null,
        "startTurn": null
      },
      "icon": "systems/tormenta20/icons/magias/manto-do-cruzado.webp",
      "label": "Manto de Trevas",
      "origin": "Item.rayAzLYgDBfc2cvv",
      "transfer": false,
      "flags": {
        "tormenta20": {
          "onuse": false,
          "durationScene": true
        }
      },
      "tint": null,
      "_key": "!items.effects!hyrMxy1zmRDWJbmB.GIvosxSBsp5Xd9Be"
    }
  ],
  "folder": "fjzcx2rvOZ83jHv7",
  "sort": 0,
  "flags": {
    "core": {
      "sourceId": "Item.c1OvRgidkUKf383j"
    }
  },
  "system": {
    "description": {
      "value": "<p style=\"text-align: justify;\">Voc&ecirc; invoca o poder de sua divindade na forma de um manto de energia que reveste seu corpo. Esta magia tem duas vers&otilde;es. Voc&ecirc; escolhe qual vers&atilde;o pode lan&ccedil;ar quando aprende esta magia. Ela n&atilde;o pode ser mudada.</p>\n<p style=\"text-align: justify;\"><em>Manto de Luz:</em> um manto dourado e luminoso. No in&iacute;cio de cada um de seus turnos, voc&ecirc; e todos os seus aliados em alcance curto recuperam 2d8 PV. Voc&ecirc; recebe imunidade a dano de trevas e seus ataques corpo a corpo causam +2d8 pontos de dano de luz.</p>\n<p style=\"text-align: justify;\"><em>Manto de Trevas:</em> um manto negro como a noite. No in&iacute;cio de cada um de seus turnos, todos os inimigos em alcance curto sofrem 4d8 pontos de dano de trevas. Voc&ecirc; cura metade de todo o dano causado pela magia.</p>",
      "chat": "",
      "unidentified": ""
    },
    "source": "T20, pg. 197 (JdA)",
    "ativacao": {
      "execucao": "action",
      "custo": 10,
      "qtd": "",
      "condicao": "",
      "special": ""
    },
    "duracao": {
      "value": 0,
      "units": "sust",
      "special": ""
    },
    "target": {
      "value": null,
      "width": null,
      "units": "",
      "type": ""
    },
    "range": {
      "value": null,
      "units": ""
    },
    "consume": {
      "type": "",
      "target": "",
      "amount": null,
      "mpMultiplier": false
    },
    "efeito": "",
    "alcance": "self",
    "alvo": "vocẽ",
    "area": "",
    "resistencia": {
      "pericia": "",
      "atributo": "sab",
      "bonus": 0,
      "txt": ""
    },
    "rolls": [],
    "tipo": "div",
    "circulo": "4",
    "preparada": false,
    "escola": "evo",
    "chatFlavor": "",
    "origin": "",
    "tags": [],
    "chatGif": ""
  },
  "ownership": {
    "default": 0
  },
  "_stats": {
    "systemId": "tormenta20",
    "systemVersion": "1.4.116",
    "coreVersion": "11.298",
    "createdTime": 1664310462782,
    "modifiedTime": 1684622830660,
    "lastModifiedBy": "ZWR5Tn3AhSIFqwp6"
  },
  "_key": "!items!hyrMxy1zmRDWJbmB"
}
