{
  "_id": "6wASxSXLtFzQcy8V",
  "name": "Marca da Obediência",
  "type": "magia",
  "img": "systems/tormenta20/icons/magias/marca-da-obediencia.webp",
  "effects": [
    {
      "_id": "eoNg1u879WuUyEhh",
      "flags": {
        "t20": null,
        "tormenta20": {
          "onuse": true,
          "self": true,
          "custo": "3",
          "aumenta": false
        }
      },
      "changes": [
        {
          "key": "duracao",
          "value": "1 dia",
          "mode": 5,
          "priority": null
        }
      ],
      "disabled": true,
      "duration": {
        "startTime": null,
        "seconds": null,
        "combat": null,
        "rounds": null,
        "turns": null,
        "startRound": null,
        "startTurn": null
      },
      "icon": "icons/svg/upgrade.svg",
      "label": "muda a duração para 1 dia. Se não estiver em combate, a criatura só pode fazer o teste de Vontade a cada hora. Requer 3º círculo.",
      "origin": "Compendium.tormenta20.magias.6wASxSXLtFzQcy8V",
      "transfer": false,
      "tint": null,
      "_key": "!items.effects!6wASxSXLtFzQcy8V.eoNg1u879WuUyEhh"
    },
    {
      "_id": "IlQu5F0jyHJGsMQP",
      "flags": {
        "t20": null,
        "tormenta20": {
          "onuse": true,
          "self": true,
          "custo": "3",
          "aumenta": false,
          "attack": false,
          "skill": false,
          "ability": false,
          "power": false,
          "spell": false,
          "consumable": false,
          "items": "",
          "durationScene": false
        }
      },
      "changes": [],
      "disabled": true,
      "duration": {
        "startTime": null,
        "seconds": null,
        "combat": null,
        "rounds": null,
        "turns": null,
        "startRound": null,
        "startTurn": null
      },
      "icon": "icons/svg/upgrade.svg",
      "label": "sempre que o alvo fizer o teste de Vontade e falhar, a marca causa 3d6 pontos de dano psíquico. Requer 3º círculo.",
      "origin": "Compendium.tormenta20.magias.6wASxSXLtFzQcy8V",
      "transfer": false,
      "tint": null,
      "_key": "!items.effects!6wASxSXLtFzQcy8V.IlQu5F0jyHJGsMQP"
    },
    {
      "_id": "suEpBiihgGNOV9iB",
      "changes": [],
      "disabled": false,
      "duration": {
        "rounds": 1,
        "startTime": null,
        "seconds": null,
        "combat": null,
        "turns": null,
        "startRound": null,
        "startTurn": null
      },
      "icon": "systems/tormenta20/icons/magias/marca-da-obediencia.webp",
      "label": "Marca da Obediência",
      "origin": "Item.apxmgF9O1hN0rCX6",
      "transfer": false,
      "flags": {
        "tormenta20": {
          "onuse": false,
          "durationScene": true
        }
      },
      "tint": null,
      "_key": "!items.effects!6wASxSXLtFzQcy8V.suEpBiihgGNOV9iB"
    }
  ],
  "folder": "Zh2mPxacQ6Y19ggW",
  "sort": 0,
  "flags": {
    "core": {
      "sourceId": "Item.pB3WzScFl0ui0omo"
    }
  },
  "system": {
    "description": {
      "value": "<p style=\"text-align:justify;\">Você toca uma criatura, gravando uma marca mística no corpo dela enquanto profere uma ordem, como “não ataque a mim ou meus aliados”, “siga-me” ou “não saia desta sala”. A criatura deve seguir essa ordem, gastando todas as ações de seu turno para isso. A ordem não pode ser genérica demais (como “ajude-me”, por exemplo), nem forçar o alvo a atos suicidas. A cada rodada, o alvo pode fazer um teste de Vontade. Se passar, a magia é dissipada.</p>",
      "chat": "",
      "unidentified": ""
    },
    "source": "T20, pg. 198 (JdA)",
    "ativacao": {
      "execucao": "action",
      "custo": 3,
      "qtd": "",
      "condicao": "",
      "special": ""
    },
    "duracao": {
      "value": 0,
      "units": "scene",
      "special": ""
    },
    "target": {
      "value": null,
      "width": null,
      "units": "",
      "type": ""
    },
    "range": {
      "value": null,
      "units": ""
    },
    "consume": {
      "type": "",
      "target": "",
      "amount": null,
      "mpMultiplier": false
    },
    "efeito": "",
    "alcance": "touch",
    "alvo": "1 criatura",
    "area": "",
    "resistencia": {
      "pericia": "",
      "atributo": "sab",
      "bonus": 0,
      "txt": "Vontade anula"
    },
    "rolls": [],
    "tipo": "uni",
    "circulo": "2",
    "preparada": false,
    "escola": "enc",
    "chatFlavor": "",
    "origin": "",
    "tags": [],
    "chatGif": ""
  },
  "ownership": {
    "default": 0
  },
  "_stats": {
    "systemId": "tormenta20",
    "systemVersion": "1.4.116",
    "coreVersion": "11.298",
    "createdTime": 1664310461764,
    "modifiedTime": 1684622830660,
    "lastModifiedBy": "ZWR5Tn3AhSIFqwp6"
  },
  "_key": "!items!6wASxSXLtFzQcy8V"
}
