{
  "_id": "VtD27Z068vl78qH3",
  "name": "Oração",
  "type": "magia",
  "img": "systems/tormenta20/icons/magias/oracao.webp",
  "effects": [
    {
      "_id": "kn9WNxJzJkpiKMCl",
      "flags": {
        "t20": null,
        "tormenta20": {
          "onuse": true,
          "self": true,
          "custo": "2",
          "aumenta": true,
          "attack": false,
          "skill": false,
          "ability": false,
          "power": false,
          "spell": false,
          "consumable": false,
          "durationScene": false,
          "items": ""
        }
      },
      "changes": [
        {
          "key": "system.modificadores.pericias.geral&bonus",
          "mode": 2,
          "value": "1",
          "priority": 0
        },
        {
          "key": "system.modificadores.dano.geral&bonus",
          "mode": 2,
          "value": "1",
          "priority": 0
        }
      ],
      "disabled": true,
      "duration": {
        "startTime": null,
        "seconds": null,
        "combat": null,
        "rounds": null,
        "turns": null,
        "startRound": null,
        "startTurn": null
      },
      "icon": "icons/svg/upgrade.svg",
      "label": "aumenta os bônus em +1 (bônus máximo limitado pelo círculo máximo de magia que você pode lançar).",
      "origin": "Compendium.tormenta20.magias.VtD27Z068vl78qH3",
      "transfer": false,
      "tint": null,
      "_key": "!items.effects!VtD27Z068vl78qH3.kn9WNxJzJkpiKMCl"
    },
    {
      "label": "aumenta as penalidades em –1, limitado pelo círculo máximo de magia que você pode lançar.",
      "icon": "icons/svg/upgrade.svg",
      "origin": "Item.OqIQzjfKPkMdZ97v",
      "tint": "#FFFFFF",
      "flags": {
        "tormenta20": {
          "onuse": true,
          "durationScene": false,
          "self": true,
          "attack": false,
          "skill": false,
          "ability": false,
          "power": false,
          "spell": false,
          "consumable": false,
          "items": "",
          "aumenta": true,
          "custo": "2"
        }
      },
      "duration": {
        "startTime": null,
        "seconds": null,
        "combat": null,
        "rounds": null,
        "turns": null,
        "startRound": null,
        "startTurn": null
      },
      "disabled": true,
      "_id": "2pW9FvhmoDxs7r5b",
      "changes": [
        {
          "key": "system.modificadores.pericias.geral&penalidade",
          "mode": 2,
          "value": "-1",
          "priority": 0
        },
        {
          "key": "system.modificadores.dano.geral&penalidade",
          "mode": 2,
          "value": "-1",
          "priority": 0
        }
      ],
      "transfer": false,
      "_key": "!items.effects!VtD27Z068vl78qH3.2pW9FvhmoDxs7r5b"
    },
    {
      "label": "Oração (Bônus)",
      "icon": "systems/tormenta20/icons/magias/oracao.webp",
      "origin": "Item.OqIQzjfKPkMdZ97v",
      "tint": "#FFFFFF",
      "flags": {
        "tormenta20": {
          "onuse": false,
          "durationScene": true
        }
      },
      "duration": {
        "rounds": 1,
        "startTime": null,
        "seconds": null,
        "combat": null,
        "turns": null,
        "startRound": null,
        "startTurn": null
      },
      "disabled": false,
      "_id": "Ee6cpZ5dhIofP9KA",
      "changes": [
        {
          "key": "system.modificadores.pericias.geral&bonus",
          "mode": 2,
          "value": "2",
          "priority": null
        },
        {
          "key": "system.modificadores.dano.geral&bonus",
          "mode": 2,
          "value": "2",
          "priority": null
        }
      ],
      "transfer": false,
      "_key": "!items.effects!VtD27Z068vl78qH3.Ee6cpZ5dhIofP9KA"
    },
    {
      "label": "Oração (Penalidade)",
      "icon": "systems/tormenta20/icons/magias/oracao.webp",
      "origin": "Item.OqIQzjfKPkMdZ97v",
      "tint": "#FFFFFF",
      "flags": {
        "tormenta20": {
          "onuse": false,
          "durationScene": true
        }
      },
      "duration": {
        "rounds": 1,
        "startTime": null,
        "seconds": null,
        "combat": null,
        "turns": null,
        "startRound": null,
        "startTurn": null
      },
      "disabled": false,
      "_id": "c9JIzWUPMvXTWKVZ",
      "changes": [
        {
          "key": "system.modificadores.pericias.geral&penalidade",
          "mode": 2,
          "value": "-2",
          "priority": null
        },
        {
          "key": "system.modificadores.dano.geral&penalidade",
          "mode": 2,
          "value": "-2",
          "priority": null
        }
      ],
      "transfer": false,
      "_key": "!items.effects!VtD27Z068vl78qH3.c9JIzWUPMvXTWKVZ"
    },
    {
      "label": "muda o alcance para médio. Requer 3º círculo.",
      "icon": "icons/svg/upgrade.svg",
      "origin": "Item.OqIQzjfKPkMdZ97v",
      "tint": "#FFFFFF",
      "flags": {
        "tormenta20": {
          "onuse": true,
          "durationScene": false,
          "self": true,
          "attack": false,
          "skill": false,
          "ability": false,
          "power": false,
          "spell": false,
          "consumable": false,
          "items": "",
          "aumenta": false,
          "custo": "7"
        }
      },
      "duration": {
        "startTime": null,
        "seconds": null,
        "combat": null,
        "rounds": null,
        "turns": null,
        "startRound": null,
        "startTurn": null
      },
      "disabled": true,
      "_id": "1pk6usBOjsubdCJm",
      "changes": [
        {
          "key": "alcance",
          "mode": 5,
          "value": "médio",
          "priority": 0
        }
      ],
      "transfer": false,
      "_key": "!items.effects!VtD27Z068vl78qH3.1pk6usBOjsubdCJm"
    },
    {
      "label": "muda a duração para cena. Requer 4º círculo",
      "icon": "icons/svg/upgrade.svg",
      "origin": "Item.OqIQzjfKPkMdZ97v",
      "tint": "#FFFFFF",
      "flags": {
        "tormenta20": {
          "onuse": true,
          "durationScene": false,
          "self": true,
          "attack": false,
          "skill": false,
          "ability": false,
          "power": false,
          "spell": false,
          "consumable": false,
          "items": "",
          "aumenta": false,
          "custo": "12"
        }
      },
      "duration": {
        "startTime": null,
        "seconds": null,
        "combat": null,
        "rounds": null,
        "turns": null,
        "startRound": null,
        "startTurn": null
      },
      "disabled": true,
      "_id": "d09qNlDhUHfuHlrU",
      "changes": [
        {
          "key": "duracao",
          "mode": 5,
          "value": "Cena",
          "priority": 0
        }
      ],
      "transfer": false,
      "_key": "!items.effects!VtD27Z068vl78qH3.d09qNlDhUHfuHlrU"
    }
  ],
  "folder": "eDRs6rp0uirDl74f",
  "sort": 0,
  "flags": {
    "core": {
      "sourceId": "Item.03ZJcX1qy0WS8Ea2"
    }
  },
  "system": {
    "description": {
      "value": "<p style=\"text-align: justify;\">Voc&ecirc; e todos os seus aliados no alcance recebem +2 em testes de per&iacute;cia e rolagens de dano, e todos os seus inimigos no alcance sofrem &ndash;2 em testes de per&iacute;cia e rolagens de dano. Esse efeito &eacute; cumulativo com outras magias.</p>\n<p style=\"text-align: justify;\">Componente Material: T$ 25&nbsp;por PM gastos em incensos ou outras oferendas.</p>",
      "chat": "",
      "unidentified": ""
    },
    "source": "T20, pg. 200 (JdA)",
    "ativacao": {
      "execucao": "action",
      "custo": 3,
      "qtd": "",
      "condicao": "",
      "special": ""
    },
    "duracao": {
      "value": 0,
      "units": "sust",
      "special": ""
    },
    "target": {
      "value": null,
      "width": null,
      "units": "",
      "type": ""
    },
    "range": {
      "value": null,
      "units": ""
    },
    "consume": {
      "type": "material",
      "target": "",
      "amount": 5,
      "mpMultiplier": true
    },
    "efeito": "",
    "alcance": "short",
    "alvo": "todas as criaturas (veja texto)",
    "area": "",
    "resistencia": {
      "pericia": "",
      "atributo": "sab",
      "bonus": 0,
      "txt": ""
    },
    "rolls": [],
    "tipo": "div",
    "circulo": "2",
    "preparada": false,
    "escola": "enc",
    "chatFlavor": "",
    "origin": "",
    "tags": [],
    "chatGif": ""
  },
  "ownership": {
    "default": 0
  },
  "_stats": {
    "systemId": "tormenta20",
    "systemVersion": "1.4.116",
    "coreVersion": "11.298",
    "createdTime": 1664310461916,
    "modifiedTime": 1684622830660,
    "lastModifiedBy": "ZWR5Tn3AhSIFqwp6"
  },
  "_key": "!items!VtD27Z068vl78qH3"
}
