{
  "_id": "ji7Bn9t7lk8zyNN1",
  "name": "Pele de Pedra",
  "type": "magia",
  "img": "systems/tormenta20/icons/magias/pele-de-pedra.webp",
  "effects": [
    {
      "_id": "qwR1O4qpIh6U5OWW",
      "flags": {
        "t20": null,
        "tormenta20": {
          "onuse": true,
          "self": true,
          "custo": "1",
          "aumenta": false
        }
      },
      "changes": [
        {
          "key": "alcance",
          "value": "Toque",
          "mode": 5,
          "priority": null
        },
        {
          "key": "alvo",
          "value": "1 criatura",
          "mode": 5,
          "priority": null
        }
      ],
      "disabled": true,
      "duration": {
        "startTime": null,
        "seconds": null,
        "combat": null,
        "rounds": null,
        "turns": null,
        "startRound": null,
        "startTurn": null
      },
      "icon": "icons/svg/upgrade.svg",
      "label": "muda o alcance para toque e o alvo para 1 criatura.",
      "origin": "Compendium.tormenta20.magias.ji7Bn9t7lk8zyNN1",
      "transfer": false,
      "tint": null,
      "_key": "!items.effects!ji7Bn9t7lk8zyNN1.qwR1O4qpIh6U5OWW"
    },
    {
      "_id": "DXgPVubZdLV3aTN3",
      "flags": {
        "t20": null,
        "tormenta20": {
          "onuse": true,
          "self": true,
          "custo": "4",
          "aumenta": false
        }
      },
      "changes": [
        {
          "key": "duracao",
          "value": "1 dia",
          "mode": 5,
          "priority": null
        }
      ],
      "disabled": true,
      "duration": {
        "startTime": null,
        "seconds": null,
        "combat": null,
        "rounds": null,
        "turns": null,
        "startRound": null,
        "startTurn": null
      },
      "icon": "icons/svg/upgrade.svg",
      "label": "muda a duração para 1 dia.",
      "origin": "Compendium.tormenta20.magias.ji7Bn9t7lk8zyNN1",
      "transfer": false,
      "tint": null,
      "_key": "!items.effects!ji7Bn9t7lk8zyNN1.DXgPVubZdLV3aTN3"
    },
    {
      "_id": "VwRKNwnkPMpXybdU",
      "flags": {
        "t20": null,
        "tormenta20": {
          "onuse": true,
          "self": true,
          "custo": "4",
          "aumenta": false,
          "attack": false,
          "skill": false,
          "ability": false,
          "power": false,
          "spell": false,
          "consumable": false,
          "durationScene": false
        }
      },
      "changes": [
        {
          "key": "system.tracos.resistencias.dano.value",
          "mode": 2,
          "value": "5",
          "priority": null
        }
      ],
      "disabled": true,
      "duration": {
        "startTime": null,
        "seconds": null,
        "combat": null,
        "rounds": null,
        "turns": null,
        "startRound": null,
        "startTurn": null
      },
      "icon": "icons/svg/upgrade.svg",
      "label": "sua pele ganha aspecto e dureza de aço. Você recebe resistência a dano 10. Requer 4º círculo.",
      "origin": "Compendium.tormenta20.magias.ji7Bn9t7lk8zyNN1",
      "transfer": false,
      "tint": null,
      "_key": "!items.effects!ji7Bn9t7lk8zyNN1.VwRKNwnkPMpXybdU"
    },
    {
      "_id": "mf74wJb7svFGeyZ9",
      "flags": {
        "t20": null,
        "tormenta20": {
          "onuse": true,
          "self": true,
          "custo": "4",
          "aumenta": false
        }
      },
      "changes": [
        {
          "key": "alcance",
          "value": "Toque",
          "mode": 5,
          "priority": null
        },
        {
          "key": "alvo",
          "value": "1 criatura",
          "mode": 5,
          "priority": null
        },
        {
          "key": "duracao",
          "value": "1d4 rodadas",
          "mode": 5,
          "priority": null
        },
        {
          "key": "dano",
          "value": "1d4",
          "mode": 0,
          "priority": null
        }
      ],
      "disabled": true,
      "duration": {
        "startTime": null,
        "seconds": null,
        "combat": null,
        "rounds": null,
        "turns": null,
        "startRound": null,
        "startTurn": null
      },
      "icon": "icons/svg/upgrade.svg",
      "label": "muda o alcance para toque, o alvo para 1 criatura, a duração para 1d4 rodadas e adiciona Resistência: Fortitude anula. Em vez do efeito normal, a magia transforma o alvo e seu equipamento em uma estátua inerte e sem consciência. A estátua possui os mesmos PV da criatura e resistência a dano 8; se for quebrada, a criatura morrerá. Requer 4º círculo.",
      "origin": "Compendium.tormenta20.magias.ji7Bn9t7lk8zyNN1",
      "transfer": false,
      "tint": null,
      "_key": "!items.effects!ji7Bn9t7lk8zyNN1.mf74wJb7svFGeyZ9"
    },
    {
      "_id": "I7FQWn0XQH6kK16v",
      "flags": {
        "t20": null,
        "tormenta20": {
          "onuse": true,
          "self": true,
          "custo": "9",
          "aumenta": false
        }
      },
      "changes": [],
      "disabled": true,
      "duration": {
        "startTime": null,
        "seconds": null,
        "combat": null,
        "rounds": null,
        "turns": null,
        "startRound": null,
        "startTurn": null
      },
      "icon": "icons/svg/upgrade.svg",
      "label": "como acima, mas com duração permanente. Requer 5º círculo.",
      "origin": "Compendium.tormenta20.magias.ji7Bn9t7lk8zyNN1",
      "transfer": false,
      "tint": null,
      "_key": "!items.effects!ji7Bn9t7lk8zyNN1.I7FQWn0XQH6kK16v"
    },
    {
      "_id": "cinVV4iNTLHUtqi2",
      "changes": [
        {
          "key": "system.tracos.resistencias.dano.value",
          "mode": 2,
          "value": "5",
          "priority": null
        }
      ],
      "disabled": false,
      "duration": {
        "rounds": 1,
        "startTime": null,
        "seconds": null,
        "combat": null,
        "turns": null,
        "startRound": null,
        "startTurn": null
      },
      "icon": "systems/tormenta20/icons/magias/pele-de-pedra.webp",
      "label": "Pele de Pedra",
      "origin": "Item.jxKpBUL3sbIg9gT1",
      "transfer": false,
      "flags": {
        "tormenta20": {
          "onuse": false,
          "durationScene": true
        }
      },
      "tint": null,
      "_key": "!items.effects!ji7Bn9t7lk8zyNN1.cinVV4iNTLHUtqi2"
    },
    {
      "_id": "meLMHVbPN4Rbicll",
      "changes": [
        {
          "key": "system.tracos.resistencias.dano.value",
          "mode": 2,
          "value": "8",
          "priority": null
        }
      ],
      "disabled": false,
      "duration": {
        "rounds": 1,
        "startTime": null,
        "seconds": null,
        "combat": null,
        "turns": null,
        "startRound": null,
        "startTurn": null
      },
      "icon": "systems/tormenta20/icons/magias/pele-de-pedra.webp",
      "label": "Estátua",
      "origin": "Item.jxKpBUL3sbIg9gT1",
      "transfer": false,
      "flags": {
        "tormenta20": {
          "onuse": false,
          "durationScene": true
        }
      },
      "tint": null,
      "_key": "!items.effects!ji7Bn9t7lk8zyNN1.meLMHVbPN4Rbicll"
    }
  ],
  "folder": "8bvHLehANNwcPFiQ",
  "sort": 0,
  "flags": {
    "core": {
      "sourceId": "Item.F5BAqRoj0aNAESXV"
    }
  },
  "system": {
    "description": {
      "value": "<p style=\"text-align: justify;\">Sua pele ganha aspecto e dureza de rocha. Voc&ecirc; recebe redu&ccedil;&atilde;o de dano 5.</p>",
      "chat": "",
      "unidentified": ""
    },
    "source": "T20, pg. 201 (JdA)",
    "ativacao": {
      "execucao": "action",
      "custo": 6,
      "qtd": "",
      "condicao": "",
      "special": ""
    },
    "duracao": {
      "value": 0,
      "units": "scene",
      "special": ""
    },
    "target": {
      "value": null,
      "width": null,
      "units": "",
      "type": ""
    },
    "range": {
      "value": null,
      "units": ""
    },
    "consume": {
      "type": "",
      "target": "",
      "amount": null,
      "mpMultiplier": false
    },
    "efeito": "",
    "alcance": "self",
    "alvo": "você",
    "area": "",
    "resistencia": {
      "pericia": "",
      "atributo": "sab",
      "bonus": 0,
      "txt": ""
    },
    "rolls": [],
    "tipo": "uni",
    "circulo": "3",
    "preparada": false,
    "escola": "tra",
    "chatFlavor": "",
    "origin": "",
    "tags": [],
    "chatGif": ""
  },
  "ownership": {
    "default": 0
  },
  "_stats": {
    "systemId": "tormenta20",
    "systemVersion": "1.4.116",
    "coreVersion": "11.298",
    "createdTime": 1664310462784,
    "modifiedTime": 1684622830660,
    "lastModifiedBy": "ZWR5Tn3AhSIFqwp6"
  },
  "_key": "!items!ji7Bn9t7lk8zyNN1"
}
