{
  "_id": "oMhqpjjWQzvHdIlc",
  "name": "Preparação de Batalha",
  "type": "magia",
  "img": "systems/tormenta20/icons/magias/preparacao-de-batalha.webp",
  "effects": [
    {
      "_id": "Stlr7Ll69XLIQaVi",
      "flags": {
        "t20": null,
        "tormenta20": {
          "onuse": true,
          "self": true,
          "custo": "1",
          "aumenta": false
        }
      },
      "changes": [],
      "disabled": true,
      "duration": {
        "startTime": null,
        "seconds": null,
        "combat": null,
        "rounds": null,
        "turns": null,
        "startRound": null,
        "startTurn": null
      },
      "icon": "icons/svg/upgrade.svg",
      "label": "Aumenta o número de alvos em dois e o custo adicional em 1 PM.",
      "origin": "Compendium.tormenta20.magias.oMhqpjjWQzvHdIlc",
      "transfer": false,
      "tint": null,
      "_key": "!items.effects!oMhqpjjWQzvHdIlc.Stlr7Ll69XLIQaVi"
    }
  ],
  "folder": "QXjjLbseUkA81Kns",
  "sort": 0,
  "flags": {
    "core": {
      "sourceId": "Compendium.tormenta20.magias.oMhqpjjWQzvHdIlc"
    },
    "cf": null
  },
  "system": {
    "description": {
      "value": "<p style=\"text-align: justify;\"><strong>Custo Adicional:</strong> penalidade de 1 PM</p>\n<p style=\"text-align: justify;\">Essa magia &eacute; muito utilizada por cl&eacute;rigos e bardos que n&atilde;o precisam (ou n&atilde;o podem) estar sempre com suas armas ou armaduras. A magia &eacute; lan&ccedil;ada sobre at&eacute; dois itens que voc&ecirc; possua. A partir da&iacute;, em qualquer momento, voc&ecirc; pode usar uma a&ccedil;&atilde;o completa para convocar os itens, que aparecem sobre seu corpo e em suas m&atilde;os. O efeito &eacute; espalhafatoso, sendo praticamente imposs&iacute;vel utiliz&aacute;-lo sem chamar aten&ccedil;&atilde;o. A magia funciona independentemente da dist&acirc;ncia dos itens, contanto que estejam no mesmo plano, mas termina se voc&ecirc; perder a posse deles.</p>",
      "chat": "",
      "unidentified": ""
    },
    "source": "Guia NPC, pg. 16 (1.2)",
    "ativacao": {
      "execucao": "action",
      "custo": 3,
      "qtd": "",
      "condicao": "Custo Adicional: penalidade de 1 PM",
      "special": ""
    },
    "duracao": {
      "value": 0,
      "units": "special",
      "special": "Permanente até ser descarregada"
    },
    "target": {
      "value": null,
      "width": null,
      "units": "",
      "type": ""
    },
    "range": {
      "value": null,
      "units": ""
    },
    "consume": {
      "type": "",
      "target": "",
      "amount": null,
      "mpMultiplier": false
    },
    "efeito": "",
    "alcance": "touch",
    "alvo": "até dois itens que você possua, entre armas, armaduras e escudos",
    "area": "",
    "resistencia": {
      "pericia": "",
      "atributo": "int",
      "bonus": 0,
      "txt": ""
    },
    "rolls": [],
    "tipo": "uni",
    "circulo": "2",
    "preparada": false,
    "escola": "con",
    "chatFlavor": "Custo adicional: penalidade de 1 PM.",
    "origin": "",
    "tags": [],
    "chatGif": ""
  },
  "ownership": {
    "default": 0
  },
  "_stats": {
    "systemId": "tormenta20",
    "systemVersion": "1.4.116",
    "coreVersion": "11.298",
    "createdTime": 1664310462811,
    "modifiedTime": 1684622830660,
    "lastModifiedBy": "ZWR5Tn3AhSIFqwp6"
  },
  "_key": "!items!oMhqpjjWQzvHdIlc"
}
