{
  "_id": "f5swL7i71uhFJ8UE",
  "name": "Suporte Ambiental",
  "type": "magia",
  "img": "systems/tormenta20/icons/magias/suporte-ambiental.webp",
  "effects": [
    {
      "_id": "02eRj9Zr9055gT01",
      "flags": {
        "t20": null,
        "tormenta20": {
          "onuse": true,
          "self": true,
          "custo": "5",
          "aumenta": false
        }
      },
      "changes": [
        {
          "key": "alcance",
          "value": "curto",
          "mode": 5,
          "priority": null
        },
        {
          "key": "alvo",
          "value": "criaturas escolhidas",
          "mode": 5,
          "priority": null
        }
      ],
      "disabled": true,
      "duration": {
        "startTime": null,
        "seconds": null,
        "combat": null,
        "rounds": null,
        "turns": null,
        "startRound": null,
        "startTurn": null
      },
      "icon": "icons/svg/upgrade.svg",
      "label": "muda o alcance para curto e o alvo para criaturas escolhidas.",
      "origin": "Compendium.tormenta20.magias.f5swL7i71uhFJ8UE",
      "transfer": false,
      "tint": null,
      "_key": "!items.effects!f5swL7i71uhFJ8UE.02eRj9Zr9055gT01"
    },
    {
      "_id": "QPJqACutyPpbXUho",
      "changes": [],
      "disabled": false,
      "duration": {
        "rounds": 1,
        "startTime": null,
        "seconds": null,
        "combat": null,
        "turns": null,
        "startRound": null,
        "startTurn": null
      },
      "icon": "systems/tormenta20/icons/magias/suporte-ambiental.webp",
      "label": "Suporte Ambiental",
      "origin": "Item.25kLeEX233C6MjvL",
      "transfer": false,
      "flags": {
        "tormenta20": {
          "onuse": false,
          "durationScene": true
        }
      },
      "tint": null,
      "_key": "!items.effects!f5swL7i71uhFJ8UE.QPJqACutyPpbXUho"
    }
  ],
  "folder": "XbfWNZNCUbSVLyRp",
  "sort": 0,
  "flags": {
    "core": {
      "sourceId": "Item.uiBJzcQuUeLqN0Qq"
    },
    "cf": null
  },
  "system": {
    "description": {
      "value": "<p style=\"text-align:justify;\">Esta magia garante a sobrevivência em ambientes hostis. O alvo fica imune aos efeitos de calor e frio extremos, pode respirar na água se respirar ar (ou vice-versa) e não sufoca em fumaça densa.</p>",
      "chat": "",
      "unidentified": ""
    },
    "source": "T20, pg. 207 (JdA)",
    "ativacao": {
      "execucao": "action",
      "custo": 1,
      "qtd": "",
      "condicao": "",
      "special": ""
    },
    "duracao": {
      "value": 1,
      "units": "day",
      "special": ""
    },
    "target": {
      "value": null,
      "width": null,
      "units": "",
      "type": ""
    },
    "range": {
      "value": null,
      "units": ""
    },
    "consume": {
      "type": "",
      "target": "",
      "amount": null,
      "mpMultiplier": false
    },
    "efeito": "",
    "alcance": "touch",
    "alvo": "1 criatura",
    "area": "",
    "resistencia": {
      "pericia": "",
      "atributo": "sab",
      "bonus": 0,
      "txt": ""
    },
    "rolls": [],
    "tipo": "div",
    "circulo": "1",
    "preparada": false,
    "escola": "abj",
    "chatFlavor": "",
    "origin": "",
    "tags": [],
    "chatGif": ""
  },
  "ownership": {
    "default": 0
  },
  "_stats": {
    "systemId": "tormenta20",
    "systemVersion": "1.4.116",
    "coreVersion": "11.298",
    "createdTime": 1664310462775,
    "modifiedTime": 1684622830660,
    "lastModifiedBy": "ZWR5Tn3AhSIFqwp6"
  },
  "_key": "!items!f5swL7i71uhFJ8UE"
}
