{
  "_id": "s9z7z8KtujpICCZw",
  "name": "Sussurros Insanos",
  "type": "magia",
  "img": "systems/tormenta20/icons/magias/sussurros-insanos.webp",
  "effects": [
    {
      "_id": "a91Qq4uJWCt9BaHJ",
      "flags": {
        "t20": null,
        "tormenta20": {
          "onuse": true,
          "self": true,
          "custo": "2",
          "aumenta": true
        }
      },
      "changes": [],
      "disabled": true,
      "duration": {
        "startTime": null,
        "seconds": null,
        "combat": null,
        "rounds": null,
        "turns": null,
        "startRound": null,
        "startTurn": null
      },
      "icon": "icons/svg/upgrade.svg",
      "label": "aumenta o número de alvos em +1.",
      "origin": "Compendium.tormenta20.magias.s9z7z8KtujpICCZw",
      "transfer": false,
      "tint": null,
      "_key": "!items.effects!s9z7z8KtujpICCZw.a91Qq4uJWCt9BaHJ"
    },
    {
      "_id": "n4P4UlD5bQRhtzIh",
      "flags": {
        "t20": null,
        "tormenta20": {
          "onuse": true,
          "self": true,
          "custo": "3",
          "aumenta": false
        }
      },
      "changes": [
        {
          "key": "alvo",
          "value": "1 criatura",
          "mode": 5,
          "priority": null
        }
      ],
      "disabled": true,
      "duration": {
        "startTime": null,
        "seconds": null,
        "combat": null,
        "rounds": null,
        "turns": null,
        "startRound": null,
        "startTurn": null
      },
      "icon": "icons/svg/upgrade.svg",
      "label": "muda o alvo para 1 criatura.",
      "origin": "Compendium.tormenta20.magias.s9z7z8KtujpICCZw",
      "transfer": false,
      "tint": null,
      "_key": "!items.effects!s9z7z8KtujpICCZw.n4P4UlD5bQRhtzIh"
    },
    {
      "_id": "Yiwe30aN5lDHb5mk",
      "flags": {
        "t20": null,
        "tormenta20": {
          "onuse": true,
          "self": true,
          "custo": "12",
          "aumenta": false
        }
      },
      "changes": [
        {
          "key": "alvo",
          "value": "criaturas escolhidas",
          "mode": 5,
          "priority": null
        }
      ],
      "disabled": true,
      "duration": {
        "startTime": null,
        "seconds": null,
        "combat": null,
        "rounds": null,
        "turns": null,
        "startRound": null,
        "startTurn": null
      },
      "icon": "icons/svg/upgrade.svg",
      "label": "muda o alvo para criaturas escolhidas. Requer 5º círculo.",
      "origin": "Compendium.tormenta20.magias.s9z7z8KtujpICCZw",
      "transfer": false,
      "tint": null,
      "_key": "!items.effects!s9z7z8KtujpICCZw.Yiwe30aN5lDHb5mk"
    },
    {
      "label": "Confuso",
      "duration": {
        "rounds": 999,
        "startTime": null,
        "seconds": null,
        "combat": null,
        "turns": null,
        "startRound": null,
        "startTurn": null
      },
      "icon": "systems/tormenta20/icons/conditions/confuso.svg",
      "flags": {
        "core": {
          "statusId": "confuso"
        },
        "tormenta20": {
          "condition": true,
          "durationScene": true,
          "category": "mental"
        }
      },
      "_id": "jux9RnXL3OYir0N4",
      "changes": [],
      "disabled": false,
      "origin": null,
      "tint": null,
      "transfer": true,
      "_key": "!items.effects!s9z7z8KtujpICCZw.jux9RnXL3OYir0N4"
    }
  ],
  "folder": "OhcRkxh8f9gK9sZ7",
  "sort": 0,
  "flags": {
    "core": {
      "sourceId": "Item.j3ykT4OMk0qP8PSg"
    }
  },
  "system": {
    "description": {
      "value": "<p style=\"text-align: justify;\">Voc&ecirc; murmura palavras desconexas que afetam a mente do alvo. O alvo fica @UUID[JournalEntry.s15J5SOYixL3Ajzr.JournalEntryPage.ynLMPpmMnZwV6rxf]{Confuso}.</p>",
      "chat": "",
      "unidentified": ""
    },
    "source": "T20, pg. 207 (JdA)",
    "ativacao": {
      "execucao": "action",
      "custo": 3,
      "qtd": "",
      "condicao": "",
      "special": ""
    },
    "duracao": {
      "value": 0,
      "units": "scene",
      "special": ""
    },
    "target": {
      "value": null,
      "width": null,
      "units": "",
      "type": ""
    },
    "range": {
      "value": null,
      "units": ""
    },
    "consume": {
      "type": "",
      "target": "",
      "amount": null,
      "mpMultiplier": false
    },
    "efeito": "",
    "alcance": "short",
    "alvo": "1 humanoide",
    "area": "",
    "resistencia": {
      "pericia": "",
      "atributo": "int",
      "bonus": 0,
      "txt": "Vontade anula"
    },
    "rolls": [],
    "tipo": "arc",
    "circulo": "2",
    "preparada": false,
    "escola": "enc",
    "chatFlavor": "",
    "origin": "",
    "tags": [],
    "chatGif": ""
  },
  "ownership": {
    "default": 0
  },
  "_stats": {
    "systemId": "tormenta20",
    "systemVersion": "1.4.116",
    "coreVersion": "11.298",
    "createdTime": 1664310462817,
    "modifiedTime": 1684622830660,
    "lastModifiedBy": "ZWR5Tn3AhSIFqwp6"
  },
  "_key": "!items!s9z7z8KtujpICCZw"
}
