{
  "_id": "9ApArOLIFHb2gcyx",
  "name": "Talho Invisível",
  "type": "magia",
  "img": "systems/tormenta20/icons/magias/talho-invisivel.webp",
  "effects": [
    {
      "_id": "flDDQb0tVrQBXd3D",
      "flags": {
        "t20": null,
        "tormenta20": {
          "onuse": true,
          "self": true,
          "custo": "2",
          "aumenta": true
        }
      },
      "changes": [
        {
          "key": "dano",
          "value": "2d8",
          "mode": 0,
          "priority": null
        }
      ],
      "disabled": true,
      "duration": {
        "startTime": null,
        "seconds": null,
        "combat": null,
        "rounds": null,
        "turns": null,
        "startRound": null,
        "startTurn": null
      },
      "icon": "icons/svg/upgrade.svg",
      "label": "aumenta o dano em +2d8.",
      "origin": "Compendium.tormenta20.magias.9ApArOLIFHb2gcyx",
      "transfer": false,
      "tint": null,
      "_key": "!items.effects!9ApArOLIFHb2gcyx.flDDQb0tVrQBXd3D"
    },
    {
      "_id": "svhe7d9DVed7ueRN",
      "flags": {
        "t20": null,
        "tormenta20": {
          "onuse": true,
          "self": true,
          "custo": "2",
          "aumenta": false
        }
      },
      "changes": [
        {
          "key": "alvo",
          "value": "você",
          "mode": 5,
          "priority": null
        },
        {
          "key": "duracao",
          "value": "sustentada",
          "mode": 5,
          "priority": null
        },
        {
          "key": "dano",
          "value": "6d8",
          "mode": 0,
          "priority": null
        }
      ],
      "disabled": true,
      "duration": {
        "startTime": null,
        "seconds": null,
        "combat": null,
        "rounds": null,
        "turns": null,
        "startRound": null,
        "startTurn": null
      },
      "icon": "icons/svg/upgrade.svg",
      "label": "muda o alvo para você e a duração para sustentada. Uma vez por rodada, como uma ação padrão, você pode disparar uma lâmina de ar contra um alvo em alcance médio, causando 6d8 pontos de dano de corte (Fortitude reduz à metade).",
      "origin": "Compendium.tormenta20.magias.9ApArOLIFHb2gcyx",
      "transfer": false,
      "tint": null,
      "_key": "!items.effects!9ApArOLIFHb2gcyx.svhe7d9DVed7ueRN"
    }
  ],
  "folder": "dxIW3dYs0c4ADJzO",
  "sort": 0,
  "flags": {
    "core": {
      "sourceId": "Item.zIadWdK9KkGOYkhr"
    }
  },
  "system": {
    "description": {
      "value": "<p style=\"text-align: justify;\">Esta magia cruel foi desenvolvida por um mago de combate, quando ainda era um b&iacute;pede. Voc&ecirc; faz um gesto r&aacute;pido e dispara uma l&acirc;mina de ar em alta velocidade. Criaturas na &aacute;rea sofrem 10d8 pontos de dano de corte e ficam sangrando. Alvos que passem no teste de resist&ecirc;ncia sofrem metade do dano e n&atilde;o ficam sangrando.</p>",
      "chat": "",
      "unidentified": ""
    },
    "source": "T20, pg. 207 (JdA)",
    "ativacao": {
      "execucao": "action",
      "custo": 10,
      "qtd": "",
      "condicao": "",
      "special": ""
    },
    "duracao": {
      "value": 0,
      "units": "inst",
      "special": ""
    },
    "target": {
      "value": null,
      "width": null,
      "units": "",
      "type": ""
    },
    "range": {
      "value": null,
      "units": ""
    },
    "consume": {
      "type": "",
      "target": "",
      "amount": null,
      "mpMultiplier": false
    },
    "efeito": "",
    "alcance": "self",
    "alvo": "",
    "area": "cone de 9m",
    "resistencia": {
      "pericia": "",
      "atributo": "int",
      "bonus": 0,
      "txt": "Fortitude parcial"
    },
    "rolls": [
      {
        "name": "Dano",
        "key": "dano0",
        "type": "dano",
        "parts": [
          [
            "10d8",
            "corte",
            ""
          ]
        ],
        "versatil": ""
      }
    ],
    "tipo": "arc",
    "circulo": "4",
    "preparada": false,
    "escola": "evo",
    "chatFlavor": "",
    "origin": "",
    "tags": [],
    "chatGif": ""
  },
  "ownership": {
    "default": 0
  },
  "_stats": {
    "systemId": "tormenta20",
    "systemVersion": "1.4.116",
    "coreVersion": "11.298",
    "createdTime": 1664310461770,
    "modifiedTime": 1684622830660,
    "lastModifiedBy": "ZWR5Tn3AhSIFqwp6"
  },
  "_key": "!items!9ApArOLIFHb2gcyx"
}
