{
  "_id": "PjNZfjmSHwQJJqZ9",
  "name": "Tranca Arcana",
  "type": "magia",
  "img": "systems/tormenta20/icons/magias/tranca-arcana.webp",
  "effects": [
    {
      "_id": "2gOGpe6CyRphUzDZ",
      "flags": {
        "t20": null,
        "tormenta20": {
          "onuse": true,
          "self": true,
          "custo": "",
          "aumenta": false
        }
      },
      "changes": [
        {
          "key": "alcance",
          "value": "curto",
          "mode": 5,
          "priority": null
        }
      ],
      "disabled": true,
      "duration": {
        "startTime": null,
        "seconds": null,
        "combat": null,
        "rounds": null,
        "turns": null,
        "startRound": null,
        "startTurn": null
      },
      "icon": "icons/svg/upgrade.svg",
      "label": "muda o alcance para curto. Em vez do normal, pode abrir ou fechar um objeto de tamanho Médio ou menor, como uma porta ou baú. Não afeta objetos trancados.",
      "origin": "Compendium.tormenta20.magias.PjNZfjmSHwQJJqZ9",
      "transfer": false,
      "tint": null,
      "_key": "!items.effects!PjNZfjmSHwQJJqZ9.2gOGpe6CyRphUzDZ"
    },
    {
      "_id": "JkUbfLuaQ7VU4dLW",
      "flags": {
        "t20": null,
        "tormenta20": {
          "onuse": true,
          "self": true,
          "custo": "1",
          "aumenta": false
        }
      },
      "changes": [
        {
          "key": "alcance",
          "value": "curto",
          "mode": 5,
          "priority": null
        },
        {
          "key": "duracao",
          "value": "instantânea",
          "mode": 5,
          "priority": null
        }
      ],
      "disabled": true,
      "duration": {
        "startTime": null,
        "seconds": null,
        "combat": null,
        "rounds": null,
        "turns": null,
        "startRound": null,
        "startTurn": null
      },
      "icon": "icons/svg/upgrade.svg",
      "label": "muda o alcance para curto e a duração para instantânea. Em vez do normal, a magia abre portas, baús e janelas trancadas, presas, barradas ou protegidas por Tranca Arcana (o efeito é dissipado) a sua escolha. Ela também afrouxa grilhões e solta correntes.",
      "origin": "Compendium.tormenta20.magias.PjNZfjmSHwQJJqZ9",
      "transfer": false,
      "tint": null,
      "_key": "!items.effects!PjNZfjmSHwQJJqZ9.JkUbfLuaQ7VU4dLW"
    },
    {
      "_id": "dEUjRL7piURGkjrG",
      "flags": {
        "t20": null,
        "tormenta20": {
          "onuse": true,
          "self": true,
          "custo": "5",
          "aumenta": true
        }
      },
      "changes": [],
      "disabled": true,
      "duration": {
        "startTime": null,
        "seconds": null,
        "combat": null,
        "rounds": null,
        "turns": null,
        "startRound": null,
        "startTurn": null
      },
      "icon": "icons/svg/upgrade.svg",
      "label": "aumenta a CD para abrir o alvo em +5.",
      "origin": "Compendium.tormenta20.magias.PjNZfjmSHwQJJqZ9",
      "transfer": false,
      "tint": null,
      "_key": "!items.effects!PjNZfjmSHwQJJqZ9.dEUjRL7piURGkjrG"
    },
    {
      "_id": "mzFVT7eFMk1FpxTi",
      "flags": {
        "t20": null,
        "tormenta20": {
          "onuse": true,
          "self": true,
          "custo": "5",
          "aumenta": false
        }
      },
      "changes": [
        {
          "key": "alvo",
          "value": "1 objeto de qualquer tamanho",
          "mode": 5,
          "priority": null
        }
      ],
      "disabled": true,
      "duration": {
        "startTime": null,
        "seconds": null,
        "combat": null,
        "rounds": null,
        "turns": null,
        "startRound": null,
        "startTurn": null
      },
      "icon": "icons/svg/upgrade.svg",
      "label": "muda o alvo para 1 objeto de qualquer tamanho, podendo afetar até mesmo os portões de um castelo. Requer 3º círculo.",
      "origin": "Compendium.tormenta20.magias.PjNZfjmSHwQJJqZ9",
      "transfer": false,
      "tint": null,
      "_key": "!items.effects!PjNZfjmSHwQJJqZ9.mzFVT7eFMk1FpxTi"
    }
  ],
  "folder": "OkpR6UdPNpR8mrad",
  "sort": 0,
  "flags": {
    "core": {
      "sourceId": "Item.KlVQiviCkOel37qk"
    }
  },
  "system": {
    "description": {
      "value": "<p style=\"text-align:justify;\">Esta magia tranca uma porta ou outro item que possa ser aberto ou fechado (como um baú, caixa etc.), aumentando a CD de testes de Força ou Ladinagem para abri-lo em +10. Você pode abrir livremente sua própria tranca sem problemas.</p><p style=\"text-align:justify;\"><i>Componente material:</i> chave de bronze no valor de T$ 25.</p>",
      "chat": "",
      "unidentified": ""
    },
    "source": "T20, pg. 209 (JdA)",
    "ativacao": {
      "execucao": "action",
      "custo": 1,
      "qtd": "",
      "condicao": "",
      "special": ""
    },
    "duracao": {
      "value": 0,
      "units": "perm",
      "special": ""
    },
    "target": {
      "value": null,
      "width": null,
      "units": "",
      "type": ""
    },
    "range": {
      "value": null,
      "units": ""
    },
    "consume": {
      "type": "",
      "target": "",
      "amount": null,
      "mpMultiplier": false
    },
    "efeito": "",
    "alcance": "touch",
    "alvo": "1 objeto Grande ou menor",
    "area": "",
    "resistencia": {
      "pericia": "",
      "atributo": "int",
      "bonus": 0,
      "txt": ""
    },
    "rolls": [],
    "tipo": "arc",
    "circulo": "1",
    "preparada": false,
    "escola": "abj",
    "chatFlavor": "",
    "origin": "",
    "tags": [],
    "chatGif": ""
  },
  "ownership": {
    "default": 0
  },
  "_stats": {
    "systemId": "tormenta20",
    "systemVersion": "1.4.116",
    "coreVersion": "11.298",
    "createdTime": 1664310461907,
    "modifiedTime": 1684622830660,
    "lastModifiedBy": "ZWR5Tn3AhSIFqwp6"
  },
  "_key": "!items!PjNZfjmSHwQJJqZ9"
}
