{
  "folder": "uw89cTPX5Q8UWnO6",
  "name": "U3 Encantamento",
  "sorting": "a",
  "type": "Item",
  "_id": "45FESu225Wq8Qr1D",
  "sort": 0,
  "flags": {},
  "_stats": {
    "systemId": null,
    "systemVersion": null,
    "coreVersion": null,
    "createdTime": null,
    "modifiedTime": null,
    "lastModifiedBy": null
  },
  "_key": "!folders!45FESu225Wq8Qr1D"
}
