{
  "_id": "XWEJNZMs6Wb9uUHF",
  "name": "Velocidade",
  "type": "magia",
  "img": "systems/tormenta20/icons/magias/velocidade.webp",
  "effects": [
    {
      "_id": "lYxiSwCe3djsAOE6",
      "flags": {
        "t20": null,
        "tormenta20": {
          "onuse": true,
          "self": true,
          "custo": "7",
          "aumenta": false
        }
      },
      "changes": [
        {
          "key": "alvo",
          "value": "criaturas escolhidas no alcance",
          "mode": 5,
          "priority": null
        }
      ],
      "disabled": true,
      "duration": {
        "startTime": null,
        "seconds": null,
        "combat": null,
        "rounds": null,
        "turns": null,
        "startRound": null,
        "startTurn": null
      },
      "icon": "icons/svg/upgrade.svg",
      "label": "muda o alvo para criaturas escolhidas no alcance. Requer 4º círculo.",
      "origin": "Compendium.tormenta20.magias.XWEJNZMs6Wb9uUHF",
      "transfer": false,
      "tint": null,
      "_key": "!items.effects!XWEJNZMs6Wb9uUHF.lYxiSwCe3djsAOE6"
    },
    {
      "_id": "wb7wmP9NbM1Q2Bxg",
      "flags": {
        "t20": null,
        "tormenta20": {
          "onuse": true,
          "self": true,
          "custo": "7",
          "aumenta": false,
          "attack": false,
          "skill": false,
          "ability": false,
          "power": false,
          "spell": false,
          "consumable": false,
          "items": "",
          "durationScene": false
        }
      },
      "changes": [
        {
          "key": "alcance",
          "mode": 5,
          "value": "pessoal",
          "priority": 0
        },
        {
          "key": "alvo",
          "mode": 5,
          "value": "você",
          "priority": 0
        }
      ],
      "disabled": true,
      "duration": {
        "startTime": null,
        "seconds": null,
        "combat": null,
        "rounds": null,
        "turns": null,
        "startRound": null,
        "startTurn": null
      },
      "icon": "icons/svg/upgrade.svg",
      "label": "muda o alcance para pessoal e o alvo para você. Você acelera sua mente, além de seu corpo. A ação adicional pode ser usada para lançar magias e ativar engenhocas. Requer 4º círculo.",
      "origin": "Compendium.tormenta20.magias.XWEJNZMs6Wb9uUHF",
      "transfer": false,
      "tint": null,
      "_key": "!items.effects!XWEJNZMs6Wb9uUHF.wb7wmP9NbM1Q2Bxg"
    },
    {
      "_id": "1GMNISQtXMIgnH78",
      "changes": [],
      "disabled": false,
      "duration": {
        "rounds": 1,
        "startTime": null,
        "seconds": null,
        "combat": null,
        "turns": null,
        "startRound": null,
        "startTurn": null
      },
      "icon": "systems/tormenta20/icons/magias/velocidade.webp",
      "label": "Velocidade",
      "origin": "Item.bcI6qQ9HH1A8YCcu",
      "transfer": false,
      "flags": {
        "tormenta20": {
          "onuse": false,
          "durationScene": true
        }
      },
      "tint": null,
      "_key": "!items.effects!XWEJNZMs6Wb9uUHF.1GMNISQtXMIgnH78"
    },
    {
      "_id": "H1gsE0MDcKksovuP",
      "changes": [
        {
          "key": "duracao",
          "mode": 5,
          "value": "sustentada",
          "priority": 0
        }
      ],
      "disabled": true,
      "duration": {
        "startTime": null,
        "seconds": null,
        "combat": null,
        "rounds": null,
        "turns": null,
        "startRound": null,
        "startTurn": null
      },
      "icon": "icons/svg/upgrade.svg",
      "label": "muda a duração para cena. A ação adicional que você pode fazer é apenas de movimento. Uma criatura só pode receber uma ação adicional por turno como efeito de Velocidade.",
      "origin": "Item.Lr2HLRTDMGrZB7eL",
      "transfer": false,
      "flags": {
        "tormenta20": {
          "onuse": true,
          "self": true,
          "attack": false,
          "skill": false,
          "ability": false,
          "power": false,
          "spell": false,
          "consumable": false,
          "aumenta": false,
          "custo": "0",
          "durationScene": false,
          "items": ""
        }
      },
      "tint": null,
      "_key": "!items.effects!XWEJNZMs6Wb9uUHF.H1gsE0MDcKksovuP"
    }
  ],
  "folder": "b44bXhHODNBi2LIx",
  "sort": 0,
  "flags": {
    "core": {
      "sourceId": "Item.MtmFzJIsEiXnAzhU"
    },
    "cf": null
  },
  "system": {
    "description": {
      "value": "<p style=\"text-align: justify;\">O alvo pode realizar uma a&ccedil;&atilde;o padr&atilde;o ou de movimento adicional por turno. Esta a&ccedil;&atilde;o n&atilde;o pode ser usada para lan&ccedil;ar magias e ativar engenhocas.</p>",
      "chat": "",
      "unidentified": ""
    },
    "source": "T20, pg. 210 (JdA)",
    "ativacao": {
      "execucao": "action",
      "custo": 3,
      "qtd": "",
      "condicao": "",
      "special": ""
    },
    "duracao": {
      "value": 0,
      "units": "sust",
      "special": ""
    },
    "target": {
      "value": null,
      "width": null,
      "units": "",
      "type": ""
    },
    "range": {
      "value": null,
      "units": ""
    },
    "consume": {
      "type": "",
      "target": "",
      "amount": null,
      "mpMultiplier": false
    },
    "efeito": "",
    "alcance": "short",
    "alvo": "1 criatura",
    "area": "",
    "resistencia": {
      "pericia": "",
      "atributo": "int",
      "bonus": 0,
      "txt": ""
    },
    "rolls": [],
    "tipo": "arc",
    "circulo": "2",
    "preparada": false,
    "escola": "tra",
    "chatFlavor": "",
    "origin": "",
    "tags": [],
    "chatGif": ""
  },
  "ownership": {
    "default": 0
  },
  "_stats": {
    "systemId": "tormenta20",
    "systemVersion": "1.4.116",
    "coreVersion": "11.298",
    "createdTime": 1664310462757,
    "modifiedTime": 1684622830660,
    "lastModifiedBy": "ZWR5Tn3AhSIFqwp6"
  },
  "_key": "!items!XWEJNZMs6Wb9uUHF"
}
