{
  "_id": "Mp0Mk82uyRUOBIPs",
  "name": "Voo",
  "type": "magia",
  "img": "systems/tormenta20/icons/magias/voo.webp",
  "effects": [
    {
      "_id": "uDJlecnsO28l1Dre",
      "flags": {
        "t20": null,
        "tormenta20": {
          "onuse": true,
          "self": true,
          "custo": "1",
          "aumenta": false
        }
      },
      "changes": [
        {
          "key": "alcance",
          "value": "Toque",
          "mode": 5,
          "priority": null
        },
        {
          "key": "alvo",
          "value": "1 criatura",
          "mode": 5,
          "priority": null
        }
      ],
      "disabled": true,
      "duration": {
        "startTime": null,
        "seconds": null,
        "combat": null,
        "rounds": null,
        "turns": null,
        "startRound": null,
        "startTurn": null
      },
      "icon": "icons/svg/upgrade.svg",
      "label": "muda o alcance para toque e o alvo para 1 criatura.",
      "origin": "Compendium.tormenta20.magias.Mp0Mk82uyRUOBIPs",
      "transfer": false,
      "tint": null,
      "_key": "!items.effects!Mp0Mk82uyRUOBIPs.uDJlecnsO28l1Dre"
    },
    {
      "_id": "duUBwMb99gCuMuUL",
      "flags": {
        "t20": null,
        "tormenta20": {
          "onuse": true,
          "self": true,
          "custo": "4",
          "aumenta": false
        }
      },
      "changes": [
        {
          "key": "duracao",
          "value": "1 dia",
          "mode": 5,
          "priority": null
        }
      ],
      "disabled": true,
      "duration": {
        "startTime": null,
        "seconds": null,
        "combat": null,
        "rounds": null,
        "turns": null,
        "startRound": null,
        "startTurn": null
      },
      "icon": "icons/svg/upgrade.svg",
      "label": "muda a duração para 1 dia. Requer 4º círculo.",
      "origin": "Compendium.tormenta20.magias.Mp0Mk82uyRUOBIPs",
      "transfer": false,
      "tint": null,
      "_key": "!items.effects!Mp0Mk82uyRUOBIPs.duUBwMb99gCuMuUL"
    },
    {
      "_id": "5jXCcJ1kznVsSCU5",
      "flags": {
        "t20": null,
        "tormenta20": {
          "onuse": true,
          "self": true,
          "custo": "4",
          "aumenta": false
        }
      },
      "changes": [
        {
          "key": "alcance",
          "value": "curto",
          "mode": 5,
          "priority": null
        },
        {
          "key": "alvo",
          "value": "até 10 criaturas",
          "mode": 5,
          "priority": null
        }
      ],
      "disabled": true,
      "duration": {
        "startTime": null,
        "seconds": null,
        "combat": null,
        "rounds": null,
        "turns": null,
        "startRound": null,
        "startTurn": null
      },
      "icon": "icons/svg/upgrade.svg",
      "label": "muda o alcance para curto e o alvo para até 10 criaturas. Requer 4° círculo.",
      "origin": "Compendium.tormenta20.magias.Mp0Mk82uyRUOBIPs",
      "transfer": false,
      "tint": null,
      "_key": "!items.effects!Mp0Mk82uyRUOBIPs.5jXCcJ1kznVsSCU5"
    },
    {
      "_id": "CRX7wBp8q9Zkv9z2",
      "changes": [
        {
          "key": "system.attributes.movement.fly",
          "mode": 2,
          "value": "12",
          "priority": null
        }
      ],
      "disabled": false,
      "duration": {
        "rounds": 1,
        "startTime": null,
        "seconds": null,
        "combat": null,
        "turns": null,
        "startRound": null,
        "startTurn": null
      },
      "icon": "systems/tormenta20/icons/magias/voo.webp",
      "label": "Voo",
      "origin": "Item.TNU7KWJ843G0GKJN",
      "transfer": false,
      "flags": {
        "tormenta20": {
          "onuse": false,
          "durationScene": true
        }
      },
      "tint": null,
      "_key": "!items.effects!Mp0Mk82uyRUOBIPs.CRX7wBp8q9Zkv9z2"
    }
  ],
  "folder": "O4DBcowkyxvx1PFy",
  "sort": 0,
  "flags": {
    "core": {
      "sourceId": "Item.Vlk6hS0fo0iWKkKi"
    }
  },
  "system": {
    "description": {
      "value": "<p style=\"text-align: justify;\">Voc&ecirc; recebe deslocamento de voo 12m. Voar por meio desta magia &eacute; simples como andar &mdash; voc&ecirc; pode atacar e lan&ccedil;ar magias normalmente enquanto voa. Quando a magia termina, voc&ecirc; desce lentamente at&eacute; o ch&atilde;o, como se estivesse sob efeito de <em>Queda Suave</em>.</p>",
      "chat": "",
      "unidentified": ""
    },
    "source": "T20, pg. 211 (JdA)",
    "ativacao": {
      "execucao": "action",
      "custo": 6,
      "qtd": "",
      "condicao": "",
      "special": ""
    },
    "duracao": {
      "value": 0,
      "units": "scene",
      "special": ""
    },
    "target": {
      "value": null,
      "width": null,
      "units": "",
      "type": ""
    },
    "range": {
      "value": null,
      "units": ""
    },
    "consume": {
      "type": "",
      "target": "",
      "amount": null,
      "mpMultiplier": false
    },
    "efeito": "",
    "alcance": "self",
    "alvo": "você",
    "area": "",
    "resistencia": {
      "pericia": "",
      "atributo": "int",
      "bonus": 0,
      "txt": ""
    },
    "rolls": [],
    "tipo": "arc",
    "circulo": "3",
    "preparada": false,
    "escola": "tra",
    "chatFlavor": "",
    "origin": "",
    "tags": [],
    "chatGif": ""
  },
  "ownership": {
    "default": 0
  },
  "_stats": {
    "systemId": "tormenta20",
    "systemVersion": "1.4.116",
    "coreVersion": "11.298",
    "createdTime": 1664310461901,
    "modifiedTime": 1684622830660,
    "lastModifiedBy": "ZWR5Tn3AhSIFqwp6"
  },
  "_key": "!items!Mp0Mk82uyRUOBIPs"
}
