{
  "_id": "ahIU6trHt6MuMTS7",
  "name": "Voz Divina",
  "type": "magia",
  "img": "systems/tormenta20/icons/magias/voz-divina.webp",
  "effects": [
    {
      "_id": "1XNyP8IzeH87FX4m",
      "flags": {
        "t20": null,
        "tormenta20": {
          "onuse": true,
          "self": true,
          "custo": "1",
          "aumenta": false
        }
      },
      "changes": [],
      "disabled": true,
      "duration": {
        "startTime": null,
        "seconds": null,
        "combat": null,
        "rounds": null,
        "turns": null,
        "startRound": null,
        "startTurn": null
      },
      "icon": "icons/svg/upgrade.svg",
      "label": "você concede um pouco de vida a um cadáver, suficiente para que ele responda a suas perguntas. O conhecimento do corpo é limitado ao que ele tinha enquanto vivo e suas respostas são curtas e enigmáticas. Um corpo só pode ser alvo desta magia uma vez. Ela também não funciona em um corpo cuja cabeça tenha sido destruída.",
      "origin": "Compendium.tormenta20.magias.ahIU6trHt6MuMTS7",
      "transfer": false,
      "tint": null,
      "_key": "!items.effects!ahIU6trHt6MuMTS7.1XNyP8IzeH87FX4m"
    },
    {
      "_id": "qBjpCbWkUIHrFgzQ",
      "flags": {
        "t20": null,
        "tormenta20": {
          "onuse": true,
          "self": true,
          "custo": "1",
          "aumenta": false
        }
      },
      "changes": [],
      "disabled": true,
      "duration": {
        "startTime": null,
        "seconds": null,
        "combat": null,
        "rounds": null,
        "turns": null,
        "startRound": null,
        "startTurn": null
      },
      "icon": "icons/svg/upgrade.svg",
      "label": "você pode falar com plantas (normais ou monstruosas) e rochas. Plantas e rochas têm percepção limitada de seus arredores e normalmente fornecem respostas simplórias.",
      "origin": "Compendium.tormenta20.magias.ahIU6trHt6MuMTS7",
      "transfer": false,
      "tint": null,
      "_key": "!items.effects!ahIU6trHt6MuMTS7.qBjpCbWkUIHrFgzQ"
    },
    {
      "_id": "dzJ8kkudhuafWeWK",
      "changes": [],
      "disabled": false,
      "duration": {
        "rounds": 1,
        "startTime": null,
        "seconds": null,
        "combat": null,
        "turns": null,
        "startRound": null,
        "startTurn": null
      },
      "icon": "systems/tormenta20/icons/magias/voz-divina.webp",
      "label": "Voz Divina",
      "origin": "Item.keNUZdSKmZcOUEuz",
      "transfer": false,
      "flags": {
        "tormenta20": {
          "onuse": false,
          "durationScene": true
        }
      },
      "tint": null,
      "_key": "!items.effects!ahIU6trHt6MuMTS7.dzJ8kkudhuafWeWK"
    }
  ],
  "folder": "7qHtGvSoffZXEVGU",
  "sort": 0,
  "flags": {
    "core": {
      "sourceId": "Item.9RTzq32hE0Of2RAG"
    }
  },
  "system": {
    "description": {
      "value": "<p style=\"text-align:justify;\">Você pode conversar com criaturas de qualquer raça e tipo: animal, construto, espírito, humanoide, monstro ou morto-vivo. Pode fazer perguntas e entende suas respostas, mesmo sem um idioma em comum ou se a criatura não for capaz de falar, mas respeitando os limites da Inteligência dela. A atitude dessas criaturas não é alterada, mas você pode usar a perícia Diplomacia para tentar mudar sua atitude.</p>",
      "chat": "",
      "unidentified": ""
    },
    "source": "T20, pg. 211 (JdA)",
    "ativacao": {
      "execucao": "action",
      "custo": 3,
      "qtd": "",
      "condicao": "",
      "special": ""
    },
    "duracao": {
      "value": 0,
      "units": "scene",
      "special": ""
    },
    "target": {
      "value": null,
      "width": null,
      "units": "",
      "type": ""
    },
    "range": {
      "value": null,
      "units": ""
    },
    "consume": {
      "type": "",
      "target": "",
      "amount": null,
      "mpMultiplier": false
    },
    "efeito": "",
    "alcance": "self",
    "alvo": "você",
    "area": "",
    "resistencia": {
      "pericia": "",
      "atributo": "sab",
      "bonus": 0,
      "txt": ""
    },
    "rolls": [],
    "tipo": "div",
    "circulo": "2",
    "preparada": false,
    "escola": "adv",
    "chatFlavor": "",
    "origin": "",
    "tags": [],
    "chatGif": ""
  },
  "ownership": {
    "default": 0
  },
  "_stats": {
    "systemId": "tormenta20",
    "systemVersion": "1.4.116",
    "coreVersion": "11.298",
    "createdTime": 1664310462765,
    "modifiedTime": 1684622830660,
    "lastModifiedBy": "ZWR5Tn3AhSIFqwp6"
  },
  "_key": "!items!ahIU6trHt6MuMTS7"
}
