{
  "Actor": {
    "types": ["character","npc","simple"],
    "templates": {
      "common":{
        "atributos": {
          "for": {
            "value": 0,
            "bonus": 0
          },
          "des": {
            "value": 0,
            "bonus": 0
          },
          "con": {
            "value": 0,
            "bonus": 0
          },
          "int": {
            "value": 0,
            "bonus": 0
          },
          "sab": {
            "value": 0,
            "bonus": 0
          },
          "car": {
            "value": 0,
            "bonus": 0
          }
        },
        "attributes": {
          "cd": 10,
          "pv": {
            "value": 0,
            "min": 0,
            "max": 0,
            "temp": 0
          },
          "pm": {
            "value": 0,
            "min": 0,
            "max": 0,
            "temp": 0
          },
          "movement": {
            "burrow": 0,
            "climb": 0,
            "fly": 0,
            "swim": 0,
            "walk": 9,
            "unit": "m",
            "hover": false,
            "notes": ""
          },
          "defesa":{
            "base": 10,
            "value": 0,
            "outros": 0,
            "atributo": "des",
            "pda": 0,
            "bonus": []
          }
        },
        "detalhes": {
          "biography": {
            "value": "",
            "public": ""
          }
        },
        "tracos": {
          "tamanho": "med",
          "resistencias": {
            "perda": {
              "value": 0,
              "base": 0,
              "bonus": [],
              "imunidade": false,
              "vulnerabilidade": false
            },
            "acido": {
              "value": 0,
              "base": 0,
              "bonus": [],
              "imunidade": false,
              "vulnerabilidade": false
            },
            "corte": {
              "value": 0,
              "base": 0,
              "bonus": [],
              "imunidade": false,
              "vulnerabilidade": false
            },
            "eletricidade": {
              "value": 0,
              "base": 0,
              "bonus": [],
              "imunidade": false,
              "vulnerabilidade": false
            },
            "essencia": {
              "value": 0,
              "base": 0,
              "bonus": [],
              "imunidade": false,
              "vulnerabilidade": false
            },
            "fogo": {
              "value": 0,
              "base": 0,
              "bonus": [],
              "imunidade": false,
              "vulnerabilidade": false
            },
            "frio": {
              "value": 0,
              "base": 0,
              "bonus": [],
              "imunidade": false,
              "vulnerabilidade": false
            },
            "impacto": {
              "value": 0,
              "base": 0,
              "bonus": [],
              "imunidade": false,
              "vulnerabilidade": false
            },
            "luz": {
              "value": 0,
              "base": 0,
              "bonus": [],
              "imunidade": false,
              "vulnerabilidade": false
            },
            "psiquico": {
              "value": 0,
              "base": 0,
              "bonus": [],
              "imunidade": false,
              "vulnerabilidade": false
            },
            "perfuracao": {
              "value": 0,
              "base": 0,
              "bonus": [],
              "imunidade": false,
              "vulnerabilidade": false
            },
            "trevas": {
              "value": 0,
              "base": 0,
              "bonus": [],
              "imunidade": false,
              "vulnerabilidade": false
            }
          },
          "ic": {
            "value": [],
            "custom": ""
          }
        },
        "dinheiro": {
          "tl": 0,
          "to": 0,
          "tp": 0,
          "tc": 0
        },
        "resources": {
          "primary": {
            "value": 0,
            "max": 0,
            "label": ""
          },
          "secondary": {
            "value": 0,
            "max": 0,
            "label": ""
          },
          "tertiary": {
            "value": 0,
            "max": 0,
            "label": ""
          },
          "deathsave": {
            "value": 0,
            "max": 3,
            "label": ""
          },
          "shadow": {
            "value": 0,
            "max": 5,
            "label": ""
          },
          "catarse": {
            "value": 0,
            "max": 3,
            "label": ""
          }
        }
      },
      "creature": {
        "attributes": {
          "sentidos": {
            "value": [],
            "custom": ""
          },
          "conjuracao": "int",
          "nivel": {
            "value": 1
          }
        },
        "detalhes": {
          "raca": "",
          "tipo": "humanoide",
          "alinhamento": "",
          "divindade": ""
        },
        "pericias": {
          "acro": {
            "value": 0,"atributo": "des", "outros": 0, "treinado":0
          },
          "ades": {
            "value": 0,"atributo": "car", "outros": 0, "treinado":0
          },
          "atle": {
            "value": 0,"atributo": "for", "outros": 0, "treinado":0
          },
          "atua": {
            "value": 0,"atributo": "car", "outros": 0, "treinado":0
          },
          "cava": {
            "value": 0,"atributo": "des", "outros": 0, "treinado":0
          },
          "conh": {
            "value": 0,"atributo": "int", "outros": 0, "treinado":0
          },
          "cura": {
            "value": 0,"atributo": "sab", "outros": 0, "treinado":0
          },
          "dipl": {
            "value": 0,"atributo": "car", "outros": 0, "treinado":0
          },
          "enga": {
            "value": 0,"atributo": "car", "outros": 0, "treinado":0
          },
          "fort": {
            "value": 0,"atributo": "con", "outros": 0, "treinado":0
          },
          "furt": {
            "value": 0,"atributo": "des", "outros": 0, "treinado":0
          },
          "guer": {
            "value": 0,"atributo": "int", "outros": 0, "treinado":0
          },
          "inic": {
            "value": 0,"atributo": "des", "outros": 0, "treinado":0
          },
          "inti": {
            "value": 0,"atributo": "car", "outros": 0, "treinado":0
          },
          "intu": {
            "value": 0,"atributo": "sab", "outros": 0, "treinado":0
          },
          "inve": {
            "value": 0,"atributo": "int", "outros": 0, "treinado":0
          },
          "joga": {
            "value": 0,"atributo": "car", "outros": 0, "treinado":0
          },
          "ladi": {
            "value": 0,"atributo": "des", "outros": 0, "treinado":0
          },
          "luta": {
            "value": 0,"atributo": "for", "outros": 0, "treinado":0
          },
          "mist": {
            "value": 0,"atributo": "int", "outros": 0, "treinado":0
          },
          "nobr": {
            "value": 0,"atributo": "int", "outros": 0, "treinado":0
          },
          "ofi0": {
            "value": 0,"atributo": "int", "outros": 0, "treinado":0
          },
          "perc": {
            "value": 0,"atributo": "sab", "outros": 0, "treinado":0
          },
          "pilo": {
            "value": 0,"atributo": "des", "outros": 0, "treinado":0
          },
          "pont": {
            "value": 0,"atributo": "des", "outros": 0, "treinado":0
          },
          "refl": {
            "value": 0,"atributo": "des", "outros": 0, "treinado":0
          },
          "reli": {
            "value": 0,"atributo": "sab", "outros": 0, "treinado":0
          },
          "sobr": {
            "value": 0,"atributo": "sab", "outros": 0, "treinado":0
          },
          "vont": {
            "value": 0,"atributo": "sab", "outros": 0, "treinado":0
          },
          "_pc0": {
            "value": 0,"atributo": "for", "outros": 0, "treinado":0
          }
        },
        "tracos": {
          "idiomas": {
            "value": ["comum"]
          }
        },
        "modificadores": {}
      },
      "builder": {
        "builder": {
          "attributes":{
            "cr": "",
            "size": "",
            "attack": {"value":0,"cr":""},
            "damage": {"value":0,"cr":""},
            "defense": {"value":0,"cr":""},
            "fort": {"value":0,"rank":2,"cr":""},
            "refl": {"value":0,"rank":1,"cr":""},
            "vont": {"value":0,"rank":0,"cr":""},
            "topsave": {"value":0,"cr":""},
            "midsave": {"value":0,"cr":""},
            "botsave": {"value":0,"cr":""},
            "hp": {"value":0,"cr":""},
            "mp": {"value":0,"cr":""},
            "dc": {"value":0,"cr":""}
          },
          "details":{
            "concept": "",
            "creatureType": "",
            "role": "",
            "treasure": ""
          }
        }
      }
    },
    "htmlFields": ["detalhes.biography.value", "detalhes.biography.public"],
    "character": {
      "templates": ["common", "creature"],
      "attributes": {
        "carga": {
          "value": null,
          "max": null
        },
        "nivel": {
          "xp": {
            "value": 0,
            "min": 0,
            "proximo": 1000
          }
        }
      },
      "detalhes": {
        "classe": "",
        "origem": "",
        "diario": { "name": "", "value": "" },
        "diario1": { "name": "", "value": "" },
        "diario2": { "name": "", "value": "" },
        "diario3": { "name": "", "value": "" },
        "diario4": { "name": "", "value": "" }
      },
      "tracos": {
        "profArmas": {
          "value": ["sim"]
        },
        "profArmaduras": {
          "value": ["lev"]
        }
      }
    },
    "npc": {
      "templates": ["common", "creature","builder"],
      "attributes": {
        "nivel": {
          "xp": {
            "value": 0
          }
        }
      },
      "detalhes": {
        "nd": "",
        "equipamento": "",
        "resistencias": "",
        "tesouro": "",
        "role": ""
      }
    }
  },
  "Item": {
    "types": ["arma","equipamento","classe","consumivel","magia","poder","tesouro"],
    "templates": {
      "base": {
        "description": {
          "value": "",
          "chat": "",
          "unidentified": ""
        },
        "source": ""
      },
      "efeitoAtivado": {
        "ativacao": {
          "execucao": "",
          "custo": 0,
          "qtd": 0,
          "condicao": "",
          "special": ""
        },
        "duracao": {
          "value": null,
          "units": "",
          "special": ""
        },
        "target": {
          "value": null,
          "width": null,
          "units": "",
          "type": ""
        },
        "range": {
          "value": null,
          "units": ""
        },
        "consume": {
          "type": "",
          "target": null,
          "amount": null
        },
        "efeito": "",
        "alcance": "",
        "alvo": "",
        "area": ""
      },
      "resistencia": {
        "resistencia" : {
          "pericia": "",
          "atributo": "",
          "bonus": 0
        }
      },
      "objeto":{
        "equipado": false,
        "equipado2": {
          "slot": 0,
          "type": ""
        },
        "carregado": true,
        "peso": 0,
        "espacos": 0,
        "qtd": 1,
        "preco": 0,
        "pv": {
          "value": 0,
          "min": 0,
          "max": 0
        },
        "rd": 0
      },
      "progression":{
        "progression":[]
      }
    },
    "equipamento": {
      "templates": ["base", "objeto"],
      "tipo": "leve",
      "armadura": {
        "value": 0,
        "penalidade": 0,
        "maxAtr": 0
      }
    },
    "poder": {
      "templates": ["base", "efeitoAtivado", "resistencia"],
      "rolls": [],
      "tipo": "",
      "subtipo": ""
    },
    "magia": {
      "templates": ["base", "efeitoAtivado", "resistencia"],
      "rolls": [],
      "tipo": "",
      "circulo": 1,
      "preparada": false,
      "escola": ""
    },
    "tesouro": {
      "templates": ["base","objeto"],
      "container": false
    },
    "arma": {
      "templates": ["base","objeto"],
      "rolls": [],
      "criticoM": 20,
      "criticoX": 2,
      "alcance": "",
      "tipoUso": "simples",
      "propriedades": {}
    },
    "consumivel": {
      "templates": ["base","objeto", "efeitoAtivado", "resistencia"],
      "rolls": [],
      "tipo": "",
      "uses": {
        "autoDestroy": false
      }
    },
    "classe": {
      "templates": ["base"],
      "niveis": 1,
      "pvPorNivel": "2",
      "pmPorNivel": "3",
      "inicial": false,
      "pericias": {
        "numero": 2,
        "inatas": "",
        "escolhas": [],
        "value": []
      }
    }
  }
}
