{
  "name": "Alaude Elétrico",
  "type": "equipamento",
  "img": "systems/tormenta20/icons/itens/itens-magicos/alaude-eletrico.webp",
  "system": {
    "description": {
      "value": "<p>Um instrumento ex&oacute;tico decorado com uma pintura espalhafatosa, o ala&uacute;de El&eacute;trico &eacute; cheio de medidores e v&aacute;lvulas, como uma engenhoca goblin. Seu poder se manifesta quando um bardo come&ccedil;a a dedilhar suas cordas -- o ala&uacute;de el&eacute;trico &eacute; imbu&iacute;do com poder do rel&acirc;mpago. A cada nota que produz, fa&iacute;scas e pequenas descargas el&eacute;tricas correm pelas cordas e surgem de seu bra&ccedil;o. Usando esse instrumento, a Inspira&ccedil;&atilde;o de bardo passa a afetar aliados em alcance m&eacute;dio. Al&eacute;m disso, uma vez por rodada, como uma a&ccedil;&atilde;o completa, o bardo pode fazer um teste de Atua&ccedil;&atilde;o (CD 15+Custo em PM da magia) para tentar excecutar um solo m&aacute;gico e lan&ccedil;ar as magias <em>Luz</em> ou <em>Rel&acirc;mpago</em> sem custos. O usu&aacute;rio pode escolher usar os aprimoramentos das magias, aumentando a complexidade e a dificuldade do solo.</p>",
      "chat": "",
      "unidentified": ""
    },
    "source": "Marca pag T20, 001",
    "equipado": false,
    "equipado2": {
      "slot": 0,
      "type": ""
    },
    "carregado": true,
    "peso": 0,
    "espacos": 1,
    "qtd": 1,
    "preco": 27000,
    "pv": {
      "value": 0,
      "min": 0,
      "max": 0
    },
    "rd": 0,
    "tipo": "acessorio",
    "armadura": {
      "value": 0,
      "penalidade": 0,
      "maxAtr": 0
    },
    "origin": "",
    "tags": [],
    "chatFlavor": "",
    "ativacao": {
      "custo": null,
      "condicao": "",
      "execucao": "",
      "qtd": "",
      "special": ""
    },
    "rolls": [],
    "melhorias": {
      "adjusted": null,
      "undermeasure": null,
      "delicate": null,
      "thorny": null,
      "specialmaterial": null,
      "polished": null,
      "reinforced": null,
      "sealed": null,
      "golden": null,
      "gems": null,
      "discreet": null,
      "macabre": null,
      "enhanced": null
    },
    "encantos": {
      "abascanth": null,
      "blessed": null,
      "acrobatic": null,
      "winged": null,
      "frightful": null,
      "caustic": null,
      "defending": null,
      "slick": null,
      "ghostly": null,
      "ortification": null,
      "frost": null,
      "guardian": null,
      "hypnotic": null,
      "illusory": null,
      "incandescent": null,
      "invulnerable": null,
      "opaque": null,
      "protector": null,
      "reflecting": null,
      "lightning": null,
      "blinding": null,
      "shadow": null,
      "zealous": null
    },
    "chatGif": "",
    "upgrades": {
      "melhoria1": "",
      "melhoria2": "",
      "melhoria3": "",
      "melhoria4": "",
      "material": "",
      "encanto1": "",
      "encanto2": "",
      "encanto3": ""
    }
  },
  "effects": [],
  "flags": {},
  "_stats": {
    "systemId": "tormenta20",
    "systemVersion": "1.4.116",
    "coreVersion": "11.298",
    "createdTime": 1666822047113,
    "modifiedTime": 1684622899870,
    "lastModifiedBy": "ZWR5Tn3AhSIFqwp6"
  },
  "_id": "aCDhJObN0BaoP9cR",
  "folder": "BgJUCrqjG6EVBIfP",
  "sort": 100000,
  "ownership": {
    "default": 0,
    "tIn9sSkrT3mDWirx": 3
  },
  "_key": "!items!aCDhJObN0BaoP9cR"
}
