{
  "_id": "HvaItUlAcCtEUUPc",
  "name": "Anel de Telecinesia",
  "type": "equipamento",
  "img": "systems/tormenta20/icons/itens/itens-magicos/anel.webp",
  "effects": [
    {
      "label": "Anel de Telecinesia",
      "icon": "icons/svg/upgrade.svg",
      "origin": "Item.HvaItUlAcCtEUUPc",
      "tint": "#FFFFFF",
      "flags": {
        "tormenta20": {
          "onuse": true,
          "durationScene": false,
          "self": false,
          "attack": false,
          "skill": false,
          "ability": false,
          "power": false,
          "spell": true,
          "consumable": false,
          "items": "",
          "aumenta": false,
          "custo": "-1"
        }
      },
      "duration": {
        "startTime": null,
        "seconds": null,
        "combat": null,
        "rounds": null,
        "turns": null,
        "startRound": null,
        "startTurn": null
      },
      "disabled": true,
      "_id": "doonvoDKEU6bPv44",
      "changes": [],
      "transfer": true,
      "_key": "!items.effects!HvaItUlAcCtEUUPc.doonvoDKEU6bPv44"
    }
  ],
  "folder": "BgJUCrqjG6EVBIfP",
  "sort": 1000000,
  "flags": {
    "core": {
      "sourceId": "Compendium.tormenta20.equipamentos-magicos.HvaItUlAcCtEUUPc"
    }
  },
  "system": {
    "description": {
      "value": "<p>Voc&ecirc; pode lan&ccedil;ar @UUID[Compendium.tormenta20.magias.UhiM7pMNk3HfWNKP]{Telecin&eacute;sia}. Caso j&aacute; conhe&ccedil;a a magia, o custo para lan&ccedil;&aacute;-la diminui em &ndash;1 PM.</p>",
      "chat": "",
      "unidentified": ""
    },
    "source": "T20, pg. 342 (JdA)",
    "equipado": false,
    "equipado2": {
      "slot": 0,
      "type": ""
    },
    "carregado": true,
    "peso": 0,
    "espacos": 1,
    "qtd": 1,
    "preco": 10500,
    "pv": {
      "value": 0,
      "min": 0,
      "max": 0
    },
    "rd": 0,
    "tipo": "acessorio",
    "armadura": {
      "value": 0,
      "penalidade": 0,
      "maxAtr": 0
    },
    "rolls": [],
    "origin": "",
    "tags": [],
    "chatFlavor": "",
    "chatGif": "",
    "ativacao": {
      "custo": 0,
      "condicao": "",
      "execucao": "",
      "qtd": "",
      "special": ""
    },
    "upgrades": {
      "melhoria1": "",
      "melhoria2": "",
      "melhoria3": "",
      "melhoria4": "",
      "material": "",
      "encanto1": "",
      "encanto2": "",
      "encanto3": ""
    },
    "melhorias": {},
    "encantos": {}
  },
  "ownership": {
    "default": 0
  },
  "_stats": {
    "systemId": "tormenta20",
    "systemVersion": "1.4.116",
    "coreVersion": "11.298",
    "createdTime": 1664314000093,
    "modifiedTime": 1684622966500,
    "lastModifiedBy": "ZWR5Tn3AhSIFqwp6"
  },
  "_key": "!items!HvaItUlAcCtEUUPc"
}
