{
  "name": "Arco do Juramento",
  "type": "arma",
  "img": "systems/tormenta20/icons/itens/itens-magicos/arco-do-juramento.webp",
  "system": {
    "description": {
      "value": "<p>Criado pelos lend&aacute;rios arqueiros arcanos de Len&oacute;rienn com a inten&ccedil;&atilde;o de assassinar os l&iacute;deres da alian&ccedil;a Negra, esse <em>arco longo formid&aacute;vel </em>tem um poder especial: o usu&aacute;rio pode jurar em voz alta que ir&aacute; mtar o seu alvo, fazendo com o que o arco se torne uma arma <em>magn&iacute;fica anticriatura amea&ccedil;adora e lancinante</em>, mas apenas contra o alvo jurado. Contra todas as outras criaturas, o arco se torna uma arma mundana. Al&eacute;m disso, seu usu&aacute;rio sofre -2 nos ataques e jogadas de dano se usar qualquer outra arma ou atacar qualquer outro alvo.</p>\n<p>Esse efeito dura at&eacute; o alvo jurado morrer ou sete dias se passarem, o que vier primeiro. O usu&aacute;rio s&oacute; pode jurar outro alvo depois de matar o primeiro, ou ap&oacute;s sete dias, o que vier primeiro. Sempre que &eacute; disparado contra um alvo jurado, o arco do juramento grita \"morte r&aacute;pida a meus inimigos\", em &eacute;lfico.</p>",
      "chat": "",
      "unidentified": ""
    },
    "source": "Marca pag T20, 002",
    "equipado": 0,
    "equipado2": {
      "slot": 0,
      "type": ""
    },
    "carregado": true,
    "peso": 1.5,
    "espacos": 2,
    "qtd": 1,
    "preco": 25600,
    "pv": {
      "value": 0,
      "min": 0,
      "max": 0
    },
    "rd": 0,
    "rolls": [
      {
        "name": "Ataque",
        "key": "ataque0",
        "type": "ataque",
        "parts": [
          [
            "1d20",
            "",
            ""
          ],
          [
            "pont",
            "",
            ""
          ],
          [
            "0",
            "",
            ""
          ]
        ],
        "versatil": ""
      },
      {
        "name": "Dano",
        "key": "dano1",
        "type": "dano",
        "parts": [
          [
            "1d8",
            "perfuracao",
            ""
          ],
          [
            "@for",
            "",
            ""
          ]
        ],
        "versatil": ""
      }
    ],
    "criticoM": 20,
    "criticoX": 3,
    "alcance": "medium",
    "tipoUso": "sim",
    "propriedades": {
      "ada": false,
      "agi": false,
      "alo": false,
      "arr": false,
      "dst": false,
      "dms": false,
      "dup": false,
      "lev": false,
      "mun": false,
      "ver": false,
      "adaptavel": false,
      "agil": false,
      "alongada": false,
      "arremesso": false,
      "ataqueDistancia": true,
      "duasMaos": true,
      "dupla": false,
      "leve": false,
      "municao": true,
      "versatil": false,
      "des": false
    },
    "encantos": {
      "arremesso": false,
      "lancinante": false,
      "lancinating": false
    },
    "ativacao": {
      "custo": null,
      "condicao": "",
      "execucao": "",
      "qtd": "",
      "special": ""
    },
    "chatFlavor": "",
    "consume": {
      "type": "",
      "target": "",
      "amount": null,
      "mpMultiplier": false
    },
    "origin": "",
    "tags": [],
    "chatGif": "",
    "upgrades": {
      "melhoria1": "",
      "melhoria2": "",
      "melhoria3": "",
      "melhoria4": "",
      "material": "",
      "encanto1": "",
      "encanto2": "",
      "encanto3": ""
    },
    "melhorias": {},
    "proficiencia": "marcial",
    "proposito": "disparo",
    "empunhadura": "duas",
    "size": "normal",
    "ataques": 0
  },
  "effects": [
    {
      "label": "Jurar (magnífica ameaçadora e lancinante)",
      "icon": "icons/svg/upgrade.svg",
      "origin": "Item.GI5p93ztzcG49pXu",
      "tint": "#FFFFFF",
      "flags": {
        "tormenta20": {
          "onuse": true,
          "durationScene": false,
          "self": true,
          "attack": false,
          "skill": false,
          "ability": false,
          "power": false,
          "equipment": false,
          "spell": false,
          "consumable": false,
          "items": "",
          "aumenta": false,
          "custo": ""
        }
      },
      "duration": {
        "startTime": null,
        "seconds": null,
        "combat": null,
        "rounds": null,
        "turns": null,
        "startRound": null,
        "startTurn": null
      },
      "disabled": true,
      "_id": "LaDqNgPelC6toKbT",
      "changes": [
        {
          "key": "ataque",
          "mode": 2,
          "value": "2",
          "priority": 0
        },
        {
          "key": "dano",
          "mode": 2,
          "value": "2",
          "priority": 0
        },
        {
          "key": "criticoM",
          "mode": 2,
          "value": "-1",
          "priority": 0
        }
      ],
      "transfer": false,
      "_key": "!items.effects!7IScjaBQPp3StNbd.LaDqNgPelC6toKbT"
    },
    {
      "label": "Jurar (Anticriatura)",
      "icon": "icons/svg/upgrade.svg",
      "origin": "Item.GI5p93ztzcG49pXu",
      "tint": "#FFFFFF",
      "flags": {
        "tormenta20": {
          "onuse": true,
          "durationScene": false,
          "self": true,
          "attack": false,
          "skill": false,
          "ability": false,
          "power": false,
          "equipment": false,
          "spell": false,
          "consumable": false,
          "items": "",
          "aumenta": false,
          "custo": "2"
        }
      },
      "duration": {
        "startTime": null,
        "seconds": null,
        "combat": null,
        "rounds": null,
        "turns": null,
        "startRound": null,
        "startTurn": null
      },
      "disabled": true,
      "_id": "EKeFiqjGqRChXmXt",
      "changes": [
        {
          "key": "dano",
          "mode": 2,
          "value": "4d8",
          "priority": 0
        }
      ],
      "transfer": false,
      "_key": "!items.effects!7IScjaBQPp3StNbd.EKeFiqjGqRChXmXt"
    },
    {
      "label": "formidavel",
      "icon": "icons/svg/upgrade.svg",
      "origin": "Item.GI5p93ztzcG49pXu",
      "tint": "#FFFFFF",
      "flags": {
        "tormenta20": {
          "onuse": true,
          "durationScene": false,
          "self": true,
          "attack": false,
          "skill": false,
          "ability": false,
          "power": false,
          "equipment": false,
          "spell": false,
          "consumable": false,
          "items": "",
          "aumenta": false,
          "custo": ""
        }
      },
      "duration": {
        "startTime": null,
        "seconds": null,
        "combat": null,
        "rounds": null,
        "turns": null,
        "startRound": null,
        "startTurn": null
      },
      "disabled": false,
      "_id": "xFZ98UPNeelZxwz7",
      "changes": [
        {
          "key": "ataque",
          "mode": 2,
          "value": "2",
          "priority": 0
        },
        {
          "key": "dano",
          "mode": 2,
          "value": "2",
          "priority": 0
        }
      ],
      "transfer": false,
      "_key": "!items.effects!7IScjaBQPp3StNbd.xFZ98UPNeelZxwz7"
    }
  ],
  "flags": {
    "core": {
      "sourceId": "Compendium.tormenta20.equipamentos.B1hiWU8eEI1NHwcv"
    }
  },
  "_stats": {
    "systemId": "tormenta20",
    "systemVersion": "1.4.116",
    "coreVersion": "11.298",
    "createdTime": 1664312772394,
    "modifiedTime": 1684622913966,
    "lastModifiedBy": "ZWR5Tn3AhSIFqwp6"
  },
  "_id": "7IScjaBQPp3StNbd",
  "folder": "9ki1HFV3bfmVkHBh",
  "sort": 100000,
  "ownership": {
    "default": 0,
    "tIn9sSkrT3mDWirx": 3
  },
  "_key": "!items!7IScjaBQPp3StNbd"
}
