{
  "_id": "56TGgR3gpMyWTVq2",
  "name": "Botas Aladas",
  "type": "equipamento",
  "img": "systems/tormenta20/icons/itens/itens-magicos/botas-aladas.webp",
  "effects": [
    {
      "label": "Efeito Sustentável -1 PM",
      "icon": "icons/svg/upgrade.svg",
      "origin": "Item.56TGgR3gpMyWTVq2",
      "tint": "#FFFFFF",
      "flags": {
        "tormenta20": {
          "onuse": true,
          "durationScene": true,
          "self": true,
          "attack": false,
          "skill": false,
          "ability": false,
          "power": false,
          "equipment": false,
          "spell": false,
          "consumable": false,
          "items": "",
          "aumenta": false,
          "custo": " "
        }
      },
      "duration": {
        "rounds": 1,
        "startTime": null,
        "seconds": null,
        "combat": null,
        "turns": null,
        "startRound": null,
        "startTurn": null
      },
      "disabled": true,
      "_id": "TS4S3tZfmgEXY8W9",
      "changes": [
        {
          "key": "system.attributes.movement.fly",
          "mode": 2,
          "value": "12",
          "priority": 0
        }
      ],
      "transfer": false,
      "_key": "!items.effects!56TGgR3gpMyWTVq2.TS4S3tZfmgEXY8W9"
    },
    {
      "label": "Botas Aladas",
      "icon": "systems/tormenta20/icons/itens/itens-magicos/botas-aladas.webp",
      "origin": "Item.56TGgR3gpMyWTVq2",
      "tint": "#FFFFFF",
      "flags": {
        "tormenta20": {
          "onuse": false,
          "durationScene": false
        }
      },
      "duration": {
        "rounds": 1,
        "startTime": null,
        "seconds": null,
        "combat": null,
        "turns": null,
        "startRound": null,
        "startTurn": null
      },
      "disabled": false,
      "_id": "sfs7NME0WtIxIJkZ",
      "changes": [
        {
          "key": "system.attributes.movement.fly",
          "mode": 0,
          "value": "0",
          "priority": null
        }
      ],
      "transfer": true,
      "_key": "!items.effects!56TGgR3gpMyWTVq2.sfs7NME0WtIxIJkZ"
    }
  ],
  "folder": "BgJUCrqjG6EVBIfP",
  "sort": 1200000,
  "flags": {
    "core": {
      "sourceId": "Compendium.tormenta20.equipamentos-magicos.56TGgR3gpMyWTVq2"
    }
  },
  "system": {
    "description": {
      "value": "Você pode gastar 2 PM para fazer asas brotarem dos calcanhares destas botas e receber deslocamento de voo 12m por uma rodada. Você pode gastar 1 PM no início de cada um de seus turnos para manter esse efeito.",
      "chat": "",
      "unidentified": ""
    },
    "source": "T20, pg. 342 (JdA)",
    "equipado": false,
    "equipado2": {
      "slot": 0,
      "type": ""
    },
    "carregado": true,
    "peso": 0,
    "espacos": 1,
    "qtd": 1,
    "preco": 15000,
    "pv": {
      "value": 0,
      "min": 0,
      "max": 0
    },
    "rd": 0,
    "tipo": "acessorio",
    "armadura": {
      "value": 0,
      "penalidade": 0,
      "maxAtr": 0
    },
    "rolls": [],
    "ativacao": {
      "custo": 2,
      "condicao": "",
      "execucao": "",
      "qtd": "",
      "special": ""
    },
    "origin": "",
    "tags": [],
    "chatFlavor": "",
    "chatGif": "",
    "upgrades": {
      "melhoria1": "",
      "melhoria2": "",
      "melhoria3": "",
      "melhoria4": "",
      "material": "",
      "encanto1": "",
      "encanto2": "",
      "encanto3": ""
    },
    "melhorias": {},
    "encantos": {}
  },
  "ownership": {
    "default": 0
  },
  "_stats": {
    "systemId": "tormenta20",
    "systemVersion": "1.4.116",
    "coreVersion": "11.298",
    "createdTime": 1664314000087,
    "modifiedTime": 1684622966500,
    "lastModifiedBy": "ZWR5Tn3AhSIFqwp6"
  },
  "_key": "!items!56TGgR3gpMyWTVq2"
}
