{
  "_id": "402QJlcWzp7gaZYo",
  "name": "Cinto do Campeão",
  "type": "equipamento",
  "img": "systems/tormenta20/icons/itens/itens-magicos/cinto-do-campeao.webp",
  "effects": [
    {
      "label": "Cinto do Campeão",
      "icon": "systems/tormenta20/icons/itens/itens-magicos/cinto-do-campeao.webp",
      "origin": "Item.402QJlcWzp7gaZYo",
      "tint": "#FFFFFF",
      "flags": {
        "tormenta20": {
          "onuse": false,
          "durationScene": false
        }
      },
      "duration": {
        "startTime": null,
        "seconds": null,
        "combat": null,
        "rounds": null,
        "turns": null,
        "startRound": null,
        "startTurn": null
      },
      "disabled": false,
      "_id": "2F2h8pqnK77FT9eA",
      "changes": [
        {
          "key": "system.atributos.for.value",
          "mode": 2,
          "value": "1",
          "priority": null
        }
      ],
      "transfer": true,
      "_key": "!items.effects!402QJlcWzp7gaZYo.2F2h8pqnK77FT9eA"
    }
  ],
  "folder": "BgJUCrqjG6EVBIfP",
  "sort": 2600000,
  "flags": {
    "core": {
      "sourceId": "Compendium.tormenta20.equipamentos-magicos.402QJlcWzp7gaZYo"
    }
  },
  "system": {
    "description": {
      "value": "<p>Este cintur&atilde;o de ouro &eacute; cravejado de joias e possui gravuras de gladiadores e pugilistas minotauros. Voc&ecirc; recebe +1 em For&ccedil;a e a habilidade @UUID[Compendium.tormenta20.poderes.1gvsbH8ljOuhBdKM]{Briga} (veja a p&aacute;gina 76). Caso j&aacute; a possua, seu dano desarmado ser&aacute; calculado como se voc&ecirc; possu&iacute;sse quatro n&iacute;veis de lutador a mais (m&aacute;ximo 2d12). Por fim, caso possua o poder Torcida, o b&ocirc;nus que voc&ecirc; recebe por ele aumenta para +3. Em tempos antigos, estes cintos eram dados aos vencedores dos jogos gladiatoriais do Imp&eacute;rio de Tauron. A cada ano, diversos combatentes de toda Arton viajavam a Tiberus para competir e ter uma chance de ganhar um destes itens.</p>",
      "chat": "",
      "unidentified": ""
    },
    "source": "T20, pg. 343 (JdA)",
    "equipado": false,
    "equipado2": {
      "slot": 0,
      "type": ""
    },
    "carregado": true,
    "peso": 0,
    "espacos": 1,
    "qtd": 1,
    "preco": 51000,
    "pv": {
      "value": 0,
      "min": 0,
      "max": 0
    },
    "rd": 0,
    "tipo": "acessorio",
    "armadura": {
      "value": 0,
      "penalidade": 0,
      "maxAtr": 0
    },
    "rolls": [],
    "melhorias": {
      "enhanced": null,
      "golden": null,
      "gems": null,
      "discreet": null,
      "macabre": null
    },
    "origin": "",
    "tags": [],
    "chatFlavor": "",
    "chatGif": "",
    "ativacao": {
      "custo": 0,
      "condicao": "",
      "execucao": "",
      "qtd": "",
      "special": ""
    },
    "upgrades": {
      "melhoria1": "",
      "melhoria2": "",
      "melhoria3": "",
      "melhoria4": "",
      "material": "",
      "encanto1": "",
      "encanto2": "",
      "encanto3": ""
    },
    "encantos": {}
  },
  "ownership": {
    "default": 0
  },
  "_stats": {
    "systemId": "tormenta20",
    "systemVersion": "1.4.116",
    "coreVersion": "11.298",
    "createdTime": 1664314000087,
    "modifiedTime": 1684623039339,
    "lastModifiedBy": "ZWR5Tn3AhSIFqwp6"
  },
  "_key": "!items!402QJlcWzp7gaZYo"
}
