{
  "_id": "AJEwZYS6iJvqdQlr",
  "name": "Colar Guardião",
  "type": "equipamento",
  "img": "systems/tormenta20/icons/itens/itens-magicos/colar-guardiao.webp",
  "effects": [],
  "folder": "BgJUCrqjG6EVBIfP",
  "sort": 2500000,
  "flags": {
    "core": {
      "sourceId": "Compendium.tormenta20.equipamentos-magicos.AJEwZYS6iJvqdQlr"
    }
  },
  "system": {
    "description": {
      "value": "<p style=\"text-align:justify;\">Este diamante lapidado preso em uma corrente de platina deflete ataques contra seu usuário. Você recebe +5 em Defesa.</p>",
      "chat": "",
      "unidentified": ""
    },
    "source": "T20, pg. 343 (JdA)",
    "equipado": false,
    "equipado2": {
      "slot": 0,
      "type": ""
    },
    "carregado": true,
    "peso": 0,
    "espacos": 1,
    "qtd": 1,
    "preco": 51000,
    "pv": {
      "value": 0,
      "min": 0,
      "max": 0
    },
    "rd": 0,
    "tipo": "acessorio",
    "armadura": {
      "value": 5,
      "penalidade": 0,
      "maxAtr": 0
    },
    "rolls": [],
    "melhorias": {
      "enhanced": null,
      "golden": null,
      "gems": null,
      "discreet": null,
      "macabre": null
    },
    "origin": "",
    "tags": [],
    "chatFlavor": "",
    "chatGif": "",
    "ativacao": {
      "custo": 0,
      "condicao": "",
      "execucao": "",
      "qtd": "",
      "special": ""
    },
    "upgrades": {
      "melhoria1": "",
      "melhoria2": "",
      "melhoria3": "",
      "melhoria4": "",
      "material": "",
      "encanto1": "",
      "encanto2": "",
      "encanto3": ""
    },
    "encantos": {}
  },
  "ownership": {
    "default": 0
  },
  "_stats": {
    "systemId": "tormenta20",
    "systemVersion": "1.4.116",
    "coreVersion": "11.298",
    "createdTime": 1664314000090,
    "modifiedTime": 1684623039339,
    "lastModifiedBy": "ZWR5Tn3AhSIFqwp6"
  },
  "_key": "!items!AJEwZYS6iJvqdQlr"
}
