{
  "_id": "7ZSpOEZBMbT3aVsO",
  "name": "Lâmina da Luz",
  "type": "arma",
  "img": "systems/tormenta20/icons/itens/itens-magicos/lamina-da-luz.webp",
  "effects": [],
  "folder": "9ki1HFV3bfmVkHBh",
  "sort": 100782,
  "flags": {
    "core": {
      "sourceId": "Compendium.tormenta20.equipamentos-magicos.7ZSpOEZBMbT3aVsO"
    }
  },
  "system": {
    "description": {
      "value": "<p style=\"text-align:justify;\">De l&acirc;mina prateada e reluzente, esta <strong>espada bastarda formidável</strong> é concedida a cavaleiros da Luz de honra e virtude comprovadas. Você pode gastar uma ação de movimento e 2 PM para erguer a l&acirc;mina da luz acima de sua cabeça. Se fizer isso, ela irradia luz brilhante em alcance médio até o fim da cena. Todos os inimigos dentro da luz ficam ofuscados.</p>",
      "chat": "",
      "unidentified": ""
    },
    "source": "",
    "equipado": 0,
    "equipado2": {
      "slot": 0,
      "type": ""
    },
    "carregado": true,
    "peso": 3,
    "espacos": 0,
    "qtd": 1,
    "preco": 0,
    "pv": {
      "value": 0,
      "min": 0,
      "max": 0
    },
    "rd": 0,
    "rolls": [
      {
        "name": "Ataque",
        "key": "ataque0",
        "type": "ataque",
        "parts": [
          [
            "1d20",
            "",
            ""
          ],
          [
            "luta",
            "",
            ""
          ],
          [
            "2",
            "",
            ""
          ]
        ],
        "versatil": ""
      },
      {
        "name": "Dano",
        "key": "dano1",
        "type": "dano",
        "parts": [
          [
            "1d10",
            "corte",
            ""
          ],
          [
            "@for",
            "",
            ""
          ],
          [
            "+2",
            "corte",
            ""
          ]
        ],
        "versatil": ""
      }
    ],
    "criticoM": 19,
    "criticoX": 2,
    "alcance": "-",
    "tipoUso": "sim",
    "propriedades": {
      "ada": false,
      "agi": false,
      "alo": false,
      "dup": false,
      "ver": false,
      "adaptavel": false,
      "agil": false,
      "alongada": false,
      "arremesso": false,
      "ataqueDistancia": false,
      "duasMaos": false,
      "dupla": false,
      "leve": false,
      "municao": false,
      "versatil": false
    },
    "encantos": {
      "arremesso": false,
      "lancinante": false,
      "keen": null,
      "bane": null,
      "throwable": null,
      "assassin": null,
      "seeking": null,
      "frost": null,
      "caster": null,
      "corrosive": null,
      "dancing": null,
      "defending": null,
      "destructive": null,
      "lacerating": null,
      "draining": null,
      "shock": null,
      "energy": null,
      "excruciating": null,
      "flaming": null,
      "formidable": "Formidável",
      "lancinating": false,
      "magnificent": null,
      "merciful": null,
      "unholy": null,
      "holy": null,
      "bloodthirsty": null,
      "thundering": null,
      "sepulchral": null,
      "speed": null,
      "poisonous": null
    },
    "ativacao": {
      "custo": null,
      "condicao": "",
      "execucao": "",
      "qtd": "",
      "special": ""
    },
    "consume": {
      "type": "",
      "target": "",
      "amount": null,
      "mpMultiplier": false
    },
    "chatFlavor": "",
    "melhorias": {
      "accurate": null,
      "pungent": null,
      "cruel": null,
      "atrocious": null,
      "balanced": null,
      "harmonized": null,
      "injection": null,
      "massive": null,
      "specialmaterial": null,
      "scope": null,
      "precise": null,
      "golden": null,
      "gems": null,
      "discreet": null,
      "macabre": null
    },
    "origin": "",
    "tags": [],
    "chatGif": "",
    "upgrades": {
      "melhoria1": "",
      "melhoria2": "",
      "melhoria3": "",
      "melhoria4": "",
      "material": "",
      "encanto1": "formidable",
      "encanto2": "",
      "encanto3": ""
    },
    "ataques": 0,
    "proficiencia": "exotica",
    "proposito": "corpo-a-corpo",
    "empunhadura": "uma",
    "size": "normal"
  },
  "ownership": {
    "default": 0
  },
  "_stats": {
    "systemId": "tormenta20",
    "systemVersion": "1.4.116",
    "coreVersion": "11.298",
    "createdTime": 1664314000088,
    "modifiedTime": 1684623001706,
    "lastModifiedBy": "ZWR5Tn3AhSIFqwp6"
  },
  "_key": "!items!7ZSpOEZBMbT3aVsO"
}
