{
  "_id": "kd0YD9KZOz0tpBBA",
  "name": "Manoplas da Força do Ogro",
  "type": "equipamento",
  "img": "systems/tormenta20/icons/itens/itens-magicos/manoplas-da-forca-do-ogro.webp",
  "effects": [
    {
      "label": "Manoplas da Força do Ogro",
      "icon": "systems/tormenta20/icons/itens/itens-magicos/manoplas-da-forca-do-ogro.webp",
      "origin": "Item.kd0YD9KZOz0tpBBA",
      "tint": "#FFFFFF",
      "flags": {
        "tormenta20": {
          "onuse": false,
          "durationScene": false
        }
      },
      "duration": {
        "startTime": null,
        "seconds": null,
        "combat": null,
        "rounds": null,
        "turns": null,
        "startRound": null,
        "startTurn": null
      },
      "disabled": false,
      "_id": "4m6sOgPmNWrbue2w",
      "changes": [
        {
          "key": "system.atributos.for.value",
          "mode": 2,
          "value": "1",
          "priority": null
        }
      ],
      "transfer": true,
      "_key": "!items.effects!kd0YD9KZOz0tpBBA.4m6sOgPmNWrbue2w"
    }
  ],
  "folder": "BgJUCrqjG6EVBIfP",
  "sort": 3700000,
  "flags": {
    "core": {
      "sourceId": "Compendium.tormenta20.equipamentos-magicos.kd0YD9KZOz0tpBBA"
    }
  },
  "system": {
    "description": {
      "value": "<p>Este par de luvas &eacute; feito de couro grosso com rebites de ferro. Voc&ecirc; recebe +1 em For&ccedil;a.</p>",
      "chat": "",
      "unidentified": ""
    },
    "source": "T20, pg. 344 (JdA)",
    "equipado": false,
    "equipado2": {
      "slot": 0,
      "type": ""
    },
    "carregado": true,
    "peso": 0,
    "espacos": 1,
    "qtd": 1,
    "preco": 4500,
    "pv": {
      "value": 0,
      "min": 0,
      "max": 0
    },
    "rd": 0,
    "tipo": "acessorio",
    "armadura": {
      "value": 0,
      "penalidade": 0,
      "maxAtr": 0
    },
    "rolls": [],
    "melhorias": {
      "enhanced": null,
      "golden": null,
      "gems": null,
      "discreet": null,
      "macabre": null
    },
    "origin": "",
    "tags": [],
    "chatFlavor": "",
    "chatGif": "",
    "ativacao": {
      "custo": 0,
      "condicao": "",
      "execucao": "",
      "qtd": "",
      "special": ""
    },
    "upgrades": {
      "melhoria1": "",
      "melhoria2": "",
      "melhoria3": "",
      "melhoria4": "",
      "material": "",
      "encanto1": "",
      "encanto2": "",
      "encanto3": ""
    },
    "encantos": {}
  },
  "ownership": {
    "default": 0
  },
  "_stats": {
    "systemId": "tormenta20",
    "systemVersion": "1.4.116",
    "coreVersion": "11.298",
    "createdTime": 1664314000112,
    "modifiedTime": 1684623039339,
    "lastModifiedBy": "ZWR5Tn3AhSIFqwp6"
  },
  "_key": "!items!kd0YD9KZOz0tpBBA"
}
