{
  "name": "Fortão",
  "type": "poder",
  "img": "systems/tormenta20/icons/itens/gerais/parceiros.webp",
  "effects": [
    {
      "label": "Fortão Iniciante: +1d8 em dano corpo a corpo.",
      "icon": "icons/svg/upgrade.svg",
      "origin": "Item.R5lCWsou4pg0UWZ3",
      "tint": "#FFFFFF",
      "flags": {
        "tormenta20": {
          "onuse": true,
          "durationScene": false,
          "self": false,
          "attack": true,
          "skill": false,
          "ability": false,
          "power": false,
          "spell": false,
          "consumable": false,
          "items": "",
          "aumenta": false,
          "custo": ""
        }
      },
      "duration": {
        "startTime": null,
        "seconds": null,
        "combat": null,
        "rounds": null,
        "turns": null,
        "startRound": null,
        "startTurn": null
      },
      "disabled": true,
      "_id": "vYKggB1hxhT4LRZv",
      "changes": [
        {
          "key": "dano",
          "mode": 2,
          "value": "1d8",
          "priority": 0
        }
      ],
      "transfer": true,
      "_key": "!items.effects!YAcnW6C7ok7xjdg6.vYKggB1hxhT4LRZv"
    },
    {
      "label": "Fortão Veterano: +1d12 em dano corpo a corpo",
      "icon": "icons/svg/upgrade.svg",
      "origin": "Item.YAcnW6C7ok7xjdg6",
      "tint": "#FFFFFF",
      "flags": {
        "tormenta20": {
          "onuse": true,
          "durationScene": false,
          "self": false,
          "attack": true,
          "skill": false,
          "ability": false,
          "power": false,
          "spell": false,
          "consumable": false,
          "items": "",
          "aumenta": false,
          "custo": ""
        }
      },
      "duration": {
        "startTime": null,
        "seconds": null,
        "combat": null,
        "rounds": null,
        "turns": null,
        "startRound": null,
        "startTurn": null
      },
      "disabled": true,
      "_id": "7JdnGfstFZc8cPBA",
      "changes": [
        {
          "key": "dano",
          "mode": 2,
          "value": "1d12",
          "priority": 0
        }
      ],
      "transfer": true,
      "_key": "!items.effects!YAcnW6C7ok7xjdg6.7JdnGfstFZc8cPBA"
    },
    {
      "label": "Fortão Mestre: +3d6 em dano corpo a corpo.",
      "icon": "icons/svg/upgrade.svg",
      "origin": "Item.YAcnW6C7ok7xjdg6",
      "tint": "#FFFFFF",
      "flags": {
        "tormenta20": {
          "onuse": true,
          "durationScene": false,
          "self": false,
          "attack": true,
          "skill": false,
          "ability": false,
          "power": false,
          "spell": false,
          "consumable": false,
          "items": "",
          "aumenta": false,
          "custo": ""
        }
      },
      "duration": {
        "startTime": null,
        "seconds": null,
        "combat": null,
        "rounds": null,
        "turns": null,
        "startRound": null,
        "startTurn": null
      },
      "disabled": true,
      "_id": "IbnDB6XRjOY9F45d",
      "changes": [
        {
          "key": "dano",
          "mode": 2,
          "value": "3d6",
          "priority": 0
        }
      ],
      "transfer": true,
      "_key": "!items.effects!YAcnW6C7ok7xjdg6.IbnDB6XRjOY9F45d"
    }
  ],
  "flags": {
    "scene-packer": {
      "sourceId": "Item.rOO6U1bkk4xrlize",
      "defaultPermission": 2,
      "hash": "489a612a8235f62cd560028b82b1bf4c35524979"
    },
    "cf": null,
    "core": {
      "sourceId": "Compendium.world.world-arielton-1663050699947.Y57phnZDw4ejnfas"
    }
  },
  "system": {
    "description": {
      "value": "<p>Cada parceiro pode ajudar apenas um personagem por vez. No in&iacute;cio do seu turno, voc&ecirc; pode gastar uma a&ccedil;&atilde;o de movimento para passar um parceiro para outro personagem em alcance curto at&eacute; o fim da cena (para fazer isso com um animal, voc&ecirc; precisa ser treinado em Adestramento).</p>\n<p>Um b&aacute;rbaro, lutador ou outro tipo que bate primeiro e pensa depois.</p>\n<p><strong>Iniciante</strong>: uma vez por rodada, voc&ecirc; recebe +1d8 em rolagens de dano corpo a corpo.</p>\n<p><strong>Veterano</strong>: muda para +1d12.</p>\n<p><strong>Mestre</strong>: muda para +3d6.</p>",
      "unidentified": ""
    },
    "source": "T20, pg. 261 (JdA)",
    "ativacao": {
      "execucao": "",
      "custo": 0,
      "qtd": "",
      "condicao": "",
      "special": ""
    },
    "duracao": {
      "value": 0,
      "units": "",
      "special": ""
    },
    "target": {
      "value": null,
      "width": null,
      "type": ""
    },
    "range": {
      "value": null,
      "units": ""
    },
    "consume": {
      "type": "",
      "target": "",
      "amount": null,
      "mpMultiplier": false
    },
    "efeito": "",
    "alcance": "none",
    "alvo": "",
    "area": "",
    "resistencia": {
      "pericia": "",
      "atributo": "",
      "bonus": 0,
      "txt": ""
    },
    "rolls": [],
    "tipo": "geral",
    "subtipo": "Parceiros",
    "chatFlavor": "",
    "origin": "",
    "tags": [],
    "chatGif": ""
  },
  "_stats": {
    "systemId": "tormenta20",
    "systemVersion": "1.4.101",
    "coreVersion": "10.288",
    "createdTime": 1663051700555,
    "modifiedTime": 1668270847524,
    "lastModifiedBy": "tIn9sSkrT3mDWirx"
  },
  "_id": "YAcnW6C7ok7xjdg6",
  "folder": null,
  "sort": 0,
  "ownership": {
    "default": 0,
    "tIn9sSkrT3mDWirx": 3
  },
  "_key": "!items!YAcnW6C7ok7xjdg6"
}
