{
  "name": "Médico",
  "type": "poder",
  "img": "systems/tormenta20/icons/itens/gerais/parceiros.webp",
  "effects": [
    {
      "label": "Veterano: como acima, mas você também pode gastar 3 PM para recuperar 3d8+3 PV ou remover uma condição prejudicial (como abalado ou fatigado).",
      "icon": "icons/svg/upgrade.svg",
      "origin": "Item.R5lCWsou4pg0UWZ3",
      "tint": "#FFFFFF",
      "flags": {
        "tormenta20": {
          "onuse": true,
          "durationScene": false,
          "self": true,
          "attack": false,
          "skill": false,
          "ability": false,
          "power": false,
          "spell": false,
          "consumable": false,
          "items": "",
          "aumenta": false,
          "custo": "2"
        }
      },
      "duration": {
        "startTime": null,
        "seconds": null,
        "combat": null,
        "rounds": null,
        "turns": null,
        "startRound": null,
        "startTurn": null
      },
      "disabled": false,
      "_id": "KuvqysuEGa5TLU10",
      "changes": [
        {
          "key": "dano",
          "mode": 2,
          "value": "2d8+2",
          "priority": 0
        }
      ],
      "transfer": false,
      "_key": "!items.effects!rntcrujiIc63hKOp.KuvqysuEGa5TLU10"
    },
    {
      "label": "Mestre: como acima, mas você também pode gastar 5 PM para recuperar  6d8+6 PV.",
      "icon": "icons/svg/upgrade.svg",
      "origin": "Item.R5lCWsou4pg0UWZ3",
      "tint": "#FFFFFF",
      "flags": {
        "tormenta20": {
          "onuse": true,
          "durationScene": false,
          "self": true,
          "attack": false,
          "skill": false,
          "ability": false,
          "power": false,
          "spell": false,
          "consumable": false,
          "items": "",
          "aumenta": false,
          "custo": "4"
        }
      },
      "duration": {
        "startTime": null,
        "seconds": null,
        "combat": null,
        "rounds": null,
        "turns": null,
        "startRound": null,
        "startTurn": null
      },
      "disabled": false,
      "_id": "vYKggB1hxhT4LRZv",
      "changes": [
        {
          "key": "dano",
          "mode": 2,
          "value": "5d8+5",
          "priority": 0
        }
      ],
      "transfer": false,
      "_key": "!items.effects!rntcrujiIc63hKOp.vYKggB1hxhT4LRZv"
    }
  ],
  "flags": {
    "scene-packer": {
      "sourceId": "Item.rOO6U1bkk4xrlize",
      "defaultPermission": 2,
      "hash": "489a612a8235f62cd560028b82b1bf4c35524979"
    },
    "cf": null,
    "core": {
      "sourceId": "Compendium.world.world-arielton-1663050699947.Y57phnZDw4ejnfas"
    }
  },
  "system": {
    "description": {
      "value": "<p style=\"text-align: justify;\">Cada parceiro pode ajudar apenas um personagem por vez. No in&iacute;cio do seu turno, voc&ecirc; pode gastar uma a&ccedil;&atilde;o de movimento para passar um parceiro para outro personagem em alcance curto at&eacute; o fim da cena (para fazer isso com um animal, voc&ecirc; precisa ser treinado em Adestramento). Um cl&eacute;rigo, druida, herbalista ou outro NPC com capacidades curativas.</p>\n<p style=\"text-align: justify;\"><strong>Iniciante</strong>: uma vez por turno, como uma a&ccedil;&atilde;o livre, voc&ecirc; pode gastar 1 PM para recuperar 1d8+1 PV.</p>\n<p style=\"text-align: justify;\"><strong>Veterano</strong>: como acima, mas voc&ecirc; tamb&eacute;m pode gastar 3 PM para recuperar 3d8+3 PV ou remover uma condi&ccedil;&atilde;o prejudicial (como abalado ou fatigado).</p>\n<p style=\"text-align: justify;\"><strong>Mestre:&nbsp;</strong>como acima, mas voc&ecirc; tamb&eacute;m pode gastar 5 PM para recuperar 6d8+6 PV.</p>",
      "unidentified": ""
    },
    "source": "T20, pg. 261 (JdA)",
    "ativacao": {
      "execucao": "free",
      "custo": 1,
      "qtd": "",
      "condicao": "",
      "special": ""
    },
    "duracao": {
      "value": 0,
      "units": "",
      "special": ""
    },
    "target": {
      "value": null,
      "width": null,
      "type": ""
    },
    "range": {
      "value": null,
      "units": ""
    },
    "consume": {
      "type": "",
      "target": "",
      "amount": null,
      "mpMultiplier": false
    },
    "efeito": "",
    "alcance": "none",
    "alvo": "",
    "area": "",
    "resistencia": {
      "pericia": "",
      "atributo": "",
      "bonus": 0,
      "txt": ""
    },
    "rolls": [
      {
        "name": "Dano",
        "key": "dano0",
        "type": "dano",
        "parts": [
          [
            "1d8+1",
            "curapv",
            ""
          ]
        ],
        "versatil": ""
      }
    ],
    "tipo": "geral",
    "subtipo": "Parceiros",
    "chatFlavor": "",
    "origin": "",
    "tags": [],
    "chatGif": ""
  },
  "_stats": {
    "systemId": "tormenta20",
    "systemVersion": "1.4.101",
    "coreVersion": "10.288",
    "createdTime": 1663051700555,
    "modifiedTime": 1668270847525,
    "lastModifiedBy": "tIn9sSkrT3mDWirx"
  },
  "_id": "rntcrujiIc63hKOp",
  "folder": null,
  "sort": 0,
  "ownership": {
    "default": 0,
    "tIn9sSkrT3mDWirx": 3
  },
  "_key": "!items!rntcrujiIc63hKOp"
}
