{
  "name": "Montaria: Lobo-das-Cavernas",
  "type": "poder",
  "img": "systems/tormenta20/icons/itens/gerais/lobo-das-cavernas.webp",
  "effects": [
    {
      "label": "Montaria: Lobo Iniciante",
      "icon": "icons/creatures/mammals/wolf-howl-moon-gray.webp",
      "origin": "Item.ZLCb6t7LryJ1FTce",
      "tint": "#FFFFFF",
      "flags": {
        "tormenta20": {
          "onuse": false,
          "durationScene": true
        }
      },
      "duration": {
        "rounds": 1,
        "startTime": null,
        "seconds": null,
        "combat": null,
        "turns": null,
        "startRound": null,
        "startTurn": null
      },
      "disabled": false,
      "_id": "1qPfRdUZ5nPVM4qZ",
      "changes": [
        {
          "key": "system.attributes.movement.walk",
          "mode": 5,
          "value": "12",
          "priority": null
        }
      ],
      "transfer": false,
      "_key": "!items.effects!ZLCb6t7LryJ1FTce.1qPfRdUZ5nPVM4qZ"
    },
    {
      "label": "Montaria: Lobo Veterano",
      "icon": "icons/creatures/mammals/wolf-howl-moon-gray.webp",
      "origin": "Item.ZLCb6t7LryJ1FTce",
      "tint": "#FFFFFF",
      "flags": {
        "tormenta20": {
          "onuse": false,
          "durationScene": true
        }
      },
      "duration": {
        "rounds": 1,
        "startTime": null,
        "seconds": null,
        "combat": null,
        "turns": null,
        "startRound": null,
        "startTurn": null
      },
      "disabled": false,
      "_id": "FcODuZULOYGGDjZm",
      "changes": [
        {
          "key": "system.attributes.movement.walk",
          "mode": 5,
          "value": "15",
          "priority": null
        }
      ],
      "transfer": false,
      "_key": "!items.effects!ZLCb6t7LryJ1FTce.FcODuZULOYGGDjZm"
    },
    {
      "label": "Montaria: Lobo Mestre",
      "icon": "icons/creatures/mammals/wolf-howl-moon-gray.webp",
      "origin": "Item.ZLCb6t7LryJ1FTce",
      "tint": "#FFFFFF",
      "flags": {
        "tormenta20": {
          "onuse": false,
          "durationScene": true
        }
      },
      "duration": {
        "rounds": 1,
        "startTime": null,
        "seconds": null,
        "combat": null,
        "turns": null,
        "startRound": null,
        "startTurn": null
      },
      "disabled": false,
      "_id": "xYvP5PZPCUy3UdWP",
      "changes": [
        {
          "key": "system.attributes.movement.walk",
          "mode": 2,
          "value": "15",
          "priority": null
        }
      ],
      "transfer": false,
      "_key": "!items.effects!ZLCb6t7LryJ1FTce.xYvP5PZPCUy3UdWP"
    },
    {
      "label": "Lobo Veterano: +1d8 nas rolagens de dano corpo a corpo.",
      "icon": "icons/svg/upgrade.svg",
      "origin": "Item.ZLCb6t7LryJ1FTce",
      "tint": "#FFFFFF",
      "flags": {
        "tormenta20": {
          "onuse": true,
          "durationScene": false,
          "self": false,
          "attack": true,
          "skill": false,
          "ability": false,
          "power": false,
          "spell": false,
          "consumable": false,
          "items": "",
          "aumenta": false,
          "custo": ""
        }
      },
      "duration": {
        "startTime": null,
        "seconds": null,
        "combat": null,
        "rounds": null,
        "turns": null,
        "startRound": null,
        "startTurn": null
      },
      "disabled": true,
      "_id": "eZLdhN4dmjzDis43",
      "changes": [
        {
          "key": "dano",
          "mode": 2,
          "value": "1d8",
          "priority": 0
        }
      ],
      "transfer": true,
      "_key": "!items.effects!ZLCb6t7LryJ1FTce.eZLdhN4dmjzDis43"
    }
  ],
  "flags": {
    "scene-packer": {
      "sourceId": "Item.rOO6U1bkk4xrlize",
      "defaultPermission": 2,
      "hash": "489a612a8235f62cd560028b82b1bf4c35524979"
    },
    "cf": null,
    "core": {
      "sourceId": "Compendium.world.world-arielton-1663050699947.Y57phnZDw4ejnfas"
    }
  },
  "system": {
    "description": {
      "value": "<p style=\"text-align: justify;\">Primos primitivos e maiores dos lobos comuns, lobos-das-cavernas s&atilde;o usados como montaria por goblinoides e aventureiros selvagens.</p>\n<p style=\"text-align: justify;\"><strong>Iniciante</strong>: seu deslocamento muda para 12m e voc&ecirc; recebe uma a&ccedil;&atilde;o de movimento extra por turno (apenas para se deslocar).</p>\n<p style=\"text-align: justify;\"><strong>Veterano</strong>: como acima, mas seu deslocamento muda para 15m e, uma vez por rodada, voc&ecirc; recebe +1d8 em rolagens de dano corpo a corpo.&nbsp;</p>\n<p style=\"text-align: justify;\"><strong>Mestre</strong>: como acima; al&eacute;m disso, uma vez por rodada, quando acerta um ataque corpo a corpo, voc&ecirc; pode fazer a manobra derrubar como uma a&ccedil;&atilde;o livre.</p>\n<p style=\"text-align: justify;\">Estas estat&iacute;sticas tamb&eacute;m se aplicam a lobos comuns (utilizados por personagens Pequenos).</p>\n<p style=\"text-align: justify;\">&nbsp;</p>\n<h3 style=\"text-align: justify;\"><strong>Regras de Montarias</strong></h3>\n<p style=\"text-align: justify;\">&bull; Para usar um parceiro montaria voc&ecirc; precisa montar nele. Para pass&aacute;-lo para outro aliado, precisa desmontar antes. Ambas s&atilde;o a&ccedil;&otilde;es de movimento.</p>\n<p style=\"text-align: justify;\">&bull; Uma vez montado, voc&ecirc; precisa gastar uma a&ccedil;&atilde;o de movimento e fazer um teste de Cavalgar (CD 10) por turno para guiar a montaria. Se passar, recebe os benef&iacute;cios dela. Se falhar, perde a a&ccedil;&atilde;o de movimento. Se falhar por 5 ou mais, cai da montaria e sofre 1d6 pontos de dano. Se for treinado em&nbsp; avalgar,<br>voc&ecirc; recebe os b&ocirc;nus da montaria automaticamente, sem precisar gastar a a&ccedil;&atilde;o ou fazer o teste.</p>\n<p style=\"text-align: justify;\">&bull; Se voc&ecirc; sofrer dano, deve fazer um teste de Cavalgar (CD igual ao dano). Se falhar, cai da montaria e sofre 1d6 pontos de dano. Se possuir o poder Ginete, voc&ecirc; n&atilde;o precisa fazer esse teste.</p>\n<p style=\"text-align: justify;\">&bull; Cada parceiro montaria possui uma categoria de tamanho (indicada ao lado do nome do parceiro). Um personagem s&oacute; pode montar uma montaria maior do que ele mesmo, e enquanto estiver montado usa o tamanho da montaria para efeitos do espa&ccedil;o que ocupa e para modificador de Furtividade.</p>\n<p style=\"text-align: justify;\">&bull; O balan&ccedil;o da montaria em movimento torna mais dif&iacute;cil atacar &agrave; dist&acirc;ncia (&ndash;2 em testes de ataque) e conta como condi&ccedil;&atilde;o ruim para lan&ccedil;ar magias. Se possuir o poder Ginete, voc&ecirc; n&atilde;o sofre nenhuma dessas penalidades.</p>\n<p style=\"text-align: justify;\">Montarias podem ser compradas ou recebidas por habilidades. No primeiro caso, s&atilde;o sempre parceiros iniciantes. No segundo, seu poder &eacute; definido pela habilidade em quest&atilde;o.&nbsp;</p>\n<p style=\"text-align: justify;\">&nbsp;</p>\n<p style=\"text-align: justify;\">&nbsp;</p>",
      "unidentified": ""
    },
    "source": "T20, pg. 262 (JdA)",
    "ativacao": {
      "execucao": "",
      "custo": 0,
      "qtd": "",
      "condicao": "",
      "special": ""
    },
    "duracao": {
      "value": 0,
      "units": "",
      "special": ""
    },
    "target": {
      "value": null,
      "width": null,
      "type": ""
    },
    "range": {
      "value": null,
      "units": ""
    },
    "consume": {
      "type": "",
      "target": "",
      "amount": null,
      "mpMultiplier": false
    },
    "efeito": "",
    "alcance": "none",
    "alvo": "",
    "area": "",
    "resistencia": {
      "pericia": "",
      "atributo": "",
      "bonus": 0,
      "txt": ""
    },
    "rolls": [],
    "tipo": "geral",
    "subtipo": "Montaria",
    "chatFlavor": "",
    "origin": "",
    "tags": [],
    "chatGif": ""
  },
  "_stats": {
    "systemId": "tormenta20",
    "systemVersion": "1.4.101",
    "coreVersion": "10.288",
    "createdTime": 1663051700555,
    "modifiedTime": 1668270847527,
    "lastModifiedBy": "tIn9sSkrT3mDWirx"
  },
  "_id": "ZLCb6t7LryJ1FTce",
  "folder": null,
  "sort": 0,
  "ownership": {
    "default": 0,
    "tIn9sSkrT3mDWirx": 3
  },
  "_key": "!items!ZLCb6t7LryJ1FTce"
}
