{
  "name": "Montaria: Cão de Caça",
  "type": "poder",
  "img": "systems/tormenta20/icons/itens/gerais/cao.webp",
  "effects": [
    {
      "label": "Montaria: Cão Iniciante",
      "icon": "icons/creatures/mammals/dog-husky-white-blue.webp",
      "origin": "Item.8ohxM9bTuB8s1YIC",
      "tint": "#FFFFFF",
      "flags": {
        "tormenta20": {
          "onuse": false,
          "durationScene": true
        }
      },
      "duration": {
        "rounds": 1,
        "startTime": null,
        "seconds": null,
        "combat": null,
        "turns": null,
        "startRound": null,
        "startTurn": null
      },
      "disabled": false,
      "_id": "UogqmMIAGaSQkz20",
      "changes": [
        {
          "key": "system.attributes.movement.walk",
          "mode": 5,
          "value": "9",
          "priority": null
        }
      ],
      "transfer": false,
      "_key": "!items.effects!8ohxM9bTuB8s1YIC.UogqmMIAGaSQkz20"
    },
    {
      "label": "Montaria: Cão Veterano",
      "icon": "icons/creatures/mammals/dog-husky-white-blue.webp",
      "origin": "Item.8ohxM9bTuB8s1YIC",
      "tint": "#FFFFFF",
      "flags": {
        "tormenta20": {
          "onuse": false,
          "durationScene": true
        }
      },
      "duration": {
        "rounds": 1,
        "startTime": null,
        "seconds": null,
        "combat": null,
        "turns": null,
        "startRound": null,
        "startTurn": null
      },
      "disabled": false,
      "_id": "Si4CaHONWXCKkbdT",
      "changes": [
        {
          "key": "system.attributes.defesa.bonus",
          "mode": 2,
          "value": "2",
          "priority": null
        },
        {
          "key": "system.attributes.movement.walk",
          "mode": 5,
          "value": "12",
          "priority": null
        }
      ],
      "transfer": false,
      "_key": "!items.effects!8ohxM9bTuB8s1YIC.Si4CaHONWXCKkbdT"
    },
    {
      "label": "Montaria: Cão Mestre",
      "icon": "icons/creatures/mammals/dog-husky-white-blue.webp",
      "origin": "Item.8ohxM9bTuB8s1YIC",
      "tint": "#FFFFFF",
      "flags": {
        "tormenta20": {
          "onuse": false,
          "durationScene": true
        }
      },
      "duration": {
        "rounds": 1,
        "startTime": null,
        "seconds": null,
        "combat": null,
        "turns": null,
        "startRound": null,
        "startTurn": null
      },
      "disabled": false,
      "_id": "iMmN2KMpSyBGdL1k",
      "changes": [
        {
          "key": "system.attributes.defesa.bonus",
          "mode": 2,
          "value": "2",
          "priority": null
        },
        {
          "key": "system.attributes.movement.walk",
          "mode": 2,
          "value": "12",
          "priority": null
        }
      ],
      "transfer": false,
      "_key": "!items.effects!8ohxM9bTuB8s1YIC.iMmN2KMpSyBGdL1k"
    }
  ],
  "flags": {
    "scene-packer": {
      "sourceId": "Item.rOO6U1bkk4xrlize",
      "defaultPermission": 2,
      "hash": "489a612a8235f62cd560028b82b1bf4c35524979"
    },
    "cf": null,
    "core": {
      "sourceId": "Compendium.world.world-arielton-1663050699947.Y57phnZDw4ejnfas"
    }
  },
  "system": {
    "description": {
      "value": "<p style=\"text-align: justify;\">C&atilde;es de porte adequado s&atilde;o montarias comuns para personagens Pequenos ou Min&uacute;sculos.</p>\n<p style=\"text-align: justify;\"><strong>Iniciante</strong>: seu deslocamento muda para 9m, voc&ecirc; pode usar faro e recebe uma a&ccedil;&atilde;o de movimento extra por turno (apenas para se deslocar).</p>\n<p style=\"text-align: justify;\"><strong>Veterano</strong>: como acima, mas seu deslocamento muda para 12m e voc&ecirc; recebe +2 em Defesa.</p>\n<p style=\"text-align: justify;\"><strong>Mestre</strong>: como acima; al&eacute;m disso, uma vez por rodada, quando acerta um ataque corpo a corpo, voc&ecirc; pode fazer a manobra derrubar como uma a&ccedil;&atilde;o livre.</p>\n<p style=\"text-align: justify;\">&nbsp;</p>\n<h3 style=\"text-align: justify;\"><strong>Regras de Montarias</strong></h3>\n<p style=\"text-align: justify;\">&bull; Para usar um parceiro montaria voc&ecirc; precisa montar nele. Para pass&aacute;-lo para outro aliado, precisa desmontar antes. Ambas s&atilde;o a&ccedil;&otilde;es de movimento.</p>\n<p style=\"text-align: justify;\">&bull; Uma vez montado, voc&ecirc; precisa gastar uma a&ccedil;&atilde;o de movimento e fazer um teste de Cavalgar (CD 10) por turno para guiar a montaria. Se passar, recebe os benef&iacute;cios dela. Se falhar, perde a a&ccedil;&atilde;o de movimento. Se falhar por 5 ou mais, cai da montaria e sofre 1d6 pontos de dano. Se for treinado em&nbsp; avalgar,<br>voc&ecirc; recebe os b&ocirc;nus da montaria automaticamente, sem precisar gastar a a&ccedil;&atilde;o ou fazer o teste.</p>\n<p style=\"text-align: justify;\">&bull; Se voc&ecirc; sofrer dano, deve fazer um teste de Cavalgar (CD igual ao dano). Se falhar, cai da montaria e sofre 1d6 pontos de dano. Se possuir o poder Ginete, voc&ecirc; n&atilde;o precisa fazer esse teste.</p>\n<p style=\"text-align: justify;\">&bull; Cada parceiro montaria possui uma categoria de tamanho (indicada ao lado do nome do parceiro). Um personagem s&oacute; pode montar uma montaria maior do que ele mesmo, e enquanto estiver montado usa o tamanho da montaria para efeitos do espa&ccedil;o que ocupa e para modificador de Furtividade.</p>\n<p style=\"text-align: justify;\">&bull; O balan&ccedil;o da montaria em movimento torna mais dif&iacute;cil atacar &agrave; dist&acirc;ncia (&ndash;2 em testes de ataque) e conta como condi&ccedil;&atilde;o ruim para lan&ccedil;ar magias. Se possuir o poder Ginete, voc&ecirc; n&atilde;o sofre nenhuma dessas penalidades.</p>\n<p style=\"text-align: justify;\">Montarias podem ser compradas ou recebidas por habilidades. No primeiro caso, s&atilde;o sempre parceiros iniciantes. No segundo, seu poder &eacute; definido pela habilidade em quest&atilde;o.&nbsp;</p>",
      "unidentified": ""
    },
    "source": "T20, pg. 262 (JdA)",
    "ativacao": {
      "execucao": "",
      "custo": 0,
      "qtd": "",
      "condicao": "",
      "special": ""
    },
    "duracao": {
      "value": 0,
      "units": "",
      "special": ""
    },
    "target": {
      "value": null,
      "width": null,
      "type": ""
    },
    "range": {
      "value": null,
      "units": ""
    },
    "consume": {
      "type": "",
      "target": "",
      "amount": null,
      "mpMultiplier": false
    },
    "efeito": "",
    "alcance": "none",
    "alvo": "",
    "area": "",
    "resistencia": {
      "pericia": "",
      "atributo": "",
      "bonus": 0,
      "txt": ""
    },
    "rolls": [],
    "tipo": "geral",
    "subtipo": "Montaria",
    "chatFlavor": "",
    "origin": "",
    "tags": [],
    "chatGif": ""
  },
  "_stats": {
    "systemId": "tormenta20",
    "systemVersion": "1.4.101",
    "coreVersion": "10.288",
    "createdTime": 1663051700555,
    "modifiedTime": 1668270847525,
    "lastModifiedBy": "tIn9sSkrT3mDWirx"
  },
  "_id": "8ohxM9bTuB8s1YIC",
  "folder": null,
  "sort": 0,
  "ownership": {
    "default": 0,
    "tIn9sSkrT3mDWirx": 3
  },
  "_key": "!items!8ohxM9bTuB8s1YIC"
}
