{
  "_id": "3Br9R6AiApiFZuJ2",
  "name": "Acessórios Menores",
  "img": "icons/svg/d20-grey.svg",
  "results": [
    {
      "_id": "HIhaJj7SLu7nkGOQ",
      "flags": {},
      "type": 2,
      "text": "Anel do Sustento",
      "img": "systems/tormenta20/icons/itens/anel.webp",
      "weight": 1,
      "range": [
        1,
        2
      ],
      "drawn": false,
      "documentCollection": "tormenta20.equipamentos-magicos",
      "documentId": "XWrD4ro0POzaimEr",
      "_key": "!tables.results!3Br9R6AiApiFZuJ2.HIhaJj7SLu7nkGOQ"
    },
    {
      "_id": "b3Z5s1zPsZ0mq5Pa",
      "flags": {},
      "type": 2,
      "text": "Bainha Mágica",
      "img": "systems/tormenta20/icons/itens/bainha.webp",
      "weight": 1,
      "range": [
        3,
        7
      ],
      "drawn": false,
      "documentCollection": "tormenta20.equipamentos-magicos",
      "documentId": "OAOvHNSqcpDL6UA5",
      "_key": "!tables.results!3Br9R6AiApiFZuJ2.b3Z5s1zPsZ0mq5Pa"
    },
    {
      "_id": "TiM6cd9S7vXlAiIS",
      "flags": {},
      "type": 2,
      "text": "Corda da Escalada",
      "img": "systems/tormenta20/icons/itens/corda-da-escalada.webp",
      "weight": 1,
      "range": [
        8,
        12
      ],
      "drawn": false,
      "documentCollection": "tormenta20.equipamentos-magicos",
      "documentId": "gwR3rksYtoGjOu6g",
      "_key": "!tables.results!3Br9R6AiApiFZuJ2.TiM6cd9S7vXlAiIS"
    },
    {
      "_id": "vNGIqVQwQVZRp28z",
      "flags": {},
      "type": 2,
      "text": "Ferraduras da Velocidade",
      "img": "systems/tormenta20/icons/itens/ferraduras_da_velocidade.webp",
      "weight": 1,
      "range": [
        13,
        14
      ],
      "drawn": false,
      "documentCollection": "tormenta20.equipamentos-magicos",
      "documentId": "THhPyfQnEvjY7b4w",
      "_key": "!tables.results!3Br9R6AiApiFZuJ2.vNGIqVQwQVZRp28z"
    },
    {
      "_id": "nfgZ0xOVkJcInP4h",
      "flags": {},
      "type": 2,
      "text": "Garrafa da Fumaça Eterna",
      "img": "systems/tormenta20/icons/itens/garrafa.webp",
      "weight": 1,
      "range": [
        15,
        19
      ],
      "drawn": false,
      "documentCollection": "tormenta20.equipamentos-magicos",
      "documentId": "suaTBu6MQmlEMxqB",
      "_key": "!tables.results!3Br9R6AiApiFZuJ2.nfgZ0xOVkJcInP4h"
    },
    {
      "_id": "bBgjuPzg7dXsWTXZ",
      "flags": {},
      "type": 2,
      "text": "Gema da Luminosidade",
      "img": "systems/tormenta20/icons/itens/gema-da-luminosidade.webp",
      "weight": 1,
      "range": [
        20,
        24
      ],
      "drawn": false,
      "documentCollection": "tormenta20.equipamentos-magicos",
      "documentId": "2ulfzRqI448ZZ04i",
      "_key": "!tables.results!3Br9R6AiApiFZuJ2.bBgjuPzg7dXsWTXZ"
    },
    {
      "_id": "Hz5EYnB1JDILzLqP",
      "flags": {},
      "type": 2,
      "text": "Manto Élfico",
      "img": "systems/tormenta20/icons/itens/manto-elfico.webp",
      "weight": 1,
      "range": [
        25,
        29
      ],
      "drawn": false,
      "documentCollection": "tormenta20.equipamentos-magicos",
      "documentId": "NvLnwQwZQlImALJq",
      "_key": "!tables.results!3Br9R6AiApiFZuJ2.Hz5EYnB1JDILzLqP"
    },
    {
      "_id": "DO6GclEG6mXFYiKm",
      "flags": {},
      "type": 2,
      "text": "Mochila de Carga",
      "img": "systems/tormenta20/icons/itens/mochila-carga.webp",
      "weight": 1,
      "range": [
        30,
        34
      ],
      "drawn": false,
      "documentCollection": "tormenta20.equipamentos-magicos",
      "documentId": "rIxUZtwLHeEfggsD",
      "_key": "!tables.results!3Br9R6AiApiFZuJ2.DO6GclEG6mXFYiKm"
    },
    {
      "_id": "Kcnmx6XqXV4IXqiz",
      "flags": {},
      "type": 2,
      "text": "Brincos da Sagacidade",
      "img": "systems/tormenta20/icons/itens/brinco.webp",
      "weight": 1,
      "range": [
        35,
        40
      ],
      "drawn": false,
      "documentCollection": "tormenta20.equipamentos-magicos",
      "documentId": "5L8PBHcigod9Qav1",
      "_key": "!tables.results!3Br9R6AiApiFZuJ2.Kcnmx6XqXV4IXqiz"
    },
    {
      "_id": "sRxD8025KmS9k9Zo",
      "flags": {},
      "type": 2,
      "text": "Luvas da Delicadeza",
      "img": "systems/tormenta20/icons/itens/luva.webp",
      "weight": 1,
      "range": [
        41,
        46
      ],
      "drawn": false,
      "documentCollection": "tormenta20.equipamentos-magicos",
      "documentId": "ES395oS9Gazb7wJA",
      "_key": "!tables.results!3Br9R6AiApiFZuJ2.sRxD8025KmS9k9Zo"
    },
    {
      "_id": "VDLoefqQbbhxHrur",
      "flags": {},
      "type": 2,
      "text": "Manoplas da Força do Ogro",
      "img": "systems/tormenta20/icons/itens/manoplas-da-forca-do-ogro.webp",
      "weight": 1,
      "range": [
        47,
        52
      ],
      "drawn": false,
      "documentCollection": "tormenta20.equipamentos-magicos",
      "documentId": "kd0YD9KZOz0tpBBA",
      "_key": "!tables.results!3Br9R6AiApiFZuJ2.VDLoefqQbbhxHrur"
    },
    {
      "_id": "LwEVU8zZNO08d40M",
      "flags": {},
      "type": 2,
      "text": "Manto da Resistência",
      "img": "systems/tormenta20/icons/itens/manto-da-resistencia.webp",
      "weight": 1,
      "range": [
        53,
        59
      ],
      "drawn": false,
      "documentCollection": "tormenta20.equipamentos-magicos",
      "documentId": "zPxlM4MNoKihGsDn",
      "_key": "!tables.results!3Br9R6AiApiFZuJ2.LwEVU8zZNO08d40M"
    },
    {
      "_id": "lBc0yeoyfLQqhI08",
      "flags": {},
      "type": 2,
      "text": "Manto do Fascínio",
      "img": "systems/tormenta20/icons/itens/manto-do-fascinio.webp",
      "weight": 1,
      "range": [
        60,
        65
      ],
      "drawn": false,
      "documentCollection": "tormenta20.equipamentos-magicos",
      "documentId": "VBaB5hQmTMj1YcMD",
      "_key": "!tables.results!3Br9R6AiApiFZuJ2.lBc0yeoyfLQqhI08"
    },
    {
      "_id": "uOP4c5K6yzPc3gTw",
      "flags": {},
      "type": 2,
      "text": "Pingente da Sensatez",
      "img": "systems/tormenta20/icons/itens/pingente.webp",
      "weight": 1,
      "range": [
        66,
        71
      ],
      "drawn": false,
      "documentCollection": "tormenta20.equipamentos-magicos",
      "documentId": "gLUFfRX1CAtvtQPr",
      "_key": "!tables.results!3Br9R6AiApiFZuJ2.uOP4c5K6yzPc3gTw"
    },
    {
      "_id": "qQFPbCYBynH2qyyd",
      "flags": {},
      "type": 2,
      "text": "Torque do Vigor",
      "img": "systems/tormenta20/icons/itens/torque-do-vigor.webp",
      "weight": 1,
      "range": [
        72,
        77
      ],
      "drawn": false,
      "documentCollection": "tormenta20.equipamentos-magicos",
      "documentId": "rCji6G4Jys9QYjXh",
      "_key": "!tables.results!3Br9R6AiApiFZuJ2.qQFPbCYBynH2qyyd"
    },
    {
      "_id": "rU68RiCewKkaauVK",
      "flags": {},
      "type": 2,
      "text": "Chapéu do Disfarce",
      "img": "systems/tormenta20/icons/itens/chapeu.webp",
      "weight": 1,
      "range": [
        78,
        82
      ],
      "drawn": false,
      "documentCollection": "tormenta20.equipamentos-magicos",
      "documentId": "Mba9KnxNivmpuJhy",
      "_key": "!tables.results!3Br9R6AiApiFZuJ2.rU68RiCewKkaauVK"
    },
    {
      "_id": "hxozxQv7uQihpIsc",
      "flags": {},
      "type": 2,
      "text": "Flauta Fantasma",
      "img": "systems/tormenta20/icons/itens/flauta.webp",
      "weight": 1,
      "range": [
        83,
        84
      ],
      "drawn": false,
      "documentCollection": "tormenta20.equipamentos-magicos",
      "documentId": "qokba90bQZ9F5RBQ",
      "_key": "!tables.results!3Br9R6AiApiFZuJ2.hxozxQv7uQihpIsc"
    },
    {
      "_id": "sIGzMCE9btDOBS0u",
      "flags": {},
      "type": 2,
      "text": "Lanterna da Revelação",
      "img": "systems/tormenta20/icons/itens/lanterna-da-revelacao.webp",
      "weight": 1,
      "range": [
        85,
        89
      ],
      "drawn": false,
      "documentCollection": "tormenta20.equipamentos-magicos",
      "documentId": "01uzk8l2pN2tDIfq",
      "_key": "!tables.results!3Br9R6AiApiFZuJ2.sIGzMCE9btDOBS0u"
    },
    {
      "_id": "yFfByyaeExhBTUXK",
      "flags": {},
      "type": 2,
      "text": "Anel da Proteção",
      "img": "systems/tormenta20/icons/itens/anel.webp",
      "weight": 1,
      "range": [
        90,
        96
      ],
      "drawn": false,
      "documentCollection": "tormenta20.equipamentos-magicos",
      "documentId": "n2GhiAzdK2Fv0atk",
      "_key": "!tables.results!3Br9R6AiApiFZuJ2.yFfByyaeExhBTUXK"
    },
    {
      "_id": "cKAc9k9fKOCeCjVi",
      "flags": {},
      "type": 2,
      "text": "Anel do Escudo Mental",
      "img": "systems/tormenta20/icons/itens/anel.webp",
      "weight": 1,
      "range": [
        97,
        98
      ],
      "drawn": false,
      "documentCollection": "tormenta20.equipamentos-magicos",
      "documentId": "eOt8kUx5MUnGAiLB",
      "_key": "!tables.results!3Br9R6AiApiFZuJ2.cKAc9k9fKOCeCjVi"
    },
    {
      "_id": "pvLtfmD7jWGl1wIM",
      "flags": {},
      "type": 2,
      "text": "Pingente da Saúde",
      "img": "systems/tormenta20/icons/itens/pingente.webp",
      "weight": 1,
      "range": [
        99,
        100
      ],
      "drawn": false,
      "documentCollection": "tormenta20.equipamentos-magicos",
      "documentId": "RJYF7ocMNcZqOm4j",
      "_key": "!tables.results!3Br9R6AiApiFZuJ2.pvLtfmD7jWGl1wIM"
    }
  ],
  "formula": "1d100",
  "replacement": true,
  "displayRoll": true,
  "folder": null,
  "sort": 0,
  "flags": {
    "core": {
      "sourceId": "RollTable.V3K2J3zBcfynzyS0"
    },
    "importid": "Dm6g5jKXJBO0n5rj",
    "cf": null
  },
  "ownership": {
    "default": 0,
    "0bS8PF9mUpBd2z0H": 3
  },
  "description": "",
  "_stats": {
    "systemId": "tormenta20",
    "systemVersion": "1.4.1008",
    "coreVersion": "10.288",
    "createdTime": 1664312664918,
    "modifiedTime": 1667354515223,
    "lastModifiedBy": "tIn9sSkrT3mDWirx"
  },
  "_key": "!tables!3Br9R6AiApiFZuJ2"
}
