{
  "_id": "28yPkXVQIVmlfF3W",
  "name": "Óleo de Armamento da Natureza",
  "type": "consumivel",
  "img": "systems/tormenta20/icons/itens/itens-magicos/pocao-oleo.webp",
  "effects": [
    {
      "label": "Óleo de Armamento da Natureza",
      "icon": "systems/tormenta20/icons/itens/itens-magicos/pocao-oleo.webp",
      "origin": "Item.28yPkXVQIVmlfF3W",
      "tint": "#FFFFFF",
      "flags": {
        "tormenta20": {
          "onuse": false,
          "durationScene": true,
          "self": false,
          "attack": false,
          "skill": false,
          "ability": false,
          "power": false,
          "equipment": false,
          "spell": false,
          "consumable": false,
          "items": "",
          "aumenta": false,
          "custo": ""
        }
      },
      "duration": {
        "rounds": null,
        "startTime": null,
        "seconds": null,
        "combat": null,
        "turns": null,
        "startRound": null,
        "startTurn": null
      },
      "disabled": false,
      "_id": "vC7DEeDcbkAuLq6G",
      "changes": [
        {
          "key": "passos",
          "mode": 2,
          "value": "1",
          "priority": 0
        }
      ],
      "transfer": false,
      "_key": "!items.effects!28yPkXVQIVmlfF3W.vC7DEeDcbkAuLq6G"
    }
  ],
  "folder": null,
  "sort": 0,
  "flags": {
    "importid": "QMcRY4Wtv0GxPKj8",
    "core": {
      "sourceId": "Compendium.tormenta20.pocoes.28yPkXVQIVmlfF3W"
    }
  },
  "system": {
    "description": {
      "value": "<p style=\"text-align: justify;\">Voc&ecirc; fortalece uma arma mundana primitiva (sem custo em T$, como bord&atilde;o, clava, funda ou tacape), uma arma natural ou um ataque desarmado. O dano da arma aumenta em um passo e ela &eacute; considerada m&aacute;gica. Ao lan&ccedil;ar a magia, voc&ecirc; pode mudar o tipo de dano da arma (escolhendo entre corte, impacto ou perfura&ccedil;&atilde;o).</p>",
      "unidentified": ""
    },
    "source": "T20, pg. 181 (JdA)",
    "carregado": true,
    "peso": 0.5,
    "espacos": 0.5,
    "qtd": 1,
    "preco": 270,
    "pv": {
      "value": 0,
      "min": 0,
      "max": 0
    },
    "rd": 0,
    "ativacao": {
      "execucao": "action",
      "custo": 0,
      "qtd": "",
      "condicao": "",
      "special": ""
    },
    "duracao": {
      "value": 0,
      "units": "scene",
      "special": ""
    },
    "target": {
      "value": null,
      "width": null,
      "type": ""
    },
    "range": {
      "value": null,
      "units": ""
    },
    "consume": {
      "type": "",
      "target": "",
      "amount": null,
      "mpMultiplier": false
    },
    "efeito": "",
    "alcance": "self",
    "alvo": "1 arma (veja texto)",
    "area": "",
    "resistencia": {
      "pericia": "",
      "atributo": "sab",
      "bonus": 0,
      "txt": ""
    },
    "rolls": [],
    "tipo": "potion",
    "chatFlavor": "",
    "origin": "",
    "tags": [],
    "chatGif": "",
    "upgrades": {
      "melhoria1": "",
      "melhoria2": "",
      "melhoria3": "",
      "melhoria4": "",
      "material": "",
      "encanto1": "",
      "encanto2": "",
      "encanto3": ""
    },
    "melhorias": {},
    "encantos": {},
    "subtipo": ""
  },
  "ownership": {
    "default": 0
  },
  "_stats": {
    "systemId": "tormenta20",
    "systemVersion": "1.4.1008",
    "coreVersion": "10.288",
    "createdTime": 1664314007030,
    "modifiedTime": 1667351628036,
    "lastModifiedBy": "tIn9sSkrT3mDWirx"
  },
  "_key": "!items!28yPkXVQIVmlfF3W"
}
