{
  "_id": "8zETItgIUrQgW0ck",
  "name": "Poção de Purificação",
  "type": "consumivel",
  "img": "systems/tormenta20/icons/itens/itens-magicos/pocao.webp",
  "effects": [],
  "folder": null,
  "sort": 0,
  "flags": {
    "importid": "6JMxVrEE4vYD062E",
    "core": {
      "sourceId": "Compendium.tormenta20.pocoes.8zETItgIUrQgW0ck"
    }
  },
  "system": {
    "description": {
      "value": "<p style=\"text-align:justify;\">Seu toque purifica a criatura tocada. Esta magia remove uma das seguintes condi&ccedil;&otilde;es: abalado, apavorado, alquebrado, atordoado, cego, confuso, debilitado, enjoado, envenenado, esmorecido, exausto, fascinado, fatigado, fraco, frustrado, lento, ofuscado, paralisado, pasmo ou surdo.</p>",
      "unidentified": ""
    },
    "source": "T20, pg. 202 (JdA)",
    "carregado": true,
    "peso": 0.5,
    "espacos": 0.5,
    "qtd": 1,
    "preco": 270,
    "pv": {
      "value": 0,
      "min": 0,
      "max": 0
    },
    "rd": 0,
    "ativacao": {
      "execucao": "action",
      "custo": 0,
      "qtd": "",
      "condicao": "",
      "special": ""
    },
    "duracao": {
      "value": 0,
      "units": "inst",
      "special": ""
    },
    "target": {
      "value": null,
      "width": null,
      "type": ""
    },
    "range": {
      "value": null,
      "units": ""
    },
    "consume": {
      "type": "",
      "target": "",
      "amount": null,
      "mpMultiplier": false
    },
    "efeito": "",
    "alcance": "touch",
    "alvo": "",
    "area": "",
    "resistencia": {
      "pericia": "",
      "atributo": "sab",
      "bonus": 0,
      "txt": ""
    },
    "rolls": [],
    "tipo": "potion",
    "chatFlavor": "",
    "origin": "",
    "tags": [],
    "chatGif": "",
    "upgrades": {
      "melhoria1": "",
      "melhoria2": "",
      "melhoria3": "",
      "melhoria4": "",
      "material": "",
      "encanto1": "",
      "encanto2": "",
      "encanto3": ""
    },
    "melhorias": {},
    "encantos": {},
    "subtipo": ""
  },
  "ownership": {
    "default": 0
  },
  "_stats": {
    "systemId": "tormenta20",
    "systemVersion": "1.4.1008",
    "coreVersion": "10.288",
    "createdTime": 1664314007033,
    "modifiedTime": 1667351628040,
    "lastModifiedBy": "tIn9sSkrT3mDWirx"
  },
  "_key": "!items!8zETItgIUrQgW0ck"
}
