{
  "_id": "LnW6eVQyg7hhefHt",
  "name": "Poção de Vitalidade Fantasma",
  "type": "consumivel",
  "img": "systems/tormenta20/icons/itens/itens-magicos/pocao.webp",
  "effects": [],
  "folder": null,
  "sort": 0,
  "flags": {
    "importid": "ZgilGkxpnLRFD3li",
    "core": {
      "sourceId": "Compendium.tormenta20.pocoes.LnW6eVQyg7hhefHt"
    }
  },
  "system": {
    "description": {
      "value": "<p style=\"text-align:justify;\">Voc&ecirc; suga energia vital da terra, recebendo 2d8 pontos de vida tempor&aacute;rios. Os PV tempor&aacute;rios desaparecem ao final da cena.</p>",
      "unidentified": ""
    },
    "source": "",
    "carregado": true,
    "peso": 0.5,
    "espacos": 0.5,
    "qtd": 1,
    "preco": 30,
    "pv": {
      "value": 0,
      "min": 0,
      "max": 0
    },
    "rd": 0,
    "ativacao": {
      "execucao": "action",
      "custo": 0,
      "qtd": "",
      "condicao": "",
      "special": ""
    },
    "duracao": {
      "value": 0,
      "units": "inst",
      "special": ""
    },
    "target": {
      "value": null,
      "width": null,
      "type": ""
    },
    "range": {
      "value": null,
      "units": ""
    },
    "consume": {
      "type": "",
      "target": "",
      "amount": null,
      "mpMultiplier": false
    },
    "efeito": "2d8",
    "alcance": "touch",
    "alvo": "",
    "area": "",
    "resistencia": {
      "pericia": "",
      "atributo": "sab",
      "bonus": 0,
      "txt": ""
    },
    "rolls": [
      {
        "name": "Dano",
        "key": "dano0",
        "type": "dano",
        "parts": [
          [
            "2d8",
            "curatpv",
            ""
          ]
        ],
        "versatil": ""
      }
    ],
    "tipo": "potion",
    "chatFlavor": "",
    "origin": "",
    "tags": [],
    "chatGif": "",
    "upgrades": {
      "melhoria1": "",
      "melhoria2": "",
      "melhoria3": "",
      "melhoria4": "",
      "material": "",
      "encanto1": "",
      "encanto2": "",
      "encanto3": ""
    },
    "melhorias": {},
    "encantos": {},
    "subtipo": ""
  },
  "ownership": {
    "default": 0
  },
  "_stats": {
    "systemId": "tormenta20",
    "systemVersion": "1.4.1008",
    "coreVersion": "10.288",
    "createdTime": 1664314007036,
    "modifiedTime": 1667351628041,
    "lastModifiedBy": "tIn9sSkrT3mDWirx"
  },
  "_key": "!items!LnW6eVQyg7hhefHt"
}
