{
  "_id": "veDt5Sfsc7Cue7xL",
  "name": "Ímpeto (Guerreiro)",
  "type": "poder",
  "img": "systems/tormenta20/icons/classes/guerreiro.webp",
  "effects": [],
  "folder": "LJQ1SKk2Y0QmZI03",
  "sort": 0,
  "flags": {
    "core": {
      "sourceId": "Compendium.tormenta20.poderes.veDt5Sfsc7Cue7xL"
    }
  },
  "system": {
    "description": {
      "value": "<p style=\"text-align:justify;\">Você pode gastar 1 PM para aumentar seu deslocamento em +6m por uma rodada.</p>",
      "chat": "",
      "unidentified": ""
    },
    "source": "T20, pg. 66 (JdA)",
    "ativacao": {
      "execucao": "",
      "custo": 1,
      "qtd": "",
      "condicao": "",
      "special": ""
    },
    "duracao": {
      "value": 0,
      "units": "",
      "special": ""
    },
    "target": {
      "value": null,
      "width": null,
      "units": "",
      "type": ""
    },
    "range": {
      "value": null,
      "units": ""
    },
    "consume": {
      "type": "",
      "target": "",
      "amount": null,
      "mpMultiplier": false
    },
    "efeito": "",
    "alcance": "none",
    "alvo": "",
    "area": "",
    "resistencia": {
      "pericia": "",
      "atributo": "sab",
      "bonus": 0,
      "txt": ""
    },
    "rolls": [],
    "tipo": "classe",
    "subtipo": "Guerreiro",
    "chatFlavor": "",
    "origin": "",
    "tags": [],
    "chatGif": ""
  },
  "ownership": {
    "default": 0
  },
  "_stats": {
    "systemId": "tormenta20",
    "systemVersion": "1.4.116",
    "coreVersion": "11.298",
    "createdTime": 1664306185697,
    "modifiedTime": 1684630371462,
    "lastModifiedBy": "ZWR5Tn3AhSIFqwp6"
  },
  "_key": "!items!veDt5Sfsc7Cue7xL"
}
