{
  "folder": "VzNpCz1wSE1Ln6lH",
  "name": "Ambição",
  "sorting": "a",
  "type": "Item",
  "_id": "fcQC2xWd3N1ZHhSe",
  "sort": 0,
  "flags": {},
  "_stats": {
    "systemId": null,
    "systemVersion": null,
    "coreVersion": null,
    "createdTime": null,
    "modifiedTime": null,
    "lastModifiedBy": null
  },
  "_key": "!folders!fcQC2xWd3N1ZHhSe"
}
