{
  "_id": "GWoi2g0GNoTAFluT",
  "name": "Anatomia Insana",
  "type": "poder",
  "img": "systems/tormenta20/icons/poderes/tormenta.webp",
  "effects": [],
  "folder": "m6ny7g3VciUkKZ3t",
  "sort": 0,
  "flags": {
    "core": {
      "sourceId": "Compendium.tormenta20.poderes.GWoi2g0GNoTAFluT"
    }
  },
  "system": {
    "description": {
      "value": "<p style=\"text-align:justify;\">Você tem 25% de chance (resultado “1” em 1d4) de ignorar o dano adicional de um acerto crítico ou ataque furtivo. A chance aumenta em +25% para cada dois outros poderes da Tormenta que você possui.</p>",
      "chat": "",
      "unidentified": ""
    },
    "source": "T20, pg. 136 (JdA)",
    "ativacao": {
      "execucao": "",
      "custo": 0,
      "qtd": "",
      "condicao": "",
      "special": ""
    },
    "duracao": {
      "value": 0,
      "units": "",
      "special": ""
    },
    "target": {
      "value": null,
      "width": null,
      "units": "",
      "type": ""
    },
    "range": {
      "value": null,
      "units": ""
    },
    "consume": {
      "type": "",
      "target": "",
      "amount": null,
      "mpMultiplier": false
    },
    "efeito": "",
    "alcance": "none",
    "alvo": "",
    "area": "",
    "resistencia": {
      "pericia": "",
      "atributo": "sab",
      "bonus": 0,
      "txt": ""
    },
    "rolls": [
      {
        "name": "Chance",
        "key": "formula0",
        "type": "formula",
        "parts": [
          [
            "1d4cs<=( 1 * @tormenta2 )",
            ""
          ]
        ]
      }
    ],
    "tipo": "geral",
    "subtipo": "Tormenta",
    "chatFlavor": "",
    "tags": [
      "Tormenta"
    ],
    "origin": "",
    "chatGif": "",
    "rolltags": [
      "Tormenta"
    ]
  },
  "ownership": {
    "default": 0
  },
  "_stats": {
    "systemId": "tormenta20",
    "systemVersion": "1.4.116",
    "coreVersion": "11.298",
    "createdTime": 1664306183899,
    "modifiedTime": 1684803210237,
    "lastModifiedBy": "ZWR5Tn3AhSIFqwp6"
  },
  "_key": "!items!GWoi2g0GNoTAFluT"
}
