{
  "_id": "0EHJjnDT0P0iZGeR",
  "name": "Antigo Mestre",
  "type": "poder",
  "img": "systems/tormenta20/icons/poderes/origem.webp",
  "effects": [],
  "folder": "O7XebEr47qNV8g6X",
  "sort": 0,
  "flags": {
    "core": {
      "sourceId": "Compendium.tormenta20.poderes.0EHJjnDT0P0iZGeR"
    }
  },
  "system": {
    "description": {
      "value": "<p style=\"text-align: justify;\">Voc&ecirc; ainda mant&eacute;m contato com o her&oacute;i que costumava servir. Uma vez por aventura, ele surge para ajud&aacute;-lo por uma cena. Ele &eacute; um parceiro mestre de um tipo a sua escolha (definido ao obter este poder) que n&atilde;o conta em seu limite de aliados.</p>\n<p style=\"text-align: justify;\">@UUID[Compendium.tormenta20.parceiros.WP0roXCa40nveA4L]{Adepto}</p>\n<p style=\"text-align: justify;\">@UUID[Compendium.tormenta20.parceiros.ROdJSxDCkvamfzX7]{Ajudante}</p>\n<p style=\"text-align: justify;\">@UUID[Compendium.tormenta20.parceiros.BNhavlxkPCr8P4Vi]{Assassino}</p>\n<p style=\"text-align: justify;\">@UUID[Compendium.tormenta20.parceiros.OvBibhyfED5HKbsz]{Atirador}</p>\n<p style=\"text-align: justify;\">@UUID[Compendium.tormenta20.parceiros.nNpGA5SWMj7rtUQR]{Combatente}</p>\n<p style=\"text-align: justify;\">@UUID[Compendium.tormenta20.parceiros.FIJfKOIU8dzbvSDG]{Destruidor}</p>\n<p style=\"text-align: justify;\">@UUID[Compendium.tormenta20.parceiros.YAcnW6C7ok7xjdg6]{Fort&atilde;o}</p>\n<p style=\"text-align: justify;\">@UUID[Compendium.tormenta20.parceiros.Un1h4jcM8qtf4F8L]{Guardi&atilde;o}</p>\n<p style=\"text-align: justify;\">@UUID[Compendium.tormenta20.parceiros.EBDU8TfXg0iVLvCT]{Magivocador}</p>\n<p style=\"text-align: justify;\">@UUID[Compendium.tormenta20.parceiros.rntcrujiIc63hKOp]{M&eacute;dico}</p>\n<p style=\"text-align: justify;\">@UUID[Compendium.tormenta20.parceiros.0MvC3jJCv0311Ysr]{Perseguidor}</p>\n<p style=\"text-align: justify;\">@UUID[Compendium.tormenta20.parceiros.DpTB2ElpvJ9mK0Bn]{Vigilante}</p>",
      "chat": "",
      "unidentified": ""
    },
    "source": "T20, pg. 94 (JdA)",
    "ativacao": {
      "execucao": "",
      "custo": 0,
      "qtd": "",
      "condicao": "",
      "special": ""
    },
    "duracao": {
      "value": 0,
      "units": "",
      "special": ""
    },
    "target": {
      "value": null,
      "width": null,
      "units": "",
      "type": ""
    },
    "range": {
      "value": null,
      "units": ""
    },
    "consume": {
      "type": "",
      "target": "",
      "amount": null,
      "mpMultiplier": false
    },
    "efeito": "",
    "alcance": "none",
    "alvo": "",
    "area": "",
    "resistencia": {
      "pericia": "",
      "atributo": "sab",
      "bonus": 0,
      "txt": ""
    },
    "rolls": [],
    "tipo": "origem",
    "subtipo": "Seguidor",
    "chatFlavor": "",
    "origin": "",
    "tags": [],
    "chatGif": ""
  },
  "ownership": {
    "default": 0
  },
  "_stats": {
    "systemId": "tormenta20",
    "systemVersion": "1.4.116",
    "coreVersion": "11.298",
    "createdTime": 1664306183279,
    "modifiedTime": 1684630371462,
    "lastModifiedBy": "ZWR5Tn3AhSIFqwp6"
  },
  "_key": "!items!0EHJjnDT0P0iZGeR"
}
