{
  "_id": "zujBVkCUtU7KDXgt",
  "name": "Arcano de Batalha",
  "type": "poder",
  "img": "systems/tormenta20/icons/classes/arcanista.webp",
  "effects": [
    {
      "_id": "HjF23vOdFeOnstqg",
      "changes": [
        {
          "key": "system.modificadores.dano.mag",
          "mode": 2,
          "value": "@atributoChave",
          "priority": null
        }
      ],
      "disabled": false,
      "duration": {
        "startTime": null,
        "seconds": null,
        "combat": null,
        "rounds": null,
        "turns": null,
        "startRound": null,
        "startTurn": null
      },
      "icon": "systems/tormenta20/icons/classes/arcanista.webp",
      "label": "Arcano de Batalha",
      "origin": "Item.NnQmvIaleZYk48Fl",
      "transfer": true,
      "flags": {
        "tormenta20": {
          "onuse": false,
          "durationScene": false
        }
      },
      "tint": null,
      "_key": "!items.effects!zujBVkCUtU7KDXgt.HjF23vOdFeOnstqg"
    }
  ],
  "folder": "dB8yQeNYIsAMdhNN",
  "sort": 0,
  "flags": {
    "core": {
      "sourceId": "Compendium.tormenta20.poderes.zujBVkCUtU7KDXgt"
    }
  },
  "system": {
    "description": {
      "value": "<p style=\"text-align: justify;\">Quando lan&ccedil;a uma magia, voc&ecirc; soma seu atributo-chave na rolagem de dano.</p>",
      "chat": "",
      "unidentified": ""
    },
    "source": "T20, pg. 39 (JdA)",
    "ativacao": {
      "execucao": "",
      "custo": 0,
      "qtd": "",
      "condicao": "",
      "special": ""
    },
    "duracao": {
      "value": 0,
      "units": "",
      "special": ""
    },
    "target": {
      "value": null,
      "width": null,
      "units": "",
      "type": ""
    },
    "range": {
      "value": null,
      "units": ""
    },
    "consume": {
      "type": "",
      "target": "",
      "amount": null,
      "mpMultiplier": false
    },
    "efeito": "",
    "alcance": "none",
    "alvo": "",
    "area": "",
    "resistencia": {
      "pericia": "",
      "atributo": "sab",
      "bonus": 0,
      "txt": ""
    },
    "rolls": [],
    "tipo": "classe",
    "subtipo": "Arcanista",
    "chatFlavor": "",
    "tags": [
      "Arcanista"
    ],
    "origin": "",
    "chatGif": ""
  },
  "ownership": {
    "default": 0
  },
  "_stats": {
    "systemId": "tormenta20",
    "systemVersion": "1.4.116",
    "coreVersion": "11.298",
    "createdTime": 1664306185709,
    "modifiedTime": 1684630371462,
    "lastModifiedBy": "ZWR5Tn3AhSIFqwp6"
  },
  "_key": "!items!zujBVkCUtU7KDXgt"
}
