{
  "_id": "xuUwDxxO97yE2Ekz",
  "name": "Armas da Ambição",
  "type": "poder",
  "img": "systems/tormenta20/icons/poderes/concedidos-ambicao.webp",
  "effects": [
    {
      "label": "Armas da Ambição",
      "icon": "icons/svg/upgrade.svg",
      "origin": "Item.xuUwDxxO97yE2Ekz",
      "tint": "#FFFFFF",
      "flags": {
        "tormenta20": {
          "onuse": true,
          "durationScene": false,
          "self": false,
          "attack": true,
          "skill": false,
          "ability": false,
          "power": false,
          "equipment": false,
          "spell": false,
          "consumable": false,
          "items": "",
          "aumenta": false,
          "custo": ""
        }
      },
      "duration": {
        "startTime": null,
        "seconds": null,
        "combat": null,
        "rounds": null,
        "turns": null,
        "startRound": null,
        "startTurn": null
      },
      "disabled": false,
      "_id": "U5ORBeAl6qXTNnpL",
      "changes": [
        {
          "key": "criticoM",
          "mode": 2,
          "value": "-1",
          "priority": 0
        },
        {
          "key": "ataque",
          "mode": 2,
          "value": "1",
          "priority": 0
        }
      ],
      "transfer": true,
      "_key": "!items.effects!xuUwDxxO97yE2Ekz.U5ORBeAl6qXTNnpL"
    }
  ],
  "folder": "fcQC2xWd3N1ZHhSe",
  "sort": 0,
  "flags": {
    "core": {
      "sourceId": "Compendium.tormenta20.poderes.xuUwDxxO97yE2Ekz"
    },
    "cf": null
  },
  "system": {
    "description": {
      "value": "<p style=\"text-align: justify;\">Voc&ecirc; recebe +1 em testes de ataque e na margem de amea&ccedil;a com armas nas quais &eacute; proficiente.</p>",
      "chat": "",
      "unidentified": ""
    },
    "source": "T20, pg. 132 (JdA)",
    "ativacao": {
      "execucao": "",
      "custo": 0,
      "qtd": "",
      "condicao": "",
      "special": ""
    },
    "duracao": {
      "value": 0,
      "units": "",
      "special": ""
    },
    "target": {
      "value": null,
      "width": null,
      "units": "",
      "type": ""
    },
    "range": {
      "value": null,
      "units": ""
    },
    "consume": {
      "type": "",
      "target": "",
      "amount": null,
      "mpMultiplier": false
    },
    "efeito": "",
    "alcance": "none",
    "alvo": "",
    "area": "",
    "resistencia": {
      "pericia": "",
      "atributo": "sab",
      "bonus": 0,
      "txt": ""
    },
    "rolls": [],
    "tipo": "concedido",
    "subtipo": "Ambição",
    "chatFlavor": "",
    "origin": "",
    "tags": [],
    "chatGif": ""
  },
  "ownership": {
    "default": 0
  },
  "_stats": {
    "systemId": "tormenta20",
    "systemVersion": "1.4.116",
    "coreVersion": "11.298",
    "createdTime": 1664306185704,
    "modifiedTime": 1684630371462,
    "lastModifiedBy": "ZWR5Tn3AhSIFqwp6"
  },
  "_key": "!items!xuUwDxxO97yE2Ekz"
}
