{
  "_id": "iklfz1WE671VTZcA",
  "name": "Asas de Borboleta",
  "type": "poder",
  "img": "systems/tormenta20/icons/racas/silfide.webp",
  "effects": [],
  "folder": "NJoSxcOiEN3XgHsL",
  "sort": 0,
  "flags": {
    "core": {
      "sourceId": "Compendium.tormenta20.poderes.iklfz1WE671VTZcA"
    }
  },
  "system": {
    "description": {
      "value": "<p style=\"text-align:justify;\">Seu tamanho é Minúsculo. Você pode pairar a 1,5m do chão com deslocamento 9m. Isso permite que você ignore terreno difícil e o torna imune a dano por queda (a menos que esteja inconsciente). Você pode gastar 1 PM por rodada para voar com deslocamento de 12m.</p>",
      "chat": "",
      "unidentified": ""
    },
    "source": "T20, pg. 30 (JdA)",
    "ativacao": {
      "execucao": "",
      "custo": 1,
      "qtd": "",
      "condicao": "",
      "special": ""
    },
    "duracao": {
      "value": 0,
      "units": "",
      "special": ""
    },
    "target": {
      "value": null,
      "width": null,
      "units": "",
      "type": ""
    },
    "range": {
      "value": null,
      "units": ""
    },
    "consume": {
      "type": "",
      "target": "",
      "amount": null,
      "mpMultiplier": false
    },
    "efeito": "",
    "alcance": "none",
    "alvo": "",
    "area": "",
    "resistencia": {
      "pericia": "",
      "atributo": "sab",
      "bonus": 0,
      "txt": ""
    },
    "rolls": [],
    "tipo": "racial",
    "subtipo": "Sílfide",
    "chatFlavor": "",
    "origin": "",
    "tags": [],
    "chatGif": ""
  },
  "ownership": {
    "default": 0
  },
  "_stats": {
    "systemId": "tormenta20",
    "systemVersion": "1.4.116",
    "coreVersion": "11.298",
    "createdTime": 1664306185126,
    "modifiedTime": 1684630371462,
    "lastModifiedBy": "ZWR5Tn3AhSIFqwp6"
  },
  "_key": "!items!iklfz1WE671VTZcA"
}
