{
  "_id": "slVx01Ph3o6bkeoY",
  "name": "Aspecto do Verão",
  "type": "poder",
  "img": "systems/tormenta20/icons/classes/druida.webp",
  "effects": [
    {
      "label": "Aspecto do Verão",
      "icon": "systems/tormenta20/icons/classes/druida.webp",
      "origin": "Item.slVx01Ph3o6bkeoY",
      "tint": "#FFFFFF",
      "flags": {
        "tormenta20": {
          "onuse": false,
          "durationScene": true
        }
      },
      "duration": {
        "rounds": 1,
        "startTime": null,
        "seconds": null,
        "combat": null,
        "turns": null,
        "startRound": null,
        "startTurn": null
      },
      "disabled": false,
      "_id": "qfFltEDnaZ27CLzp",
      "changes": [
        {
          "key": "system.modificadores.dano.cac",
          "mode": 2,
          "value": "1d6",
          "priority": null
        }
      ],
      "transfer": false,
      "_key": "!items.effects!slVx01Ph3o6bkeoY.qfFltEDnaZ27CLzp"
    }
  ],
  "folder": "8LraP5E2KHsZTAz8",
  "sort": 0,
  "flags": {
    "core": {
      "sourceId": "Compendium.tormenta20.poderes.slVx01Ph3o6bkeoY"
    },
    "cf": null
  },
  "system": {
    "description": {
      "value": "<p style=\"text-align: justify;\">Voc&ecirc; aprende e pode lan&ccedil;ar uma magia de transmuta&ccedil;&atilde;o, arcana ou divina, de<br>qualquer c&iacute;rculo que possa lan&ccedil;ar. Al&eacute;m disso, pode gastar 1 PM para cobrir uma de suas armas com chamas at&eacute; o fim da cena. A arma causa +1d6 pontos de dano de fogo. Sempre que voc&ecirc; acertar um ataque com ela, recebe 1 PM tempor&aacute;rio. Voc&ecirc; pode ganhar um m&aacute;ximo de PM tempor&aacute;rios por cena igual ao seu n&iacute;vel e eles desaparecem no final da cena.</p>",
      "chat": "",
      "unidentified": ""
    },
    "source": "T20, pg. 61 (JdA)",
    "ativacao": {
      "execucao": "",
      "custo": 1,
      "qtd": "",
      "condicao": "",
      "special": ""
    },
    "duracao": {
      "value": 0,
      "units": "",
      "special": ""
    },
    "target": {
      "value": null,
      "width": null,
      "units": "",
      "type": ""
    },
    "range": {
      "value": null,
      "units": ""
    },
    "consume": {
      "type": "",
      "target": "",
      "amount": null,
      "mpMultiplier": false
    },
    "efeito": "",
    "alcance": "none",
    "alvo": "",
    "area": "",
    "resistencia": {
      "pericia": "",
      "atributo": "sab",
      "bonus": 0,
      "txt": ""
    },
    "rolls": [],
    "tipo": "classe",
    "subtipo": "Druida",
    "chatFlavor": "",
    "origin": "",
    "tags": [],
    "chatGif": ""
  },
  "ownership": {
    "default": 0
  },
  "_stats": {
    "systemId": "tormenta20",
    "systemVersion": "1.4.116",
    "coreVersion": "11.298",
    "createdTime": 1664306185648,
    "modifiedTime": 1684630371462,
    "lastModifiedBy": "ZWR5Tn3AhSIFqwp6"
  },
  "_key": "!items!slVx01Ph3o6bkeoY"
}
