{
  "name": "Atributos - Elfo",
  "type": "poder",
  "img": "systems/tormenta20/icons/racas/elfo.webp",
  "effects": [
    {
      "label": "Atributos - Elfo",
      "icon": "systems/tormenta20/icons/racas/elfo.webp",
      "origin": "Item.PEn3CaxnaMEIAXUR",
      "tint": "#FFFFFF",
      "flags": {
        "tormenta20": {
          "onuse": false,
          "durationScene": false
        }
      },
      "duration": {
        "startTime": null,
        "seconds": null,
        "combat": null,
        "rounds": null,
        "turns": null,
        "startRound": null,
        "startTurn": null
      },
      "disabled": false,
      "_id": "WoYZYSubI5fTCYrg",
      "changes": [
        {
          "key": "system.atributos.int.value",
          "mode": 2,
          "value": "2",
          "priority": null
        },
        {
          "key": "system.atributos.des.value",
          "mode": 2,
          "value": "1",
          "priority": null
        },
        {
          "key": "system.atributos.con.value",
          "mode": 2,
          "value": "-1",
          "priority": null
        }
      ],
      "transfer": true,
      "_key": "!items.effects!kc1kL4cobPujFeTx.WoYZYSubI5fTCYrg"
    }
  ],
  "flags": {
    "core": {
      "sourceId": "Compendium.tormenta20.poderes.PEn3CaxnaMEIAXUR"
    }
  },
  "system": {
    "description": {
      "value": "<p style=\"text-align: justify;\">Intelig&ecirc;ncia +2, Destreza +1, Constitui&ccedil;&atilde;o -1.</p>",
      "chat": "",
      "unidentified": ""
    },
    "source": "T20, pg. 22 (JdA)",
    "ativacao": {
      "execucao": "",
      "custo": 0,
      "qtd": "",
      "condicao": "",
      "special": ""
    },
    "duracao": {
      "value": 0,
      "units": "",
      "special": ""
    },
    "target": {
      "value": null,
      "width": null,
      "units": "",
      "type": ""
    },
    "range": {
      "value": null,
      "units": ""
    },
    "consume": {
      "type": "",
      "target": "",
      "amount": null,
      "mpMultiplier": false
    },
    "efeito": "",
    "alcance": "none",
    "alvo": "",
    "area": "",
    "resistencia": {
      "pericia": "",
      "atributo": "sab",
      "bonus": 0,
      "txt": ""
    },
    "rolls": [],
    "tipo": "racial",
    "subtipo": "Elfo",
    "origin": "",
    "tags": [],
    "chatFlavor": "",
    "chatGif": ""
  },
  "ownership": {
    "default": 0,
    "tIn9sSkrT3mDWirx": 3,
    "jJlhMQyjTGPyLMsV": 3
  },
  "_stats": {
    "systemId": "tormenta20",
    "systemVersion": "1.4.116",
    "coreVersion": "11.298",
    "createdTime": 1664306184258,
    "modifiedTime": 1684630371462,
    "lastModifiedBy": "ZWR5Tn3AhSIFqwp6"
  },
  "folder": "sP6NJ3uhryFkjai6",
  "sort": 0,
  "_id": "kc1kL4cobPujFeTx",
  "_key": "!items!kc1kL4cobPujFeTx"
}
