{
  "_id": "qU4mVeJXUW73owvT",
  "name": "Aura de Cura",
  "type": "poder",
  "img": "systems/tormenta20/icons/classes/paladino.webp",
  "effects": [],
  "folder": "VwM7ZxttHPFuX6M4",
  "sort": 0,
  "flags": {
    "core": {
      "sourceId": "Compendium.tormenta20.poderes.qU4mVeJXUW73owvT"
    }
  },
  "system": {
    "description": {
      "value": "<p style=\"text-align: justify;\">Enquanto sua aura estiver ativa, no in&iacute;cio de seus turnos, voc&ecirc; e os aliados a sua escolha dentro dela curam um n&uacute;mero de PV igual a 5 + seu Carisma.</p>\n<p style=\"text-align: justify;\"><em>Pr&eacute;-requisito:</em> 6&deg; n&iacute;vel de paladino.</p>",
      "chat": "",
      "unidentified": ""
    },
    "source": "T20, pg. 83 (JdA)",
    "ativacao": {
      "execucao": "",
      "custo": 0,
      "qtd": "",
      "condicao": "",
      "special": ""
    },
    "duracao": {
      "value": 0,
      "units": "",
      "special": ""
    },
    "target": {
      "value": null,
      "width": null,
      "units": "",
      "type": ""
    },
    "range": {
      "value": null,
      "units": ""
    },
    "consume": {
      "type": "",
      "target": "",
      "amount": null,
      "mpMultiplier": false
    },
    "efeito": "",
    "alcance": "none",
    "alvo": "",
    "area": "",
    "resistencia": {
      "pericia": "",
      "atributo": "sab",
      "bonus": 0,
      "txt": ""
    },
    "rolls": [
      {
        "name": "Cura",
        "key": "dano0",
        "type": "dano",
        "parts": [
          [
            "5+@car",
            "curapv",
            ""
          ]
        ],
        "versatil": ""
      }
    ],
    "tipo": "classe",
    "subtipo": "Paladino",
    "chatFlavor": "",
    "origin": "",
    "tags": [],
    "chatGif": ""
  },
  "ownership": {
    "default": 0
  },
  "_stats": {
    "systemId": "tormenta20",
    "systemVersion": "1.4.116",
    "coreVersion": "11.298",
    "createdTime": 1664306185214,
    "modifiedTime": 1684630371462,
    "lastModifiedBy": "ZWR5Tn3AhSIFqwp6"
  },
  "_key": "!items!qU4mVeJXUW73owvT"
}
