{
  "_id": "VPLIpFxeBH3BYY2t",
  "name": "Aura Sagrada",
  "type": "poder",
  "img": "systems/tormenta20/icons/poderes/classes/combatentes/aura-sagrada.webp",
  "effects": [
    {
      "_id": "McoXxXzyeBzY2oXi",
      "changes": [
        {
          "key": "system.modificadores.pericias.resistencia",
          "mode": 2,
          "value": "@car",
          "priority": null
        }
      ],
      "disabled": false,
      "duration": {
        "rounds": 99,
        "startTime": null,
        "seconds": null,
        "combat": null,
        "turns": null,
        "startRound": null,
        "startTurn": null
      },
      "icon": "icons/magic/light/explosion-beam-impact-silhouette.webp",
      "label": "Aura Sagrada",
      "origin": "Compendium.tormenta20.poderes.VPLIpFxeBH3BYY2t",
      "transfer": false,
      "flags": {
        "tormenta20": {
          "onuse": false,
          "durationScene": true
        }
      },
      "tint": null,
      "_key": "!items.effects!VPLIpFxeBH3BYY2t.McoXxXzyeBzY2oXi"
    }
  ],
  "folder": "VwM7ZxttHPFuX6M4",
  "sort": 0,
  "flags": {
    "core": {
      "sourceId": "Compendium.tormenta20.poderes.VPLIpFxeBH3BYY2t"
    }
  },
  "system": {
    "description": {
      "value": "<p style=\"text-align: justify;\">No 3&ordm; n&iacute;vel, voc&ecirc; pode gastar 1 PM para gerar uma aura com alcance curto (9m) de raio a partir de voc&ecirc; e dura&ccedil;&atilde;o sustentada. A aura emite uma luz dourada e agrad&aacute;vel. Al&eacute;m disso, voc&ecirc; e os aliados dentro da aura somam seu Carisma nos testes de resist&ecirc;ncia.</p>",
      "chat": "",
      "unidentified": ""
    },
    "source": "T20, pg. 84 (JdA)",
    "ativacao": {
      "execucao": "",
      "custo": 1,
      "qtd": "",
      "condicao": "",
      "special": ""
    },
    "duracao": {
      "value": 0,
      "units": "sust",
      "special": ""
    },
    "target": {
      "value": null,
      "width": null,
      "units": "",
      "type": ""
    },
    "range": {
      "value": null,
      "units": ""
    },
    "consume": {
      "type": "",
      "target": "",
      "amount": null,
      "mpMultiplier": false
    },
    "efeito": "",
    "alcance": "short",
    "alvo": "",
    "area": "",
    "resistencia": {
      "pericia": "",
      "atributo": "sab",
      "bonus": 0,
      "txt": ""
    },
    "rolls": [],
    "tipo": "ability",
    "subtipo": "Paladino",
    "chatFlavor": "",
    "origin": "",
    "tags": [],
    "chatGif": ""
  },
  "ownership": {
    "default": 0
  },
  "_stats": {
    "systemId": "tormenta20",
    "systemVersion": "1.4.116",
    "coreVersion": "11.298",
    "createdTime": 1664306184712,
    "modifiedTime": 1684630371462,
    "lastModifiedBy": "ZWR5Tn3AhSIFqwp6"
  },
  "_key": "!items!VPLIpFxeBH3BYY2t"
}
