{
  "_id": "Z1P81i88kzFZDZnr",
  "name": "Autoridade Feudal (Nobre)",
  "type": "poder",
  "img": "systems/tormenta20/icons/classes/nobre.webp",
  "effects": [],
  "folder": "1gk4CeDo7oR1b0oD",
  "sort": 0,
  "flags": {
    "core": {
      "sourceId": "Compendium.tormenta20.poderes.Z1P81i88kzFZDZnr"
    }
  },
  "system": {
    "description": {
      "value": "<p style=\"text-align: justify;\">Voc&ecirc; pode gastar 2 PM para conclamar o povo a ajud&aacute;-lo (qualquer pessoa sem um t&iacute;tulo de nobreza ou uma posi&ccedil;&atilde;o numa igreja reconhecida pelo seu reino). Em termos de jogo essas pessoas contam como um parceiro iniciante de um tipo a sua escolha (aprovado pelo mestre) que lhe acompanha at&eacute; o fim da aventura. Esta habilidade s&oacute; pode ser usada em locais onde sua posi&ccedil;&atilde;o carregue alguma influ&ecirc;ncia (a crit&eacute;rio do mestre).</p>\n<p style=\"text-align: justify;\"><em>Pr&eacute;-requisito:</em> 6&ordm; n&iacute;vel de nobre.</p>",
      "chat": "",
      "unidentified": ""
    },
    "source": "T20, pg. 79 (JdA)",
    "ativacao": {
      "execucao": "",
      "custo": 2,
      "qtd": "",
      "condicao": "",
      "special": ""
    },
    "duracao": {
      "value": 0,
      "units": "",
      "special": ""
    },
    "target": {
      "value": null,
      "width": null,
      "units": "",
      "type": ""
    },
    "range": {
      "value": null,
      "units": ""
    },
    "consume": {
      "type": "",
      "target": "",
      "amount": null,
      "mpMultiplier": false
    },
    "efeito": "",
    "alcance": "none",
    "alvo": "",
    "area": "",
    "resistencia": {
      "pericia": "",
      "atributo": "sab",
      "bonus": 0,
      "txt": ""
    },
    "rolls": [],
    "tipo": "classe",
    "subtipo": "Nobre",
    "origin": "",
    "tags": [],
    "chatFlavor": "",
    "chatGif": ""
  },
  "ownership": {
    "default": 0
  },
  "_stats": {
    "systemId": "tormenta20",
    "systemVersion": "1.4.116",
    "coreVersion": "11.298",
    "createdTime": 1664306184732,
    "modifiedTime": 1684630371462,
    "lastModifiedBy": "ZWR5Tn3AhSIFqwp6"
  },
  "_key": "!items!Z1P81i88kzFZDZnr"
}
