{
  "folder": "vexWaYlAiymaSSpI",
  "name": "Bárbaro",
  "sorting": "a",
  "type": "Item",
  "_id": "UhsYJ0BvPTkMyG53",
  "sort": 0,
  "flags": {},
  "_stats": {
    "systemId": null,
    "systemVersion": null,
    "coreVersion": null,
    "createdTime": null,
    "modifiedTime": null,
    "lastModifiedBy": null
  },
  "_key": "!folders!UhsYJ0BvPTkMyG53"
}
