{
  "folder": "vexWaYlAiymaSSpI",
  "name": "Bucaneiro",
  "sorting": "a",
  "type": "Item",
  "_id": "86kIqRb842xHRnBV",
  "sort": 0,
  "flags": {},
  "_stats": {
    "systemId": null,
    "systemVersion": null,
    "coreVersion": null,
    "createdTime": null,
    "modifiedTime": null,
    "lastModifiedBy": null
  },
  "_key": "!folders!86kIqRb842xHRnBV"
}
