{
  "_id": "JHUiFSmHes17a9F1",
  "name": "Canalizar Energia Positiva/Negativa",
  "type": "poder",
  "img": "systems/tormenta20/icons/classes/clerigo.webp",
  "effects": [
    {
      "_id": "dWXFCfMVLMZ608k0",
      "changes": [
        {
          "key": "dano",
          "mode": 0,
          "value": "1d6",
          "priority": 0
        }
      ],
      "disabled": true,
      "duration": {
        "startTime": null,
        "seconds": null,
        "combat": null,
        "rounds": null,
        "turns": null,
        "startRound": null,
        "startTurn": null
      },
      "icon": "icons/svg/upgrade.svg",
      "label": "Aumenta a cura/dano em 1d6.",
      "origin": "Item.KKpPEmBNszZ3WwFZ",
      "transfer": false,
      "flags": {
        "tormenta20": {
          "onuse": true,
          "self": true,
          "attack": false,
          "skill": false,
          "ability": false,
          "power": false,
          "spell": false,
          "consumable": false,
          "aumenta": true,
          "custo": "1",
          "durationScene": false,
          "items": ""
        }
      },
      "tint": null,
      "_key": "!items.effects!JHUiFSmHes17a9F1.dWXFCfMVLMZ608k0"
    }
  ],
  "folder": "RDLTxoI4mIyfR6dr",
  "sort": 0,
  "flags": {
    "core": {
      "sourceId": "Compendium.tormenta20.poderes.JHUiFSmHes17a9F1"
    }
  },
  "system": {
    "description": {
      "value": "<p style=\"text-align: justify;\">Voc&ecirc; pode gastar uma a&ccedil;&atilde;o padr&atilde;o e PM para liberar uma onda de luz (se sua divindade canaliza energia positiva) ou trevas (se canaliza energia negativa) que afeta criaturas a sua escolha em alcance curto. Para cada PM que gastar, luz cura 1d6 PV em criaturas vivas e causa 1d6 pontos de dano de luz em mortos-vivos(Vontade CD Sab reduz o dano &agrave; metade). Trevas tem o efeito inverso &mdash; causa dano de trevas a criaturas vivas e cura mortos-vivos.</p>",
      "chat": "",
      "unidentified": ""
    },
    "source": "T20, pg. 57 (JdA)",
    "ativacao": {
      "execucao": "action",
      "custo": 1,
      "qtd": "",
      "condicao": "",
      "special": ""
    },
    "duracao": {
      "value": 0,
      "units": "",
      "special": ""
    },
    "target": {
      "value": null,
      "width": null,
      "units": "",
      "type": ""
    },
    "range": {
      "value": null,
      "units": ""
    },
    "consume": {
      "type": "",
      "target": "",
      "amount": null,
      "mpMultiplier": false
    },
    "efeito": "",
    "alcance": "short",
    "alvo": "",
    "area": "esfera com 9m de raio",
    "resistencia": {
      "pericia": "",
      "atributo": "sab",
      "bonus": 0,
      "txt": "Vontade"
    },
    "rolls": [
      {
        "name": "Onda de energia",
        "key": "dano0",
        "type": "dano",
        "parts": [
          [
            "1d6",
            "luz",
            ""
          ]
        ],
        "versatil": ""
      }
    ],
    "tipo": "classe",
    "subtipo": "Clérigo",
    "chatFlavor": "",
    "origin": "",
    "tags": [],
    "chatGif": ""
  },
  "ownership": {
    "default": 0
  },
  "_stats": {
    "systemId": "tormenta20",
    "systemVersion": "1.4.116",
    "coreVersion": "11.298",
    "createdTime": 1664306183910,
    "modifiedTime": 1684630371462,
    "lastModifiedBy": "ZWR5Tn3AhSIFqwp6"
  },
  "_key": "!items!JHUiFSmHes17a9F1"
}
