{
  "_id": "7O3ruVYVDawkPdPz",
  "name": "Celebrar Ritual",
  "type": "poder",
  "img": "systems/tormenta20/icons/poderes/magia.webp",
  "effects": [
    {
      "label": "Celebrar Ritual",
      "icon": "icons/svg/upgrade.svg",
      "origin": "Item.7O3ruVYVDawkPdPz",
      "tint": "#FFFFFF",
      "flags": {
        "tormenta20": {
          "onuse": true,
          "durationScene": false,
          "self": false,
          "attack": false,
          "skill": false,
          "ability": false,
          "power": false,
          "spell": true,
          "consumable": false,
          "items": "",
          "aumenta": false,
          "custo": ""
        }
      },
      "duration": {
        "startTime": null,
        "seconds": null,
        "combat": null,
        "rounds": null,
        "turns": null,
        "startRound": null,
        "startTurn": null
      },
      "disabled": true,
      "_id": "2vZ86l1OuaLmizXK",
      "changes": [],
      "transfer": true,
      "_key": "!items.effects!7O3ruVYVDawkPdPz.2vZ86l1OuaLmizXK"
    }
  ],
  "folder": "Kye2KzNfCgJW92Kb",
  "sort": 0,
  "flags": {
    "core": {
      "sourceId": "Compendium.tormenta20.poderes.7O3ruVYVDawkPdPz"
    }
  },
  "system": {
    "description": {
      "value": "<p style=\"text-align: justify;\">Voc&ecirc; pode lan&ccedil;ar magias como rituais. Isso dobra seu limite de PM, mas muda a execu&ccedil;&atilde;o para 1 hora (ou o dobro, o que for maior) e exige um gasto de T$ 10 por PM gasto (em incensos, oferendas...). Assim, um arcanista de 8&ordm; n&iacute;vel pode lan&ccedil;ar uma magia de 16 PM gastando T$ 160.</p>\n<p style=\"text-align: justify;\"><em>Pr&eacute;-requisitos:</em> treinado em Misticismo ou Religi&atilde;o, 8&ordm; n&iacute;vel de personagem.</p>\n<p style=\"text-align: justify;\"><em>Magias lan&ccedil;adas como rituais n&atilde;o podem ser armazenadas em itens.</em></p>",
      "chat": "",
      "unidentified": ""
    },
    "source": "T20, pg. 131 (JdA)",
    "ativacao": {
      "execucao": "",
      "custo": 0,
      "qtd": "",
      "condicao": "",
      "special": ""
    },
    "duracao": {
      "value": 0,
      "units": "",
      "special": ""
    },
    "target": {
      "value": null,
      "width": null,
      "units": "",
      "type": ""
    },
    "range": {
      "value": null,
      "units": ""
    },
    "consume": {
      "type": "",
      "target": "",
      "amount": null,
      "mpMultiplier": false
    },
    "efeito": "",
    "alcance": "none",
    "alvo": "",
    "area": "",
    "resistencia": {
      "pericia": "",
      "atributo": "sab",
      "bonus": 0,
      "txt": ""
    },
    "rolls": [],
    "tipo": "geral",
    "subtipo": "Magia",
    "chatFlavor": "",
    "origin": "",
    "tags": [],
    "chatGif": ""
  },
  "ownership": {
    "default": 0
  },
  "_stats": {
    "systemId": "tormenta20",
    "systemVersion": "1.4.116",
    "coreVersion": "11.298",
    "createdTime": 1664306183326,
    "modifiedTime": 1684630371462,
    "lastModifiedBy": "ZWR5Tn3AhSIFqwp6"
  },
  "_key": "!items!7O3ruVYVDawkPdPz"
}
