{
  "folder": "tKVyoHS7abjxuJhg",
  "name": "Combate",
  "sorting": "a",
  "type": "Item",
  "_id": "Rgbah8U70jOKi5DF",
  "sort": 0,
  "flags": {},
  "_stats": {
    "systemId": null,
    "systemVersion": null,
    "coreVersion": null,
    "createdTime": null,
    "modifiedTime": null,
    "lastModifiedBy": null
  },
  "_key": "!folders!Rgbah8U70jOKi5DF"
}
