{
  "_id": "IWrNsBsQcnZhb4Hy",
  "name": "Comunhão Vital",
  "type": "poder",
  "img": "systems/tormenta20/icons/classes/clerigo.webp",
  "effects": [
    {
      "_id": "ZIerxIx8iHAPwcOW",
      "changes": [],
      "disabled": true,
      "duration": {
        "startTime": null,
        "seconds": null,
        "combat": null,
        "rounds": null,
        "turns": null,
        "startRound": null,
        "startTurn": null
      },
      "icon": "icons/svg/upgrade.svg",
      "label": "Comunhão Vital",
      "origin": "Item.W0Ug6AZZhYBBbRwH",
      "transfer": true,
      "flags": {
        "tormenta20": {
          "onuse": true,
          "spell": true,
          "self": false,
          "attack": false,
          "skill": false,
          "ability": false,
          "power": false,
          "consumable": false,
          "aumenta": false,
          "custo": "2",
          "durationScene": false
        }
      },
      "tint": null,
      "_key": "!items.effects!IWrNsBsQcnZhb4Hy.ZIerxIx8iHAPwcOW"
    }
  ],
  "folder": "RDLTxoI4mIyfR6dr",
  "sort": 0,
  "flags": {
    "core": {
      "sourceId": "Compendium.tormenta20.poderes.IWrNsBsQcnZhb4Hy"
    },
    "cf": null
  },
  "system": {
    "description": {
      "value": "<p style=\"text-align:justify;\">Quando lança uma magia que cure uma criatura, você pode pagar +2 PM para que outra criatura em alcance curto (incluindo você mesmo) recupere uma quantidade de pontos de vida igual à metade dos PV da cura original.</p>",
      "chat": "",
      "unidentified": ""
    },
    "source": "T20, pg. 58 (JdA)",
    "ativacao": {
      "execucao": "",
      "custo": 2,
      "qtd": "",
      "condicao": "",
      "special": ""
    },
    "duracao": {
      "value": 0,
      "units": "",
      "special": ""
    },
    "target": {
      "value": null,
      "width": null,
      "units": "",
      "type": ""
    },
    "range": {
      "value": null,
      "units": ""
    },
    "consume": {
      "type": "",
      "target": "",
      "amount": null,
      "mpMultiplier": false
    },
    "efeito": "",
    "alcance": "none",
    "alvo": "",
    "area": "",
    "resistencia": {
      "pericia": "",
      "atributo": "sab",
      "bonus": 0,
      "txt": ""
    },
    "rolls": [],
    "tipo": "classe",
    "subtipo": "Clérigo",
    "chatFlavor": "",
    "origin": "",
    "tags": [],
    "chatGif": ""
  },
  "ownership": {
    "default": 0
  },
  "_stats": {
    "systemId": "tormenta20",
    "systemVersion": "1.4.116",
    "coreVersion": "11.298",
    "createdTime": 1664306183907,
    "modifiedTime": 1684630371462,
    "lastModifiedBy": "ZWR5Tn3AhSIFqwp6"
  },
  "_key": "!items!IWrNsBsQcnZhb4Hy"
}
