{
  "name": "Contatos no Submundo",
  "type": "poder",
  "img": "systems/tormenta20/icons/classes/ladino.webp",
  "system": {
    "description": {
      "value": "<p style=\"text-align: justify;\">Quando chega em uma comunidade equivalente a uma vila ou maior, voc&ecirc; pode gastar 2 PM para fazer um teste de Carisma (CD 10). Se passar, enquanto estiver nessa comunidade, recebe +5 em testes de <a class=\"content-link\" draggable=\"true\" data-uuid=\"Compendium.tormenta20.pericias.ZAS0zJaPRJWg15ib\" data-id=\"ZAS0zJaPRJWg15ib\" data-type=\"JournalEntry\" data-pack=\"tormenta20.pericias\" data-tooltip=\"Registro de Di&aacute;rio\">Investiga&ccedil;&atilde;o</a><span style=\"white-space: nowrap; background-color: rgb(221, 221, 221);\"> </span>para interrogar, pode comprar itens mundanos, po&ccedil;&otilde;es e pergaminhos com 20% de desconto (n&atilde;o cumulativo com barganha e outros descontos) e, de acordo com o mestre, tem acesso a itens e servi&ccedil;os proibidos (como armas de p&oacute;lvora e venenos).</p>",
      "chat": "",
      "unidentified": ""
    },
    "source": "T20, pg. 73 (JdA)",
    "ativacao": {
      "execucao": "free",
      "custo": 2,
      "qtd": "",
      "condicao": "",
      "special": ""
    },
    "duracao": {
      "value": 0,
      "units": "",
      "special": ""
    },
    "target": {
      "value": null,
      "width": null,
      "units": "",
      "type": ""
    },
    "range": {
      "value": null,
      "units": ""
    },
    "consume": {
      "type": "",
      "target": "",
      "amount": null,
      "mpMultiplier": false
    },
    "efeito": "",
    "alcance": "none",
    "alvo": "",
    "area": "",
    "resistencia": {
      "pericia": "",
      "atributo": "",
      "bonus": 0,
      "txt": ""
    },
    "rolls": [],
    "tipo": "classe",
    "subtipo": "Ladino",
    "origin": "",
    "tags": [],
    "chatFlavor": "",
    "chatGif": ""
  },
  "effects": [
    {
      "label": "Contatos no Submundo",
      "icon": "icons/svg/upgrade.svg",
      "origin": "Item.KoXk0jYVJbuxjEi0",
      "tint": "#FFFFFF",
      "flags": {
        "tormenta20": {
          "onuse": true,
          "durationScene": false,
          "self": false,
          "attack": false,
          "skill": true,
          "ability": false,
          "power": false,
          "spell": false,
          "consumable": false,
          "items": "investigacao",
          "aumenta": false,
          "custo": ""
        }
      },
      "duration": {
        "startTime": null,
        "seconds": null,
        "combat": null,
        "rounds": null,
        "turns": null,
        "startRound": null,
        "startTurn": null
      },
      "disabled": true,
      "_id": "ugzcBlNXfllLdM6M",
      "changes": [
        {
          "key": "roll",
          "mode": 2,
          "value": "5",
          "priority": 0
        }
      ],
      "transfer": true,
      "_key": "!items.effects!KoXk0jYVJbuxjEi0.ugzcBlNXfllLdM6M"
    }
  ],
  "flags": {},
  "_stats": {
    "systemId": "tormenta20",
    "systemVersion": "1.4.116",
    "coreVersion": "11.298",
    "createdTime": 1664805633931,
    "modifiedTime": 1684630371462,
    "lastModifiedBy": "ZWR5Tn3AhSIFqwp6"
  },
  "_id": "KoXk0jYVJbuxjEi0",
  "folder": "E9EyD0Wrr8C91ZpV",
  "sort": 0,
  "ownership": {
    "default": 0,
    "tIn9sSkrT3mDWirx": 3
  },
  "_key": "!items!KoXk0jYVJbuxjEi0"
}
