{
  "name": "Costas Largas",
  "type": "poder",
  "img": "systems/tormenta20/icons/poderes/destino.webp",
  "effects": [
    {
      "label": "Costas Largas",
      "icon": "systems/tormenta20/icons/poderes/destino.webp",
      "origin": "Item.P2Vm2S4PlF4jajv2",
      "tint": "#FFFFFF",
      "flags": {
        "tormenta20": {
          "onuse": false,
          "durationScene": false
        }
      },
      "duration": {
        "startTime": null,
        "seconds": null,
        "combat": null,
        "rounds": null,
        "turns": null,
        "startRound": null,
        "startTurn": null
      },
      "disabled": false,
      "_id": "t2Md9YzKag7Zw4zr",
      "changes": [
        {
          "key": "system.attributes.carga.bonus",
          "mode": 2,
          "value": "5"
        },
        {
          "key": "system.equipamentos.limiteVestido",
          "mode": 2,
          "value": "1"
        }
      ],
      "transfer": true,
      "_key": "!items.effects!P2Vm2S4PlF4jajv2.t2Md9YzKag7Zw4zr"
    }
  ],
  "flags": {
    "core": {
      "sourceId": "Compendium.tormenta20.poderes.u9TgbL6zCLQADGZg"
    }
  },
  "system": {
    "description": {
      "value": "<p style=\"text-align: justify;\">Seu limite de carga aumenta em 5 espa&ccedil;os e voc&ecirc; pode se beneficiar de um item vestido adicional.</p>\n<p style=\"text-align: justify;\">Pr&eacute;-requisitos: Con 1, For 1</p>",
      "chat": "",
      "unidentified": ""
    },
    "source": "T20, pg. 130 (JdA)",
    "ativacao": {
      "execucao": "move",
      "custo": null,
      "qtd": "",
      "condicao": "",
      "special": ""
    },
    "duracao": {
      "value": 0,
      "units": "",
      "special": ""
    },
    "target": {
      "value": null,
      "width": null,
      "units": "",
      "type": ""
    },
    "range": {
      "value": null,
      "units": ""
    },
    "consume": {
      "type": "",
      "target": "",
      "amount": null,
      "mpMultiplier": false
    },
    "efeito": "",
    "alcance": "none",
    "alvo": "",
    "area": "",
    "resistencia": {
      "pericia": "",
      "atributo": "sab",
      "bonus": 0,
      "txt": ""
    },
    "rolls": [],
    "tipo": "geral",
    "subtipo": "Destino",
    "chatFlavor": "",
    "origin": "",
    "tags": [],
    "chatGif": ""
  },
  "_stats": {
    "systemId": "tormenta20",
    "systemVersion": "1.4.116",
    "coreVersion": "11.298",
    "createdTime": 1664306185652,
    "modifiedTime": 1684630371462,
    "lastModifiedBy": "ZWR5Tn3AhSIFqwp6"
  },
  "_id": "P2Vm2S4PlF4jajv2",
  "folder": "NvFFFNI6JHPuMkck",
  "sort": 0,
  "ownership": {
    "default": 0,
    "tIn9sSkrT3mDWirx": 3
  },
  "_key": "!items!P2Vm2S4PlF4jajv2"
}
