{
  "name": "Couraceiro",
  "type": "poder",
  "img": "icons/commodities/tech/cog-brass.webp",
  "effects": [
    {
      "label": "Couraceiro",
      "icon": "icons/commodities/tech/cog-brass.webp",
      "origin": "Item.XbndSZpX3PC0tiWv",
      "tint": "#FFFFFF",
      "flags": {
        "tormenta20": {
          "onuse": false,
          "durationScene": false
        }
      },
      "duration": {
        "startTime": null,
        "seconds": null,
        "combat": null,
        "rounds": null,
        "turns": null,
        "startRound": null,
        "startTurn": null
      },
      "disabled": false,
      "_id": "7th2Z9Rheq6XuBUb",
      "changes": [
        {
          "key": "system.attributes.defesa.bonus",
          "mode": 2,
          "value": "@int",
          "priority": null
        }
      ],
      "transfer": true,
      "_key": "!items.effects!XbndSZpX3PC0tiWv.7th2Z9Rheq6XuBUb"
    }
  ],
  "flags": {
    "scene-packer": {
      "sourceId": "Item.GZ7cWm67y0usx8dL",
      "defaultPermission": 3,
      "hash": "368f30ffe894755f715f580be6a8be736485c4bb"
    },
    "cf": null,
    "core": {
      "sourceId": "Compendium.world.world-arielton-1663050699947.0MK61l6fEfudx2r6"
    }
  },
  "system": {
    "description": {
      "value": "<p style=\"text-align: justify;\">Voc&ecirc; recebe profici&ecirc;ncia com armaduras pesadas e escudos. Quando usa armadura, pode usar sua Intelig&ecirc;ncia em vez de Destreza na Defesa (mas continua n&atilde;o podendo somar um atributo na Defesa quando usa armadura pesada).</p>\n<p style=\"text-align: justify;\"><em>Pr&eacute;-requisito:</em> treinado em Of&iacute;cio (armeiro).</p>",
      "chat": "",
      "unidentified": ""
    },
    "source": "T20, pg. 69 (JdA)",
    "ativacao": {
      "execucao": "",
      "custo": 0,
      "qtd": "",
      "condicao": "",
      "special": ""
    },
    "duracao": {
      "value": 0,
      "units": "",
      "special": ""
    },
    "target": {
      "value": null,
      "width": null,
      "units": "",
      "type": ""
    },
    "range": {
      "value": null,
      "units": ""
    },
    "consume": {
      "type": "",
      "target": "",
      "amount": null,
      "mpMultiplier": false
    },
    "efeito": "",
    "alcance": "none",
    "alvo": "",
    "area": "",
    "resistencia": {
      "pericia": "",
      "atributo": "",
      "bonus": 0,
      "txt": ""
    },
    "rolls": [],
    "tipo": "classe",
    "subtipo": "inventor",
    "chatFlavor": "",
    "origin": "",
    "tags": [],
    "chatGif": ""
  },
  "_stats": {
    "systemId": "tormenta20",
    "systemVersion": "1.4.116",
    "coreVersion": "11.298",
    "createdTime": 1663051643907,
    "modifiedTime": 1684630371462,
    "lastModifiedBy": "ZWR5Tn3AhSIFqwp6"
  },
  "_id": "XbndSZpX3PC0tiWv",
  "folder": "iHjbUWZ9cRzIVZ3E",
  "sort": 0,
  "ownership": {
    "default": 0,
    "tIn9sSkrT3mDWirx": 3
  },
  "_key": "!items!XbndSZpX3PC0tiWv"
}
