{
  "_id": "VXLq2BMz6sDSotBa",
  "name": "Disparo Rápido",
  "type": "poder",
  "img": "systems/tormenta20/icons/poderes/combate.webp",
  "effects": [
    {
      "_id": "Ijy6kK7jv20mHATd",
      "flags": {
        "t20": null,
        "tormenta20": {
          "onuse": true,
          "self": false,
          "attack": true,
          "skill": false,
          "ability": false,
          "power": false,
          "spell": false,
          "consumable": false,
          "aumenta": false,
          "custo": "",
          "durationScene": false,
          "items": ""
        }
      },
      "changes": [
        {
          "key": "ataque",
          "mode": 2,
          "value": "-2",
          "priority": 0
        }
      ],
      "disabled": true,
      "duration": {
        "startTime": null,
        "seconds": null,
        "combat": null,
        "rounds": null,
        "turns": null,
        "startRound": null,
        "startTurn": null
      },
      "icon": "icons/svg/aura.svg",
      "label": "Disparo Rápido",
      "origin": "Item.0exJPa3CapwKc8Pw",
      "tint": null,
      "transfer": true,
      "_key": "!items.effects!VXLq2BMz6sDSotBa.Ijy6kK7jv20mHATd"
    }
  ],
  "folder": "Rgbah8U70jOKi5DF",
  "sort": 0,
  "flags": {
    "core": {
      "sourceId": "Compendium.tormenta20.poderes.VXLq2BMz6sDSotBa"
    }
  },
  "system": {
    "description": {
      "value": "<p style=\"text-align: justify;\">Se estiver empunhando uma arma de disparo que possa recarregar como a&ccedil;&atilde;o livre e gastar uma a&ccedil;&atilde;o completa para agredir, pode fazer um ataque adicional com ela. Se fizer isso, sofre &ndash;2 em todos os testes de ataque at&eacute; o seu pr&oacute;ximo turno.</p>\n<p style=\"text-align: justify;\"><em>Pr&eacute;-requisito:</em> Des 1, Estilo de Disparo ou Estilo de Arremesso.</p>",
      "chat": "",
      "unidentified": ""
    },
    "source": "T20, pg. 125 (JdA)",
    "ativacao": {
      "execucao": "",
      "custo": 0,
      "qtd": "",
      "condicao": "",
      "special": ""
    },
    "duracao": {
      "value": 0,
      "units": "",
      "special": ""
    },
    "target": {
      "value": null,
      "width": null,
      "units": "",
      "type": ""
    },
    "range": {
      "value": null,
      "units": ""
    },
    "consume": {
      "type": "",
      "target": "",
      "amount": null,
      "mpMultiplier": false
    },
    "efeito": "",
    "alcance": "none",
    "alvo": "",
    "area": "",
    "resistencia": {
      "pericia": "",
      "atributo": "sab",
      "bonus": 0,
      "txt": ""
    },
    "rolls": [],
    "tipo": "geral",
    "subtipo": "Combate",
    "origin": "",
    "tags": [],
    "chatFlavor": "",
    "chatGif": ""
  },
  "ownership": {
    "default": 0
  },
  "_stats": {
    "systemId": "tormenta20",
    "systemVersion": "1.4.116",
    "coreVersion": "11.298",
    "createdTime": 1664306184716,
    "modifiedTime": 1684630371462,
    "lastModifiedBy": "ZWR5Tn3AhSIFqwp6"
  },
  "_key": "!items!VXLq2BMz6sDSotBa"
}
