{
  "_id": "ER3qYUu8vpKPM1zU",
  "name": "Dom da Profecia",
  "type": "poder",
  "img": "systems/tormenta20/icons/poderes/concedidos-ressurreicao.webp",
  "effects": [
    {
      "label": "Dom da Profecia: +2 em um teste",
      "icon": "icons/svg/upgrade.svg",
      "origin": "Item.ER3qYUu8vpKPM1zU",
      "tint": "#FFFFFF",
      "flags": {
        "tormenta20": {
          "onuse": true,
          "durationScene": false,
          "self": false,
          "attack": false,
          "skill": true,
          "ability": false,
          "power": false,
          "spell": false,
          "consumable": false,
          "items": "",
          "aumenta": false,
          "custo": "2"
        }
      },
      "duration": {
        "startTime": null,
        "seconds": null,
        "combat": null,
        "rounds": null,
        "turns": null,
        "startRound": null,
        "startTurn": null
      },
      "disabled": true,
      "_id": "EIaY282GfP3ch8eE",
      "changes": [
        {
          "key": "roll",
          "mode": 2,
          "value": "2",
          "priority": 0
        }
      ],
      "transfer": true,
      "_key": "!items.effects!ER3qYUu8vpKPM1zU.EIaY282GfP3ch8eE"
    },
    {
      "label": "Dom da Profecia",
      "icon": "icons/svg/upgrade.svg",
      "origin": "Item.ER3qYUu8vpKPM1zU",
      "tint": "#FFFFFF",
      "flags": {
        "tormenta20": {
          "onuse": true,
          "durationScene": false,
          "self": false,
          "attack": false,
          "skill": false,
          "ability": false,
          "power": false,
          "spell": true,
          "consumable": false,
          "items": "augurio",
          "aumenta": false,
          "custo": "-1"
        }
      },
      "duration": {
        "startTime": null,
        "seconds": null,
        "combat": null,
        "rounds": null,
        "turns": null,
        "startRound": null,
        "startTurn": null
      },
      "disabled": true,
      "_id": "eSlVMkaR5NnAMCK0",
      "changes": [],
      "transfer": true,
      "_key": "!items.effects!ER3qYUu8vpKPM1zU.eSlVMkaR5NnAMCK0"
    }
  ],
  "folder": "He9KfwGwASRyosMP",
  "sort": 0,
  "flags": {
    "core": {
      "sourceId": "Compendium.tormenta20.poderes.ER3qYUu8vpKPM1zU"
    }
  },
  "system": {
    "description": {
      "value": "<p style=\"text-align: justify;\">Voc&ecirc; pode lan&ccedil;ar <em>Aug&uacute;rio.</em> Caso aprenda novamente essa magia, seu custo diminui em &ndash;1 PM. Voc&ecirc; tamb&eacute;m pode gastar 2 PM para receber +2 em um teste.</p>",
      "chat": "",
      "unidentified": ""
    },
    "source": "T20, pg. 133 (JdA)",
    "ativacao": {
      "execucao": "",
      "custo": 2,
      "qtd": "",
      "condicao": "",
      "special": ""
    },
    "duracao": {
      "value": 0,
      "units": "",
      "special": ""
    },
    "target": {
      "value": null,
      "width": null,
      "units": "",
      "type": ""
    },
    "range": {
      "value": null,
      "units": ""
    },
    "consume": {
      "type": "",
      "target": "",
      "amount": null,
      "mpMultiplier": false
    },
    "efeito": "",
    "alcance": "none",
    "alvo": "",
    "area": "",
    "resistencia": {
      "pericia": "",
      "atributo": "sab",
      "bonus": 0,
      "txt": ""
    },
    "rolls": [],
    "tipo": "concedido",
    "subtipo": "Ressurreição",
    "origin": "",
    "tags": [],
    "chatFlavor": "",
    "chatGif": ""
  },
  "ownership": {
    "default": 0
  },
  "_stats": {
    "systemId": "tormenta20",
    "systemVersion": "1.4.116",
    "coreVersion": "11.298",
    "createdTime": 1664306183829,
    "modifiedTime": 1684630371462,
    "lastModifiedBy": "ZWR5Tn3AhSIFqwp6"
  },
  "_key": "!items!ER3qYUu8vpKPM1zU"
}
