{
  "_id": "oEVsmhWuBhpcXALl",
  "name": "Duelo",
  "type": "poder",
  "img": "systems/tormenta20/icons/poderes/classes/combatentes/duelo.webp",
  "effects": [
    {
      "_id": "VOT7wtG3ahZVHx3x",
      "changes": [
        {
          "key": "ataque",
          "mode": 2,
          "value": "2",
          "priority": 0
        },
        {
          "key": "dano",
          "mode": 2,
          "value": "2",
          "priority": 0
        }
      ],
      "disabled": false,
      "duration": {
        "rounds": 99,
        "startTime": null,
        "seconds": null,
        "combat": null,
        "turns": null,
        "startRound": null,
        "startTurn": null
      },
      "icon": "systems/tormenta20/icons/classes/cavaleiro.webp",
      "label": "Duelo",
      "origin": "Compendium.tormenta20.poderes.oEVsmhWuBhpcXALl",
      "transfer": false,
      "flags": {
        "tormenta20": {
          "onuse": true,
          "durationScene": true,
          "self": false,
          "attack": true,
          "skill": false,
          "ability": false,
          "power": false,
          "equipment": false,
          "spell": false,
          "consumable": false,
          "items": "",
          "aumenta": false,
          "custo": ""
        }
      },
      "tint": null,
      "_key": "!items.effects!oEVsmhWuBhpcXALl.VOT7wtG3ahZVHx3x"
    },
    {
      "label": "Aumenta o bônus em +1",
      "icon": "icons/svg/upgrade.svg",
      "origin": "Item.oEVsmhWuBhpcXALl",
      "tint": "#FFFFFF",
      "flags": {
        "tormenta20": {
          "onuse": true,
          "durationScene": false,
          "self": true,
          "attack": false,
          "skill": false,
          "ability": false,
          "power": false,
          "equipment": false,
          "spell": false,
          "consumable": false,
          "items": "",
          "aumenta": true,
          "custo": "1"
        }
      },
      "duration": {
        "startTime": null,
        "seconds": null,
        "combat": null,
        "rounds": null,
        "turns": null,
        "startRound": null,
        "startTurn": null
      },
      "disabled": true,
      "_id": "NpvbddEYB1cpi4Hb",
      "changes": [
        {
          "key": "efeito.ataque",
          "mode": 2,
          "value": "1",
          "priority": 0
        },
        {
          "key": "efeito.dano",
          "mode": 2,
          "value": "1",
          "priority": 0
        }
      ],
      "transfer": false,
      "_key": "!items.effects!oEVsmhWuBhpcXALl.NpvbddEYB1cpi4Hb"
    }
  ],
  "folder": "FOdOQA7oDXTWqj5Z",
  "sort": 0,
  "flags": {
    "core": {
      "sourceId": "Compendium.tormenta20.poderes.oEVsmhWuBhpcXALl"
    }
  },
  "system": {
    "description": {
      "value": "<p style=\"text-align: justify;\">A partir do 2&ordm; n&iacute;vel, voc&ecirc; pode gastar 2 PM para escolher um oponente em alcance curto e receber +2 em testes de ataque e rolagens de dano contra ele at&eacute; o fim da cena. Se atacar outro oponente, o b&ocirc;nus termina. A cada cinco n&iacute;veis, voc&ecirc; pode gastar +1 PM para aumentar o b&ocirc;nus em +1.</p>",
      "chat": "",
      "unidentified": ""
    },
    "source": "T20, pg. 53 (JdA)",
    "ativacao": {
      "execucao": "",
      "custo": 2,
      "qtd": "",
      "condicao": "",
      "special": ""
    },
    "duracao": {
      "value": 0,
      "units": "",
      "special": ""
    },
    "target": {
      "value": null,
      "width": null,
      "units": "",
      "type": ""
    },
    "range": {
      "value": null,
      "units": ""
    },
    "consume": {
      "type": "",
      "target": "",
      "amount": null,
      "mpMultiplier": false
    },
    "efeito": "",
    "alcance": "none",
    "alvo": "",
    "area": "",
    "resistencia": {
      "pericia": "",
      "atributo": "sab",
      "bonus": 0,
      "txt": ""
    },
    "rolls": [],
    "tipo": "ability",
    "subtipo": "Cavaleiro",
    "origin": "",
    "tags": [],
    "chatFlavor": "",
    "chatGif": ""
  },
  "ownership": {
    "default": 0
  },
  "_stats": {
    "systemId": "tormenta20",
    "systemVersion": "1.4.116",
    "coreVersion": "11.298",
    "createdTime": 1664306185200,
    "modifiedTime": 1684630371462,
    "lastModifiedBy": "ZWR5Tn3AhSIFqwp6"
  },
  "_key": "!items!oEVsmhWuBhpcXALl"
}
