{
  "_id": "AmeuhUOkSViBMCpZ",
  "name": "Emboscar (Caçador)",
  "type": "poder",
  "img": "systems/tormenta20/icons/classes/cacador.webp",
  "effects": [],
  "folder": "iT3rUBmGhu5hbNic",
  "sort": 1000000,
  "flags": {
    "core": {
      "sourceId": "Compendium.tormenta20.poderes.dCth4JoJnrj1jE2q"
    }
  },
  "system": {
    "description": {
      "value": "<p style=\"text-align: justify;\">Voc&ecirc; pode gastar 2 PM para realizar uma a&ccedil;&atilde;o padr&atilde;o adicional em seu turno. Voc&ecirc; s&oacute; pode usar este poder na primeira rodada de um combate.</p>\n<p style=\"text-align: justify;\">Pr&eacute;-requisito: treinado em Furtividade.</p>",
      "chat": "",
      "unidentified": ""
    },
    "source": "T20, pg. 51 (JdA)",
    "ativacao": {
      "execucao": "",
      "custo": 2,
      "qtd": "",
      "condicao": "",
      "special": ""
    },
    "duracao": {
      "value": 0,
      "units": "",
      "special": ""
    },
    "target": {
      "value": null,
      "width": null,
      "units": "",
      "type": ""
    },
    "range": {
      "value": null,
      "units": ""
    },
    "consume": {
      "type": "",
      "target": "",
      "amount": null,
      "mpMultiplier": false
    },
    "efeito": "",
    "alcance": "none",
    "alvo": "",
    "area": "",
    "resistencia": {
      "pericia": "",
      "atributo": "sab",
      "bonus": 0,
      "txt": ""
    },
    "rolls": [],
    "tipo": "classe",
    "subtipo": "Caçador",
    "chatFlavor": "",
    "origin": "",
    "tags": [],
    "chatGif": ""
  },
  "ownership": {
    "default": 0
  },
  "_stats": {
    "systemId": "tormenta20",
    "systemVersion": "1.4.116",
    "coreVersion": "11.298",
    "createdTime": 1658361716905,
    "modifiedTime": 1684630426990,
    "lastModifiedBy": "ZWR5Tn3AhSIFqwp6"
  },
  "_key": "!items!AmeuhUOkSViBMCpZ"
}
