{
  "_id": "CqQidKBaMloCcYbp",
  "name": "Empatia Selvagem (Dahllan)",
  "type": "poder",
  "img": "systems/tormenta20/icons/racas/dahllan.webp",
  "effects": [
    {
      "label": "Empatia Selvagem",
      "icon": "icons/svg/upgrade.svg",
      "origin": "Item.j1EhPtSrattJWzLq",
      "tint": "#FFFFFF",
      "flags": {
        "tormenta20": {
          "onuse": true,
          "durationScene": false,
          "self": false,
          "attack": false,
          "skill": true,
          "ability": false,
          "power": false,
          "spell": false,
          "consumable": false,
          "items": "adestramento",
          "aumenta": false,
          "custo": ""
        }
      },
      "duration": {
        "startTime": null,
        "seconds": null,
        "combat": null,
        "rounds": null,
        "turns": null,
        "startRound": null,
        "startTurn": null
      },
      "disabled": true,
      "_id": "cdmN7QLbZ1oOUqP4",
      "changes": [
        {
          "key": "roll",
          "mode": 2,
          "value": "2",
          "priority": 0
        }
      ],
      "transfer": true,
      "_key": "!items.effects!CqQidKBaMloCcYbp.cdmN7QLbZ1oOUqP4"
    }
  ],
  "folder": "Q99EWrBDNMKWfbCR",
  "sort": 0,
  "flags": {
    "core": {
      "sourceId": "Compendium.tormenta20.poderes.azlQPwLSPLE0hm04"
    }
  },
  "system": {
    "description": {
      "value": "<p style=\"text-align: justify;\">Voc&ecirc; pode se comunicar com animais por meio de linguagem corporal e vocaliza&ccedil;&otilde;es. Voc&ecirc; pode usar Adestramento para mudar atitude e pedir favores de animais (veja Diplomacia, na p&aacute;gina 118). Caso receba esta habilidade novamente, recebe +2 em Adestramento.</p>",
      "chat": "",
      "unidentified": ""
    },
    "source": "T20, pg. 21 (JdA)",
    "ativacao": {
      "execucao": "move",
      "custo": 1,
      "qtd": "",
      "condicao": "",
      "special": ""
    },
    "duracao": {
      "value": 0,
      "units": "",
      "special": ""
    },
    "target": {
      "value": null,
      "width": null,
      "units": "",
      "type": ""
    },
    "range": {
      "value": null,
      "units": ""
    },
    "consume": {
      "type": "",
      "target": "",
      "amount": null,
      "mpMultiplier": false
    },
    "efeito": "",
    "alcance": "none",
    "alvo": "",
    "area": "",
    "resistencia": {
      "pericia": "",
      "atributo": "sab",
      "bonus": 0,
      "txt": ""
    },
    "rolls": [],
    "tipo": "racial",
    "subtipo": "Dahllan",
    "chatFlavor": "",
    "origin": "",
    "tags": [],
    "chatGif": ""
  },
  "ownership": {
    "default": 0
  },
  "_stats": {
    "systemId": "tormenta20",
    "systemVersion": "1.4.116",
    "coreVersion": "11.298",
    "createdTime": 1664306184739,
    "modifiedTime": 1684630371462,
    "lastModifiedBy": "ZWR5Tn3AhSIFqwp6"
  },
  "_key": "!items!CqQidKBaMloCcYbp"
}
