{
  "_id": "xoZDMj610oaZzBrd",
  "name": "Empunhadura Poderosa",
  "type": "poder",
  "img": "systems/tormenta20/icons/poderes/combate.webp",
  "effects": [
    {
      "label": "Empunhadura Poderosa",
      "icon": "icons/svg/upgrade.svg",
      "origin": "Item.xoZDMj610oaZzBrd",
      "tint": "#FFFFFF",
      "flags": {
        "tormenta20": {
          "onuse": true,
          "durationScene": false,
          "self": false,
          "attack": true,
          "skill": false,
          "ability": false,
          "power": false,
          "spell": false,
          "consumable": false,
          "items": "",
          "aumenta": false,
          "custo": ""
        }
      },
      "duration": {
        "startTime": null,
        "seconds": null,
        "combat": null,
        "rounds": null,
        "turns": null,
        "startRound": null,
        "startTurn": null
      },
      "disabled": true,
      "_id": "DQFQpdZzyUDIctRO",
      "changes": [
        {
          "key": "ataque",
          "mode": 2,
          "value": "-2",
          "priority": 0
        }
      ],
      "transfer": true,
      "_key": "!items.effects!xoZDMj610oaZzBrd.DQFQpdZzyUDIctRO"
    }
  ],
  "folder": "Rgbah8U70jOKi5DF",
  "sort": 0,
  "flags": {
    "core": {
      "sourceId": "Compendium.tormenta20.poderes.xoZDMj610oaZzBrd"
    }
  },
  "system": {
    "description": {
      "value": "<p style=\"text-align: justify;\">Ao usar uma arma feita para uma categoria de tamanho maior que a sua, a penalidade que voc&ecirc; sofre nos testes de ataque diminui para &ndash;2 (normalmente, usar uma arma feita para uma categoria de tamanho maior imp&otilde;e uma penalidade de &ndash;5 nos testes de ataque).</p>\n<p style=\"text-align: justify;\"><em>Pr&eacute;-requisito:</em> For 3.</p>",
      "chat": "",
      "unidentified": ""
    },
    "source": "T20, pg. 125 (JdA)",
    "ativacao": {
      "execucao": "",
      "custo": 0,
      "qtd": "",
      "condicao": "",
      "special": ""
    },
    "duracao": {
      "value": 0,
      "units": "",
      "special": ""
    },
    "target": {
      "value": null,
      "width": null,
      "units": "",
      "type": ""
    },
    "range": {
      "value": null,
      "units": ""
    },
    "consume": {
      "type": "",
      "target": "",
      "amount": null,
      "mpMultiplier": false
    },
    "efeito": "",
    "alcance": "none",
    "alvo": "",
    "area": "",
    "resistencia": {
      "pericia": "",
      "atributo": "sab",
      "bonus": 0,
      "txt": ""
    },
    "rolls": [],
    "tipo": "geral",
    "subtipo": "Combate",
    "origin": "",
    "tags": [],
    "chatFlavor": "",
    "chatGif": ""
  },
  "ownership": {
    "default": 0
  },
  "_stats": {
    "systemId": "tormenta20",
    "systemVersion": "1.4.116",
    "coreVersion": "11.298",
    "createdTime": 1664306185703,
    "modifiedTime": 1684630371462,
    "lastModifiedBy": "ZWR5Tn3AhSIFqwp6"
  },
  "_key": "!items!xoZDMj610oaZzBrd"
}
