{
  "_id": "RhzORvHf916ajwbI",
  "name": "Esgrimista (Bucaneiro)",
  "type": "poder",
  "img": "systems/tormenta20/icons/classes/bucaneiro.webp",
  "effects": [
    {
      "label": "Esgrimista",
      "icon": "systems/tormenta20/icons/classes/bucaneiro.webp",
      "origin": "Item.RhzORvHf916ajwbI",
      "tint": "#FFFFFF",
      "flags": {
        "tormenta20": {
          "onuse": false,
          "durationScene": false
        }
      },
      "duration": {
        "startTime": null,
        "seconds": null,
        "combat": null,
        "rounds": null,
        "turns": null,
        "startRound": null,
        "startTurn": null
      },
      "disabled": false,
      "_id": "5uPPI51yOtcI9zvZ",
      "changes": [
        {
          "key": "system.modificadores.dano.cac",
          "mode": 2,
          "value": "(min(@int, @nvl.bucaneiro))",
          "priority": null
        }
      ],
      "transfer": true,
      "_key": "!items.effects!RhzORvHf916ajwbI.5uPPI51yOtcI9zvZ"
    }
  ],
  "folder": "86kIqRb842xHRnBV",
  "sort": 0,
  "flags": {
    "core": {
      "sourceId": "Compendium.tormenta20.poderes.RhzORvHf916ajwbI"
    }
  },
  "system": {
    "description": {
      "value": "<p style=\"text-align: justify;\">Quando usa uma arma corpo a corpo leve ou &aacute;gil, voc&ecirc; soma sua Intelig&ecirc;ncia nas rolagens de dano (limitado pelo seu n&iacute;vel). Pr&eacute;-requisito: Int 1.</p>",
      "chat": "",
      "unidentified": ""
    },
    "source": "T20, pg. 48 (JdA)",
    "ativacao": {
      "execucao": "",
      "custo": 0,
      "qtd": "",
      "condicao": "",
      "special": ""
    },
    "duracao": {
      "value": 0,
      "units": "",
      "special": ""
    },
    "target": {
      "value": null,
      "width": null,
      "units": "",
      "type": ""
    },
    "range": {
      "value": null,
      "units": ""
    },
    "consume": {
      "type": "",
      "target": "",
      "amount": null,
      "mpMultiplier": false
    },
    "efeito": "",
    "alcance": "none",
    "alvo": "",
    "area": "",
    "resistencia": {
      "pericia": "",
      "atributo": "sab",
      "bonus": 0,
      "txt": ""
    },
    "rolls": [],
    "tipo": "classe",
    "subtipo": "Bucaneiro",
    "origin": "",
    "tags": [],
    "chatFlavor": "",
    "chatGif": ""
  },
  "ownership": {
    "default": 0
  },
  "_stats": {
    "systemId": "tormenta20",
    "systemVersion": "1.4.116",
    "coreVersion": "11.298",
    "createdTime": 1664306184304,
    "modifiedTime": 1684630371462,
    "lastModifiedBy": "ZWR5Tn3AhSIFqwp6"
  },
  "_key": "!items!RhzORvHf916ajwbI"
}
