{
  "_id": "7pVeIeJX6mRBoZ21",
  "name": "Esgrima Mágica",
  "type": "poder",
  "img": "systems/tormenta20/icons/classes/bardo.webp",
  "effects": [
    {
      "label": "Esgrima Mágica",
      "icon": "icons/svg/upgrade.svg",
      "origin": "Item.bmCmzuXy2wJupAbr",
      "tint": "#FFFFFF",
      "flags": {
        "tormenta20": {
          "onuse": true,
          "durationScene": false,
          "self": false,
          "attack": false,
          "skill": false,
          "ability": false,
          "power": true,
          "spell": false,
          "consumable": false,
          "items": "Inspiração",
          "aumenta": false,
          "custo": ""
        }
      },
      "duration": {
        "startTime": null,
        "seconds": null,
        "combat": null,
        "rounds": null,
        "turns": null,
        "startRound": null,
        "startTurn": null
      },
      "disabled": false,
      "_id": "V3qJ4zyrWsXjIYRe",
      "changes": [
        {
          "key": "efeito",
          "mode": 0,
          "value": "Inspiração (Esgrima Mágica)",
          "priority": 0
        }
      ],
      "transfer": true,
      "_key": "!items.effects!7pVeIeJX6mRBoZ21.V3qJ4zyrWsXjIYRe"
    },
    {
      "label": "Inspiração (Esgrima Mágica)",
      "icon": "icons/svg/upgrade.svg",
      "origin": "Item.bmCmzuXy2wJupAbr",
      "tint": "#FFFFFF",
      "flags": {
        "tormenta20": {
          "onuse": true,
          "durationScene": true,
          "self": false,
          "attack": true,
          "skill": false,
          "ability": false,
          "power": false,
          "spell": false,
          "consumable": false,
          "items": "",
          "aumenta": false,
          "custo": ""
        }
      },
      "duration": {
        "rounds": 1,
        "startTime": null,
        "seconds": null,
        "combat": null,
        "turns": null,
        "startRound": null,
        "startTurn": null
      },
      "disabled": true,
      "_id": "8GI6aQbAMmVtvbD6",
      "changes": [
        {
          "key": "pericia",
          "mode": 5,
          "value": "atua",
          "priority": null
        }
      ],
      "transfer": false,
      "_key": "!items.effects!7pVeIeJX6mRBoZ21.8GI6aQbAMmVtvbD6"
    }
  ],
  "folder": "vXRLLa3BIKBZdiua",
  "sort": 0,
  "flags": {
    "core": {
      "sourceId": "Compendium.tormenta20.poderes.7pVeIeJX6mRBoZ21"
    }
  },
  "system": {
    "description": {
      "value": "<p style=\"text-align: justify;\">Sua arte mescla esgrima e magia, transformando dan&ccedil;a em golpes. Enquanto estiver sob efeito de Inspira&ccedil;&atilde;o, voc&ecirc; pode substituir testes de Luta por testes de Atua&ccedil;&atilde;o, mas apenas se estiver empunhando armas leves ou de uma m&atilde;o.</p>\n<p style=\"text-align: justify;\">&nbsp;</p>\n<p style=\"text-align: justify;\">&nbsp;</p>",
      "chat": "",
      "unidentified": ""
    },
    "source": "T20, pg. 44 (JdA)",
    "ativacao": {
      "execucao": "",
      "custo": 0,
      "qtd": "",
      "condicao": "",
      "special": ""
    },
    "duracao": {
      "value": 0,
      "units": "",
      "special": ""
    },
    "target": {
      "value": null,
      "width": null,
      "units": "",
      "type": ""
    },
    "range": {
      "value": null,
      "units": ""
    },
    "consume": {
      "type": "",
      "target": "",
      "amount": null,
      "mpMultiplier": false
    },
    "efeito": "",
    "alcance": "none",
    "alvo": "",
    "area": "",
    "resistencia": {
      "pericia": "",
      "atributo": "sab",
      "bonus": 0,
      "txt": ""
    },
    "rolls": [],
    "tipo": "classe",
    "subtipo": "Bardo",
    "chatFlavor": "",
    "origin": "",
    "tags": [],
    "chatGif": ""
  },
  "ownership": {
    "default": 0
  },
  "_stats": {
    "systemId": "tormenta20",
    "systemVersion": "1.4.116",
    "coreVersion": "11.298",
    "createdTime": 1658361716800,
    "modifiedTime": 1684630371462,
    "lastModifiedBy": "ZWR5Tn3AhSIFqwp6"
  },
  "_key": "!items!7pVeIeJX6mRBoZ21"
}
