{
  "_id": "08Or2dxtMBSLKVHW",
  "name": "Especialista",
  "type": "poder",
  "img": "systems/tormenta20/icons/poderes/classes/especialistas/especialista.webp",
  "effects": [
    {
      "label": "Especialista (+2).",
      "icon": "icons/svg/upgrade.svg",
      "origin": "Item.08Or2dxtMBSLKVHW",
      "tint": "#FFFFFF",
      "flags": {
        "tormenta20": {
          "onuse": true,
          "durationScene": false,
          "self": false,
          "attack": false,
          "skill": true,
          "ability": false,
          "power": false,
          "spell": false,
          "consumable": false,
          "items": "",
          "aumenta": false,
          "custo": "1"
        }
      },
      "duration": {
        "startTime": null,
        "seconds": null,
        "combat": null,
        "rounds": null,
        "turns": null,
        "startRound": null,
        "startTurn": null
      },
      "disabled": true,
      "_id": "AdjySlwX5C16FO2f",
      "changes": [
        {
          "key": "roll",
          "mode": 2,
          "value": "2",
          "priority": 0
        }
      ],
      "transfer": true,
      "_key": "!items.effects!08Or2dxtMBSLKVHW.AdjySlwX5C16FO2f"
    },
    {
      "label": "Especialista (+4).",
      "icon": "icons/svg/upgrade.svg",
      "origin": "Item.08Or2dxtMBSLKVHW",
      "tint": "#FFFFFF",
      "flags": {
        "tormenta20": {
          "onuse": true,
          "durationScene": false,
          "self": false,
          "attack": false,
          "skill": true,
          "ability": false,
          "power": false,
          "spell": false,
          "consumable": false,
          "items": "",
          "aumenta": false,
          "custo": "1"
        }
      },
      "duration": {
        "startTime": null,
        "seconds": null,
        "combat": null,
        "rounds": null,
        "turns": null,
        "startRound": null,
        "startTurn": null
      },
      "disabled": true,
      "_id": "5tRZaGndVEaWhrS3",
      "changes": [
        {
          "key": "roll",
          "mode": 2,
          "value": "4",
          "priority": 0
        }
      ],
      "transfer": true,
      "_key": "!items.effects!08Or2dxtMBSLKVHW.5tRZaGndVEaWhrS3"
    },
    {
      "label": "Especialista (+6)",
      "icon": "icons/svg/upgrade.svg",
      "origin": "Item.08Or2dxtMBSLKVHW",
      "tint": "#FFFFFF",
      "flags": {
        "tormenta20": {
          "onuse": true,
          "durationScene": false,
          "self": false,
          "attack": false,
          "skill": true,
          "ability": false,
          "power": false,
          "spell": false,
          "consumable": false,
          "items": "",
          "aumenta": false,
          "custo": "1"
        }
      },
      "duration": {
        "startTime": null,
        "seconds": null,
        "combat": null,
        "rounds": null,
        "turns": null,
        "startRound": null,
        "startTurn": null
      },
      "disabled": true,
      "_id": "FU0BIutvnl1grTQr",
      "changes": [
        {
          "key": "roll",
          "mode": 2,
          "value": "6",
          "priority": 0
        }
      ],
      "transfer": true,
      "_key": "!items.effects!08Or2dxtMBSLKVHW.FU0BIutvnl1grTQr"
    }
  ],
  "folder": "E9EyD0Wrr8C91ZpV",
  "sort": 0,
  "flags": {
    "core": {
      "sourceId": "Compendium.tormenta20.poderes.08Or2dxtMBSLKVHW"
    }
  },
  "system": {
    "description": {
      "value": "<p style=\"text-align: justify;\">Escolha um n&uacute;mero de per&iacute;cias treinadas igual a sua Intelig&ecirc;ncia, exceto b&ocirc;nus tempor&aacute;rios (m&iacute;nimo 1). Ao fazer um teste de uma dessas per&iacute;cias, voc&ecirc; pode gastar 1 PM para dobrar seu b&ocirc;nus de treinamento. Voc&ecirc; n&atilde;o pode usar esta habilidade em testes de ataque.</p>",
      "chat": "",
      "unidentified": ""
    },
    "source": "T20, pg. 73 (JdA)",
    "ativacao": {
      "execucao": "reaction",
      "custo": 1,
      "qtd": "",
      "condicao": "",
      "special": ""
    },
    "duracao": {
      "value": 0,
      "units": "",
      "special": ""
    },
    "target": {
      "value": null,
      "width": null,
      "units": "",
      "type": ""
    },
    "range": {
      "value": null,
      "units": ""
    },
    "consume": {
      "type": "",
      "target": "",
      "amount": null,
      "mpMultiplier": false
    },
    "efeito": "",
    "alcance": "none",
    "alvo": "",
    "area": "",
    "resistencia": {
      "pericia": "",
      "atributo": "sab",
      "bonus": 0,
      "txt": ""
    },
    "rolls": [],
    "tipo": "ability",
    "subtipo": "Ladino",
    "origin": "",
    "tags": [],
    "chatFlavor": "",
    "chatGif": ""
  },
  "ownership": {
    "default": 0
  },
  "_stats": {
    "systemId": "tormenta20",
    "systemVersion": "1.4.116",
    "coreVersion": "11.298",
    "createdTime": 1664306183279,
    "modifiedTime": 1684630371462,
    "lastModifiedBy": "ZWR5Tn3AhSIFqwp6"
  },
  "_key": "!items!08Or2dxtMBSLKVHW"
}
