{
  "_id": "xicIWimbloEfiB1r",
  "name": "Especialista em Escola",
  "type": "poder",
  "img": "systems/tormenta20/icons/classes/arcanista.webp",
  "effects": [
    {
      "_id": "ECobAtdJ3vAf5y01",
      "changes": [
        {
          "key": "cd",
          "mode": 2,
          "value": "2",
          "priority": null
        }
      ],
      "disabled": true,
      "duration": {
        "startTime": null,
        "seconds": null,
        "combat": null,
        "rounds": null,
        "turns": null,
        "startRound": null,
        "startTurn": null
      },
      "icon": "icons/svg/upgrade.svg",
      "label": "Especialista em Escola",
      "origin": "Item.jzE0SUT6DliafSlf",
      "transfer": true,
      "flags": {
        "tormenta20": {
          "onuse": true,
          "spell": true,
          "self": false,
          "attack": false,
          "skill": false,
          "ability": false,
          "power": false,
          "consumable": false,
          "aumenta": false,
          "custo": "",
          "durationScene": false
        }
      },
      "tint": null,
      "_key": "!items.effects!xicIWimbloEfiB1r.ECobAtdJ3vAf5y01"
    }
  ],
  "folder": "dB8yQeNYIsAMdhNN",
  "sort": 0,
  "flags": {
    "core": {
      "sourceId": "Compendium.tormenta20.poderes.xicIWimbloEfiB1r"
    },
    "cf": null
  },
  "system": {
    "description": {
      "value": "<p style=\"text-align: justify;\">Escolha uma escola de magia. A CD para resistir a suas magias dessa escola aumenta em +2.&nbsp;<em>Pr&eacute;-requissito:&nbsp;</em>Bruxo ou Mago.</p>\n<p style=\"text-align: justify;\">&nbsp;</p>\n<p style=\"text-align: justify;\">&nbsp;</p>",
      "chat": "",
      "unidentified": ""
    },
    "source": "T20, pg. 38 (JdA)",
    "ativacao": {
      "execucao": "",
      "custo": 0,
      "qtd": "",
      "condicao": "",
      "special": ""
    },
    "duracao": {
      "value": 0,
      "units": "",
      "special": ""
    },
    "target": {
      "value": null,
      "width": null,
      "units": "",
      "type": ""
    },
    "range": {
      "value": null,
      "units": ""
    },
    "consume": {
      "type": "",
      "target": "",
      "amount": null,
      "mpMultiplier": false
    },
    "efeito": "",
    "alcance": "none",
    "alvo": "",
    "area": "",
    "resistencia": {
      "pericia": "",
      "atributo": "sab",
      "bonus": 0,
      "txt": ""
    },
    "rolls": [],
    "tipo": "classe",
    "subtipo": "Arcanista",
    "chatFlavor": "",
    "tags": [
      "Arcanista"
    ],
    "origin": "",
    "chatGif": ""
  },
  "ownership": {
    "default": 0
  },
  "_stats": {
    "systemId": "tormenta20",
    "systemVersion": "1.4.116",
    "coreVersion": "11.298",
    "createdTime": 1664306185703,
    "modifiedTime": 1684630371462,
    "lastModifiedBy": "ZWR5Tn3AhSIFqwp6"
  },
  "_key": "!items!xicIWimbloEfiB1r"
}
