{
  "_id": "WlwBBa1mvr6etx24",
  "name": "Fúria Raivosa",
  "type": "poder",
  "img": "systems/tormenta20/icons/classes/barbaro.webp",
  "effects": [],
  "folder": "UhsYJ0BvPTkMyG53",
  "sort": 0,
  "flags": {
    "core": {
      "sourceId": "Compendium.tormenta20.poderes.WlwBBa1mvr6etx24"
    }
  },
  "system": {
    "description": {
      "value": "<p style=\"text-align: justify;\">Se sua F&uacute;ria for terminar por voc&ecirc; n&atilde;o ter atacado nem sido alvo de um efeito hostil, voc&ecirc; pode pagar 1 PM para continuar em f&uacute;ria nesta rodada. Se voc&ecirc; atacar ou for atacado na rodada seguinte, sua f&uacute;ria continua normalmente.</p>\n<p style=\"text-align: justify;\">&nbsp;</p>\n<p style=\"text-align: justify;\">&nbsp;</p>",
      "chat": "",
      "unidentified": ""
    },
    "source": "T20, pg. 42 (JdA)",
    "ativacao": {
      "execucao": "",
      "custo": 1,
      "qtd": "",
      "condicao": "",
      "special": ""
    },
    "duracao": {
      "value": 0,
      "units": "",
      "special": ""
    },
    "target": {
      "value": null,
      "width": null,
      "units": "",
      "type": ""
    },
    "range": {
      "value": null,
      "units": ""
    },
    "consume": {
      "type": "",
      "target": "",
      "amount": null,
      "mpMultiplier": false
    },
    "efeito": "",
    "alcance": "none",
    "alvo": "",
    "area": "",
    "resistencia": {
      "pericia": "",
      "atributo": "sab",
      "bonus": 0,
      "txt": ""
    },
    "rolls": [],
    "tipo": "classe",
    "subtipo": "Bárbaro",
    "chatFlavor": "",
    "origin": "",
    "tags": [],
    "chatGif": ""
  },
  "ownership": {
    "default": 0
  },
  "_stats": {
    "systemId": "tormenta20",
    "systemVersion": "1.4.116",
    "coreVersion": "11.298",
    "createdTime": 1658361717174,
    "modifiedTime": 1684630371462,
    "lastModifiedBy": "ZWR5Tn3AhSIFqwp6"
  },
  "_key": "!items!WlwBBa1mvr6etx24"
}
