{
  "name": "Fabricar Item Superior",
  "type": "poder",
  "img": "systems/tormenta20/icons/poderes/classes/especialistas/fabricar-item-superior.webp",
  "effects": [],
  "flags": {
    "scene-packer": {
      "sourceId": "Item.mauEhocS2jzPigNH",
      "defaultPermission": 3,
      "hash": "0f22f2e46adebd9f2acc1ea35d3fa2434defd096"
    },
    "cf": null,
    "core": {
      "sourceId": "Compendium.world.world-arielton-1663050699947.en5OvlRF1QrPcxCt"
    }
  },
  "system": {
    "description": {
      "value": "<p style=\"text-align: justify;\">Fabricar Item Superior. No 2&ordm; n&iacute;vel, voc&ecirc; recebe um item superior com pre&ccedil;o de at&eacute; T$ 2.000 e passa a poder fabricar itens superiores com uma melhoria. Veja o Cap&iacute;tulo 3: Equipamento para a lista de melhorias no Livro B&aacute;sico.</p>\n<p style=\"text-align: justify;\">Nos n&iacute;veis 5, 8 e 11, voc&ecirc; pode substituir esse item por um item superior com duas, tr&ecirc;s e quatro melhorias, respectivamente, e passa a poder fabricar itens superiores com essa quantidade de melhorias.</p>\n<p style=\"text-align: justify;\">Considera-se que voc&ecirc; estava trabalhando nos itens e voc&ecirc; n&atilde;o gasta dinheiro ou tempo neles (mas gasta em itens que fabricar futuramente).</p>",
      "chat": "",
      "unidentified": ""
    },
    "source": "T20, pg. 68 (JdA)",
    "ativacao": {
      "execucao": "",
      "custo": 0,
      "qtd": "",
      "condicao": "",
      "special": ""
    },
    "duracao": {
      "value": 0,
      "units": "",
      "special": ""
    },
    "target": {
      "value": null,
      "width": null,
      "units": "",
      "type": ""
    },
    "range": {
      "value": null,
      "units": ""
    },
    "consume": {
      "type": "",
      "target": "",
      "amount": null,
      "mpMultiplier": false
    },
    "efeito": "",
    "alcance": "none",
    "alvo": "",
    "area": "",
    "resistencia": {
      "pericia": "",
      "atributo": "",
      "bonus": 0,
      "txt": ""
    },
    "rolls": [],
    "tipo": "ability",
    "subtipo": "inventor",
    "chatFlavor": "",
    "origin": "",
    "tags": [],
    "chatGif": ""
  },
  "_stats": {
    "systemId": "tormenta20",
    "systemVersion": "1.4.116",
    "coreVersion": "11.298",
    "createdTime": 1663051644566,
    "modifiedTime": 1684630371462,
    "lastModifiedBy": "ZWR5Tn3AhSIFqwp6"
  },
  "_id": "Aj3ZiNCirzOhyOcG",
  "folder": "iHjbUWZ9cRzIVZ3E",
  "sort": 0,
  "ownership": {
    "default": 0,
    "tIn9sSkrT3mDWirx": 3
  },
  "_key": "!items!Aj3ZiNCirzOhyOcG"
}
