{
  "name": "Familiar Corvo",
  "type": "poder",
  "img": "systems/tormenta20/icons/classes/arcanista.webp",
  "effects": [
    {
      "label": "Familiar Corvo: Você pode pagar +1PM para rolar dois dados e usar o melhor resultado em um teste de misticismo ou vontade.",
      "icon": "icons/svg/upgrade.svg",
      "origin": "Item.wy59756oAHeyE3hu",
      "tint": "#FFFFFF",
      "flags": {
        "tormenta20": {
          "onuse": true,
          "durationScene": false,
          "self": false,
          "attack": false,
          "skill": false,
          "ability": false,
          "power": false,
          "spell": true,
          "consumable": false,
          "items": "Misticismo,Vontade",
          "aumenta": false,
          "custo": "1"
        }
      },
      "duration": {
        "startTime": null,
        "seconds": null,
        "combat": null,
        "rounds": null,
        "turns": null,
        "startRound": null,
        "startTurn": null
      },
      "disabled": true,
      "_id": "pgiOeYq86CAfHGz2",
      "changes": [
        {
          "key": "roll",
          "mode": 0,
          "value": "kh",
          "priority": 0
        }
      ],
      "transfer": true,
      "_key": "!items.effects!j4pu8gttduL150Pp.pgiOeYq86CAfHGz2"
    }
  ],
  "flags": {
    "core": {
      "sourceId": "Compendium.tormenta20.poderes.Di5nXfWPAjk9Fpuw"
    }
  },
  "system": {
    "description": {
      "value": "<p style=\"text-align: justify;\">Um familiar &eacute; uma criatura m&aacute;gica. Em termos de jogo, &eacute; um parceiro especial com o qual voc&ecirc; pode se comunicar telepaticamente em alcance longo. Ele obedece a suas ordens, mas ainda est&aacute; limitado ao que uma criatura de sua esp&eacute;cie pode fazer. Se ele morrer, voc&ecirc; fica atordoado por uma rodada. Voc&ecirc; pode invocar um novo familiar com um ritual que exige um dia e T$ 100 em ingredientes.</p>\n<ul>\n<li>Corvo. Quando faz um teste de Misticismo ou Vontade, voc&ecirc; pode pagar 1 PM para rolar dois dados e usar o melhor resultado.</li>\n</ul>\n<p>&nbsp;</p>\n<p>&nbsp;</p>",
      "chat": "",
      "unidentified": ""
    },
    "source": "T20, pg. 38 (JdA)",
    "ativacao": {
      "execucao": "",
      "custo": 0,
      "qtd": "",
      "condicao": "",
      "special": ""
    },
    "duracao": {
      "value": 0,
      "units": "",
      "special": ""
    },
    "target": {
      "value": null,
      "width": null,
      "units": "",
      "type": ""
    },
    "range": {
      "value": null,
      "units": ""
    },
    "consume": {
      "type": "",
      "target": "",
      "amount": null,
      "mpMultiplier": false
    },
    "efeito": "",
    "alcance": "none",
    "alvo": "",
    "area": "",
    "resistencia": {
      "pericia": "",
      "atributo": "sab",
      "bonus": 0,
      "txt": ""
    },
    "rolls": [],
    "tipo": "classe",
    "subtipo": "Arcanista",
    "origin": "",
    "chatFlavor": "",
    "tags": [
      "Arcanista"
    ],
    "chatGif": ""
  },
  "_stats": {
    "systemId": "tormenta20",
    "systemVersion": "1.4.116",
    "coreVersion": "11.298",
    "createdTime": 1664306183824,
    "modifiedTime": 1684630371462,
    "lastModifiedBy": "ZWR5Tn3AhSIFqwp6"
  },
  "_id": "j4pu8gttduL150Pp",
  "folder": "dB8yQeNYIsAMdhNN",
  "sort": 0,
  "ownership": {
    "default": 0,
    "tIn9sSkrT3mDWirx": 3
  },
  "_key": "!items!j4pu8gttduL150Pp"
}
