{
  "_id": "6HsKF5U5mfbWZlwV",
  "name": "Farsa do Fingidor",
  "type": "poder",
  "img": "systems/tormenta20/icons/poderes/concedidos-trapaca.webp",
  "effects": [
    {
      "label": "Farsa do Fingidor",
      "icon": "icons/svg/upgrade.svg",
      "origin": "Item.6HsKF5U5mfbWZlwV",
      "tint": "#FFFFFF",
      "flags": {
        "tormenta20": {
          "onuse": true,
          "durationScene": false,
          "self": false,
          "attack": false,
          "skill": false,
          "ability": false,
          "power": false,
          "spell": true,
          "consumable": false,
          "items": "criar ilusao",
          "aumenta": false,
          "custo": "-1"
        }
      },
      "duration": {
        "startTime": null,
        "seconds": null,
        "combat": null,
        "rounds": null,
        "turns": null,
        "startRound": null,
        "startTurn": null
      },
      "disabled": true,
      "_id": "oWDShnU5wyJnpLFE",
      "changes": [],
      "transfer": true,
      "_key": "!items.effects!6HsKF5U5mfbWZlwV.oWDShnU5wyJnpLFE"
    }
  ],
  "folder": "p925DvI25xp3j71U",
  "sort": 0,
  "flags": {
    "core": {
      "sourceId": "Compendium.tormenta20.poderes.6HsKF5U5mfbWZlwV"
    }
  },
  "system": {
    "description": {
      "value": "<p style=\"text-align: justify;\">Voc&ecirc; aprende e pode lan&ccedil;ar <em>Criar Ilus&atilde;o</em>. Caso aprenda novamente essa magia, seu custo diminui em &ndash;1 PM.</p>",
      "chat": "",
      "unidentified": ""
    },
    "source": "T20, pg. 133 (JdA)",
    "ativacao": {
      "execucao": "",
      "custo": 0,
      "qtd": "",
      "condicao": "",
      "special": ""
    },
    "duracao": {
      "value": 0,
      "units": "",
      "special": ""
    },
    "target": {
      "value": null,
      "width": null,
      "units": "",
      "type": ""
    },
    "range": {
      "value": null,
      "units": ""
    },
    "consume": {
      "type": "",
      "target": "",
      "amount": null,
      "mpMultiplier": false
    },
    "efeito": "",
    "alcance": "none",
    "alvo": "",
    "area": "",
    "resistencia": {
      "pericia": "",
      "atributo": "sab",
      "bonus": 0,
      "txt": ""
    },
    "rolls": [],
    "tipo": "concedido",
    "subtipo": "Trapaça",
    "origin": "",
    "tags": [],
    "chatFlavor": "",
    "chatGif": ""
  },
  "ownership": {
    "default": 0
  },
  "_stats": {
    "systemId": "tormenta20",
    "systemVersion": "1.4.116",
    "coreVersion": "11.298",
    "createdTime": 1664306183319,
    "modifiedTime": 1684630371462,
    "lastModifiedBy": "ZWR5Tn3AhSIFqwp6"
  },
  "_key": "!items!6HsKF5U5mfbWZlwV"
}
