{
  "name": "Fome de Mana",
  "type": "poder",
  "img": "systems/tormenta20/icons/poderes/tormenta.webp",
  "effects": [],
  "flags": {
    "core": {
      "sourceId": "Compendium.tormenta20.poderes.0YGqk8QwGj7by1Ia"
    }
  },
  "system": {
    "description": {
      "value": "<p style=\"text-align: justify;\">Quando passa em um teste de resist&ecirc;ncia para resistir a uma habilidade m&aacute;gica, voc&ecirc; recebe 1 PM tempor&aacute;rio cumulativo. Voc&ecirc; pode ganhar um m&aacute;ximo de PM tempor&aacute;rio por cena desta forma igual ao n&uacute;mero de poderes de Tormenta que possui.&nbsp;</p>",
      "chat": "",
      "unidentified": ""
    },
    "source": "T20 - JdA, PG.137",
    "ativacao": {
      "execucao": "",
      "custo": 0,
      "qtd": "",
      "condicao": "",
      "special": ""
    },
    "duracao": {
      "value": 0,
      "units": "",
      "special": ""
    },
    "target": {
      "value": null,
      "width": null,
      "units": "",
      "type": ""
    },
    "range": {
      "value": null,
      "units": ""
    },
    "consume": {
      "type": "",
      "target": "",
      "amount": null,
      "mpMultiplier": false
    },
    "efeito": "",
    "alcance": "none",
    "alvo": "",
    "area": "",
    "resistencia": {
      "pericia": "",
      "atributo": "sab",
      "bonus": 0,
      "txt": ""
    },
    "rolls": [
      {
        "name": "PM Temporário",
        "key": "dano0",
        "type": "dano",
        "parts": [
          [
            "1",
            "curatpm"
          ]
        ]
      }
    ],
    "tipo": "geral",
    "subtipo": "Tormenta",
    "chatFlavor": "",
    "origin": "",
    "tags": [
      "Tormenta"
    ],
    "chatGif": "",
    "rolltags": [
      "Tormenta"
    ]
  },
  "_stats": {
    "systemId": "tormenta20",
    "systemVersion": "1.4.116",
    "coreVersion": "11.298",
    "createdTime": 1664306183282,
    "modifiedTime": 1684803392336,
    "lastModifiedBy": "ZWR5Tn3AhSIFqwp6"
  },
  "_id": "IEcXYz6VZ1rg7MAG",
  "folder": "m6ny7g3VciUkKZ3t",
  "sort": 0,
  "ownership": {
    "default": 0,
    "tIn9sSkrT3mDWirx": 3
  },
  "_key": "!items!IEcXYz6VZ1rg7MAG"
}
