{
  "_id": "PmIU9RUwNQRtI4UU",
  "name": "Força da Natureza",
  "type": "poder",
  "img": "systems/tormenta20/icons/poderes/classes/conjuradores/forca-natureza.webp",
  "effects": [
    {
      "label": "Força da da Natureza",
      "icon": "icons/svg/upgrade.svg",
      "origin": "Item.PmIU9RUwNQRtI4UU",
      "tint": "#FFFFFF",
      "flags": {
        "tormenta20": {
          "onuse": true,
          "durationScene": false,
          "self": false,
          "attack": false,
          "skill": false,
          "ability": false,
          "power": false,
          "spell": true,
          "consumable": false,
          "items": "",
          "aumenta": true,
          "custo": "-2"
        }
      },
      "duration": {
        "startTime": null,
        "seconds": null,
        "combat": null,
        "rounds": null,
        "turns": null,
        "startRound": null,
        "startTurn": null
      },
      "disabled": true,
      "_id": "9f3F2AXNifxpkNxb",
      "changes": [
        {
          "key": "cd",
          "mode": 2,
          "value": "2",
          "priority": 0
        }
      ],
      "transfer": true,
      "_key": "!items.effects!PmIU9RUwNQRtI4UU.9f3F2AXNifxpkNxb"
    }
  ],
  "folder": "8LraP5E2KHsZTAz8",
  "sort": 0,
  "flags": {
    "core": {
      "sourceId": "Compendium.tormenta20.poderes.PmIU9RUwNQRtI4UU"
    }
  },
  "system": {
    "description": {
      "value": "<p style=\"text-align: justify;\">No 20&ordm; n&iacute;vel, voc&ecirc; diminui o custo de todas as suas magias em &ndash;2 PM e aumenta a CD delas em +2. Os b&ocirc;nus dobram (&ndash;4 PM e +4 na CD) se voc&ecirc; estiver em terrenos naturais.</p>\n<p style=\"text-align: justify;\">&nbsp;</p>",
      "chat": "",
      "unidentified": ""
    },
    "source": "T20, pg. 63 (JdA)",
    "ativacao": {
      "execucao": "",
      "custo": 0,
      "qtd": "",
      "condicao": "",
      "special": ""
    },
    "duracao": {
      "value": 0,
      "units": "",
      "special": ""
    },
    "target": {
      "value": null,
      "width": null,
      "units": "",
      "type": ""
    },
    "range": {
      "value": null,
      "units": ""
    },
    "consume": {
      "type": "",
      "target": "",
      "amount": null,
      "mpMultiplier": false
    },
    "efeito": "",
    "alcance": "none",
    "alvo": "",
    "area": "",
    "resistencia": {
      "pericia": "",
      "atributo": "sab",
      "bonus": 0,
      "txt": ""
    },
    "rolls": [],
    "tipo": "ability",
    "subtipo": "Druida",
    "origin": "",
    "tags": [],
    "chatFlavor": "",
    "chatGif": ""
  },
  "ownership": {
    "default": 0
  },
  "_stats": {
    "systemId": "tormenta20",
    "systemVersion": "1.4.116",
    "coreVersion": "11.298",
    "createdTime": 1664306184259,
    "modifiedTime": 1684630371462,
    "lastModifiedBy": "ZWR5Tn3AhSIFqwp6"
  },
  "_key": "!items!PmIU9RUwNQRtI4UU"
}
