{
  "_id": "zSJu72QRtptlg4jx",
  "name": "Forma Selvagem Aprimorada",
  "type": "poder",
  "img": "systems/tormenta20/icons/classes/druida.webp",
  "effects": [
    {
      "label": "Forma Feroz aprimorada",
      "icon": "systems/tormenta20/icons/classes/druida.webp",
      "origin": "Item.zSJu72QRtptlg4jx",
      "tint": "#FFFFFF",
      "flags": {
        "tormenta20": {
          "onuse": false,
          "durationScene": true,
          "self": false,
          "attack": false,
          "skill": false,
          "ability": false,
          "power": false,
          "spell": false,
          "consumable": false,
          "items": "",
          "aumenta": false,
          "custo": ""
        }
      },
      "duration": {
        "rounds": 999,
        "startTime": null,
        "seconds": null,
        "combat": null,
        "turns": null,
        "startRound": null,
        "startTurn": null
      },
      "disabled": false,
      "_id": "ZRO5UKzSqjS0wwoK",
      "changes": [
        {
          "key": "system.atributos.for.value",
          "mode": 2,
          "value": "5",
          "priority": null
        },
        {
          "key": "system.attributes.defesa.bonus",
          "mode": 2,
          "value": "4",
          "priority": null
        }
      ],
      "transfer": false,
      "_key": "!items.effects!zSJu72QRtptlg4jx.ZRO5UKzSqjS0wwoK"
    },
    {
      "label": "Forma Agil aprimorada",
      "icon": "systems/tormenta20/icons/classes/druida.webp",
      "origin": "Item.zSJu72QRtptlg4jx",
      "tint": "#FFFFFF",
      "flags": {
        "tormenta20": {
          "onuse": false,
          "durationScene": true
        }
      },
      "duration": {
        "rounds": 999,
        "startTime": null,
        "seconds": null,
        "combat": null,
        "turns": null,
        "startRound": null,
        "startTurn": null
      },
      "disabled": false,
      "_id": "8gHCIqbA6YxxQRNB",
      "changes": [
        {
          "key": "system.atributos.des.value",
          "mode": 2,
          "value": "4",
          "priority": null
        },
        {
          "key": "system.attributes.movement.walk",
          "mode": 2,
          "value": "3",
          "priority": null
        }
      ],
      "transfer": false,
      "_key": "!items.effects!zSJu72QRtptlg4jx.8gHCIqbA6YxxQRNB"
    },
    {
      "label": "Forma Resistente Aprimorada",
      "icon": "systems/tormenta20/icons/classes/druida.webp",
      "origin": "Item.zSJu72QRtptlg4jx",
      "tint": "#FFFFFF",
      "flags": {
        "tormenta20": {
          "onuse": false,
          "durationScene": true
        }
      },
      "duration": {
        "rounds": 999,
        "startTime": null,
        "seconds": null,
        "combat": null,
        "turns": null,
        "startRound": null,
        "startTurn": null
      },
      "disabled": false,
      "_id": "AwQ59unmhDZEasB3",
      "changes": [
        {
          "key": "system.atributos.for.value",
          "mode": 2,
          "value": "3",
          "priority": null
        },
        {
          "key": "system.attributes.defesa.bonus",
          "mode": 2,
          "value": "8",
          "priority": null
        },
        {
          "key": "system.tracos.resistencias.dano.value",
          "mode": 2,
          "value": "8",
          "priority": null
        }
      ],
      "transfer": false,
      "_key": "!items.effects!zSJu72QRtptlg4jx.AwQ59unmhDZEasB3"
    },
    {
      "label": "Forma Sorrateira Aprimorada",
      "icon": "systems/tormenta20/icons/classes/druida.webp",
      "origin": "Item.zSJu72QRtptlg4jx",
      "tint": "#FFFFFF",
      "flags": {
        "tormenta20": {
          "onuse": false,
          "durationScene": true
        }
      },
      "duration": {
        "rounds": 999,
        "startTime": null,
        "seconds": null,
        "combat": null,
        "turns": null,
        "startRound": null,
        "startTurn": null
      },
      "disabled": false,
      "_id": "GgdcHArVfMmQL6Qs",
      "changes": [
        {
          "key": "system.atributos.des.value",
          "mode": 2,
          "value": "4",
          "priority": null
        }
      ],
      "transfer": false,
      "_key": "!items.effects!zSJu72QRtptlg4jx.GgdcHArVfMmQL6Qs"
    },
    {
      "label": "Forma Veloz Aprimorada",
      "icon": "systems/tormenta20/icons/classes/druida.webp",
      "origin": "Item.zSJu72QRtptlg4jx",
      "tint": "#FFFFFF",
      "flags": {
        "tormenta20": {
          "onuse": false,
          "durationScene": true
        }
      },
      "duration": {
        "rounds": 999,
        "startTime": null,
        "seconds": null,
        "combat": null,
        "turns": null,
        "startRound": null,
        "startTurn": null
      },
      "disabled": false,
      "_id": "YSqTMkRdjpuVJm13",
      "changes": [
        {
          "key": "system.atributos.des.value",
          "mode": 2,
          "value": "4",
          "priority": null
        }
      ],
      "transfer": false,
      "_key": "!items.effects!zSJu72QRtptlg4jx.YSqTMkRdjpuVJm13"
    },
    {
      "label": "Forma Ágil: -2 em ataques quando ataca com as duas armas naturais.",
      "icon": "icons/svg/upgrade.svg",
      "origin": "Item.zSJu72QRtptlg4jx",
      "tint": "#FFFFFF",
      "flags": {
        "tormenta20": {
          "onuse": true,
          "durationScene": false,
          "self": false,
          "attack": true,
          "skill": false,
          "ability": false,
          "power": false,
          "spell": false,
          "consumable": false,
          "items": "",
          "aumenta": false,
          "custo": ""
        }
      },
      "duration": {
        "startTime": null,
        "seconds": null,
        "combat": null,
        "rounds": null,
        "turns": null,
        "startRound": null,
        "startTurn": null
      },
      "disabled": true,
      "_id": "WzGba8dCI0DnXkKB",
      "changes": [
        {
          "key": "ataque",
          "mode": 2,
          "value": "-2",
          "priority": 0
        }
      ],
      "transfer": true,
      "_key": "!items.effects!zSJu72QRtptlg4jx.WzGba8dCI0DnXkKB"
    }
  ],
  "folder": "8LraP5E2KHsZTAz8",
  "sort": 0,
  "flags": {
    "core": {
      "sourceId": "Compendium.tormenta20.poderes.zSJu72QRtptlg4jx"
    }
  },
  "system": {
    "description": {
      "value": "<p style=\"text-align: justify;\">Quando usar Forma Selvagem, voc&ecirc; pode gastar 6 PM ao todo para assumir uma forma aprimorada. Pr&eacute;-requisitos: Forma Selvagem, 6&ordm; n&iacute;vel de Druida.&nbsp;</p>\n<ul style=\"text-align: justify;\">\n<li><strong>Forma &Aacute;gil:</strong> Voc&ecirc; recebe Destreza +4, deslocamento +3m e duas armas naturais que causam 1d8 de dano e possuem margem de amea&ccedil;a 19. Seu tamanho muda pra Grande (-2 em furtividade, +2 em testes de manobra)</li>\n<li><strong>Forma Feroz:</strong> voc&ecirc; recebe For&ccedil;a +5, +4 na Defesa e uma arma natural que causa 2d6 pontos de dano. Seu tamanho muda pra Grande (-2 em furtividade, +2 em testes de manobra);</li>\n<li><strong>Forma Resistente:</strong> Voc&ecirc; recebe For&ccedil;a +3, +8 na Defesa, Redu&ccedil;&atilde;o de Dano 8 e uma arma natural que causa 1d8 pontos de dano. Seu tamanho muda pra Grande (-2 em furtividade, +2 em testes de manobra);</li>\n<li><strong>Forma Sorrateira:</strong> Voc&ecirc; recebe Destreza +4. Seu tamanho muda para min&uacute;sculo (+5 em furtividade, -5 em testes de manobra);</li>\n<li><strong>Forma Veloz:</strong> Voc&ecirc; recebe Destreza +4, uma arma natural que causa 1d6 pontos de dano e um dos benef&iacute;cios a seguir: deslocamento 18m, deslocamento de escalada 12m ou deslocamento de nata&ccedil;&atilde;o 12m.</li>\n</ul>\n<h3 style=\"text-align: justify;\"><strong>Forma Selvagem</strong></h3>\n<p style=\"text-align: justify;\">Voc&ecirc; pode gastar uma a&ccedil;&atilde;o completa e 3 PM para adquirir a forma de uma criatura selvagem. Em termos de jogo, quando usa esta habilidade voc&ecirc; adquire os modificadores de uma das formas abaixo. Caracter&iacute;sticas n&atilde;o mencionadas n&atilde;o mudam.</p>\n<p style=\"text-align: justify;\">Na forma selvagem voc&ecirc; n&atilde;o pode falar, empunhar itens ou lan&ccedil;ar magias. Seu equipamento desaparece (mas voc&ecirc; mant&eacute;m os benef&iacute;cios de quaisquer itens vestidos), ressurgindo quando voc&ecirc; volta ao normal. Outras criaturas podem fazer um teste de Percep&ccedil;&atilde;o oposto pelo seu teste de Engana&ccedil;&atilde;o para perceber que voc&ecirc; n&atilde;o &eacute; um animal comum (voc&ecirc; recebe +10 neste teste). Cada transforma&ccedil;&atilde;o dura pelo tempo que voc&ecirc; quiser, mas voc&ecirc; reverte &agrave; forma normal se ficar inconsciente ou morrer.</p>",
      "chat": "",
      "unidentified": ""
    },
    "source": "T20, pg. 62 e 63 (JdA)",
    "ativacao": {
      "execucao": "",
      "custo": 6,
      "qtd": "",
      "condicao": "",
      "special": ""
    },
    "duracao": {
      "value": 0,
      "units": "",
      "special": ""
    },
    "target": {
      "value": null,
      "width": null,
      "units": "",
      "type": ""
    },
    "range": {
      "value": null,
      "units": ""
    },
    "consume": {
      "type": "",
      "target": "",
      "amount": null,
      "mpMultiplier": false
    },
    "efeito": "",
    "alcance": "none",
    "alvo": "",
    "area": "",
    "resistencia": {
      "pericia": "",
      "atributo": "sab",
      "bonus": 0,
      "txt": ""
    },
    "rolls": [],
    "tipo": "classe",
    "subtipo": "Druida",
    "chatFlavor": "",
    "origin": "",
    "tags": [],
    "chatGif": ""
  },
  "ownership": {
    "default": 0
  },
  "_stats": {
    "systemId": "tormenta20",
    "systemVersion": "1.4.116",
    "coreVersion": "11.298",
    "createdTime": 1664306185707,
    "modifiedTime": 1684630371462,
    "lastModifiedBy": "ZWR5Tn3AhSIFqwp6"
  },
  "_key": "!items!zSJu72QRtptlg4jx"
}
