{
  "_id": "lMQD3zWlwjng6Fty",
  "name": "Golpe Violento",
  "type": "poder",
  "img": "systems/tormenta20/icons/poderes/classes/combatentes/golpe-violento.webp",
  "effects": [
    {
      "label": "Golpe Violento",
      "icon": "icons/svg/upgrade.svg",
      "origin": "Item.lMQD3zWlwjng6Fty",
      "tint": "#FFFFFF",
      "flags": {
        "tormenta20": {
          "onuse": true,
          "durationScene": false,
          "self": false,
          "attack": true,
          "skill": false,
          "ability": false,
          "power": false,
          "spell": false,
          "consumable": false,
          "items": "",
          "aumenta": false,
          "custo": ""
        }
      },
      "duration": {
        "startTime": null,
        "seconds": null,
        "combat": null,
        "rounds": null,
        "turns": null,
        "startRound": null,
        "startTurn": null
      },
      "disabled": true,
      "_id": "5y66S2WngfbuhUzd",
      "changes": [
        {
          "key": "criticoX",
          "mode": 2,
          "value": "1",
          "priority": 0
        }
      ],
      "transfer": true,
      "_key": "!items.effects!lMQD3zWlwjng6Fty.5y66S2WngfbuhUzd"
    }
  ],
  "folder": "csRpG81AedPycko0",
  "sort": 0,
  "flags": {
    "core": {
      "sourceId": "Compendium.tormenta20.poderes.lMQD3zWlwjng6Fty"
    }
  },
  "system": {
    "description": {
      "value": "<p style=\"text-align: justify;\">No 9&ordm; n&iacute;vel, voc&ecirc; bate com muita for&ccedil;a. Seu multiplicador de cr&iacute;tico com ataques desarmados aumenta em +1.</p>",
      "chat": "",
      "unidentified": ""
    },
    "source": "T20, pg. 77 (JdA)",
    "ativacao": {
      "execucao": "passive",
      "custo": 0,
      "qtd": "",
      "condicao": "",
      "special": ""
    },
    "duracao": {
      "value": 0,
      "units": "",
      "special": ""
    },
    "target": {
      "value": null,
      "width": null,
      "units": "",
      "type": ""
    },
    "range": {
      "value": null,
      "units": ""
    },
    "consume": {
      "type": "",
      "target": "",
      "amount": null,
      "mpMultiplier": false
    },
    "efeito": "",
    "alcance": "none",
    "alvo": "",
    "area": "",
    "resistencia": {
      "pericia": "",
      "atributo": "sab",
      "bonus": 0,
      "txt": ""
    },
    "rolls": [],
    "tipo": "ability",
    "subtipo": "Lutador",
    "origin": "",
    "tags": [],
    "chatFlavor": "",
    "chatGif": ""
  },
  "ownership": {
    "default": 0
  },
  "_stats": {
    "systemId": "tormenta20",
    "systemVersion": "1.4.116",
    "coreVersion": "11.298",
    "createdTime": 1664306185142,
    "modifiedTime": 1684630371462,
    "lastModifiedBy": "ZWR5Tn3AhSIFqwp6"
  },
  "_key": "!items!lMQD3zWlwjng6Fty"
}
