{
  "_id": "pjuN5W676oemur1X",
  "name": "Graça",
  "type": "poder",
  "img": "systems/tormenta20/icons/racas/elfo.webp",
  "effects": [
    {
      "label": "Graça",
      "icon": "systems/tormenta20/icons/racas/elfo.webp",
      "origin": "Item.pjuN5W676oemur1X",
      "tint": "#FFFFFF",
      "flags": {
        "tormenta20": {
          "onuse": false,
          "durationScene": false
        }
      },
      "duration": {
        "startTime": null,
        "seconds": null,
        "combat": null,
        "rounds": null,
        "turns": null,
        "startRound": null,
        "startTurn": null
      },
      "disabled": false,
      "_id": "YdN4kksnYD2zbrpe",
      "changes": [
        {
          "key": "system.attributes.movement.walk",
          "mode": 5,
          "value": "12",
          "priority": null
        }
      ],
      "transfer": true,
      "_key": "!items.effects!pjuN5W676oemur1X.YdN4kksnYD2zbrpe"
    }
  ],
  "folder": "sP6NJ3uhryFkjai6",
  "sort": 0,
  "flags": {
    "core": {
      "sourceId": "Compendium.tormenta20.poderes.pjuN5W676oemur1X"
    }
  },
  "system": {
    "description": {
      "value": "<p style=\"text-align:justify;\">Seu deslocamento é 12m (em vez de 9m).</p>",
      "chat": "",
      "unidentified": ""
    },
    "source": "T20, pg. 22 (JdA)",
    "ativacao": {
      "execucao": "",
      "custo": 0,
      "qtd": "",
      "condicao": "",
      "special": ""
    },
    "duracao": {
      "value": 0,
      "units": "",
      "special": ""
    },
    "target": {
      "value": null,
      "width": null,
      "units": "",
      "type": ""
    },
    "range": {
      "value": null,
      "units": ""
    },
    "consume": {
      "type": "",
      "target": "",
      "amount": null,
      "mpMultiplier": false
    },
    "efeito": "",
    "alcance": "none",
    "alvo": "",
    "area": "",
    "resistencia": {
      "pericia": "",
      "atributo": "sab",
      "bonus": 0,
      "txt": ""
    },
    "rolls": [],
    "tipo": "racial",
    "subtipo": "Elfo",
    "origin": "",
    "tags": [],
    "chatFlavor": "",
    "chatGif": ""
  },
  "ownership": {
    "default": 0
  },
  "_stats": {
    "systemId": "tormenta20",
    "systemVersion": "1.4.116",
    "coreVersion": "11.298",
    "createdTime": 1664306185212,
    "modifiedTime": 1684630371462,
    "lastModifiedBy": "ZWR5Tn3AhSIFqwp6"
  },
  "_key": "!items!pjuN5W676oemur1X"
}
