{
  "folder": "VzNpCz1wSE1Ln6lH",
  "name": "Guerra, Justiça, Samurai, Ambição",
  "sorting": "a",
  "type": "Item",
  "_id": "8RcDA9Ii3yA97axI",
  "sort": 0,
  "flags": {},
  "_stats": {
    "systemId": null,
    "systemVersion": null,
    "coreVersion": null,
    "createdTime": null,
    "modifiedTime": null,
    "lastModifiedBy": null
  },
  "_key": "!folders!8RcDA9Ii3yA97axI"
}
