{
  "_id": "6HHb3ozkEi3nHyMx",
  "name": "Investida Destruidora",
  "type": "poder",
  "img": "systems/tormenta20/icons/classes/cavaleiro.webp",
  "effects": [
    {
      "_id": "GOEBYaajXPj5OBhj",
      "changes": [
        {
          "key": "dano",
          "mode": 2,
          "value": "2d8",
          "priority": null
        }
      ],
      "disabled": true,
      "duration": {
        "startTime": null,
        "seconds": null,
        "combat": null,
        "rounds": null,
        "turns": null,
        "startRound": null,
        "startTurn": null
      },
      "icon": "icons/svg/upgrade.svg",
      "label": "Investida Destruidora",
      "origin": "Compendium.tormenta20.poderes.6HHb3ozkEi3nHyMx",
      "transfer": true,
      "flags": {
        "tormenta20": {
          "onuse": true,
          "self": false,
          "attack": true,
          "skill": false,
          "ability": false,
          "power": false,
          "spell": false,
          "consumable": false,
          "aumenta": false,
          "custo": "2",
          "durationScene": false
        }
      },
      "tint": null,
      "_key": "!items.effects!6HHb3ozkEi3nHyMx.GOEBYaajXPj5OBhj"
    }
  ],
  "folder": "FOdOQA7oDXTWqj5Z",
  "sort": 0,
  "flags": {
    "core": {
      "sourceId": "Compendium.tormenta20.poderes.6HHb3ozkEi3nHyMx"
    }
  },
  "system": {
    "description": {
      "value": "<p style=\"text-align:justify;\">Quando faz a ação investida, você pode gastar 2 PM. Se fizer isso, causa +2d8 pontos de dano. Você deve usar esta habilidade antes de rolar o ataque.</p>",
      "chat": "",
      "unidentified": ""
    },
    "source": "T20, pg. 54 (JdA)",
    "ativacao": {
      "execucao": "",
      "custo": 2,
      "qtd": "",
      "condicao": "",
      "special": ""
    },
    "duracao": {
      "value": 0,
      "units": "",
      "special": ""
    },
    "target": {
      "value": null,
      "width": null,
      "units": "",
      "type": ""
    },
    "range": {
      "value": null,
      "units": ""
    },
    "consume": {
      "type": "",
      "target": "",
      "amount": null,
      "mpMultiplier": false
    },
    "efeito": "",
    "alcance": "none",
    "alvo": "",
    "area": "",
    "resistencia": {
      "pericia": "",
      "atributo": "sab",
      "bonus": 0,
      "txt": ""
    },
    "rolls": [],
    "tipo": "classe",
    "subtipo": "Cavaleiro",
    "origin": "",
    "tags": [],
    "chatFlavor": "",
    "chatGif": ""
  },
  "ownership": {
    "default": 0
  },
  "_stats": {
    "systemId": "tormenta20",
    "systemVersion": "1.4.116",
    "coreVersion": "11.298",
    "createdTime": 1664306183318,
    "modifiedTime": 1684630371462,
    "lastModifiedBy": "ZWR5Tn3AhSIFqwp6"
  },
  "_key": "!items!6HHb3ozkEi3nHyMx"
}
