{
  "_id": "OfUvQm8UFO32kTfk",
  "name": "Julgamento Divino: Autoridade",
  "type": "poder",
  "img": "systems/tormenta20/icons/classes/paladino.webp",
  "effects": [],
  "folder": "VwM7ZxttHPFuX6M4",
  "sort": 0,
  "flags": {
    "core": {
      "sourceId": "Compendium.tormenta20.poderes.OfUvQm8UFO32kTfk"
    }
  },
  "system": {
    "description": {
      "value": "<p style=\"text-align: justify;\">Voc&ecirc; pode gastar 1 PM para comandar uma criatura em alcance curto. Fa&ccedil;a um teste de <a class=\"content-link\" draggable=\"true\" data-uuid=\"JournalEntry.gPPLzgFvC0JKi5UE.JournalEntryPage.cPbZCkI3ApOFMTnL\" data-id=\"cPbZCkI3ApOFMTnL\" data-type=\"JournalEntryPage\" data-tooltip=\"Text Page\">Diplomacia</a> oposto pelo teste de @UUID[JournalEntry.gPPLzgFvC0JKi5UE.JournalEntryPage.YriqYltqs9f00eAb]{Vontade} do alvo. Se voc&ecirc; vencer, ele obedece a um comando simples, como &ldquo;pare&rdquo; ou &ldquo;largue a arma&rdquo; (apenas uma vez por cena). Mental.</p>\n<p style=\"text-align: justify;\"><strong>Julgamentos Divinos</strong></p>\n<p style=\"text-align: justify;\">Alguns poderes do paladino s&atilde;o Julgamentos Divinos. Esses poderes compartilham as seguintes regras.</p>\n<p style=\"text-align: justify;\">&bull; Proferir um julgamento gasta uma a&ccedil;&atilde;o de movimento, a menos que a descri&ccedil;&atilde;o diga o contr&aacute;rio.</p>\n<p style=\"text-align: justify;\">&bull; Julgamentos que n&atilde;o t&ecirc;m um efeito instant&acirc;neo duram at&eacute; o fim da cena.</p>\n<p style=\"text-align: justify;\">&bull; Uma mesma criatura pode ser alvo de v&aacute;rios julgamentos diferentes, mas efeitos do mesmo julgamento n&atilde;o se acumulam.</p>",
      "chat": "",
      "unidentified": ""
    },
    "source": "T20, pg. 83 (JdA)",
    "ativacao": {
      "execucao": "",
      "custo": 1,
      "qtd": "",
      "condicao": "",
      "special": ""
    },
    "duracao": {
      "value": 0,
      "units": "",
      "special": ""
    },
    "target": {
      "value": null,
      "width": null,
      "units": "",
      "type": ""
    },
    "range": {
      "value": null,
      "units": ""
    },
    "consume": {
      "type": "",
      "target": "",
      "amount": null,
      "mpMultiplier": false
    },
    "efeito": "",
    "alcance": "none",
    "alvo": "",
    "area": "",
    "resistencia": {
      "pericia": "",
      "atributo": "sab",
      "bonus": 0,
      "txt": "Vontade"
    },
    "rolls": [],
    "tipo": "classe",
    "subtipo": "Paladino",
    "origin": "",
    "tags": [],
    "chatFlavor": "",
    "chatGif": ""
  },
  "ownership": {
    "default": 0
  },
  "_stats": {
    "systemId": "tormenta20",
    "systemVersion": "1.4.116",
    "coreVersion": "11.298",
    "createdTime": 1664306184256,
    "modifiedTime": 1684630371462,
    "lastModifiedBy": "ZWR5Tn3AhSIFqwp6"
  },
  "_key": "!items!OfUvQm8UFO32kTfk"
}
