{
  "_id": "pDs1v9D3coQINHsN",
  "name": "Língua Rápida",
  "type": "poder",
  "img": "systems/tormenta20/icons/classes/nobre.webp",
  "effects": [
    {
      "label": "Língua Rápida",
      "icon": "icons/svg/upgrade.svg",
      "origin": "Item.pDs1v9D3coQINHsN",
      "tint": "#FFFFFF",
      "flags": {
        "tormenta20": {
          "onuse": true,
          "durationScene": false,
          "self": false,
          "attack": false,
          "skill": true,
          "ability": false,
          "power": false,
          "spell": false,
          "consumable": false,
          "items": "diplomacia",
          "aumenta": false,
          "custo": ""
        }
      },
      "duration": {
        "startTime": null,
        "seconds": null,
        "combat": null,
        "rounds": null,
        "turns": null,
        "startRound": null,
        "startTurn": null
      },
      "disabled": true,
      "_id": "OQ7zR6LHnX6fczMd",
      "changes": [
        {
          "key": "roll",
          "mode": 2,
          "value": "-5",
          "priority": 0
        }
      ],
      "transfer": true,
      "_key": "!items.effects!pDs1v9D3coQINHsN.OQ7zR6LHnX6fczMd"
    }
  ],
  "folder": "1gk4CeDo7oR1b0oD",
  "sort": 0,
  "flags": {
    "core": {
      "sourceId": "Compendium.tormenta20.poderes.pDs1v9D3coQINHsN"
    }
  },
  "system": {
    "description": {
      "value": "<p style=\"text-align:justify;\">Quando faz um teste de Diplomacia para mudar atitude como uma ação completa, você sofre uma penalidade de –5, em vez de –10.</p>",
      "chat": "",
      "unidentified": ""
    },
    "source": "T20, pg. 80 (JdA)",
    "ativacao": {
      "execucao": "",
      "custo": 0,
      "qtd": "",
      "condicao": "",
      "special": ""
    },
    "duracao": {
      "value": 0,
      "units": "",
      "special": ""
    },
    "target": {
      "value": null,
      "width": null,
      "units": "",
      "type": ""
    },
    "range": {
      "value": null,
      "units": ""
    },
    "consume": {
      "type": "",
      "target": "",
      "amount": null,
      "mpMultiplier": false
    },
    "efeito": "",
    "alcance": "none",
    "alvo": "",
    "area": "",
    "resistencia": {
      "pericia": "",
      "atributo": "sab",
      "bonus": 0,
      "txt": ""
    },
    "rolls": [],
    "tipo": "classe",
    "subtipo": "Nobre",
    "origin": "",
    "tags": [],
    "chatFlavor": "",
    "chatGif": ""
  },
  "ownership": {
    "default": 0
  },
  "_stats": {
    "systemId": "tormenta20",
    "systemVersion": "1.4.116",
    "coreVersion": "11.298",
    "createdTime": 1664306185207,
    "modifiedTime": 1684630371462,
    "lastModifiedBy": "ZWR5Tn3AhSIFqwp6"
  },
  "_key": "!items!pDs1v9D3coQINHsN"
}
