{
  "_id": "pa9O0ay5tYiQrRjE",
  "name": "Lendas e Histórias",
  "type": "poder",
  "img": "systems/tormenta20/icons/classes/bardo.webp",
  "effects": [
    {
      "label": "Lendas e Histórias: Pode rolar novamente um teste de Conhecimento, Misticismo, Nobreza ou Religião.",
      "icon": "icons/svg/upgrade.svg",
      "origin": "Item.pa9O0ay5tYiQrRjE",
      "tint": "#FFFFFF",
      "flags": {
        "tormenta20": {
          "onuse": true,
          "durationScene": false,
          "self": false,
          "attack": false,
          "skill": true,
          "ability": false,
          "power": false,
          "spell": false,
          "consumable": false,
          "items": "conhecimento;misticismo;nobreza;religião",
          "aumenta": false,
          "custo": "1"
        }
      },
      "duration": {
        "startTime": null,
        "seconds": null,
        "combat": null,
        "rounds": null,
        "turns": null,
        "startRound": null,
        "startTurn": null
      },
      "disabled": true,
      "_id": "NvJKgLmYJ6IO1aIm",
      "changes": [],
      "transfer": true,
      "_key": "!items.effects!pa9O0ay5tYiQrRjE.NvJKgLmYJ6IO1aIm"
    }
  ],
  "folder": "vXRLLa3BIKBZdiua",
  "sort": 0,
  "flags": {
    "core": {
      "sourceId": "Compendium.tormenta20.poderes.pa9O0ay5tYiQrRjE"
    }
  },
  "system": {
    "description": {
      "value": "<p style=\"text-align: justify;\">Voc&ecirc; &eacute; um arquivo vivo de relatos, can&ccedil;&otilde;es e folclore. Al&eacute;m de outros benef&iacute;cios a crit&eacute;rio do mestre, voc&ecirc; pode gastar 1 PM para rolar novamente um teste rec&eacute;m realizado de Conhecimento, Misticismo, Nobreza ou Religi&atilde;o para informa&ccedil;&atilde;o, identificar criaturas ou identificar itens m&aacute;gicos.</p>\n<p style=\"text-align: justify;\"><em>Pr&eacute;-requisito:</em> Int 1.</p>\n<p style=\"text-align: justify;\">&nbsp;</p>\n<p style=\"text-align: justify;\">&nbsp;</p>",
      "chat": "",
      "unidentified": ""
    },
    "source": "T20, pg. 45 (JdA)",
    "ativacao": {
      "execucao": "",
      "custo": 1,
      "qtd": "",
      "condicao": "",
      "special": ""
    },
    "duracao": {
      "value": 0,
      "units": "",
      "special": ""
    },
    "target": {
      "value": null,
      "width": null,
      "units": "",
      "type": ""
    },
    "range": {
      "value": null,
      "units": ""
    },
    "consume": {
      "type": "",
      "target": "",
      "amount": null,
      "mpMultiplier": false
    },
    "efeito": "",
    "alcance": "none",
    "alvo": "",
    "area": "",
    "resistencia": {
      "pericia": "",
      "atributo": "sab",
      "bonus": 0,
      "txt": ""
    },
    "rolls": [],
    "tipo": "classe",
    "subtipo": "Bardo",
    "chatFlavor": "",
    "origin": "",
    "tags": [],
    "chatGif": ""
  },
  "ownership": {
    "default": 0
  },
  "_stats": {
    "systemId": "tormenta20",
    "systemVersion": "1.4.116",
    "coreVersion": "11.298",
    "createdTime": 1658361717653,
    "modifiedTime": 1684630371462,
    "lastModifiedBy": "ZWR5Tn3AhSIFqwp6"
  },
  "_key": "!items!pa9O0ay5tYiQrRjE"
}
