{
  "name": "Linhagem Feérica Aprimorada",
  "type": "poder",
  "img": "systems/tormenta20/icons/poderes/classes/conjuradores/linhagem-feerica.webp",
  "effects": [
    {
      "label": "Linhagem Feerica Aprimorada: A CD para resistir a suas magias de encantamento e ilusão aumenta em +2 e suas magias dessas escolas custam –1 PM.",
      "icon": "icons/svg/upgrade.svg",
      "origin": "Item.uZCYSnv0rUzrSo8D",
      "tint": "#FFFFFF",
      "flags": {
        "tormenta20": {
          "onuse": true,
          "durationScene": false,
          "self": false,
          "attack": false,
          "skill": false,
          "ability": false,
          "power": false,
          "spell": true,
          "consumable": false,
          "items": "",
          "aumenta": false,
          "custo": "-1"
        }
      },
      "duration": {
        "startTime": null,
        "seconds": null,
        "combat": null,
        "rounds": null,
        "turns": null,
        "startRound": null,
        "startTurn": null
      },
      "disabled": true,
      "_id": "lzbY7j6Zm9cBhwyo",
      "changes": [
        {
          "key": "cd",
          "mode": 2,
          "value": "2",
          "priority": 0
        }
      ],
      "transfer": true,
      "_key": "!items.effects!uZCYSnv0rUzrSo8D.lzbY7j6Zm9cBhwyo"
    }
  ],
  "folder": "dB8yQeNYIsAMdhNN",
  "sort": 0,
  "flags": {
    "core": {
      "sourceId": "Compendium.tormenta20.poderes.UB3sYP3377eAPcN2"
    }
  },
  "_id": "uZCYSnv0rUzrSo8D",
  "system": {
    "description": {
      "value": "<p style=\"text-align: justify;\">Seu sangue foi tocado pelas fadas.</p>\n<ul style=\"text-align: justify;\">\n<li>Aprimorada. A CD para resistir a suas magias de encantamento e ilus&atilde;o aumenta em +2 e suas magias dessas escolas custam &ndash;1 PM.</li>\n</ul>\n<p style=\"text-align: justify;\">&nbsp;</p>",
      "chat": "",
      "unidentified": ""
    },
    "source": "T20, pg. 39 (JdA)",
    "ativacao": {
      "execucao": "",
      "custo": 0,
      "qtd": "",
      "condicao": "",
      "special": ""
    },
    "duracao": {
      "value": 0,
      "units": "",
      "special": ""
    },
    "target": {
      "value": null,
      "width": null,
      "units": "",
      "type": ""
    },
    "range": {
      "value": null,
      "units": ""
    },
    "consume": {
      "type": "",
      "target": "",
      "amount": null,
      "mpMultiplier": false
    },
    "efeito": "",
    "alcance": "none",
    "alvo": "",
    "area": "",
    "resistencia": {
      "pericia": "",
      "atributo": "sab",
      "bonus": 0,
      "txt": ""
    },
    "rolls": [],
    "tipo": "ability",
    "subtipo": "Arcanista",
    "tags": [
      "Arcanista"
    ],
    "origin": "",
    "chatFlavor": "",
    "chatGif": ""
  },
  "ownership": {
    "default": 0,
    "0bS8PF9mUpBd2z0H": 3
  },
  "_stats": {
    "systemId": "tormenta20",
    "systemVersion": "1.4.116",
    "coreVersion": "11.298",
    "createdTime": 1664306185653,
    "modifiedTime": 1684630371462,
    "lastModifiedBy": "ZWR5Tn3AhSIFqwp6"
  },
  "_key": "!items!uZCYSnv0rUzrSo8D"
}
