{
  "_id": "mxfiUS6qhgYrQdtT",
  "name": "Linhagem Rubra",
  "type": "poder",
  "img": "systems/tormenta20/icons/poderes/classes/conjuradores/linhagem-rubra.webp",
  "effects": [],
  "folder": "dB8yQeNYIsAMdhNN",
  "sort": 0,
  "flags": {
    "core": {
      "sourceId": "Compendium.tormenta20.poderes.mxfiUS6qhgYrQdtT"
    }
  },
  "system": {
    "description": {
      "value": "<p style=\"text-align: justify;\">Seu sangue foi corrompido pela Tormenta.</p>\n<ul>\n<li style=\"text-align: justify;\">B&aacute;sica. Voc&ecirc; recebe um poder da Tormenta. Quando perder Carisma por adquirir poderes da Tormenta, pode aplicar a perda a outro atributo. Sua rela&ccedil;&atilde;o com invas&atilde;o aberrante lhe permite sacrificar partes espec&iacute;ficas de seu ser.</li>\n<li style=\"text-align: justify;\">Aprimorada. Escolha uma magia para cada poder da Tormenta que voc&ecirc; possui. Essas magias custam &ndash;1 PM. Sempre que recebe um novo poder da Tormenta, voc&ecirc; pode escolher uma nova magia. Esta heran&ccedil;a conta como um poder da Tormenta.</li>\n<li style=\"text-align: justify;\">Superior. Voc&ecirc; recebe +4 PM para cada poder da Tormenta que tiver. Esta heran&ccedil;a conta como um poder da Tormenta.</li>\n</ul>\n<p>&nbsp;</p>",
      "chat": "",
      "unidentified": ""
    },
    "source": "T20, pg. 39 (JdA)",
    "ativacao": {
      "execucao": "",
      "custo": 0,
      "qtd": "",
      "condicao": "",
      "special": ""
    },
    "duracao": {
      "value": 0,
      "units": "",
      "special": ""
    },
    "target": {
      "value": null,
      "width": null,
      "units": "",
      "type": ""
    },
    "range": {
      "value": null,
      "units": ""
    },
    "consume": {
      "type": "",
      "target": "",
      "amount": null,
      "mpMultiplier": false
    },
    "efeito": "",
    "alcance": "none",
    "alvo": "",
    "area": "",
    "resistencia": {
      "pericia": "",
      "atributo": "sab",
      "bonus": 0,
      "txt": ""
    },
    "rolls": [],
    "tipo": "ability",
    "subtipo": "Arcanista",
    "tags": [
      "Arcanista"
    ],
    "origin": "",
    "chatFlavor": "",
    "chatGif": ""
  },
  "ownership": {
    "default": 0
  },
  "_stats": {
    "systemId": "tormenta20",
    "systemVersion": "1.4.116",
    "coreVersion": "11.298",
    "createdTime": 1664306185150,
    "modifiedTime": 1684630371462,
    "lastModifiedBy": "ZWR5Tn3AhSIFqwp6"
  },
  "_key": "!items!mxfiUS6qhgYrQdtT"
}
