{
  "_id": "2LxEtm7P7roK2dCt",
  "name": "Lobo Solitário",
  "type": "poder",
  "img": "systems/tormenta20/icons/poderes/destino.webp",
  "effects": [
    {
      "label": "Lobo Solitário",
      "icon": "systems/tormenta20/icons/poderes/destino.webp",
      "origin": "Item.2LxEtm7P7roK2dCt",
      "tint": "#FFFFFF",
      "flags": {
        "tormenta20": {
          "onuse": false,
          "durationScene": false
        }
      },
      "duration": {
        "rounds": 1,
        "startTime": null,
        "seconds": null,
        "combat": null,
        "turns": null,
        "startRound": null,
        "startTurn": null
      },
      "disabled": false,
      "_id": "5LNtJ0EwRyafimuV",
      "changes": [
        {
          "key": "system.modificadores.pericias.geral",
          "mode": 2,
          "value": "1",
          "priority": null
        },
        {
          "key": "system.attributes.defesa.bonus",
          "mode": 2,
          "value": "1",
          "priority": null
        }
      ],
      "transfer": true,
      "_key": "!items.effects!2LxEtm7P7roK2dCt.5LNtJ0EwRyafimuV"
    }
  ],
  "folder": "NvFFFNI6JHPuMkck",
  "sort": 0,
  "flags": {
    "core": {
      "sourceId": "Compendium.tormenta20.poderes.2LxEtm7P7roK2dCt"
    }
  },
  "system": {
    "description": {
      "value": "<p style=\"text-align: justify;\">Voc&ecirc; recebe +1 em testes de per&iacute;cia e Defesa se estiver sem nenhum aliado em alcance curto. Voc&ecirc; n&atilde;o sofre penalidade por usar a per&iacute;cia Cura em si mesmo.</p>",
      "chat": "",
      "unidentified": ""
    },
    "source": "T20, pg. 130 (JdA)",
    "ativacao": {
      "execucao": "",
      "custo": 0,
      "qtd": "",
      "condicao": "",
      "special": ""
    },
    "duracao": {
      "value": 0,
      "units": "",
      "special": ""
    },
    "target": {
      "value": null,
      "width": null,
      "units": "",
      "type": ""
    },
    "range": {
      "value": null,
      "units": ""
    },
    "consume": {
      "type": "",
      "target": "",
      "amount": null,
      "mpMultiplier": false
    },
    "efeito": "",
    "alcance": "none",
    "alvo": "",
    "area": "",
    "resistencia": {
      "pericia": "",
      "atributo": "sab",
      "bonus": 0,
      "txt": ""
    },
    "rolls": [],
    "tipo": "geral",
    "subtipo": "Destino",
    "origin": "",
    "tags": [],
    "chatFlavor": "",
    "chatGif": ""
  },
  "ownership": {
    "default": 0
  },
  "_stats": {
    "systemId": "tormenta20",
    "systemVersion": "1.4.116",
    "coreVersion": "11.298",
    "createdTime": 1664306183300,
    "modifiedTime": 1684630371462,
    "lastModifiedBy": "ZWR5Tn3AhSIFqwp6"
  },
  "_key": "!items!2LxEtm7P7roK2dCt"
}
