{
  "_id": "HpIuN3MzFmb56Qn5",
  "name": "Música: Canção Assustadora",
  "type": "poder",
  "img": "systems/tormenta20/icons/classes/bardo.webp",
  "effects": [
    {
      "_id": "U2F6RqDnJmTTL10I",
      "changes": [],
      "disabled": false,
      "duration": {
        "rounds": 1,
        "startTime": null,
        "seconds": null,
        "combat": null,
        "turns": null,
        "startRound": null,
        "startTurn": null
      },
      "icon": "systems/tormenta20/icons/conditions/abalado.svg",
      "label": "Abalado",
      "origin": "Item.vGoyQODydL8gMI2j",
      "transfer": false,
      "flags": {
        "tormenta20": {
          "onuse": false,
          "durationScene": false
        }
      },
      "tint": null,
      "_key": "!items.effects!HpIuN3MzFmb56Qn5.U2F6RqDnJmTTL10I"
    }
  ],
  "folder": "vXRLLa3BIKBZdiua",
  "sort": 0,
  "flags": {
    "core": {
      "sourceId": "Compendium.tormenta20.poderes.HpIuN3MzFmb56Qn5"
    }
  },
  "system": {
    "description": {
      "value": "<p style=\"text-align: justify;\">Fa&ccedil;a um teste de Atua&ccedil;&atilde;o oposto pelo teste de Vontade de cada criatura a sua escolha dentro do alcance (voc&ecirc; faz um &uacute;nico teste). Alvos que falhem ficam abalados at&eacute; o fim da cena. Alvos que passem ficam imunes a este efeito por um dia.</p>\n<p style=\"text-align: justify;\">&nbsp;</p>\n<p style=\"text-align: justify;\"><strong>M&uacute;sicas de Bardo</strong></p>\n<p style=\"text-align: justify;\">Alguns poderes do bardo s&atilde;o M&uacute;sicas. Esses poderes compartilham as seguintes regras.</p>\n<p style=\"text-align: justify;\">&bull; Para ativar uma m&uacute;sica, voc&ecirc; precisa ser treinado em Atua&ccedil;&atilde;o e empunhar um instrumento musical (veja a p&aacute;gina 159).</p>\n<p style=\"text-align: justify;\">&bull; Ativar uma m&uacute;sica gasta uma a&ccedil;&atilde;o padr&atilde;o e 1 PM.</p>\n<p style=\"text-align: justify;\">&bull; Efeitos de m&uacute;sicas t&ecirc;m alcance curto.</p>\n<p style=\"text-align: justify;\">&nbsp;</p>",
      "chat": "",
      "unidentified": ""
    },
    "source": "T20, pg. 45 (JdA)",
    "ativacao": {
      "execucao": "action",
      "custo": 1,
      "qtd": "",
      "condicao": "",
      "special": ""
    },
    "duracao": {
      "value": 0,
      "units": "",
      "special": ""
    },
    "target": {
      "value": null,
      "width": null,
      "units": "",
      "type": ""
    },
    "range": {
      "value": null,
      "units": ""
    },
    "consume": {
      "type": "",
      "target": "",
      "amount": null,
      "mpMultiplier": false
    },
    "efeito": "",
    "alcance": "short",
    "alvo": "",
    "area": "",
    "resistencia": {
      "pericia": "",
      "atributo": "car",
      "bonus": 0,
      "txt": "Vontade"
    },
    "rolls": [
      {
        "name": "Teste Resistido",
        "key": "ataque0",
        "type": "ataque",
        "parts": [
          [
            "1d20",
            "",
            ""
          ],
          [
            "atua",
            "",
            ""
          ],
          [
            "",
            "",
            ""
          ]
        ],
        "versatil": ""
      }
    ],
    "tipo": "classe",
    "subtipo": "Bardo",
    "chatFlavor": "",
    "origin": "",
    "tags": [],
    "chatGif": ""
  },
  "ownership": {
    "default": 0
  },
  "_stats": {
    "systemId": "tormenta20",
    "systemVersion": "1.4.116",
    "coreVersion": "11.298",
    "createdTime": 1658361716925,
    "modifiedTime": 1684630371462,
    "lastModifiedBy": "ZWR5Tn3AhSIFqwp6"
  },
  "_key": "!items!HpIuN3MzFmb56Qn5"
}
