{
  "_id": "0sanox342d7LHPhb",
  "name": "Medicina",
  "type": "poder",
  "img": "systems/tormenta20/icons/poderes/destino.webp",
  "effects": [
    {
      "label": "Aumenta a cura em +1d6",
      "icon": "icons/svg/upgrade.svg",
      "origin": "Item.0sanox342d7LHPhb",
      "tint": "#FFFFFF",
      "flags": {
        "tormenta20": {
          "onuse": true,
          "durationScene": false,
          "self": true,
          "attack": false,
          "skill": false,
          "ability": false,
          "power": false,
          "spell": false,
          "consumable": false,
          "items": "",
          "aumenta": true,
          "custo": ""
        }
      },
      "duration": {
        "startTime": null,
        "seconds": null,
        "combat": null,
        "rounds": null,
        "turns": null,
        "startRound": null,
        "startTurn": null
      },
      "disabled": true,
      "_id": "AskLnYnqu0PYWOXX",
      "changes": [
        {
          "key": "dano",
          "mode": 2,
          "value": "1d6",
          "priority": 0
        }
      ],
      "transfer": false,
      "_key": "!items.effects!0sanox342d7LHPhb.AskLnYnqu0PYWOXX"
    }
  ],
  "folder": "NvFFFNI6JHPuMkck",
  "sort": 0,
  "flags": {
    "core": {
      "sourceId": "Compendium.tormenta20.poderes.0sanox342d7LHPhb"
    }
  },
  "system": {
    "description": {
      "value": "<p style=\"text-align: justify;\">Voc&ecirc; pode gastar uma a&ccedil;&atilde;o completa para fazer um teste de Cura (CD 15) em uma criatura. Se voc&ecirc; passar, ela recupera 1d6 PV, mais 1d6 para cada 5 pontos pelos quais o resultado do teste exceder a CD (2d6 com um resultado 20, 3d6 com um resultado 25 e assim por diante). Voc&ecirc; s&oacute; pode usar este poder uma vez por dia numa mesma criatura.</p>\n<p style=\"text-align: justify;\"><em>Pr&eacute;-requisitos: </em>Sab 1, treinado em Cura.</p>",
      "chat": "",
      "unidentified": ""
    },
    "source": "T20, pg. 130 (JdA)",
    "ativacao": {
      "execucao": "full",
      "custo": 0,
      "qtd": "",
      "condicao": "",
      "special": ""
    },
    "duracao": {
      "value": 0,
      "units": "",
      "special": ""
    },
    "target": {
      "value": null,
      "width": null,
      "units": "",
      "type": ""
    },
    "range": {
      "value": null,
      "units": ""
    },
    "consume": {
      "type": "",
      "target": "",
      "amount": null,
      "mpMultiplier": false
    },
    "efeito": "",
    "alcance": "none",
    "alvo": "",
    "area": "",
    "resistencia": {
      "pericia": "",
      "atributo": "sab",
      "bonus": 0,
      "txt": ""
    },
    "rolls": [
      {
        "name": "Cura",
        "key": "dano0",
        "type": "dano",
        "parts": [
          [
            "1d6",
            "curapv",
            ""
          ]
        ],
        "versatil": ""
      }
    ],
    "tipo": "geral",
    "subtipo": "Destino",
    "origin": "",
    "tags": [],
    "chatFlavor": "",
    "chatGif": ""
  },
  "ownership": {
    "default": 0
  },
  "_stats": {
    "systemId": "tormenta20",
    "systemVersion": "1.4.116",
    "coreVersion": "11.298",
    "createdTime": 1664306183283,
    "modifiedTime": 1684630371462,
    "lastModifiedBy": "ZWR5Tn3AhSIFqwp6"
  },
  "_key": "!items!0sanox342d7LHPhb"
}
