{
  "_id": "VnuxGTlMtobB52pg",
  "name": "Membros Extras",
  "type": "poder",
  "img": "systems/tormenta20/icons/poderes/tormenta.webp",
  "effects": [
    {
      "label": "Membros Extras",
      "icon": "systems/tormenta20/icons/poderes/tormenta.webp",
      "origin": "Compendium.tormenta20.poderes.VnuxGTlMtobB52pg",
      "tint": "#FFFFFF",
      "flags": {
        "tormenta20": {
          "onuse": false,
          "durationScene": false
        }
      },
      "duration": {
        "startTime": null,
        "seconds": null,
        "combat": null,
        "rounds": null,
        "turns": null,
        "startRound": null,
        "startTurn": null
      },
      "disabled": false,
      "_id": "il5ANhJxZPnSOTnq",
      "changes": [
        {
          "key": "system.equipamentos.limiteEmpunhado",
          "mode": 2,
          "value": "2",
          "priority": null
        }
      ],
      "transfer": true,
      "_key": "!items.effects!VnuxGTlMtobB52pg.il5ANhJxZPnSOTnq"
    }
  ],
  "folder": "m6ny7g3VciUkKZ3t",
  "sort": 0,
  "flags": {
    "core": {
      "sourceId": "Compendium.tormenta20.poderes.VnuxGTlMtobB52pg"
    }
  },
  "system": {
    "description": {
      "value": "<p style=\"text-align: justify;\">Voc&ecirc; possui duas armas naturais de patas insetoides que saem de suas costas, ombros ou flancos. Uma vez por rodada, quando usa a a&ccedil;&atilde;o agredir para atacar com outra arma, pode gastar 2 PM para fazer um ataque corpo a corpo extra com cada uma (dano 1d4, cr&iacute;tico x2, corte). Se possuir Ambidestria ou Estilo de Duas Armas, pode empunhar armas leves em suas patas insetoides (mas ainda precisa pagar 2 PM para atacar com elas e sofre a penalidade de &ndash;2 em todos os ataques).</p>\n<p style=\"text-align: justify;\"><em>Pr&eacute;-requisitos: </em>Quatro outros poderes da Tormenta.</p>",
      "chat": "",
      "unidentified": ""
    },
    "source": "T20, pg. 137 (JdA)",
    "ativacao": {
      "execucao": "",
      "custo": 2,
      "qtd": "",
      "condicao": "",
      "special": ""
    },
    "duracao": {
      "value": 0,
      "units": "",
      "special": ""
    },
    "target": {
      "value": null,
      "width": null,
      "units": "",
      "type": ""
    },
    "range": {
      "value": null,
      "units": ""
    },
    "consume": {
      "type": "",
      "target": "",
      "amount": null,
      "mpMultiplier": false
    },
    "efeito": "",
    "alcance": "none",
    "alvo": "",
    "area": "",
    "resistencia": {
      "pericia": "",
      "atributo": "sab",
      "bonus": 0,
      "txt": ""
    },
    "rolls": [],
    "tipo": "geral",
    "subtipo": "Tormenta",
    "chatFlavor": "",
    "tags": [
      "Tormenta"
    ],
    "origin": "",
    "chatGif": "",
    "rolltags": [
      "Tormenta"
    ]
  },
  "ownership": {
    "default": 0
  },
  "_stats": {
    "systemId": "tormenta20",
    "systemVersion": "1.4.116",
    "coreVersion": "11.298",
    "createdTime": 1664306184717,
    "modifiedTime": 1684803471033,
    "lastModifiedBy": "ZWR5Tn3AhSIFqwp6"
  },
  "_key": "!items!VnuxGTlMtobB52pg"
}
