{
  "_id": "Iy451ypKTxXIu337",
  "name": "Mestre dos Sussurros",
  "type": "poder",
  "img": "systems/tormenta20/icons/classes/bardo.webp",
  "effects": [
    {
      "label": "Mestre dos Sussurros",
      "icon": "icons/svg/upgrade.svg",
      "origin": "Item.vzZboBH0YITT8wUM",
      "tint": "#FFFFFF",
      "flags": {
        "tormenta20": {
          "onuse": true,
          "durationScene": false,
          "self": false,
          "attack": false,
          "skill": true,
          "ability": false,
          "power": false,
          "spell": false,
          "consumable": false,
          "items": "Enganação;Investigação",
          "aumenta": false,
          "custo": ""
        }
      },
      "duration": {
        "startTime": null,
        "seconds": null,
        "combat": null,
        "rounds": null,
        "turns": null,
        "startRound": null,
        "startTurn": null
      },
      "disabled": true,
      "_id": "FxGf9QjdhP3zm1Nn",
      "changes": [
        {
          "key": "roll",
          "mode": 0,
          "value": "kh",
          "priority": null
        }
      ],
      "transfer": true,
      "_key": "!items.effects!Iy451ypKTxXIu337.FxGf9QjdhP3zm1Nn"
    }
  ],
  "folder": "vXRLLa3BIKBZdiua",
  "sort": 0,
  "flags": {
    "core": {
      "sourceId": "Compendium.tormenta20.poderes.Iy451ypKTxXIu337"
    }
  },
  "system": {
    "description": {
      "value": "<p style=\"text-align: justify;\">&nbsp;Voc&ecirc; &eacute; dissimulado, atento para rumores e &oacute;timo em espalhar fofocas. Quando faz um teste de Investiga&ccedil;&atilde;o para interrogar ou um teste de Engana&ccedil;&atilde;o para intriga, voc&ecirc; rola dois dados e usa o melhor resultado. Al&eacute;m disso, pode fazer esses testes em ambientes sociais (taverna, festival, corte...) sem custo e em apenas uma hora (em vez de um dia).</p>\n<p style=\"text-align: justify;\">Pr&eacute;-requisitos: Car 1, treinado em Engana&ccedil;&atilde;o e Investiga&ccedil;&atilde;o.</p>",
      "chat": "",
      "unidentified": ""
    },
    "source": "T20, pg. 45 (JdA)",
    "ativacao": {
      "execucao": "",
      "custo": 0,
      "qtd": "",
      "condicao": "",
      "special": ""
    },
    "duracao": {
      "value": 0,
      "units": "",
      "special": ""
    },
    "target": {
      "value": null,
      "width": null,
      "units": "",
      "type": ""
    },
    "range": {
      "value": null,
      "units": ""
    },
    "consume": {
      "type": "",
      "target": "",
      "amount": null,
      "mpMultiplier": false
    },
    "efeito": "",
    "alcance": "none",
    "alvo": "",
    "area": "",
    "resistencia": {
      "pericia": "",
      "atributo": "sab",
      "bonus": 0,
      "txt": ""
    },
    "rolls": [],
    "tipo": "classe",
    "subtipo": "Bardo",
    "chatFlavor": "",
    "origin": "",
    "tags": [],
    "chatGif": ""
  },
  "ownership": {
    "default": 0
  },
  "_stats": {
    "systemId": "tormenta20",
    "systemVersion": "1.4.116",
    "coreVersion": "11.298",
    "createdTime": 1658361716926,
    "modifiedTime": 1684630371462,
    "lastModifiedBy": "ZWR5Tn3AhSIFqwp6"
  },
  "_key": "!items!Iy451ypKTxXIu337"
}
