{
  "_id": "TVNNn8Os4bGc8mOb",
  "name": "Missa: Superar as Limitações",
  "type": "poder",
  "img": "systems/tormenta20/icons/classes/clerigo.webp",
  "effects": [
    {
      "label": "Missa: Superar as Limitações",
      "icon": "systems/tormenta20/icons/classes/clerigo.webp",
      "origin": "Item.TVNNn8Os4bGc8mOb",
      "tint": "#FFFFFF",
      "flags": {
        "tormenta20": {
          "onuse": false,
          "durationScene": true
        }
      },
      "duration": {
        "rounds": 1,
        "startTime": null,
        "seconds": null,
        "combat": null,
        "turns": null,
        "startRound": null,
        "startTurn": null
      },
      "disabled": false,
      "_id": "ebkJCphOFgDRqucJ",
      "changes": [],
      "transfer": false,
      "_key": "!items.effects!TVNNn8Os4bGc8mOb.ebkJCphOFgDRqucJ"
    }
  ],
  "folder": "RDLTxoI4mIyfR6dr",
  "sort": 0,
  "flags": {
    "core": {
      "sourceId": "Compendium.tormenta20.poderes.TVNNn8Os4bGc8mOb"
    }
  },
  "system": {
    "description": {
      "value": "<p style=\"text-align: justify;\">Voc&ecirc; encoraja os ouvintes a superar suas pr&oacute;prias habilidades. Cada participante recebe +1d6 num &uacute;nico teste a sua escolha. Pode us&aacute;-lo mesmo ap&oacute;s rolar o dado.&nbsp;</p>\n<p style=\"text-align: justify;\">&nbsp;</p>\n<p style=\"text-align: justify;\"><strong>Missas</strong></p>\n<p style=\"text-align: justify;\">Missas compartilham as seguintes regras.</p>\n<p style=\"text-align: justify;\">&bull; Rezar uma Missa exige uma hora e o gasto de materiais especiais (como velas, incensos, &aacute;gua benta...) no valor de T$ 25. Um mesmo celebrante pode aplicar mais de um poder de Missa na mesma celebra&ccedil;&atilde;o.<br>Cada poder adicional aumenta o custo da Missa em T$ 25.</p>\n<p style=\"text-align: justify;\">&bull; Uma Missa afeta um n&uacute;mero m&aacute;ximo de pessoas igual a 1 + sua Sabedoria. Todas as pessoas precisam estar presentes durante toda a Missa.</p>\n<p style=\"text-align: justify;\">&bull; Os efeitos de uma Missa duram um dia. Uma mesma criatura s&oacute; pode receber os benef&iacute;cios da mesma Missa uma vez por dia.</p>",
      "chat": "",
      "unidentified": ""
    },
    "source": "T20, pg. 58 (JdA)",
    "ativacao": {
      "execucao": "",
      "custo": 0,
      "qtd": "",
      "condicao": "",
      "special": ""
    },
    "duracao": {
      "value": 1,
      "units": "day",
      "special": ""
    },
    "target": {
      "value": null,
      "width": null,
      "units": "",
      "type": ""
    },
    "range": {
      "value": null,
      "units": ""
    },
    "consume": {
      "type": "",
      "target": "",
      "amount": null,
      "mpMultiplier": false
    },
    "efeito": "",
    "alcance": "none",
    "alvo": "",
    "area": "",
    "resistencia": {
      "pericia": "",
      "atributo": "sab",
      "bonus": 0,
      "txt": ""
    },
    "rolls": [],
    "tipo": "classe",
    "subtipo": "Clérigo",
    "origin": "",
    "tags": [],
    "chatFlavor": "",
    "chatGif": ""
  },
  "ownership": {
    "default": 0
  },
  "_stats": {
    "systemId": "tormenta20",
    "systemVersion": "1.4.116",
    "coreVersion": "11.298",
    "createdTime": 1664306184313,
    "modifiedTime": 1684630371462,
    "lastModifiedBy": "ZWR5Tn3AhSIFqwp6"
  },
  "_key": "!items!TVNNn8Os4bGc8mOb"
}
