{
  "_id": "gzTi2g0xClcXNUA6",
  "name": "Olhar Atordoante",
  "type": "poder",
  "img": "systems/tormenta20/icons/racas/medusa.webp",
  "effects": [
    {
      "label": "Atordoado",
      "icon": "systems/tormenta20/icons/conditions/atordoado.svg",
      "origin": "Item.gzTi2g0xClcXNUA6",
      "tint": "#FFFFFF",
      "flags": {
        "tormenta20": {
          "onuse": false,
          "durationScene": false
        }
      },
      "duration": {
        "rounds": 1,
        "startTime": null,
        "seconds": null,
        "combat": null,
        "turns": null,
        "startRound": null,
        "startTurn": null
      },
      "disabled": false,
      "_id": "TnXSqqNFVOJ9W9KA",
      "changes": [],
      "transfer": false,
      "_key": "!items.effects!gzTi2g0xClcXNUA6.TnXSqqNFVOJ9W9KA"
    }
  ],
  "folder": "WBW7mJa7n0MHwWe7",
  "sort": 0,
  "flags": {
    "core": {
      "sourceId": "Compendium.tormenta20.poderes.gzTi2g0xClcXNUA6"
    }
  },
  "system": {
    "description": {
      "value": "<p style=\"text-align: justify;\">Voc&ecirc; pode gastar uma a&ccedil;&atilde;o de movimento e 1 PM para for&ccedil;ar uma criatura em alcance curto a fazer um teste de Fortitude (CD Car). Se a criatura falhar, fica atordoada por uma rodada (apenas uma vez por cena).</p>",
      "chat": "",
      "unidentified": ""
    },
    "source": "T20, pg. 29 (JdA)",
    "ativacao": {
      "execucao": "move",
      "custo": 1,
      "qtd": "",
      "condicao": "",
      "special": ""
    },
    "duracao": {
      "value": 0,
      "units": "",
      "special": ""
    },
    "target": {
      "value": null,
      "width": null,
      "units": "",
      "type": ""
    },
    "range": {
      "value": null,
      "units": ""
    },
    "consume": {
      "type": "",
      "target": "",
      "amount": null,
      "mpMultiplier": false
    },
    "efeito": "",
    "alcance": "none",
    "alvo": "",
    "area": "",
    "resistencia": {
      "pericia": "",
      "atributo": "car",
      "bonus": 0,
      "txt": "Fortitude"
    },
    "rolls": [],
    "tipo": "racial",
    "subtipo": "Medusa",
    "origin": "",
    "tags": [],
    "chatFlavor": "",
    "chatGif": ""
  },
  "ownership": {
    "default": 0
  },
  "_stats": {
    "systemId": "tormenta20",
    "systemVersion": "1.4.116",
    "coreVersion": "11.298",
    "createdTime": 1664306185118,
    "modifiedTime": 1684630371462,
    "lastModifiedBy": "ZWR5Tn3AhSIFqwp6"
  },
  "_key": "!items!gzTi2g0xClcXNUA6"
}
