{
  "_id": "PihxJtRqlqDzFaVk",
  "name": "Olhar Amedrontador",
  "type": "poder",
  "img": "systems/tormenta20/icons/poderes/concedidos.webp",
  "effects": [
    {
      "label": "Olhar Amedrontador",
      "icon": "icons/svg/upgrade.svg",
      "origin": "Item.W7P3vSzui7QrYaV5",
      "tint": "#FFFFFF",
      "flags": {
        "tormenta20": {
          "onuse": true,
          "durationScene": false,
          "self": false,
          "attack": false,
          "skill": false,
          "ability": false,
          "power": false,
          "spell": true,
          "consumable": false,
          "items": "amedrontar",
          "aumenta": false,
          "custo": "-1"
        }
      },
      "duration": {
        "startTime": null,
        "seconds": null,
        "combat": null,
        "rounds": null,
        "turns": null,
        "startRound": null,
        "startTurn": null
      },
      "disabled": true,
      "_id": "tOc0ujgF2qkhhboO",
      "changes": [],
      "transfer": true,
      "_key": "!items.effects!PihxJtRqlqDzFaVk.tOc0ujgF2qkhhboO"
    }
  ],
  "folder": "AIQ50r5qEV9wfpvP",
  "sort": 0,
  "flags": {
    "core": {
      "sourceId": "Compendium.tormenta20.poderes.snaGhwLNB4h2Y9rJ"
    }
  },
  "system": {
    "description": {
      "value": "<p style=\"text-align: justify\">Você aprende e pode lançar <em>Amedrontar.</em> Caso aprenda novamente essa magia, seu custo diminui em –1 PM.</p>",
      "chat": "",
      "unidentified": ""
    },
    "source": "T20, pg. 134 (JdA)",
    "ativacao": {
      "execucao": "",
      "custo": 0,
      "qtd": "",
      "condicao": "",
      "special": ""
    },
    "duracao": {
      "value": 0,
      "units": "",
      "special": ""
    },
    "target": {
      "value": null,
      "width": null,
      "units": "",
      "type": ""
    },
    "range": {
      "value": null,
      "units": ""
    },
    "consume": {
      "type": "",
      "target": "",
      "amount": null,
      "mpMultiplier": false
    },
    "efeito": "",
    "alcance": "none",
    "alvo": "",
    "area": "",
    "resistencia": {
      "pericia": "",
      "atributo": "sab",
      "bonus": 0,
      "txt": ""
    },
    "rolls": [],
    "tipo": "concedido",
    "subtipo": "Goblinóides e Monstros",
    "origin": "",
    "tags": [],
    "chatFlavor": "",
    "chatGif": ""
  },
  "ownership": {
    "default": 0
  },
  "_stats": {
    "systemId": "tormenta20",
    "systemVersion": "1.4.116",
    "coreVersion": "11.298",
    "createdTime": 1664306185648,
    "modifiedTime": 1684630371462,
    "lastModifiedBy": "ZWR5Tn3AhSIFqwp6"
  },
  "_key": "!items!PihxJtRqlqDzFaVk"
}
