{
  "name": "Olho de Dragão",
  "type": "poder",
  "img": "systems/tormenta20/icons/poderes/classes/especialistas/olho-do-dragao.webp",
  "effects": [],
  "flags": {
    "scene-packer": {
      "sourceId": "Item.ptG6aJRcxeDzkNUH",
      "defaultPermission": 3,
      "hash": "14220b54e2a1e60c151edddc99e10707d391f62d"
    },
    "cf": null,
    "core": {
      "sourceId": "Compendium.world.world-arielton-1663050699947.xuzxhQ8OrDoGCXie"
    }
  },
  "system": {
    "description": {
      "value": "<p style=\"text-align: justify;\">A partir do 10&ordm; n&iacute;vel, voc&ecirc; pode gastar uma a&ccedil;&atilde;o completa para analisar um item. Voc&ecirc; automaticamente descobre se o item &eacute; m&aacute;gico, suas propriedades e como utiliz&aacute;-las.</p>",
      "chat": "",
      "unidentified": ""
    },
    "source": "T20, pg. 70 (JdA)",
    "ativacao": {
      "execucao": "full",
      "custo": 0,
      "qtd": "",
      "condicao": "",
      "special": ""
    },
    "duracao": {
      "value": 0,
      "units": "",
      "special": ""
    },
    "target": {
      "value": null,
      "width": null,
      "units": "",
      "type": ""
    },
    "range": {
      "value": null,
      "units": ""
    },
    "consume": {
      "type": "",
      "target": "",
      "amount": null,
      "mpMultiplier": false
    },
    "efeito": "",
    "alcance": "none",
    "alvo": "",
    "area": "",
    "resistencia": {
      "pericia": "",
      "atributo": "",
      "bonus": 0,
      "txt": ""
    },
    "rolls": [],
    "tipo": "ability",
    "subtipo": "inventor",
    "chatFlavor": "",
    "origin": "",
    "tags": [],
    "chatGif": ""
  },
  "_stats": {
    "systemId": "tormenta20",
    "systemVersion": "1.4.116",
    "coreVersion": "11.298",
    "createdTime": 1663051646407,
    "modifiedTime": 1684630371462,
    "lastModifiedBy": "ZWR5Tn3AhSIFqwp6"
  },
  "_id": "dehNb66kOtwgAiB5",
  "folder": "iHjbUWZ9cRzIVZ3E",
  "sort": 0,
  "ownership": {
    "default": 0,
    "tIn9sSkrT3mDWirx": 3
  },
  "_key": "!items!dehNb66kOtwgAiB5"
}
