{
  "folder": null,
  "name": "Origem",
  "sorting": "a",
  "type": "Item",
  "_id": "O7XebEr47qNV8g6X",
  "sort": 0,
  "flags": {},
  "_stats": {
    "systemId": null,
    "systemVersion": null,
    "coreVersion": null,
    "createdTime": null,
    "modifiedTime": null,
    "lastModifiedBy": null
  },
  "_key": "!folders!O7XebEr47qNV8g6X"
}
