{
  "_id": "LDuskMAanfOU4xNN",
  "name": "Pajem",
  "type": "poder",
  "img": "systems/tormenta20/icons/classes/cavaleiro.webp",
  "effects": [
    {
      "label": "Pajem",
      "icon": "systems/tormenta20/icons/classes/cavaleiro.webp",
      "origin": "Item.LDuskMAanfOU4xNN",
      "tint": "#FFFFFF",
      "flags": {
        "tormenta20": {
          "onuse": false,
          "durationScene": false
        }
      },
      "duration": {
        "startTime": null,
        "seconds": null,
        "combat": null,
        "rounds": null,
        "turns": null,
        "startRound": null,
        "startTurn": null
      },
      "disabled": false,
      "_id": "OLeAi3njEWBrrK1x",
      "changes": [
        {
          "key": "system.pericias.dipl.bonus",
          "mode": 2,
          "value": "2",
          "priority": null
        }
      ],
      "transfer": true,
      "_key": "!items.effects!LDuskMAanfOU4xNN.OLeAi3njEWBrrK1x"
    }
  ],
  "folder": "FOdOQA7oDXTWqj5Z",
  "sort": 0,
  "flags": {
    "core": {
      "sourceId": "Compendium.tormenta20.poderes.LDuskMAanfOU4xNN"
    }
  },
  "system": {
    "description": {
      "value": "<p style=\"text-align: justify;\">Voc&ecirc; recebe os servi&ccedil;os de um pajem, um parceiro que o auxilia em pequenos afazeres. Voc&ecirc; recebe +2 em Diplomacia, por estar sempre aprumado, e sua condi&ccedil;&atilde;o de descanso &eacute; uma categoria acima do padr&atilde;o pela situa&ccedil;&atilde;o (veja a p&aacute;gina 106). O pajem pode executar pequenas tarefas, como entregar mensagens e comprar itens, e n&atilde;o conta em seu limite de parceiros. Caso ele morra, voc&ecirc; pode treinar outro com uma semana de trabalho.</p>",
      "chat": "",
      "unidentified": ""
    },
    "source": "T20, pg. 54 (JdA)",
    "ativacao": {
      "execucao": "",
      "custo": 0,
      "qtd": "",
      "condicao": "",
      "special": ""
    },
    "duracao": {
      "value": 0,
      "units": "",
      "special": ""
    },
    "target": {
      "value": null,
      "width": null,
      "units": "",
      "type": ""
    },
    "range": {
      "value": null,
      "units": ""
    },
    "consume": {
      "type": "",
      "target": "",
      "amount": null,
      "mpMultiplier": false
    },
    "efeito": "",
    "alcance": "none",
    "alvo": "",
    "area": "",
    "resistencia": {
      "pericia": "",
      "atributo": "sab",
      "bonus": 0,
      "txt": ""
    },
    "rolls": [],
    "tipo": "classe",
    "subtipo": "Cavaleiro",
    "origin": "",
    "tags": [],
    "chatFlavor": "",
    "chatGif": ""
  },
  "ownership": {
    "default": 0
  },
  "_stats": {
    "systemId": "tormenta20",
    "systemVersion": "1.4.116",
    "coreVersion": "11.298",
    "createdTime": 1664306184244,
    "modifiedTime": 1684630371462,
    "lastModifiedBy": "ZWR5Tn3AhSIFqwp6"
  },
  "_key": "!items!LDuskMAanfOU4xNN"
}
