{
  "folder": "vexWaYlAiymaSSpI",
  "name": "Paladino",
  "sorting": "a",
  "type": "Item",
  "_id": "VwM7ZxttHPFuX6M4",
  "sort": 0,
  "flags": {},
  "_stats": {
    "systemId": null,
    "systemVersion": null,
    "coreVersion": null,
    "createdTime": null,
    "modifiedTime": null,
    "lastModifiedBy": null
  },
  "_key": "!folders!VwM7ZxttHPFuX6M4"
}
