{
  "_id": "mEWpEEjrXP2q7sxI",
  "name": "Pele de Ferro",
  "type": "poder",
  "img": "systems/tormenta20/icons/classes/barbaro.webp",
  "effects": [
    {
      "_id": "jSLCo4ANqTrExqod",
      "flags": {
        "t20": null,
        "tormenta20": {
          "onuse": false,
          "durationScene": false
        }
      },
      "changes": [
        {
          "key": "system.attributes.defesa.bonus",
          "mode": 2,
          "value": "4",
          "priority": null
        }
      ],
      "disabled": false,
      "duration": {
        "startTime": null,
        "seconds": null,
        "combat": null,
        "rounds": null,
        "turns": null,
        "startRound": null,
        "startTurn": null
      },
      "icon": "systems/tormenta20/icons/classes/barbaro.webp",
      "label": "Pele de Ferro",
      "origin": "Item.zBoorhQntxrMKTp1",
      "tint": null,
      "transfer": true,
      "_key": "!items.effects!mEWpEEjrXP2q7sxI.jSLCo4ANqTrExqod"
    }
  ],
  "folder": "UhsYJ0BvPTkMyG53",
  "sort": 0,
  "flags": {
    "core": {
      "sourceId": "Compendium.tormenta20.poderes.mEWpEEjrXP2q7sxI"
    }
  },
  "system": {
    "description": {
      "value": "<p style=\"text-align: justify;\">Voc&ecirc; recebe +4 na Defesa, mas apenas se n&atilde;o estiver usando armadura pesada.</p>",
      "chat": "",
      "unidentified": ""
    },
    "source": "T20, pg. 42 (JdA)",
    "ativacao": {
      "execucao": "",
      "custo": 0,
      "qtd": "",
      "condicao": "",
      "special": ""
    },
    "duracao": {
      "value": 0,
      "units": "",
      "special": ""
    },
    "target": {
      "value": null,
      "width": null,
      "units": "",
      "type": ""
    },
    "range": {
      "value": null,
      "units": ""
    },
    "consume": {
      "type": "",
      "target": "",
      "amount": null,
      "mpMultiplier": false
    },
    "efeito": "",
    "alcance": "none",
    "alvo": "",
    "area": "",
    "resistencia": {
      "pericia": "",
      "atributo": "sab",
      "bonus": 0,
      "txt": ""
    },
    "rolls": [],
    "tipo": "classe",
    "subtipo": "Bárbaro",
    "chatFlavor": "",
    "origin": "",
    "tags": [],
    "chatGif": ""
  },
  "ownership": {
    "default": 0
  },
  "_stats": {
    "systemId": "tormenta20",
    "systemVersion": "1.4.116",
    "coreVersion": "11.298",
    "createdTime": 1658361717646,
    "modifiedTime": 1684630371462,
    "lastModifiedBy": "ZWR5Tn3AhSIFqwp6"
  },
  "_key": "!items!mEWpEEjrXP2q7sxI"
}
