{
  "_id": "CqZXnDBiP5Vj9oFv",
  "name": "Percepção Temporal",
  "type": "poder",
  "img": "systems/tormenta20/icons/poderes/concedidos-tormenta.webp",
  "effects": [
    {
      "label": "Percepção Temporal",
      "icon": "systems/tormenta20/icons/poderes/concedidos-tormenta.webp",
      "origin": "Item.CqZXnDBiP5Vj9oFv",
      "tint": "#FFFFFF",
      "flags": {
        "tormenta20": {
          "onuse": false,
          "durationScene": true
        }
      },
      "duration": {
        "rounds": 1,
        "startTime": null,
        "seconds": null,
        "combat": null,
        "turns": null,
        "startRound": null,
        "startTurn": null
      },
      "disabled": false,
      "_id": "Jzpk1U9NyTBcZ8f4",
      "changes": [
        {
          "key": "system.modificadores.ataque.geral",
          "mode": 2,
          "value": "@sab",
          "priority": null
        },
        {
          "key": "system.pericias.refl.bonus",
          "mode": 2,
          "value": "@sab",
          "priority": null
        },
        {
          "key": "system.attributes.defesa.bonus",
          "mode": 2,
          "value": "@sab",
          "priority": null
        }
      ],
      "transfer": false,
      "_key": "!items.effects!CqZXnDBiP5Vj9oFv.Jzpk1U9NyTBcZ8f4"
    }
  ],
  "folder": "HjhUvn5HZU3mYJoL",
  "sort": 200000,
  "flags": {
    "core": {
      "sourceId": "Compendium.tormenta20.poderes.CqZXnDBiP5Vj9oFv"
    }
  },
  "system": {
    "description": {
      "value": "<p style=\"text-align: justify;\">Voc&ecirc; pode gastar 3 PM para adicionar sua Sabedoria (limitado por seu n&iacute;vel e n&atilde;o cumulativo com efeitos que somam este atributo) a seus ataques, Defesa e testes de Reflexos at&eacute; o fim da cena.</p>",
      "chat": "",
      "unidentified": ""
    },
    "source": "T20, pg. 134 (JdA)",
    "ativacao": {
      "execucao": "",
      "custo": 3,
      "qtd": "",
      "condicao": "",
      "special": ""
    },
    "duracao": {
      "value": 0,
      "units": "",
      "special": ""
    },
    "target": {
      "value": null,
      "width": null,
      "units": "",
      "type": ""
    },
    "range": {
      "value": null,
      "units": ""
    },
    "consume": {
      "type": "",
      "target": "",
      "amount": null,
      "mpMultiplier": false
    },
    "efeito": "",
    "alcance": "none",
    "alvo": "",
    "area": "",
    "resistencia": {
      "pericia": "",
      "atributo": "sab",
      "bonus": 0,
      "txt": ""
    },
    "rolls": [],
    "tipo": "concedido",
    "subtipo": "Tormenta",
    "origin": "",
    "tags": [],
    "chatFlavor": "",
    "chatGif": ""
  },
  "ownership": {
    "default": 0
  },
  "_stats": {
    "systemId": "tormenta20",
    "systemVersion": "1.4.116",
    "coreVersion": "11.298",
    "createdTime": 1664306183821,
    "modifiedTime": 1684800483145,
    "lastModifiedBy": "ZWR5Tn3AhSIFqwp6"
  },
  "_key": "!items!CqZXnDBiP5Vj9oFv"
}
