{
  "_id": "CaydxkHRMO6NuZyj",
  "name": "Poder Oculto",
  "type": "poder",
  "img": "systems/tormenta20/icons/poderes/concedidos-sorte.webp",
  "effects": [
    {
      "label": "Poder Oculto (Força)",
      "icon": "systems/tormenta20/icons/poderes/concedidos-sorte.webp",
      "origin": "Item.CaydxkHRMO6NuZyj",
      "tint": "#FFFFFF",
      "flags": {
        "tormenta20": {
          "onuse": false,
          "durationScene": true
        }
      },
      "duration": {
        "rounds": 1,
        "startTime": null,
        "seconds": null,
        "combat": null,
        "turns": null,
        "startRound": null,
        "startTurn": null
      },
      "disabled": false,
      "_id": "8WFqI9PIL78YYoQx",
      "changes": [
        {
          "key": "system.atributos.for.value",
          "mode": 2,
          "value": "2",
          "priority": null
        }
      ],
      "transfer": false,
      "_key": "!items.effects!CaydxkHRMO6NuZyj.8WFqI9PIL78YYoQx"
    },
    {
      "label": "Poder Oculto (Destreza)",
      "icon": "systems/tormenta20/icons/poderes/concedidos-sorte.webp",
      "origin": "Item.CaydxkHRMO6NuZyj",
      "tint": "#FFFFFF",
      "flags": {
        "tormenta20": {
          "onuse": false,
          "durationScene": true
        }
      },
      "duration": {
        "rounds": 1,
        "startTime": null,
        "seconds": null,
        "combat": null,
        "turns": null,
        "startRound": null,
        "startTurn": null
      },
      "disabled": false,
      "_id": "fJIaQKhFJOP28HxT",
      "changes": [
        {
          "key": "system.atributos.des.value",
          "mode": 2,
          "value": "2",
          "priority": null
        }
      ],
      "transfer": false,
      "_key": "!items.effects!CaydxkHRMO6NuZyj.fJIaQKhFJOP28HxT"
    },
    {
      "label": "Poder Oculto (Constituição)",
      "icon": "systems/tormenta20/icons/poderes/concedidos-sorte.webp",
      "origin": "Item.CaydxkHRMO6NuZyj",
      "tint": "#FFFFFF",
      "flags": {
        "tormenta20": {
          "onuse": false,
          "durationScene": true
        }
      },
      "duration": {
        "rounds": 1,
        "startTime": null,
        "seconds": null,
        "combat": null,
        "turns": null,
        "startRound": null,
        "startTurn": null
      },
      "disabled": false,
      "_id": "t3TEogQwjGUtqEE7",
      "changes": [
        {
          "key": "system.atributos.con.value",
          "mode": 2,
          "value": "2",
          "priority": null
        }
      ],
      "transfer": false,
      "_key": "!items.effects!CaydxkHRMO6NuZyj.t3TEogQwjGUtqEE7"
    }
  ],
  "folder": "74WiiBNZUXs5SvJm",
  "sort": 0,
  "flags": {
    "core": {
      "sourceId": "Compendium.tormenta20.poderes.CaydxkHRMO6NuZyj"
    }
  },
  "system": {
    "description": {
      "value": "<p style=\"text-align: justify;\">Voc&ecirc; pode gastar uma a&ccedil;&atilde;o de movimento e 2 PM para invocar a for&ccedil;a, a rapidez ou o vigor dos loucos. Role 1d6 para receber +2 em For&ccedil;a (1 ou 2), Destreza (3 ou 4) ou Constitui&ccedil;&atilde;o (5 ou 6) at&eacute; o fim da cena. Voc&ecirc; pode usar este poder v&aacute;rias vezes, mas b&ocirc;nus no mesmo atributo n&atilde;o s&atilde;o cumulativos.</p>",
      "chat": "",
      "unidentified": ""
    },
    "source": "T20, pg. 134 (JdA)",
    "ativacao": {
      "execucao": "move",
      "custo": 2,
      "qtd": "",
      "condicao": "",
      "special": ""
    },
    "duracao": {
      "value": 0,
      "units": "",
      "special": ""
    },
    "target": {
      "value": null,
      "width": null,
      "units": "",
      "type": ""
    },
    "range": {
      "value": null,
      "units": ""
    },
    "consume": {
      "type": "",
      "target": "",
      "amount": null,
      "mpMultiplier": false
    },
    "efeito": "",
    "alcance": "none",
    "alvo": "",
    "area": "",
    "resistencia": {
      "pericia": "",
      "atributo": "sab",
      "bonus": 0,
      "txt": ""
    },
    "rolls": [
      {
        "name": "Atributo bonificado",
        "key": "formula0",
        "type": "formula",
        "parts": [
          [
            "1d6",
            "",
            ""
          ]
        ],
        "versatil": ""
      }
    ],
    "tipo": "concedido",
    "subtipo": "Caos",
    "origin": "",
    "tags": [],
    "chatFlavor": "",
    "chatGif": ""
  },
  "ownership": {
    "default": 0
  },
  "_stats": {
    "systemId": "tormenta20",
    "systemVersion": "1.4.116",
    "coreVersion": "11.298",
    "createdTime": 1664306183820,
    "modifiedTime": 1684630371462,
    "lastModifiedBy": "ZWR5Tn3AhSIFqwp6"
  },
  "_key": "!items!CaydxkHRMO6NuZyj"
}
