{
  "_id": "BsiLXAHZg7Ef5MER",
  "name": "Preparar Poção",
  "type": "poder",
  "img": "systems/tormenta20/icons/poderes/magia.webp",
  "effects": [],
  "folder": "Kye2KzNfCgJW92Kb",
  "sort": 0,
  "flags": {
    "core": {
      "sourceId": "Compendium.tormenta20.poderes.BsiLXAHZg7Ef5MER"
    }
  },
  "system": {
    "description": {
      "value": "<p style=\"text-align: justify;\">Voc&ecirc; pode usar a per&iacute;cia Of&iacute;cio (alquimista) para fabricar po&ccedil;&otilde;es com magias que conhe&ccedil;a de 1&ordm; e 2&ordm; c&iacute;rculos. Veja a p&aacute;gina 121 para a regra de fabricar itens e as p&aacute;ginas 333 e 341 para as regras de po&ccedil;&otilde;es.</p>\n<p style=\"text-align: justify;\"><em>Pr&eacute;-requisitos:</em> habilidade de classe Magias, treinado em <a class=\"content-link\" draggable=\"true\" data-uuid=\"Compendium.tormenta20.pericias.iviKBc19dNgZYBJ0\" data-id=\"iviKBc19dNgZYBJ0\" data-type=\"JournalEntry\" data-pack=\"tormenta20.pericias\" data-tooltip=\"Registro de Di&aacute;rio\">Of&iacute;cio</a> (alquimista).</p>",
      "chat": "",
      "unidentified": ""
    },
    "source": "T20, pg. 131 (JdA)",
    "ativacao": {
      "execucao": "",
      "custo": 0,
      "qtd": "",
      "condicao": "",
      "special": ""
    },
    "duracao": {
      "value": 0,
      "units": "",
      "special": ""
    },
    "target": {
      "value": null,
      "width": null,
      "units": "",
      "type": ""
    },
    "range": {
      "value": null,
      "units": ""
    },
    "consume": {
      "type": "",
      "target": "",
      "amount": null,
      "mpMultiplier": false
    },
    "efeito": "",
    "alcance": "none",
    "alvo": "",
    "area": "",
    "resistencia": {
      "pericia": "",
      "atributo": "sab",
      "bonus": 0,
      "txt": ""
    },
    "rolls": [],
    "tipo": "geral",
    "subtipo": "Magia",
    "origin": "",
    "tags": [],
    "chatFlavor": "",
    "chatGif": ""
  },
  "ownership": {
    "default": 0
  },
  "_stats": {
    "systemId": "tormenta20",
    "systemVersion": "1.4.116",
    "coreVersion": "11.298",
    "createdTime": 1664306183811,
    "modifiedTime": 1684630371462,
    "lastModifiedBy": "ZWR5Tn3AhSIFqwp6"
  },
  "_key": "!items!BsiLXAHZg7Ef5MER"
}
