{
  "_id": "eZhKIkei9QrytRYn",
  "name": "Presença Paralisante",
  "type": "poder",
  "img": "systems/tormenta20/icons/classes/bucaneiro.webp",
  "effects": [
    {
      "label": "Presença Paralisante",
      "icon": "systems/tormenta20/icons/classes/bucaneiro.webp",
      "origin": "Item.eZhKIkei9QrytRYn",
      "tint": "#FFFFFF",
      "flags": {
        "tormenta20": {
          "onuse": false,
          "durationScene": false
        }
      },
      "duration": {
        "startTime": null,
        "seconds": null,
        "combat": null,
        "rounds": null,
        "turns": null,
        "startRound": null,
        "startTurn": null
      },
      "disabled": false,
      "_id": "FnVfAPB6tBuhKBXq",
      "changes": [
        {
          "key": "system.pericias.inic.bonus",
          "mode": 2,
          "value": "@car",
          "priority": null
        }
      ],
      "transfer": true,
      "_key": "!items.effects!eZhKIkei9QrytRYn.FnVfAPB6tBuhKBXq"
    }
  ],
  "folder": "86kIqRb842xHRnBV",
  "sort": 0,
  "flags": {
    "core": {
      "sourceId": "Compendium.tormenta20.poderes.eZhKIkei9QrytRYn"
    }
  },
  "system": {
    "description": {
      "value": "<p style=\"text-align: justify;\">Voc&ecirc; soma seu Carisma em Iniciativa e, se for o primeiro na iniciativa, ganha uma a&ccedil;&atilde;o padr&atilde;o extra na primeira rodada. Pr&eacute;-requisitos: Car 1, 4&ordm; n&iacute;vel de bucaneiro.</p>\n<p style=\"text-align: justify;\">&nbsp;</p>\n<p style=\"text-align: justify;\">&nbsp;</p>",
      "chat": "",
      "unidentified": ""
    },
    "source": "T20, pg. 48 (JdA)",
    "ativacao": {
      "execucao": "",
      "custo": 0,
      "qtd": "",
      "condicao": "",
      "special": ""
    },
    "duracao": {
      "value": 0,
      "units": "",
      "special": ""
    },
    "target": {
      "value": null,
      "width": null,
      "units": "",
      "type": ""
    },
    "range": {
      "value": null,
      "units": ""
    },
    "consume": {
      "type": "",
      "target": "",
      "amount": null,
      "mpMultiplier": false
    },
    "efeito": "",
    "alcance": "none",
    "alvo": "",
    "area": "",
    "resistencia": {
      "pericia": "",
      "atributo": "sab",
      "bonus": 0,
      "txt": ""
    },
    "rolls": [],
    "tipo": "classe",
    "subtipo": "Bucaneiro",
    "chatFlavor": "",
    "origin": "",
    "tags": [],
    "chatGif": ""
  },
  "ownership": {
    "default": 0
  },
  "_stats": {
    "systemId": "tormenta20",
    "systemVersion": "1.4.116",
    "coreVersion": "11.298",
    "createdTime": 1658361717187,
    "modifiedTime": 1684630371462,
    "lastModifiedBy": "ZWR5Tn3AhSIFqwp6"
  },
  "_key": "!items!eZhKIkei9QrytRYn"
}
