{
  "_id": "59z8asrLz1R0a6RL",
  "name": "Presas Venenosas",
  "type": "poder",
  "img": "systems/tormenta20/icons/poderes/concedidos-traicao.webp",
  "effects": [
    {
      "label": "Presas Venenosas",
      "icon": "icons/svg/upgrade.svg",
      "origin": "Item.59z8asrLz1R0a6RL",
      "tint": "#FFFFFF",
      "flags": {
        "tormenta20": {
          "onuse": true,
          "durationScene": false,
          "self": false,
          "attack": true,
          "skill": false,
          "ability": false,
          "power": false,
          "spell": false,
          "consumable": false,
          "items": "",
          "aumenta": false,
          "custo": "1"
        }
      },
      "duration": {
        "startTime": null,
        "seconds": null,
        "combat": null,
        "rounds": null,
        "turns": null,
        "startRound": null,
        "startTurn": null
      },
      "disabled": true,
      "_id": "QdGmkgy884ZTaOLb",
      "changes": [
        {
          "key": "dano",
          "mode": 2,
          "value": "1d12",
          "priority": 0
        }
      ],
      "transfer": true,
      "_key": "!items.effects!59z8asrLz1R0a6RL.QdGmkgy884ZTaOLb"
    }
  ],
  "folder": "s8308RXiyAhaEjoG",
  "sort": 0,
  "flags": {
    "core": {
      "sourceId": "Compendium.tormenta20.poderes.59z8asrLz1R0a6RL"
    }
  },
  "system": {
    "description": {
      "value": "<p style=\"text-align: justify;\">Voc&ecirc; pode gastar uma a&ccedil;&atilde;o de movimento e 1 PM para envenenar uma arma corpo a corpo que esteja empunhando. Em caso de acerto, a arma causa perda de 1d12 pontos de vida. A arma permanece envenenada at&eacute; atingir uma criatura ou at&eacute; o fim da cena, o que acontecer primeiro.</p>",
      "chat": "",
      "unidentified": ""
    },
    "source": "T20, pg. 135 (JdA)",
    "ativacao": {
      "execucao": "move",
      "custo": 1,
      "qtd": "",
      "condicao": "",
      "special": ""
    },
    "duracao": {
      "value": 0,
      "units": "",
      "special": ""
    },
    "target": {
      "value": null,
      "width": null,
      "units": "",
      "type": ""
    },
    "range": {
      "value": null,
      "units": ""
    },
    "consume": {
      "type": "",
      "target": "",
      "amount": null,
      "mpMultiplier": false
    },
    "efeito": "",
    "alcance": "none",
    "alvo": "",
    "area": "",
    "resistencia": {
      "pericia": "",
      "atributo": "sab",
      "bonus": 0,
      "txt": ""
    },
    "rolls": [
      {
        "name": "Dano",
        "key": "dano0",
        "type": "dano",
        "parts": [
          [
            "1d12",
            "perda",
            ""
          ]
        ],
        "versatil": ""
      }
    ],
    "tipo": "concedido",
    "subtipo": "Traição",
    "origin": "",
    "tags": [],
    "chatFlavor": "",
    "chatGif": ""
  },
  "ownership": {
    "default": 0
  },
  "_stats": {
    "systemId": "tormenta20",
    "systemVersion": "1.4.116",
    "coreVersion": "11.298",
    "createdTime": 1664306183312,
    "modifiedTime": 1684630371462,
    "lastModifiedBy": "ZWR5Tn3AhSIFqwp6"
  },
  "_key": "!items!59z8asrLz1R0a6RL"
}
