{
  "_id": "DuYQHabcHMZHQvRk",
  "name": "Propósito de Criação",
  "type": "poder",
  "img": "systems/tormenta20/icons/racas/golem.webp",
  "effects": [],
  "folder": "JbWoTw5WRQStJu6M",
  "sort": 0,
  "flags": {
    "core": {
      "sourceId": "Compendium.tormenta20.poderes.DuYQHabcHMZHQvRk"
    }
  },
  "system": {
    "description": {
      "value": "<p style=\"text-align: justify;\">Voc&ecirc; foi contru&iacute;do \"pronto\" para um prop&oacute;sito espec&iacute;fico e n&atilde;o teve uma inf&acirc;ncia. Voc&ecirc; n&atilde;o tem direito a escolher uma origem, mas recebe um poder geral a sua escolha.&nbsp;</p>",
      "chat": "",
      "unidentified": ""
    },
    "source": "T20, pg. 27 (JdA)",
    "ativacao": {
      "execucao": "",
      "custo": 0,
      "qtd": "",
      "condicao": "",
      "special": ""
    },
    "duracao": {
      "value": 0,
      "units": "",
      "special": ""
    },
    "target": {
      "value": null,
      "width": null,
      "units": "",
      "type": ""
    },
    "range": {
      "value": null,
      "units": ""
    },
    "consume": {
      "type": "",
      "target": "",
      "amount": null,
      "mpMultiplier": false
    },
    "efeito": "",
    "alcance": "none",
    "alvo": "",
    "area": "",
    "resistencia": {
      "pericia": "",
      "atributo": "sab",
      "bonus": 0,
      "txt": ""
    },
    "rolls": [],
    "tipo": "racial",
    "subtipo": "Golem",
    "origin": "",
    "tags": [],
    "chatFlavor": "",
    "chatGif": ""
  },
  "ownership": {
    "default": 0
  },
  "_stats": {
    "systemId": "tormenta20",
    "systemVersion": "1.4.116",
    "coreVersion": "11.298",
    "createdTime": 1664306183826,
    "modifiedTime": 1684630371462,
    "lastModifiedBy": "ZWR5Tn3AhSIFqwp6"
  },
  "_key": "!items!DuYQHabcHMZHQvRk"
}
