{
  "_id": "F3UgmqiSFFFEnrPr",
  "name": "Raio Elemental",
  "type": "poder",
  "img": "systems/tormenta20/icons/classes/arcanista.webp",
  "effects": [
    {
      "_id": "pCKajJfKJSMdcVPR",
      "flags": {
        "t20": null,
        "tormenta20": {
          "onuse": true,
          "power": true,
          "self": false,
          "attack": false,
          "skill": false,
          "ability": false,
          "spell": false,
          "consumable": false,
          "aumenta": false,
          "custo": "1",
          "durationScene": false,
          "items": ""
        }
      },
      "changes": [
        {
          "key": "condicao",
          "mode": 2,
          "value": "vulneravel",
          "priority": 0
        }
      ],
      "disabled": true,
      "duration": {
        "startTime": null,
        "seconds": null,
        "combat": null,
        "rounds": null,
        "turns": null,
        "startRound": null,
        "startTurn": null
      },
      "icon": "icons/svg/aura.svg",
      "label": "Raio Elemental - Ácido: vulnerável por uma rodada.",
      "origin": "Item.DcgYpUe7zr13InG5",
      "tint": null,
      "transfer": true,
      "_key": "!items.effects!F3UgmqiSFFFEnrPr.pCKajJfKJSMdcVPR"
    },
    {
      "_id": "Ht3yPo5ztIP8mesN",
      "flags": {
        "t20": null,
        "tormenta20": {
          "onuse": true,
          "power": true,
          "self": false,
          "attack": false,
          "skill": false,
          "ability": false,
          "spell": false,
          "consumable": false,
          "aumenta": false,
          "custo": "1",
          "durationScene": false,
          "items": ""
        }
      },
      "changes": [
        {
          "key": "condicao",
          "mode": 2,
          "value": "ofuscado",
          "priority": 0
        }
      ],
      "disabled": true,
      "duration": {
        "startTime": null,
        "seconds": null,
        "combat": null,
        "rounds": null,
        "turns": null,
        "startRound": null,
        "startTurn": null
      },
      "icon": "icons/svg/aura.svg",
      "label": "Raio Elemental - Eletricidade ofuscado por uma rodada.",
      "origin": "Item.DcgYpUe7zr13InG5",
      "tint": null,
      "transfer": true,
      "_key": "!items.effects!F3UgmqiSFFFEnrPr.Ht3yPo5ztIP8mesN"
    },
    {
      "_id": "ypWg1sdzLtOHDazj",
      "flags": {
        "t20": null,
        "tormenta20": {
          "onuse": true,
          "power": true,
          "self": false,
          "attack": false,
          "skill": false,
          "ability": false,
          "spell": false,
          "consumable": false,
          "aumenta": false,
          "custo": "1",
          "durationScene": false,
          "items": ""
        }
      },
      "changes": [
        {
          "key": "condicao",
          "mode": 2,
          "value": "",
          "priority": 0
        }
      ],
      "disabled": true,
      "duration": {
        "startTime": null,
        "seconds": null,
        "combat": null,
        "rounds": null,
        "turns": null,
        "startRound": null,
        "startTurn": null
      },
      "icon": "icons/svg/aura.svg",
      "label": "Raio Elemental - Fogo: fica em chamas.",
      "origin": "Item.DcgYpUe7zr13InG5",
      "tint": null,
      "transfer": true,
      "_key": "!items.effects!F3UgmqiSFFFEnrPr.ypWg1sdzLtOHDazj"
    },
    {
      "_id": "KGUqlcsXfcvl0Ky4",
      "flags": {
        "t20": null,
        "tormenta20": {
          "onuse": true,
          "power": true,
          "self": false,
          "attack": false,
          "skill": false,
          "ability": false,
          "spell": false,
          "consumable": false,
          "aumenta": false,
          "custo": "1",
          "durationScene": false,
          "items": ""
        }
      },
      "changes": [
        {
          "key": "condicao",
          "mode": 2,
          "value": "lento",
          "priority": 0
        }
      ],
      "disabled": true,
      "duration": {
        "startTime": null,
        "seconds": null,
        "combat": null,
        "rounds": null,
        "turns": null,
        "startRound": null,
        "startTurn": null
      },
      "icon": "icons/svg/aura.svg",
      "label": "Raio Elemental - Frio: lento por uma rodada.",
      "origin": "Item.DcgYpUe7zr13InG5",
      "tint": null,
      "transfer": true,
      "_key": "!items.effects!F3UgmqiSFFFEnrPr.KGUqlcsXfcvl0Ky4"
    },
    {
      "_id": "aV0YF2l5HFBUMr5L",
      "flags": {
        "t20": null,
        "tormenta20": {
          "onuse": true,
          "power": true,
          "self": false,
          "attack": false,
          "skill": false,
          "ability": false,
          "spell": false,
          "consumable": false,
          "aumenta": false,
          "custo": "1",
          "durationScene": false,
          "items": ""
        }
      },
      "changes": [],
      "disabled": true,
      "duration": {
        "startTime": null,
        "seconds": null,
        "combat": null,
        "rounds": null,
        "turns": null,
        "startRound": null,
        "startTurn": null
      },
      "icon": "icons/svg/aura.svg",
      "label": "Raio Elemental - Trevas: não pode ser curado por uma rodada.",
      "origin": "Item.DcgYpUe7zr13InG5",
      "tint": null,
      "transfer": true,
      "_key": "!items.effects!F3UgmqiSFFFEnrPr.aV0YF2l5HFBUMr5L"
    }
  ],
  "folder": "dB8yQeNYIsAMdhNN",
  "sort": 0,
  "flags": {
    "core": {
      "sourceId": "Compendium.tormenta20.poderes.F3UgmqiSFFFEnrPr"
    }
  },
  "system": {
    "description": {
      "value": "<p style=\"text-align: justify;\">Quando usa Raio Arcano, voc&ecirc; pode pagar 1 PM para que ele cause dano de &aacute;cido, eletricidade, fogo, frio ou trevas, a sua escolha. Se o alvo falhar no teste de Reflexos, sofre uma condi&ccedil;&atilde;o, de acordo com o tipo de dano (veja a descri&ccedil;&atilde;o das condi&ccedil;&otilde;es na p&aacute;gina 394). &Aacute;cido: vulner&aacute;vel por 1 rodada. Eletricidade: ofuscado por 1 rodada. Fogo: fica em chamas. Frio: lento por 1 rodada. Trevas: n&atilde;o pode curar PV por 1 rodada.</p>\n<p style=\"text-align: justify;\"><em>Pr&eacute;-requisito: </em>Raio Arcano.</p>\n<p style=\"text-align: justify;\">&nbsp;</p>",
      "chat": "",
      "unidentified": ""
    },
    "source": "T20, pg. 39 (JdA)",
    "ativacao": {
      "execucao": "",
      "custo": 1,
      "qtd": "",
      "condicao": "",
      "special": ""
    },
    "duracao": {
      "value": 0,
      "units": "",
      "special": ""
    },
    "target": {
      "value": null,
      "width": null,
      "units": "",
      "type": ""
    },
    "range": {
      "value": null,
      "units": ""
    },
    "consume": {
      "type": "",
      "target": "",
      "amount": null,
      "mpMultiplier": false
    },
    "efeito": "",
    "alcance": "none",
    "alvo": "",
    "area": "",
    "resistencia": {
      "pericia": "",
      "atributo": "sab",
      "bonus": 0,
      "txt": "Reflexos"
    },
    "rolls": [],
    "tipo": "classe",
    "subtipo": "Arcanista",
    "tags": [
      "Arcanista"
    ],
    "origin": "",
    "chatFlavor": "",
    "chatGif": ""
  },
  "ownership": {
    "default": 0
  },
  "_stats": {
    "systemId": "tormenta20",
    "systemVersion": "1.4.116",
    "coreVersion": "11.298",
    "createdTime": 1664306183833,
    "modifiedTime": 1684630371462,
    "lastModifiedBy": "ZWR5Tn3AhSIFqwp6"
  },
  "_key": "!items!F3UgmqiSFFFEnrPr"
}
