{
  "_id": "fQC8JocFY32KETMM",
  "name": "Rasteira",
  "type": "poder",
  "img": "systems/tormenta20/icons/classes/lutador.webp",
  "effects": [
    {
      "_id": "EzEzQGWUuxIDrgY7",
      "changes": [],
      "disabled": true,
      "duration": {
        "startTime": null,
        "seconds": null,
        "combat": null,
        "rounds": null,
        "turns": null,
        "startRound": null,
        "startTurn": null
      },
      "icon": "icons/svg/upgrade.svg",
      "label": "Rasteira",
      "origin": "Item.mNzrlnXzuiaKE8Lq",
      "transfer": true,
      "flags": {
        "tormenta20": {
          "onuse": true,
          "self": false,
          "attack": true,
          "skill": false,
          "ability": false,
          "power": false,
          "spell": false,
          "consumable": false,
          "aumenta": false,
          "custo": "2",
          "durationScene": false,
          "items": ""
        }
      },
      "tint": null,
      "_key": "!items.effects!fQC8JocFY32KETMM.EzEzQGWUuxIDrgY7"
    }
  ],
  "folder": "csRpG81AedPycko0",
  "sort": 0,
  "flags": {
    "core": {
      "sourceId": "Compendium.tormenta20.poderes.fQC8JocFY32KETMM"
    },
    "favorito": true,
    "cf": null
  },
  "system": {
    "description": {
      "value": "<p style=\"text-align: justify;\">Quando faz um ataque desarmado contra uma criatura at&eacute; uma categoria de tamanho maior que a sua, voc&ecirc; pode gastar 2 PM. Se fizer isso e acertar o ataque, a criatura fica @UUID[JournalEntry.s15J5SOYixL3Ajzr.JournalEntryPage.fJFNeZeKmfHMpblz]{Ca&iacute;do}.</p>",
      "chat": "",
      "unidentified": ""
    },
    "source": "T20, pg. 77 (JdA)",
    "ativacao": {
      "execucao": "reaction",
      "custo": 2,
      "qtd": "",
      "condicao": "",
      "special": ""
    },
    "duracao": {
      "value": 0,
      "units": "",
      "special": ""
    },
    "target": {
      "value": null,
      "width": null,
      "units": "",
      "type": ""
    },
    "range": {
      "value": null,
      "units": ""
    },
    "consume": {
      "type": "",
      "target": "",
      "amount": null,
      "mpMultiplier": false
    },
    "efeito": "",
    "alcance": "none",
    "alvo": "",
    "area": "",
    "resistencia": {
      "pericia": "",
      "atributo": "sab",
      "bonus": 0,
      "txt": ""
    },
    "rolls": [],
    "tipo": "classe",
    "subtipo": "Lutador",
    "chatFlavor": "",
    "origin": "",
    "tags": [],
    "chatGif": ""
  },
  "ownership": {
    "default": 0
  },
  "_stats": {
    "systemId": "tormenta20",
    "systemVersion": "1.4.116",
    "coreVersion": "11.298",
    "createdTime": 1664306184750,
    "modifiedTime": 1684630371462,
    "lastModifiedBy": "ZWR5Tn3AhSIFqwp6"
  },
  "_key": "!items!fQC8JocFY32KETMM"
}
