{
  "_id": "4HDe54InDUrAw30B",
  "name": "Rede de Contatos",
  "type": "poder",
  "img": "systems/tormenta20/icons/poderes/origem.webp",
  "effects": [],
  "folder": "O7XebEr47qNV8g6X",
  "sort": 0,
  "flags": {
    "core": {
      "sourceId": "Compendium.tormenta20.poderes.4HDe54InDUrAw30B"
    }
  },
  "system": {
    "description": {
      "value": "<p style=\"text-align: justify;\">Gra&ccedil;as &agrave; influ&ecirc;ncia de sua guilda, voc&ecirc; pode usar @UUID[Compendium.tormenta20.basico.gPPLzgFvC0JKi5UE.JournalEntryPage.cPbZCkI3ApOFMTnL]{Diplomacia} para interrogar sem custo e em uma hora (veja @UUID[Compendium.tormenta20.basico.gPPLzgFvC0JKi5UE.JournalEntryPage.FA5Km75yEUsW8hR4]{Investiga&ccedil;&atilde;o}).</p>",
      "chat": "",
      "unidentified": ""
    },
    "source": "T20, pg. 92 (JdA)",
    "ativacao": {
      "execucao": "",
      "custo": 0,
      "qtd": "",
      "condicao": "",
      "special": ""
    },
    "duracao": {
      "value": 0,
      "units": "",
      "special": ""
    },
    "target": {
      "value": null,
      "width": null,
      "units": "",
      "type": ""
    },
    "range": {
      "value": null,
      "units": ""
    },
    "consume": {
      "type": "",
      "target": "",
      "amount": null,
      "mpMultiplier": false
    },
    "efeito": "",
    "alcance": "none",
    "alvo": "",
    "area": "",
    "resistencia": {
      "pericia": "",
      "atributo": "sab",
      "bonus": 0,
      "txt": ""
    },
    "rolls": [],
    "tipo": "origem",
    "subtipo": "Membro de Guilda",
    "origin": "",
    "tags": [],
    "chatFlavor": "",
    "chatGif": ""
  },
  "ownership": {
    "default": 0
  },
  "_stats": {
    "systemId": "tormenta20",
    "systemVersion": "1.4.116",
    "coreVersion": "11.298",
    "createdTime": 1664306183310,
    "modifiedTime": 1684630371462,
    "lastModifiedBy": "ZWR5Tn3AhSIFqwp6"
  },
  "_key": "!items!4HDe54InDUrAw30B"
}
