{
  "_id": "hpb7TnXraUY1qevb",
  "name": "Resistência Elemental",
  "type": "poder",
  "img": "systems/tormenta20/icons/racas/qareen.webp",
  "effects": [
    {
      "label": "Resistência Elemental",
      "icon": "systems/tormenta20/icons/racas/qareen.webp",
      "origin": "Item.hpb7TnXraUY1qevb",
      "tint": "#FFFFFF",
      "flags": {
        "tormenta20": {
          "onuse": false,
          "durationScene": false
        }
      },
      "duration": {
        "startTime": null,
        "seconds": null,
        "combat": null,
        "rounds": null,
        "turns": null,
        "startRound": null,
        "startTurn": null
      },
      "disabled": false,
      "_id": "Q3qMj1DjSIm6jetH",
      "changes": [
        {
          "key": "system.tracos.resistencias.???.value",
          "mode": 2,
          "value": "10",
          "priority": null
        }
      ],
      "transfer": true,
      "_key": "!items.effects!hpb7TnXraUY1qevb.Q3qMj1DjSIm6jetH"
    }
  ],
  "folder": "bT1FLsOz6hPzs6kE",
  "sort": 0,
  "flags": {
    "core": {
      "sourceId": "Compendium.tormenta20.poderes.hpb7TnXraUY1qevb"
    }
  },
  "system": {
    "description": {
      "value": "<p style=\"text-align:justify;\">Conforme sua ascendência, você recebe resistência 10 a um tipo de dano. Escolha uma: frio (qareen da água), eletricidade (do ar), fogo (do fogo), ácido (da terra), luz (da luz) ou trevas (qareen das trevas).</p>",
      "chat": "",
      "unidentified": ""
    },
    "source": "T20, pg. 26 (JdA)",
    "ativacao": {
      "execucao": "",
      "custo": 0,
      "qtd": "",
      "condicao": "",
      "special": ""
    },
    "duracao": {
      "value": 0,
      "units": "",
      "special": ""
    },
    "target": {
      "value": null,
      "width": null,
      "units": "",
      "type": ""
    },
    "range": {
      "value": null,
      "units": ""
    },
    "consume": {
      "type": "",
      "target": "",
      "amount": null,
      "mpMultiplier": false
    },
    "efeito": "",
    "alcance": "none",
    "alvo": "",
    "area": "",
    "resistencia": {
      "pericia": "",
      "atributo": "sab",
      "bonus": 0,
      "txt": ""
    },
    "rolls": [],
    "tipo": "racial",
    "subtipo": "Qareen",
    "origin": "",
    "tags": [],
    "chatFlavor": "",
    "chatGif": ""
  },
  "ownership": {
    "default": 0
  },
  "_stats": {
    "systemId": "tormenta20",
    "systemVersion": "1.4.116",
    "coreVersion": "11.298",
    "createdTime": 1664306185121,
    "modifiedTime": 1684630371462,
    "lastModifiedBy": "ZWR5Tn3AhSIFqwp6"
  },
  "_key": "!items!hpb7TnXraUY1qevb"
}
