{
  "_id": "PANeuipqdolT72aq",
  "name": "Resoluto",
  "type": "poder",
  "img": "systems/tormenta20/icons/poderes/classes/combatentes/resoluto.webp",
  "effects": [
    {
      "label": "Resoluto: +5 de bônus para refazer um teste de resistência contra uma condição.",
      "icon": "icons/svg/upgrade.svg",
      "origin": "Item.PANeuipqdolT72aq",
      "tint": "#FFFFFF",
      "flags": {
        "tormenta20": {
          "onuse": true,
          "durationScene": false,
          "self": false,
          "attack": false,
          "skill": true,
          "ability": false,
          "power": false,
          "spell": false,
          "consumable": false,
          "items": "fortitude;reflexos;vontade",
          "aumenta": false,
          "custo": "1"
        }
      },
      "duration": {
        "startTime": null,
        "seconds": null,
        "combat": null,
        "rounds": null,
        "turns": null,
        "startRound": null,
        "startTurn": null
      },
      "disabled": true,
      "_id": "jkFkrjEW7ltGoLkE",
      "changes": [
        {
          "key": "roll",
          "mode": 2,
          "value": "5",
          "priority": 0
        }
      ],
      "transfer": true,
      "_key": "!items.effects!PANeuipqdolT72aq.jkFkrjEW7ltGoLkE"
    }
  ],
  "folder": "FOdOQA7oDXTWqj5Z",
  "sort": 0,
  "flags": {
    "core": {
      "sourceId": "Compendium.tormenta20.poderes.PANeuipqdolT72aq"
    }
  },
  "system": {
    "description": {
      "value": "<p style=\"text-align:justify;\">A partir do 11º nível, você pode gastar 1 PM para refazer um teste de resistência contra uma condição (como abalado, paralisado etc.) que esteja o afetando. O segundo teste recebe um bônus de +5 e, se você passar, cancela o efeito. Você só pode usar esta habilidade uma vez por efeito.</p>",
      "chat": "",
      "unidentified": ""
    },
    "source": "T20, pg. 55 (JdA)",
    "ativacao": {
      "execucao": "",
      "custo": 1,
      "qtd": "",
      "condicao": "",
      "special": ""
    },
    "duracao": {
      "value": 0,
      "units": "",
      "special": ""
    },
    "target": {
      "value": null,
      "width": null,
      "units": "",
      "type": ""
    },
    "range": {
      "value": null,
      "units": ""
    },
    "consume": {
      "type": "",
      "target": "",
      "amount": null,
      "mpMultiplier": false
    },
    "efeito": "",
    "alcance": "none",
    "alvo": "",
    "area": "",
    "resistencia": {
      "pericia": "",
      "atributo": "sab",
      "bonus": 0,
      "txt": ""
    },
    "rolls": [],
    "tipo": "ability",
    "subtipo": "Cavaleiro",
    "origin": "",
    "tags": [],
    "chatFlavor": "",
    "chatGif": ""
  },
  "ownership": {
    "default": 0
  },
  "_stats": {
    "systemId": "tormenta20",
    "systemVersion": "1.4.116",
    "coreVersion": "11.298",
    "createdTime": 1664306184258,
    "modifiedTime": 1684630371462,
    "lastModifiedBy": "ZWR5Tn3AhSIFqwp6"
  },
  "_key": "!items!PANeuipqdolT72aq"
}
