{
  "folder": "VzNpCz1wSE1Ln6lH",
  "name": "Ressurreição, Vida",
  "sorting": "a",
  "type": "Item",
  "_id": "0Sflz8JFKLoVZAEN",
  "sort": 0,
  "flags": {},
  "_stats": {
    "systemId": null,
    "systemVersion": null,
    "coreVersion": null,
    "createdTime": null,
    "modifiedTime": null,
    "lastModifiedBy": null
  },
  "_key": "!folders!0Sflz8JFKLoVZAEN"
}
