{
  "_id": "WTGqC0KRSbkCXMCQ",
  "name": "Sangue dos Inimigos",
  "type": "poder",
  "img": "systems/tormenta20/icons/classes/barbaro.webp",
  "effects": [
    {
      "label": "Sangue dos Inimigos",
      "icon": "icons/svg/upgrade.svg",
      "origin": "Item.WTGqC0KRSbkCXMCQ",
      "tint": "#FFFFFF",
      "flags": {
        "tormenta20": {
          "onuse": true,
          "durationScene": false,
          "self": false,
          "attack": true,
          "skill": false,
          "ability": false,
          "power": false,
          "spell": false,
          "consumable": false,
          "items": "",
          "aumenta": false,
          "custo": ""
        }
      },
      "duration": {
        "startTime": null,
        "seconds": null,
        "combat": null,
        "rounds": null,
        "turns": null,
        "startRound": null,
        "startTurn": null
      },
      "disabled": true,
      "_id": "SMf5M9Dhb87arwhp",
      "changes": [
        {
          "key": "ataque",
          "mode": 2,
          "value": "1",
          "priority": 0
        },
        {
          "key": "dano",
          "mode": 2,
          "value": "1",
          "priority": 0
        }
      ],
      "transfer": true,
      "_key": "!items.effects!WTGqC0KRSbkCXMCQ.SMf5M9Dhb87arwhp"
    }
  ],
  "folder": "UhsYJ0BvPTkMyG53",
  "sort": 0,
  "flags": {
    "core": {
      "sourceId": "Compendium.tormenta20.poderes.WTGqC0KRSbkCXMCQ"
    }
  },
  "system": {
    "description": {
      "value": "<p style=\"text-align: justify;\">Enquanto est&aacute; em f&uacute;ria, quando faz um acerto cr&iacute;tico ou reduz um inimigo a 0 PV, voc&ecirc; recebe um b&ocirc;nus cumulativo de +1 em testes de ataque e rolagens de dano, limitado pelo seu n&iacute;vel, at&eacute; o fim da cena.</p>\n<p style=\"text-align: justify;\">&nbsp;</p>\n<p style=\"text-align: justify;\">&nbsp;</p>",
      "chat": "",
      "unidentified": ""
    },
    "source": "T20, pg. 42 (JdA)",
    "ativacao": {
      "execucao": "",
      "custo": 0,
      "qtd": "",
      "condicao": "",
      "special": ""
    },
    "duracao": {
      "value": 0,
      "units": "",
      "special": ""
    },
    "target": {
      "value": null,
      "width": null,
      "units": "",
      "type": ""
    },
    "range": {
      "value": null,
      "units": ""
    },
    "consume": {
      "type": "",
      "target": "",
      "amount": null,
      "mpMultiplier": false
    },
    "efeito": "",
    "alcance": "none",
    "alvo": "",
    "area": "",
    "resistencia": {
      "pericia": "",
      "atributo": "sab",
      "bonus": 0,
      "txt": ""
    },
    "rolls": [],
    "tipo": "classe",
    "subtipo": "Bárbaro",
    "chatFlavor": "",
    "origin": "",
    "tags": [],
    "chatGif": ""
  },
  "ownership": {
    "default": 0
  },
  "_stats": {
    "systemId": "tormenta20",
    "systemVersion": "1.4.116",
    "coreVersion": "11.298",
    "createdTime": 1658361717173,
    "modifiedTime": 1684630371462,
    "lastModifiedBy": "ZWR5Tn3AhSIFqwp6"
  },
  "_key": "!items!WTGqC0KRSbkCXMCQ"
}
