{
  "folder": "QGUINw3j11V74Mmz",
  "name": "Sereia/tritão",
  "sorting": "a",
  "type": "Item",
  "_id": "deNUAIMEeSNoJ1Tx",
  "sort": 0,
  "flags": {},
  "_stats": {
    "systemId": null,
    "systemVersion": null,
    "coreVersion": null,
    "createdTime": null,
    "modifiedTime": null,
    "lastModifiedBy": null
  },
  "_key": "!folders!deNUAIMEeSNoJ1Tx"
}
