{
  "folder": "QGUINw3j11V74Mmz",
  "name": "Suraggel (Aggelus)",
  "sorting": "a",
  "type": "Item",
  "_id": "M38uJID4A6HlLflO",
  "sort": 0,
  "flags": {},
  "_stats": {
    "systemId": null,
    "systemVersion": null,
    "coreVersion": null,
    "createdTime": null,
    "modifiedTime": null,
    "lastModifiedBy": null
  },
  "_key": "!folders!M38uJID4A6HlLflO"
}
