{
  "_id": "AnoinpFQbn1XO4jz",
  "name": "Tornado de Dor",
  "type": "poder",
  "img": "systems/tormenta20/icons/classes/guerreiro.webp",
  "effects": [
    {
      "label": "Tornado de Dor",
      "icon": "icons/svg/upgrade.svg",
      "origin": "Item.AnoinpFQbn1XO4jz",
      "tint": "#FFFFFF",
      "flags": {
        "tormenta20": {
          "onuse": true,
          "durationScene": false,
          "self": false,
          "attack": true,
          "skill": false,
          "ability": false,
          "power": false,
          "spell": false,
          "consumable": false,
          "items": "",
          "aumenta": false,
          "custo": "2"
        }
      },
      "duration": {
        "startTime": null,
        "seconds": null,
        "combat": null,
        "rounds": null,
        "turns": null,
        "startRound": null,
        "startTurn": null
      },
      "disabled": true,
      "_id": "jY6KyPsjm9FuYQaY",
      "changes": [],
      "transfer": true,
      "_key": "!items.effects!AnoinpFQbn1XO4jz.jY6KyPsjm9FuYQaY"
    }
  ],
  "folder": "LJQ1SKk2Y0QmZI03",
  "sort": 0,
  "flags": {
    "core": {
      "sourceId": "Compendium.tormenta20.poderes.AnoinpFQbn1XO4jz"
    }
  },
  "system": {
    "description": {
      "value": "<p style=\"text-align: justify;\">Voc&ecirc; pode gastar uma a&ccedil;&atilde;o padr&atilde;o e 2 PM para desferir uma s&eacute;rie de golpes girat&oacute;rios. Fa&ccedil;a um ataque corpo a corpo e compare-o com a Defesa de cada inimigo em seu alcance natural. Ent&atilde;o fa&ccedil;a uma rolagem de dano com um b&ocirc;nus cumulativo de +2 para cada acerto e aplique-a em cada inimigo atingido. Pr&eacute;-requisito: 6&ordm; n&iacute;vel de guerreiro.</p>",
      "chat": "",
      "unidentified": ""
    },
    "source": "T20, pg. 66 (JdA)",
    "ativacao": {
      "execucao": "action",
      "custo": 2,
      "qtd": "",
      "condicao": "",
      "special": ""
    },
    "duracao": {
      "value": 0,
      "units": "",
      "special": ""
    },
    "target": {
      "value": null,
      "width": null,
      "units": "",
      "type": ""
    },
    "range": {
      "value": null,
      "units": ""
    },
    "consume": {
      "type": "",
      "target": "",
      "amount": null,
      "mpMultiplier": false
    },
    "efeito": "",
    "alcance": "none",
    "alvo": "",
    "area": "",
    "resistencia": {
      "pericia": "",
      "atributo": "sab",
      "bonus": 0,
      "txt": ""
    },
    "rolls": [],
    "tipo": "classe",
    "subtipo": "Guerreiro",
    "origin": "",
    "tags": [],
    "chatFlavor": "",
    "chatGif": ""
  },
  "ownership": {
    "default": 0
  },
  "_stats": {
    "systemId": "tormenta20",
    "systemVersion": "1.4.116",
    "coreVersion": "11.298",
    "createdTime": 1664306183807,
    "modifiedTime": 1684630371462,
    "lastModifiedBy": "ZWR5Tn3AhSIFqwp6"
  },
  "_key": "!items!AnoinpFQbn1XO4jz"
}
