{
  "_id": "t0v9j9yqXWssODlV",
  "name": "Valentão (Lutador)",
  "type": "poder",
  "img": "systems/tormenta20/icons/classes/lutador.webp",
  "effects": [
    {
      "label": "Valentão",
      "icon": "icons/svg/upgrade.svg",
      "origin": "Item.s58HuGYscLJvdyxx",
      "tint": "#FFFFFF",
      "flags": {
        "tormenta20": {
          "onuse": true,
          "durationScene": false,
          "self": false,
          "attack": true,
          "skill": false,
          "ability": false,
          "power": false,
          "spell": false,
          "consumable": false,
          "items": "",
          "aumenta": false,
          "custo": ""
        }
      },
      "duration": {
        "startTime": null,
        "seconds": null,
        "combat": null,
        "rounds": null,
        "turns": null,
        "startRound": null,
        "startTurn": null
      },
      "disabled": true,
      "_id": "tBPC8EJE3YJvBn8C",
      "changes": [
        {
          "key": "ataque",
          "mode": 2,
          "value": "2",
          "priority": 0
        },
        {
          "key": "dano",
          "mode": 2,
          "value": "2",
          "priority": 0
        }
      ],
      "transfer": true,
      "_key": "!items.effects!t0v9j9yqXWssODlV.tBPC8EJE3YJvBn8C"
    }
  ],
  "folder": "csRpG81AedPycko0",
  "sort": 0,
  "flags": {},
  "system": {
    "description": {
      "value": "<p>Voc&ecirc; recebe +2 em testes de ataque e rolagens de dano contra oponentes @UUID[Compendium.tormenta20.condicoes.BKYcxIS1rITnglUE]{Ca&iacute;do}, @UUID[Compendium.tormenta20.condicoes.QBpAB16MIn9BVLNw]{Desprevenido}, flanqueados ou @UUID[Compendium.tormenta20.condicoes.lNc0QRNCvTGa7t2P]{Indefeso}.</p>",
      "chat": "",
      "unidentified": ""
    },
    "source": "T20, pg. 77 (JdA)",
    "ativacao": {
      "execucao": "passive",
      "custo": 0,
      "qtd": "",
      "condicao": "",
      "special": ""
    },
    "duracao": {
      "value": 0,
      "units": "",
      "special": ""
    },
    "target": {
      "value": null,
      "width": null,
      "units": "",
      "type": ""
    },
    "range": {
      "value": null,
      "units": ""
    },
    "consume": {
      "type": "",
      "target": "",
      "amount": null,
      "mpMultiplier": false
    },
    "efeito": "",
    "alcance": "none",
    "alvo": "",
    "area": "",
    "resistencia": {
      "pericia": "",
      "atributo": "",
      "bonus": 0,
      "txt": ""
    },
    "rolls": [],
    "tipo": "classe",
    "subtipo": "Lutador",
    "origin": "",
    "tags": [],
    "chatFlavor": "",
    "chatGif": ""
  },
  "ownership": {
    "default": 0
  },
  "_stats": {
    "systemId": "tormenta20",
    "systemVersion": "1.4.116",
    "coreVersion": "11.298",
    "createdTime": 1664896984062,
    "modifiedTime": 1684630371462,
    "lastModifiedBy": "ZWR5Tn3AhSIFqwp6"
  },
  "_key": "!items!t0v9j9yqXWssODlV"
}
