{
  "_id": "JHMYXJvZDara8JwN",
  "name": "Valentão (Guerreiro)",
  "type": "poder",
  "img": "systems/tormenta20/icons/classes/guerreiro.webp",
  "effects": [
    {
      "_id": "51Woz7yAZPtBOcJY",
      "changes": [
        {
          "key": "ataque",
          "mode": 2,
          "value": "2",
          "priority": 0
        },
        {
          "key": "dano",
          "mode": 2,
          "value": "2",
          "priority": 0
        }
      ],
      "disabled": true,
      "duration": {
        "startTime": null,
        "seconds": null,
        "combat": null,
        "rounds": null,
        "turns": null,
        "startRound": null,
        "startTurn": null
      },
      "icon": "icons/svg/upgrade.svg",
      "label": "Valentão: +2 Ataque e dano oponentes caídos, desprevenidos, flanqueados ou indefesos.",
      "origin": "Item.8NrSx3P2d4SkZYj2",
      "transfer": true,
      "flags": {
        "tormenta20": {
          "onuse": true,
          "attack": true,
          "self": false,
          "skill": false,
          "ability": false,
          "power": false,
          "spell": false,
          "consumable": false,
          "aumenta": false,
          "custo": "",
          "durationScene": false,
          "items": ""
        }
      },
      "tint": null,
      "_key": "!items.effects!JHMYXJvZDara8JwN.51Woz7yAZPtBOcJY"
    }
  ],
  "folder": "LJQ1SKk2Y0QmZI03",
  "sort": 0,
  "flags": {
    "core": {
      "sourceId": "Compendium.tormenta20.poderes.t0v9j9yqXWssODlV"
    },
    "favorito": true,
    "cf": null
  },
  "system": {
    "description": {
      "value": "<p style=\"text-align:justify;\">Você recebe +2 em testes de ataque e rolagens de dano contra oponentes caídos, desprevenidos, flanqueados ou indefesos.</p>",
      "chat": "",
      "unidentified": ""
    },
    "source": "T20, pg. 66 (JdA)",
    "ativacao": {
      "execucao": "",
      "custo": 0,
      "qtd": "",
      "condicao": "",
      "special": ""
    },
    "duracao": {
      "value": 0,
      "units": "",
      "special": ""
    },
    "target": {
      "value": null,
      "width": null,
      "units": "",
      "type": ""
    },
    "range": {
      "value": null,
      "units": ""
    },
    "consume": {
      "type": "",
      "target": "",
      "amount": null,
      "mpMultiplier": false
    },
    "efeito": "",
    "alcance": "none",
    "alvo": "",
    "area": "",
    "resistencia": {
      "pericia": "",
      "atributo": "sab",
      "bonus": 0,
      "txt": ""
    },
    "rolls": [],
    "tipo": "classe",
    "subtipo": "Guerreiro",
    "chatFlavor": "",
    "origin": "",
    "tags": [],
    "chatGif": ""
  },
  "ownership": {
    "default": 0
  },
  "_stats": {
    "systemId": "tormenta20",
    "systemVersion": "1.4.116",
    "coreVersion": "11.298",
    "createdTime": 1664306183909,
    "modifiedTime": 1684630371462,
    "lastModifiedBy": "ZWR5Tn3AhSIFqwp6"
  },
  "_key": "!items!JHMYXJvZDara8JwN"
}
