{
  "name": "Aura de Calor",
  "type": "poder",
  "img": "systems/tormenta20/icons/poderes/ameacas/aura-de-calor.webp",
  "system": {
    "description": {
      "value": "<p style=\"text-align: justify;\">Quando enfurecida, esta criatura emana um calor intenso. No in&iacute;cio de cada turno da centopeia-drag&atilde;o, todas as criaturas em alcance curto sofrem 4d6+9 pontos de dano de fogo.</p>",
      "unidentified": ""
    },
    "source": "",
    "ativacao": {
      "execucao": "free",
      "custo": 0,
      "qtd": "",
      "condicao": "",
      "special": ""
    },
    "duracao": {
      "value": 0,
      "units": "",
      "special": ""
    },
    "target": {
      "value": null,
      "width": null,
      "type": ""
    },
    "range": {
      "value": null,
      "units": ""
    },
    "consume": {
      "type": "",
      "target": "",
      "amount": null,
      "mpMultiplier": false
    },
    "efeito": "",
    "alcance": "short",
    "alvo": "",
    "area": "",
    "resistencia": {
      "pericia": "",
      "atributo": "",
      "bonus": 0,
      "txt": ""
    },
    "rolls": [
      {
        "name": "Dano",
        "key": "dano0",
        "type": "dano",
        "parts": [
          [
            "4d6+9",
            "fogo",
            ""
          ]
        ],
        "versatil": ""
      }
    ],
    "tipo": "ability",
    "subtipo": "",
    "origin": "",
    "tags": [],
    "chatFlavor": "",
    "chatGif": ""
  },
  "effects": [],
  "flags": {},
  "_stats": {
    "systemId": "tormenta20",
    "systemVersion": "1.4.101",
    "coreVersion": "10.288",
    "createdTime": 1666321513948,
    "modifiedTime": 1668270615328,
    "lastModifiedBy": "tIn9sSkrT3mDWirx"
  },
  "_id": "9BmEEukJ1IlqGWHH",
  "folder": null,
  "sort": 0,
  "ownership": {
    "default": 0,
    "tIn9sSkrT3mDWirx": 3
  },
  "_key": "!items!9BmEEukJ1IlqGWHH"
}
