{
  "name": "Cospe-chamas",
  "type": "magia",
  "img": "systems/tormenta20/icons/poderes/ameacas/cospe-chamas.webp",
  "effects": [
    {
      "label": "Em Chamas",
      "icon": "systems/tormenta20/icons/conditions/em-chamas.svg",
      "origin": "Item.cp13FGeg0C2uihk3",
      "tint": "#FFFFFF",
      "flags": {
        "tormenta20": {
          "onuse": false,
          "durationScene": false
        }
      },
      "duration": {
        "rounds": 1,
        "startTime": null,
        "seconds": null,
        "combat": null,
        "turns": null,
        "startRound": null,
        "startTurn": null
      },
      "disabled": false,
      "_id": "a0SlKjWxq2sT8Dam",
      "changes": [],
      "transfer": false,
      "_key": "!items.effects!cp13FGeg0C2uihk3.a0SlKjWxq2sT8Dam"
    }
  ],
  "flags": {
    "core": {
      "sourceId": "Item.dmZrFf0OW2mDIVUM"
    },
    "cf": null
  },
  "system": {
    "description": {
      "value": "<p>Produz um cone de chamas de 9m. Criaturas na &aacute;rea sofrem 6d6 pontos de dano de fogo e ficam em chamas (Reflexos CD 19 reduz o dano &agrave; metade e evita a condi&ccedil;&atilde;o).</p>",
      "unidentified": ""
    },
    "source": "T20, pg. 193 (JdA)",
    "ativacao": {
      "execucao": "action",
      "custo": 0,
      "qtd": "",
      "condicao": "",
      "special": ""
    },
    "duracao": {
      "value": 0,
      "units": "inst",
      "special": ""
    },
    "target": {
      "value": null,
      "width": null,
      "type": ""
    },
    "range": {
      "value": null,
      "units": ""
    },
    "consume": {
      "type": "",
      "target": "",
      "amount": null,
      "mpMultiplier": false
    },
    "efeito": "",
    "alcance": "self",
    "alvo": "",
    "area": "Cone de 9m",
    "resistencia": {
      "pericia": "",
      "atributo": "",
      "bonus": 0,
      "txt": "Reflexos reduz à metade"
    },
    "rolls": [
      {
        "name": "Dano",
        "key": "dano0",
        "type": "dano",
        "parts": [
          [
            "6d6",
            "fogo",
            ""
          ]
        ],
        "versatil": ""
      }
    ],
    "tipo": "arc",
    "circulo": "1",
    "preparada": false,
    "escola": "evo",
    "chatFlavor": "",
    "origin": "",
    "tags": [],
    "chatGif": ""
  },
  "_stats": {
    "systemId": "tormenta20",
    "systemVersion": "1.4.101",
    "coreVersion": "10.288",
    "createdTime": 1664310461907,
    "modifiedTime": 1668270615328,
    "lastModifiedBy": "tIn9sSkrT3mDWirx"
  },
  "_id": "cp13FGeg0C2uihk3",
  "folder": null,
  "sort": 0,
  "ownership": {
    "default": 0,
    "tIn9sSkrT3mDWirx": 3
  },
  "_key": "!items!cp13FGeg0C2uihk3"
}
