{
  "type": "poder",
  "name": "Dilacerar",
  "img": "systems/tormenta20/icons/poderes/ameacas/dilacerar.webp",
  "system": {
    "description": {
      "value": "o ganchador acerta os dois ataques de garra em uma mesma criatura na mesma rodada, causa mais 2d8+8 pontos de dano",
      "unidentified": ""
    },
    "source": "",
    "ativacao": {
      "execucao": "",
      "custo": 0,
      "qtd": "",
      "condicao": "",
      "special": ""
    },
    "duracao": {
      "value": 0,
      "units": "",
      "special": ""
    },
    "target": {
      "value": null,
      "width": null,
      "type": ""
    },
    "range": {
      "value": null,
      "units": ""
    },
    "consume": {
      "type": "",
      "target": "",
      "amount": null,
      "mpMultiplier": false
    },
    "efeito": "",
    "alcance": "none",
    "alvo": "",
    "area": "",
    "resistencia": {
      "pericia": "",
      "atributo": "",
      "bonus": 0,
      "txt": ""
    },
    "rolls": [
      {
        "name": "Dano",
        "key": "dano0",
        "type": "dano",
        "parts": [
          [
            "2d8+8",
            "corte",
            ""
          ]
        ],
        "versatil": ""
      }
    ],
    "tipo": "ability",
    "subtipo": "",
    "origin": "",
    "tags": [],
    "chatFlavor": "",
    "chatGif": ""
  },
  "effects": [],
  "flags": {
    "core": {
      "sourceId": "Actor.jS2c38gj0TLUuOgr.Item.2VY2rJ1zUIoCmake"
    }
  },
  "_stats": {
    "systemId": "tormenta20",
    "systemVersion": "1.4.101",
    "coreVersion": "10.288",
    "createdTime": 1667022537094,
    "modifiedTime": 1668270615329,
    "lastModifiedBy": "tIn9sSkrT3mDWirx"
  },
  "_id": "UfiSxW66wQpnTlis",
  "folder": null,
  "sort": 0,
  "ownership": {
    "default": 0,
    "tIn9sSkrT3mDWirx": 3
  },
  "_key": "!items!UfiSxW66wQpnTlis"
}
