{
  "name": "Ergam-se!",
  "type": "poder",
  "img": "systems/tormenta20/icons/poderes/ameacas/ergam-se.webp",
  "system": {
    "description": {
      "value": "<p style=\"text-align: justify;\">&nbsp;O necromante conjura seis mortos-vivos feitos de sombra em espa&ccedil;os desocupados em alcance curto. No turno do necromante, cada morto-vivo pode andar (deslocamento 9m) e causar dano a uma criatura adjacente (2d8 pontos de dano de trevas). Os mortos-vivos t&ecirc;m For 3, Des 3, Defesa 25 e todos os outros atributos nulos; eles t&ecirc;m 1 PV e falham automaticamente em qualquer teste de resist&ecirc;ncia ou oposto, mas s&atilde;o imunes a atordoamento, dano n&atilde;o letal, doen&ccedil;a, encantamento, fadiga, frio, ilus&atilde;o, paralisia, sono e veneno.</p>",
      "unidentified": ""
    },
    "source": "",
    "ativacao": {
      "execucao": "full",
      "custo": 5,
      "qtd": "",
      "condicao": "",
      "special": ""
    },
    "duracao": {
      "value": 0,
      "units": "",
      "special": ""
    },
    "target": {
      "value": null,
      "width": null,
      "type": ""
    },
    "range": {
      "value": null,
      "units": ""
    },
    "consume": {
      "type": "",
      "target": "",
      "amount": null,
      "mpMultiplier": false
    },
    "efeito": "",
    "alcance": "none",
    "alvo": "",
    "area": "",
    "resistencia": {
      "pericia": "",
      "atributo": "",
      "bonus": 0,
      "txt": ""
    },
    "rolls": [],
    "tipo": "ability",
    "subtipo": "",
    "origin": "",
    "tags": [],
    "chatFlavor": "",
    "chatGif": ""
  },
  "effects": [],
  "flags": {},
  "_stats": {
    "systemId": "tormenta20",
    "systemVersion": "1.4.101",
    "coreVersion": "10.288",
    "createdTime": 1667014338508,
    "modifiedTime": 1668270615329,
    "lastModifiedBy": "tIn9sSkrT3mDWirx"
  },
  "_id": "e8AoR7GZxlL0Zlu1",
  "folder": null,
  "sort": 0,
  "ownership": {
    "default": 0,
    "tIn9sSkrT3mDWirx": 3
  },
  "_key": "!items!e8AoR7GZxlL0Zlu1"
}
