{
  "name": "Ordens",
  "type": "poder",
  "img": "systems/tormenta20/icons/poderes/ameacas/comandar.webp",
  "system": {
    "description": {
      "value": "<p style=\"text-align: justify;\">O sargento grita ordens para seus aliados em alcance m&eacute;dio. Eles recebem +1 em testes de per&iacute;cia at&eacute; o fim da cena.</p>",
      "unidentified": ""
    },
    "source": "",
    "ativacao": {
      "execucao": "move",
      "custo": 0,
      "qtd": "",
      "condicao": "",
      "special": ""
    },
    "duracao": {
      "value": 0,
      "units": "",
      "special": ""
    },
    "target": {
      "value": null,
      "width": null,
      "type": ""
    },
    "range": {
      "value": null,
      "units": ""
    },
    "consume": {
      "type": "",
      "target": "",
      "amount": null,
      "mpMultiplier": false
    },
    "efeito": "",
    "alcance": "medium",
    "alvo": "",
    "area": "",
    "resistencia": {
      "pericia": "",
      "atributo": "",
      "bonus": 0,
      "txt": ""
    },
    "rolls": [],
    "tipo": "ability",
    "subtipo": "",
    "origin": "",
    "tags": [],
    "chatFlavor": "",
    "chatGif": ""
  },
  "effects": [
    {
      "label": "Ordens",
      "icon": "icons/magic/control/control-influence-rally-purple.webp",
      "origin": "Item.sE935B47ySWD4Lus",
      "tint": "#FFFFFF",
      "flags": {
        "tormenta20": {
          "onuse": false,
          "durationScene": true
        }
      },
      "duration": {
        "rounds": 1,
        "startTime": null,
        "seconds": null,
        "combat": null,
        "turns": null,
        "startRound": null,
        "startTurn": null
      },
      "disabled": false,
      "_id": "UcIlQrTeNdGpbtXO",
      "changes": [
        {
          "key": "system.modificadores.pericias.geral",
          "mode": 2,
          "value": "1",
          "priority": null
        }
      ],
      "transfer": false,
      "_key": "!items.effects!sE935B47ySWD4Lus.UcIlQrTeNdGpbtXO"
    }
  ],
  "flags": {},
  "_stats": {
    "systemId": "tormenta20",
    "systemVersion": "1.4.101",
    "coreVersion": "10.288",
    "createdTime": 1666321513948,
    "modifiedTime": 1668270615331,
    "lastModifiedBy": "tIn9sSkrT3mDWirx"
  },
  "_id": "sE935B47ySWD4Lus",
  "folder": null,
  "sort": 0,
  "ownership": {
    "default": 0,
    "tIn9sSkrT3mDWirx": 3
  },
  "_key": "!items!sE935B47ySWD4Lus"
}
