{
  "name": "Pinças",
  "type": "arma",
  "img": "systems/tormenta20/icons/poderes/ameacas/pincas.webp",
  "system": {
    "description": {
      "value": "",
      "unidentified": ""
    },
    "source": "",
    "equipado": 0,
    "carregado": true,
    "peso": 0,
    "espacos": 0,
    "qtd": 0,
    "preco": 0,
    "pv": {
      "value": 0,
      "min": 0,
      "max": 0
    },
    "rd": 0,
    "rolls": [
      {
        "name": "Ataque",
        "key": "ataque0",
        "type": "ataque",
        "parts": [
          [
            "1d20",
            "",
            ""
          ],
          [
            "",
            "",
            ""
          ],
          [
            "",
            "",
            ""
          ]
        ],
        "versatil": ""
      },
      {
        "name": "Dano",
        "key": "dano1",
        "type": "dano",
        "parts": [
          [
            "1d6",
            "corte",
            ""
          ],
          [
            "",
            "",
            ""
          ]
        ],
        "versatil": ""
      }
    ],
    "criticoM": 20,
    "criticoX": 2,
    "alcance": "",
    "tipoUso": "sim",
    "propriedades": {
      "ada": false,
      "agi": false,
      "alo": false,
      "dup": false,
      "ver": false,
      "des": false
    },
    "origin": "",
    "tags": [],
    "chatFlavor": "",
    "ativacao": {
      "custo": null,
      "condicao": "",
      "execucao": "",
      "qtd": "",
      "special": ""
    },
    "consume": {
      "amount": null,
      "mpMultiplier": false,
      "type": "",
      "target": ""
    },
    "encantos": {
      "lancinante": false,
      "keen": null,
      "bane": null,
      "throwable": null,
      "assassin": null,
      "seeking": null,
      "frost": null,
      "caster": null,
      "corrosive": null,
      "dancing": null,
      "defending": null,
      "destructive": null,
      "lacerating": null,
      "draining": null,
      "shock": null,
      "energy": null,
      "excruciating": null,
      "flaming": null,
      "formidable": null,
      "lancinating": false,
      "magnificent": null,
      "merciful": null,
      "unholy": null,
      "holy": null,
      "bloodthirsty": null,
      "thundering": null,
      "sepulchral": null,
      "speed": null,
      "poisonous": null
    },
    "melhorias": {
      "accurate": null,
      "pungent": null,
      "cruel": null,
      "atrocious": null,
      "balanced": null,
      "harmonized": null,
      "injection": null,
      "massive": null,
      "specialmaterial": null,
      "scope": null,
      "precise": null,
      "golden": null,
      "gems": null,
      "discreet": null,
      "macabre": null
    },
    "chatGif": "",
    "upgrades": {
      "melhoria1": "",
      "melhoria2": "",
      "melhoria3": "",
      "melhoria4": "",
      "material": "",
      "encanto1": "",
      "encanto2": "",
      "encanto3": ""
    },
    "ataques": 0,
    "proficiencia": "natural",
    "proposito": "corpo-a-corpo",
    "empunhadura": "leve",
    "size": "normal"
  },
  "effects": [],
  "flags": {},
  "_stats": {
    "systemId": "tormenta20",
    "systemVersion": "1.4.101",
    "coreVersion": "10.288",
    "createdTime": 1666318097513,
    "modifiedTime": 1668270609746,
    "lastModifiedBy": "tIn9sSkrT3mDWirx"
  },
  "_id": "awbkhcPbbCEEtT8j",
  "folder": null,
  "sort": 0,
  "ownership": {
    "default": 0,
    "tIn9sSkrT3mDWirx": 3
  },
  "_key": "!items!awbkhcPbbCEEtT8j"
}
