{
  "name": "Sopro",
  "type": "poder",
  "img": "systems/tormenta20/icons/poderes/ameacas/sopro-gas.webp",
  "system": {
    "description": {
      "value": "<p style=\"text-align: justify;\">O golem de ferro expele uma nuvem de g&aacute;s venenoso que preenche um cubo de 3m de lado. Criaturas dentro da &aacute;rea perdem 6d12 pontos de vida e ficam enjoadas (Fortitude CD 30 reduz &agrave; metade e evita a condi&ccedil;&atilde;o enjoado). Recarga (movimento), veneno.</p>",
      "unidentified": ""
    },
    "source": "",
    "ativacao": {
      "execucao": "move",
      "custo": 0,
      "qtd": "",
      "condicao": "",
      "special": ""
    },
    "duracao": {
      "value": 0,
      "units": "",
      "special": ""
    },
    "target": {
      "value": null,
      "width": null,
      "type": ""
    },
    "range": {
      "value": null,
      "units": ""
    },
    "consume": {
      "type": "",
      "target": "",
      "amount": null,
      "mpMultiplier": false
    },
    "efeito": "",
    "alcance": "none",
    "alvo": "",
    "area": "cubo 3m de lado",
    "resistencia": {
      "pericia": "",
      "atributo": "",
      "bonus": 0,
      "txt": "Reflexos Metade"
    },
    "rolls": [
      {
        "name": "Dano",
        "key": "dano0",
        "type": "dano",
        "parts": [
          [
            "6d12",
            "perda",
            ""
          ]
        ],
        "versatil": ""
      }
    ],
    "tipo": "racial",
    "subtipo": "",
    "origin": "",
    "tags": [],
    "chatFlavor": "",
    "chatGif": ""
  },
  "effects": [
    {
      "label": "Enjoado",
      "icon": "systems/tormenta20/icons/conditions/enjoado.svg",
      "origin": "Item.srICYuGeHz5M3Kll",
      "tint": "#FFFFFF",
      "flags": {
        "tormenta20": {
          "onuse": false,
          "durationScene": false
        }
      },
      "duration": {
        "rounds": 1,
        "startTime": null,
        "seconds": null,
        "combat": null,
        "turns": null,
        "startRound": null,
        "startTurn": null
      },
      "disabled": false,
      "_id": "snC7Eg8rfq7aSEkw",
      "changes": [],
      "transfer": false,
      "_key": "!items.effects!1FFdF6MtV64OoIVK.snC7Eg8rfq7aSEkw"
    }
  ],
  "flags": {
    "core": {
      "sourceId": "Actor.jiX0Itt2On27hc30.Item.nDHqfiKXg5UqVxV5"
    }
  },
  "_stats": {
    "systemId": "tormenta20",
    "systemVersion": "1.4.101",
    "coreVersion": "10.288",
    "createdTime": 1666318061707,
    "modifiedTime": 1668270615332,
    "lastModifiedBy": "tIn9sSkrT3mDWirx"
  },
  "_id": "1FFdF6MtV64OoIVK",
  "folder": null,
  "sort": 0,
  "ownership": {
    "default": 0,
    "tIn9sSkrT3mDWirx": 3
  },
  "_key": "!items!1FFdF6MtV64OoIVK"
}
