{
  "name": "Varrer",
  "type": "poder",
  "img": "systems/tormenta20/icons/poderes/ameacas/varrer.webp",
  "system": {
    "description": {
      "value": "<p style=\"text-align: justify;\">Uma vez por rodada, quando o sargento-mor faz um ataque corpo a corpo e reduz os pontos de vida do alvo para 0 ou menos, pode realizar um ataque adicional contra outra criatura dentro do seu alcance.</p>",
      "unidentified": ""
    },
    "source": "",
    "ativacao": {
      "execucao": "",
      "custo": 0,
      "qtd": "",
      "condicao": "",
      "special": ""
    },
    "duracao": {
      "value": 0,
      "units": "",
      "special": ""
    },
    "target": {
      "value": null,
      "width": null,
      "type": ""
    },
    "range": {
      "value": null,
      "units": ""
    },
    "consume": {
      "type": "",
      "target": "",
      "amount": null,
      "mpMultiplier": false
    },
    "efeito": "",
    "alcance": "none",
    "alvo": "",
    "area": "",
    "resistencia": {
      "pericia": "",
      "atributo": "",
      "bonus": 0,
      "txt": ""
    },
    "rolls": [],
    "tipo": "ability",
    "subtipo": "",
    "origin": "",
    "tags": [],
    "chatFlavor": "",
    "chatGif": ""
  },
  "effects": [],
  "flags": {},
  "_stats": {
    "systemId": "tormenta20",
    "systemVersion": "1.4.101",
    "coreVersion": "10.288",
    "createdTime": 1666321513948,
    "modifiedTime": 1668270615333,
    "lastModifiedBy": "tIn9sSkrT3mDWirx"
  },
  "_id": "mtIAyfa9PtjNRrLA",
  "folder": null,
  "sort": 0,
  "ownership": {
    "default": 0,
    "tIn9sSkrT3mDWirx": 3
  },
  "_key": "!items!mtIAyfa9PtjNRrLA"
}
