{
  "_id": "MKKB4eECVXAjyvRy",
  "name": "Aparição",
  "type": "npc",
  "img": "systems/tormenta20/icons/ameacas/aparicao.png",
  "items": [
    {
      "type": "poder",
      "name": "Vulnerabilidade à Luz do Dia",
      "img": "icons/creatures/unholy/demon-winged-cyclops-drooling.webp",
      "system": {
        "description": {
          "value": "Uma aparição exposta a luz solar natural fica debilitada.",
          "unidentified": ""
        },
        "source": "",
        "ativacao": {
          "execucao": "",
          "custo": 0,
          "qtd": "",
          "condicao": "",
          "special": ""
        },
        "duracao": {
          "value": 0,
          "units": "",
          "special": ""
        },
        "target": {
          "value": null,
          "width": null,
          "type": ""
        },
        "range": {
          "value": null,
          "units": ""
        },
        "consume": {
          "type": "",
          "target": "",
          "amount": null,
          "mpMultiplier": false
        },
        "efeito": "",
        "alcance": "none",
        "alvo": "",
        "area": "",
        "resistencia": {
          "pericia": "",
          "atributo": "",
          "bonus": 0,
          "txt": ""
        },
        "rolls": [],
        "tipo": "ability",
        "subtipo": "",
        "origin": "",
        "tags": [],
        "chatFlavor": "",
        "chatGif": ""
      },
      "effects": [],
      "folder": null,
      "sort": 0,
      "ownership": {
        "default": 0,
        "tIn9sSkrT3mDWirx": 3
      },
      "flags": {},
      "_stats": {
        "systemId": "tormenta20",
        "systemVersion": "1.4.1004",
        "coreVersion": "10.286",
        "createdTime": 1667013963176,
        "modifiedTime": 1667014225061,
        "lastModifiedBy": "tIn9sSkrT3mDWirx"
      },
      "_id": "xVcHOhhXtFzMhU81",
      "_key": "!actors.items!MKKB4eECVXAjyvRy.xVcHOhhXtFzMhU81"
    },
    {
      "type": "arma",
      "name": "Toque drenante",
      "img": "icons/magic/unholy/hand-claw-fire-blue.webp",
      "system": {
        "description": {
          "value": "<section class=\"secret\">Toque drenante</section>\n<p>Uma criatura viva atingida deve fazer um teste de Fortitude (CD 21). Se falhar, fica fraca e a apari&ccedil;&atilde;o recebe 20 PV tempor&aacute;rios cumulativos.</p>",
          "chat": "",
          "unidentified": ""
        },
        "source": "",
        "equipado": 0,
        "equipado2": {
          "slot": 0,
          "type": "hand"
        },
        "carregado": true,
        "peso": 0,
        "espacos": 0,
        "qtd": 1,
        "preco": 0,
        "pv": {
          "value": 0,
          "min": 0,
          "max": 0
        },
        "rd": 0,
        "rolls": [
          {
            "name": "Ataque",
            "key": "ataque0",
            "type": "ataque",
            "parts": [
              [
                "1d20",
                "",
                ""
              ],
              [
                "luta",
                "",
                ""
              ],
              [
                "+18",
                "",
                ""
              ]
            ]
          },
          {
            "name": "Dano",
            "key": "dano1",
            "type": "dano",
            "parts": [
              [
                "3d8+6",
                "trevas",
                ""
              ],
              [
                "",
                "",
                ""
              ]
            ],
            "versatil": ""
          },
          {
            "name": "PV Temporário",
            "key": "dano2",
            "type": "dano",
            "parts": [
              [
                "20",
                "curatpv",
                ""
              ],
              [
                "",
                "",
                ""
              ]
            ],
            "versatil": ""
          }
        ],
        "criticoM": 20,
        "criticoX": 2,
        "alcance": "",
        "tipoUso": "sim",
        "propriedades": {
          "ada": false,
          "agi": false,
          "alo": false,
          "arr": false,
          "dst": false,
          "dms": false,
          "dup": false,
          "lev": false,
          "mun": false,
          "ver": false,
          "des": false,
          "hib": false
        },
        "proficiencia": "simples",
        "proposito": "corpo-a-corpo",
        "empunhadura": "uma",
        "origin": "",
        "tags": [],
        "chatFlavor": "",
        "chatGif": "",
        "ativacao": {
          "custo": 0,
          "condicao": "",
          "execucao": "",
          "qtd": "",
          "special": ""
        },
        "consume": {
          "amount": 0,
          "mpMultiplier": false,
          "target": "",
          "type": ""
        },
        "upgrades": {
          "melhoria1": "",
          "melhoria2": "",
          "melhoria3": "",
          "melhoria4": "",
          "material": "",
          "encanto1": "",
          "encanto2": "",
          "encanto3": ""
        },
        "melhorias": {},
        "encantos": {},
        "size": "normal",
        "ataques": 0
      },
      "effects": [],
      "folder": null,
      "sort": 0,
      "ownership": {
        "default": 0,
        "tIn9sSkrT3mDWirx": 3
      },
      "flags": {},
      "_stats": {
        "systemId": "tormenta20",
        "systemVersion": "1.4.203d2",
        "coreVersion": "11.315",
        "createdTime": 1667013963177,
        "modifiedTime": 1700236883422,
        "lastModifiedBy": "5frcpPVF3cVfLwZA"
      },
      "_id": "1dUkvjqGzvhL4L2M",
      "_key": "!actors.items!MKKB4eECVXAjyvRy.1dUkvjqGzvhL4L2M"
    }
  ],
  "effects": [],
  "folder": "3f9xztQPcDuxpro9",
  "sort": 100001,
  "flags": {
    "editing": false,
    "tormenta20": {
      "sheet": {},
      "lvlconfig": {
        "pv": {},
        "pm": {}
      },
      "version": "1.3.0.0"
    },
    "core": {
      "sourceId": "Compendium.tormenta20.ameacas.MKKB4eECVXAjyvRy"
    }
  },
  "system": {
    "atributos": {
      "for": {
        "value": 0,
        "bonus": 0,
        "base": 0,
        "racial": 0
      },
      "des": {
        "value": 0,
        "bonus": 0,
        "base": 6,
        "racial": 0
      },
      "con": {
        "value": 0,
        "bonus": 0,
        "base": 0,
        "racial": 0
      },
      "int": {
        "value": 0,
        "bonus": 0,
        "base": 0,
        "racial": 0
      },
      "sab": {
        "value": 0,
        "bonus": 0,
        "base": 2,
        "racial": 0
      },
      "car": {
        "value": 0,
        "bonus": 0,
        "base": 2,
        "racial": 0
      }
    },
    "attributes": {
      "cd": 21,
      "pv": {
        "value": 110,
        "min": -500,
        "max": 110,
        "temp": 0
      },
      "pm": {
        "value": 0,
        "min": 0,
        "max": 0,
        "temp": 0
      },
      "movement": {
        "burrow": 0,
        "climb": 0,
        "fly": 18,
        "swim": 0,
        "walk": 9,
        "unit": "m",
        "hover": false,
        "notes": ""
      },
      "defesa": {
        "base": 23,
        "value": 0,
        "outros": 0,
        "atributo": "des",
        "pda": 0,
        "bonus": [],
        "condi": 0
      },
      "sentidos": {
        "value": [
          "escuro"
        ],
        "custom": ""
      },
      "conjuracao": "int",
      "nivel": {
        "value": 1,
        "xp": {
          "value": 0,
          "pct": 0,
          "proximo": 0
        }
      },
      "nd": "5",
      "carga": {
        "value": 0,
        "base": 10,
        "bonus": [],
        "max": 0,
        "pct": 0,
        "encumbered": false
      },
      "treino": 0
    },
    "detalhes": {
      "biography": {
        "value": "",
        "public": ""
      },
      "raca": "Morto-vivo",
      "tipo": "hum",
      "alinhamento": "",
      "divindade": "",
      "nd": "",
      "equipamento": "",
      "resistencias": "incorpóreo",
      "tesouro": "Nenhum.",
      "role": "solo",
      "origem": "",
      "ataquescac": "Toque drenante +18 (3d8+6 de trevas). Uma criatura viva atingida deve fazer um teste de Fortitude (CD 21). Se falhar, fica fraca e a aparição recebe 20 PV temporários cumulativos."
    },
    "tracos": {
      "tamanho": "med",
      "resistencias": {
        "perda": {
          "value": 0,
          "base": 0,
          "bonus": [],
          "imunidade": false,
          "vulnerabilidade": false
        },
        "acido": {
          "value": 0,
          "base": 0,
          "bonus": [],
          "imunidade": false,
          "vulnerabilidade": false
        },
        "corte": {
          "value": 0,
          "base": 0,
          "bonus": [],
          "imunidade": false,
          "vulnerabilidade": false
        },
        "eletricidade": {
          "value": 0,
          "base": 0,
          "bonus": [],
          "imunidade": false,
          "vulnerabilidade": false
        },
        "essencia": {
          "value": 0,
          "base": 0,
          "bonus": [],
          "imunidade": false,
          "vulnerabilidade": false
        },
        "fogo": {
          "value": 0,
          "base": 0,
          "bonus": [],
          "imunidade": false,
          "vulnerabilidade": false
        },
        "frio": {
          "value": 0,
          "base": 0,
          "bonus": [],
          "imunidade": false,
          "vulnerabilidade": false
        },
        "impacto": {
          "value": 0,
          "base": 0,
          "bonus": [],
          "imunidade": false,
          "vulnerabilidade": false
        },
        "luz": {
          "value": 0,
          "base": 0,
          "bonus": [],
          "imunidade": false,
          "vulnerabilidade": false
        },
        "psiquico": {
          "value": 0,
          "base": 0,
          "bonus": [],
          "imunidade": false,
          "vulnerabilidade": false
        },
        "perfuracao": {
          "value": 0,
          "base": 0,
          "bonus": [],
          "imunidade": false,
          "vulnerabilidade": false
        },
        "trevas": {
          "value": 0,
          "base": 0,
          "bonus": [],
          "imunidade": false,
          "vulnerabilidade": false
        },
        "dano": {
          "value": 0,
          "imunidade": false,
          "vulnerabilidade": false
        }
      },
      "ic": {
        "value": [],
        "custom": ""
      },
      "idiomas": {
        "value": [
          "comum"
        ]
      }
    },
    "dinheiro": {
      "tl": 0,
      "to": 0,
      "tp": 0,
      "tc": 0
    },
    "resources": {
      "primary": {
        "value": 0,
        "max": 0,
        "label": ""
      },
      "secondary": {
        "value": 0,
        "max": 0,
        "label": ""
      },
      "tertiary": {
        "value": 0,
        "max": 0,
        "label": ""
      },
      "deathsave": {
        "value": 0,
        "max": 3,
        "label": ""
      },
      "shadow": {
        "value": 0,
        "max": 5,
        "label": ""
      },
      "catarse": {
        "value": 0,
        "max": 3,
        "label": ""
      }
    },
    "pericias": {
      "acro": {
        "value": 0,
        "atributo": "des",
        "outros": 0,
        "treinado": false,
        "st": false,
        "pda": false,
        "size": false,
        "condi": 0,
        "bonus": [],
        "custom": false,
        "label": "",
        "nome": ""
      },
      "ades": {
        "value": 0,
        "atributo": "car",
        "outros": 0,
        "treinado": false,
        "st": false,
        "pda": false,
        "size": false,
        "condi": 0,
        "bonus": [],
        "custom": false,
        "label": "",
        "nome": ""
      },
      "atle": {
        "value": 0,
        "atributo": "for",
        "outros": 0,
        "treinado": false,
        "st": false,
        "pda": false,
        "size": false,
        "condi": 0,
        "bonus": [],
        "custom": false,
        "label": "",
        "nome": ""
      },
      "atua": {
        "value": 0,
        "atributo": "car",
        "outros": 0,
        "treinado": false,
        "st": false,
        "pda": false,
        "size": false,
        "condi": 0,
        "bonus": [],
        "custom": false,
        "label": "",
        "nome": ""
      },
      "cava": {
        "value": 0,
        "atributo": "des",
        "outros": 0,
        "treinado": false,
        "st": false,
        "pda": false,
        "size": false,
        "condi": 0,
        "bonus": [],
        "custom": false,
        "label": "",
        "nome": ""
      },
      "conh": {
        "value": 0,
        "atributo": "int",
        "outros": 0,
        "treinado": false,
        "st": false,
        "pda": false,
        "size": false,
        "condi": 0,
        "bonus": [],
        "custom": false,
        "label": "",
        "nome": ""
      },
      "cura": {
        "value": 0,
        "atributo": "sab",
        "outros": 0,
        "treinado": false,
        "st": false,
        "pda": false,
        "size": false,
        "condi": 0,
        "bonus": [],
        "custom": false,
        "label": "",
        "nome": ""
      },
      "dipl": {
        "value": 0,
        "atributo": "car",
        "outros": 0,
        "treinado": false,
        "st": false,
        "pda": false,
        "size": false,
        "condi": 0,
        "bonus": [],
        "custom": false,
        "label": "",
        "nome": ""
      },
      "enga": {
        "value": 0,
        "atributo": "car",
        "outros": 0,
        "treinado": false,
        "st": false,
        "pda": false,
        "size": false,
        "condi": 0,
        "bonus": [],
        "custom": false,
        "label": "",
        "nome": ""
      },
      "fort": {
        "value": 5,
        "atributo": "con",
        "outros": 5,
        "treinado": false,
        "st": false,
        "pda": false,
        "size": false,
        "condi": 0,
        "bonus": [],
        "custom": false,
        "label": "",
        "nome": ""
      },
      "furt": {
        "value": 15,
        "atributo": "des",
        "outros": 5,
        "treinado": true,
        "st": false,
        "pda": false,
        "size": false,
        "condi": 0,
        "bonus": [],
        "custom": false,
        "label": "",
        "nome": ""
      },
      "guer": {
        "value": 0,
        "atributo": "int",
        "outros": 0,
        "treinado": false,
        "st": false,
        "pda": false,
        "size": false,
        "condi": 0,
        "bonus": [],
        "custom": false,
        "label": "",
        "nome": ""
      },
      "inic": {
        "value": 10,
        "atributo": "des",
        "outros": 0,
        "treinado": true,
        "st": false,
        "pda": false,
        "size": false,
        "condi": 0,
        "bonus": [],
        "custom": false,
        "label": "",
        "nome": ""
      },
      "inti": {
        "value": 0,
        "atributo": "car",
        "outros": 0,
        "treinado": false,
        "st": false,
        "pda": false,
        "size": false,
        "condi": 0,
        "bonus": [],
        "custom": false,
        "label": "",
        "nome": ""
      },
      "intu": {
        "value": 0,
        "atributo": "sab",
        "outros": 0,
        "treinado": false,
        "label": "",
        "st": false,
        "pda": false,
        "bonus": [],
        "size": false,
        "condi": 0,
        "custom": false,
        "nome": ""
      },
      "inve": {
        "value": 0,
        "atributo": "int",
        "outros": 0,
        "treinado": false,
        "st": false,
        "pda": false,
        "size": false,
        "condi": 0,
        "bonus": [],
        "custom": false,
        "label": "",
        "nome": ""
      },
      "joga": {
        "value": 0,
        "atributo": "car",
        "outros": 0,
        "treinado": false,
        "st": false,
        "pda": false,
        "size": false,
        "condi": 0,
        "bonus": [],
        "custom": false,
        "label": "",
        "nome": ""
      },
      "ladi": {
        "value": 0,
        "atributo": "des",
        "outros": 0,
        "treinado": false,
        "st": false,
        "pda": false,
        "size": false,
        "condi": 0,
        "bonus": [],
        "custom": false,
        "label": "",
        "nome": ""
      },
      "luta": {
        "value": 0,
        "atributo": "for",
        "outros": 0,
        "treinado": false,
        "st": false,
        "pda": false,
        "size": false,
        "condi": 0,
        "bonus": [],
        "custom": false,
        "label": "",
        "nome": ""
      },
      "mist": {
        "value": 0,
        "atributo": "int",
        "outros": 0,
        "treinado": false,
        "st": false,
        "pda": false,
        "size": false,
        "condi": 0,
        "bonus": [],
        "custom": false,
        "label": "",
        "nome": ""
      },
      "nobr": {
        "value": 0,
        "atributo": "int",
        "outros": 0,
        "treinado": false,
        "st": false,
        "pda": false,
        "size": false,
        "condi": 0,
        "bonus": [],
        "custom": false,
        "label": "",
        "nome": ""
      },
      "ofi0": {
        "value": 0,
        "atributo": "int",
        "outros": 0,
        "treinado": false,
        "st": false,
        "pda": false,
        "size": false,
        "condi": 0,
        "bonus": [],
        "custom": false,
        "label": "",
        "nome": ""
      },
      "perc": {
        "value": 6,
        "atributo": "sab",
        "outros": 0,
        "treinado": true,
        "st": false,
        "pda": false,
        "size": false,
        "condi": 0,
        "bonus": [],
        "custom": false,
        "label": "",
        "nome": ""
      },
      "pilo": {
        "value": 0,
        "atributo": "des",
        "outros": 0,
        "treinado": false,
        "st": false,
        "pda": false,
        "size": false,
        "condi": 0,
        "bonus": [],
        "custom": false,
        "label": "",
        "nome": ""
      },
      "pont": {
        "value": 0,
        "atributo": "des",
        "outros": 0,
        "treinado": false,
        "st": false,
        "pda": false,
        "size": false,
        "condi": 0,
        "bonus": [],
        "custom": false,
        "label": "",
        "nome": ""
      },
      "refl": {
        "value": 17,
        "atributo": "des",
        "outros": 17,
        "treinado": false,
        "st": false,
        "pda": false,
        "size": false,
        "condi": 0,
        "bonus": [],
        "custom": false,
        "label": "",
        "nome": ""
      },
      "reli": {
        "value": 0,
        "atributo": "sab",
        "outros": 0,
        "treinado": false,
        "st": false,
        "pda": false,
        "size": false,
        "condi": 0,
        "bonus": [],
        "custom": false,
        "label": "",
        "nome": ""
      },
      "sobr": {
        "value": 0,
        "atributo": "sab",
        "outros": 0,
        "treinado": false,
        "st": false,
        "pda": false,
        "size": false,
        "condi": 0,
        "bonus": [],
        "custom": false,
        "label": "",
        "nome": ""
      },
      "vont": {
        "value": 11,
        "atributo": "sab",
        "outros": 11,
        "treinado": false,
        "st": false,
        "pda": false,
        "size": false,
        "condi": 0,
        "bonus": [],
        "custom": false,
        "label": "",
        "nome": ""
      },
      "_pc0": {
        "value": 0,
        "atributo": "for",
        "outros": 0,
        "treinado": false,
        "st": false,
        "pda": false,
        "size": false,
        "condi": 0,
        "bonus": [],
        "custom": false,
        "label": "",
        "nome": ""
      }
    },
    "modificadores": {
      "atributos": {
        "geral": [
          ""
        ],
        "fisicos": [
          ""
        ],
        "mentais": [
          ""
        ],
        "for": [
          ""
        ],
        "des": [
          ""
        ],
        "con": [
          ""
        ],
        "int": [
          ""
        ],
        "sab": [
          ""
        ],
        "car": [
          ""
        ]
      },
      "dano": {
        "geral": [
          ""
        ],
        "cac": [
          ""
        ],
        "ad": [
          ""
        ],
        "mag": [
          ""
        ],
        "alq": [
          ""
        ]
      },
      "custoPM": "0",
      "pericias": {
        "geral": [
          ""
        ],
        "semataque": [
          ""
        ],
        "ataque": [
          ""
        ],
        "resistencia": [
          ""
        ],
        "atr": {
          "for": [
            ""
          ],
          "des": [
            ""
          ],
          "con": [
            ""
          ],
          "int": [
            ""
          ],
          "sab": [
            ""
          ],
          "car": [
            ""
          ]
        }
      },
      "ataque": {
        "geral": [],
        "cac": [],
        "ad": []
      }
    },
    "builder": {
      "attributes": {
        "cr": "",
        "size": "",
        "attack": {
          "value": 0,
          "cr": ""
        },
        "damage": {
          "value": 0,
          "cr": ""
        },
        "defense": {
          "value": 0,
          "cr": ""
        },
        "fort": {
          "value": 0,
          "rank": 2,
          "cr": ""
        },
        "refl": {
          "value": 0,
          "rank": 1,
          "cr": ""
        },
        "vont": {
          "value": 0,
          "rank": 0,
          "cr": ""
        },
        "topsave": {
          "value": 0,
          "cr": ""
        },
        "midsave": {
          "value": 0,
          "cr": ""
        },
        "botsave": {
          "value": 0,
          "cr": ""
        },
        "hp": {
          "value": 0,
          "cr": ""
        },
        "mp": {
          "value": 0,
          "cr": ""
        },
        "dc": {
          "value": 0,
          "cr": ""
        }
      },
      "details": {
        "concept": "",
        "creatureType": "",
        "role": "",
        "treasure": ""
      }
    }
  },
  "ownership": {
    "default": 0
  },
  "prototypeToken": {
    "flags": {},
    "name": "Aparição",
    "displayName": 0,
    "width": 1,
    "height": 1,
    "lockRotation": false,
    "rotation": 0,
    "actorLink": false,
    "disposition": -1,
    "displayBars": 0,
    "bar1": {
      "attribute": "attributes.pv"
    },
    "bar2": {
      "attribute": "attributes.pm"
    },
    "randomImg": false,
    "alpha": 1,
    "light": {
      "dim": 0,
      "bright": 0,
      "angle": 360,
      "color": null,
      "alpha": 1,
      "animation": {
        "speed": 5,
        "intensity": 5,
        "type": null,
        "reverse": false
      },
      "coloration": 1,
      "attenuation": 0.5,
      "luminosity": 0.5,
      "saturation": 0,
      "contrast": 0,
      "shadows": 0,
      "darkness": {
        "min": 0,
        "max": 1
      }
    },
    "texture": {
      "src": "systems/tormenta20/icons/ameacas/aparicao.png",
      "tint": null,
      "scaleX": 1,
      "scaleY": 1,
      "offsetX": 0,
      "offsetY": 0,
      "rotation": 0
    },
    "sight": {
      "angle": 360,
      "enabled": true,
      "range": 30,
      "brightness": 1,
      "visionMode": "basic",
      "color": null,
      "attenuation": 0.1,
      "saturation": 0,
      "contrast": 0
    },
    "detectionModes": [],
    "appendNumber": false,
    "prependAdjective": false
  },
  "_stats": {
    "systemId": "tormenta20",
    "systemVersion": "1.4.203d2",
    "coreVersion": "11.315",
    "createdTime": 1661997945944,
    "modifiedTime": 1700236883422,
    "lastModifiedBy": "5frcpPVF3cVfLwZA"
  },
  "_key": "!actors!MKKB4eECVXAjyvRy"
}
