{
  "_id": "FF9PpLugg4L34Jh1",
  "name": "Besouro Aberrante",
  "type": "npc",
  "img": "systems/tormenta20/icons/ameacas/besouro-aberrante.png",
  "items": [
    {
      "name": "Carapaça",
      "type": "poder",
      "img": "systems/tormenta20/icons/poderes/tormenta.webp",
      "effects": [
        {
          "_id": "ty90p0VywiIQpTqM",
          "changes": [
            {
              "key": "system.attributes.defesa.bonus",
              "mode": 2,
              "value": "(@tormenta2*1)",
              "priority": null
            }
          ],
          "disabled": false,
          "duration": {
            "startTime": null,
            "seconds": null,
            "combat": null,
            "rounds": null,
            "turns": null,
            "startRound": null,
            "startTurn": null
          },
          "icon": "systems/tormenta20/icons/poderes/tormenta.webp",
          "label": "Carapaça",
          "origin": "Item.SARGh0sd089lyvyN",
          "transfer": true,
          "flags": {
            "tormenta20": {
              "onuse": false,
              "durationScene": false
            }
          },
          "tint": null,
          "_key": "!actors.items.effects!FF9PpLugg4L34Jh1.d1vycQkQCefarLeg.ty90p0VywiIQpTqM"
        }
      ],
      "flags": {
        "core": {
          "sourceId": "Compendium.tormenta20.poderes.sNlQ744psb8AiY8a"
        }
      },
      "system": {
        "description": {
          "value": "A carapaça do thuwarokk reduz todo dano de corte, impacto e perfuração que ele sofre pela metade. Se o thuwarokk passar num teste de resistência contra magia que o tem como alvo, ela é revertida contra o conjurador. Apesar de resistente, a caparaça de um thuwarokk possui pontos fracos, que podem ser encontrados com uma ação de movimento e um teste de Percepção (CD 25). Um personagem que encontre um ponto  fraco pode atacar a criatura com -5 no teste de ataque, mas, se acertar, ignora as proteções da carapaça",
          "unidentified": ""
        },
        "source": "T20, pg. 136 (JdA)",
        "ativacao": {
          "execucao": "",
          "custo": 0,
          "qtd": "",
          "condicao": "",
          "special": ""
        },
        "duracao": {
          "value": 0,
          "units": "",
          "special": ""
        },
        "target": {
          "value": null,
          "width": null,
          "type": ""
        },
        "range": {
          "value": null,
          "units": ""
        },
        "consume": {
          "type": "",
          "target": "",
          "amount": null,
          "mpMultiplier": false
        },
        "efeito": "",
        "alcance": "none",
        "alvo": "",
        "area": "",
        "resistencia": {
          "pericia": "",
          "atributo": "",
          "bonus": 0,
          "txt": ""
        },
        "rolls": [],
        "tipo": "geral",
        "subtipo": "Tormenta",
        "chatFlavor": "",
        "origin": "",
        "tags": [],
        "chatGif": ""
      },
      "ownership": {
        "default": 0,
        "tIn9sSkrT3mDWirx": 3
      },
      "_stats": {
        "systemId": "tormenta20",
        "systemVersion": "1.4.1004",
        "coreVersion": "10.286",
        "createdTime": 1664306185646,
        "modifiedTime": 1667030205879,
        "lastModifiedBy": "tIn9sSkrT3mDWirx"
      },
      "folder": "U1ljOScEILi51VCa",
      "sort": 0,
      "_id": "d1vycQkQCefarLeg",
      "_key": "!actors.items!FF9PpLugg4L34Jh1.d1vycQkQCefarLeg"
    },
    {
      "type": "poder",
      "name": "Jato de Ácido",
      "img": "icons/svg/item-bag.svg",
      "system": {
        "description": {
          "value": "O thuwarokk dispara um jato corrosivo que atinge um cone de 30m. Criaturas na área sofrem 10d8+20 pontos de dano de ácido (Ref CD 42 reduz à metade). Recarga (movimento)",
          "unidentified": ""
        },
        "source": "",
        "ativacao": {
          "execucao": "move",
          "custo": 0,
          "qtd": "0",
          "condicao": "",
          "special": ""
        },
        "duracao": {
          "value": 0,
          "units": "",
          "special": ""
        },
        "target": {
          "value": null,
          "width": null,
          "type": ""
        },
        "range": {
          "value": null,
          "units": ""
        },
        "consume": {
          "type": "",
          "target": "",
          "amount": null,
          "mpMultiplier": false
        },
        "efeito": "",
        "alcance": "",
        "alvo": "",
        "area": "",
        "resistencia": {
          "pericia": "",
          "atributo": "",
          "bonus": 0,
          "txt": ""
        },
        "rolls": [],
        "tipo": "",
        "subtipo": "",
        "origin": "",
        "tags": [],
        "chatFlavor": "",
        "chatGif": ""
      },
      "effects": [],
      "folder": null,
      "sort": 0,
      "ownership": {
        "default": 0,
        "tIn9sSkrT3mDWirx": 3
      },
      "flags": {},
      "_stats": {
        "systemId": "tormenta20",
        "systemVersion": "1.4.1004",
        "coreVersion": "10.286",
        "createdTime": 1667030205880,
        "modifiedTime": 1667030205880,
        "lastModifiedBy": "tIn9sSkrT3mDWirx"
      },
      "_id": "7uea1a24gB2hD6W3",
      "_key": "!actors.items!FF9PpLugg4L34Jh1.7uea1a24gB2hD6W3"
    },
    {
      "type": "poder",
      "name": "Passar por Cima",
      "img": "icons/svg/item-bag.svg",
      "system": {
        "description": {
          "value": "O thuwarokk percorre até o dobro do seu deslocamento, passando por qualquer criatura Enorme ou menor. Uma criatura atropelada sofre 10d12+50 pontos de dano (Ref CD 42 reduz à metade).",
          "unidentified": ""
        },
        "source": "",
        "ativacao": {
          "execucao": "full",
          "custo": 0,
          "qtd": "0",
          "condicao": "",
          "special": ""
        },
        "duracao": {
          "value": 0,
          "units": "",
          "special": ""
        },
        "target": {
          "value": null,
          "width": null,
          "type": ""
        },
        "range": {
          "value": null,
          "units": ""
        },
        "consume": {
          "type": "",
          "target": "",
          "amount": null,
          "mpMultiplier": false
        },
        "efeito": "",
        "alcance": "",
        "alvo": "",
        "area": "",
        "resistencia": {
          "pericia": "",
          "atributo": "",
          "bonus": 0,
          "txt": ""
        },
        "rolls": [],
        "tipo": "",
        "subtipo": "",
        "origin": "",
        "tags": [],
        "chatFlavor": "",
        "chatGif": ""
      },
      "effects": [],
      "folder": null,
      "sort": 0,
      "ownership": {
        "default": 0,
        "tIn9sSkrT3mDWirx": 3
      },
      "flags": {},
      "_stats": {
        "systemId": "tormenta20",
        "systemVersion": "1.4.1004",
        "coreVersion": "10.286",
        "createdTime": 1667030205880,
        "modifiedTime": 1667030205880,
        "lastModifiedBy": "tIn9sSkrT3mDWirx"
      },
      "_id": "9Tvji8APEDib4fYm",
      "_key": "!actors.items!FF9PpLugg4L34Jh1.9Tvji8APEDib4fYm"
    },
    {
      "folder": "38RRBscxCtcFC5s4",
      "name": "Pancada",
      "type": "arma",
      "img": "icons/creatures/abilities/tail-swipe-green.webp",
      "system": {
        "description": {
          "value": "<section class=\"secret\">Quatro pancadas</section>",
          "unidentified": ""
        },
        "source": "",
        "equipado": 0,
        "carregado": true,
        "peso": 0,
        "espacos": 0,
        "qtd": 0,
        "preco": 0,
        "pv": {
          "value": 0,
          "min": 0,
          "max": 0
        },
        "rd": 0,
        "rolls": [
          {
            "name": "Ataque",
            "key": "ataque0",
            "type": "ataque",
            "versatil": "",
            "parts": [
              [
                "1d20",
                "",
                "weapon"
              ],
              [
                "",
                "",
                "skill"
              ],
              [
                "+48",
                "",
                "weaponbonus"
              ]
            ]
          },
          {
            "name": "Dano",
            "key": "dano1",
            "type": "dano",
            "versatil": "",
            "parts": [
              [
                "4d12+24",
                "impacto",
                "weapon"
              ],
              [
                "",
                "impacto",
                "ability"
              ]
            ]
          }
        ],
        "criticoM": 20,
        "criticoX": 2,
        "alcance": "",
        "tipoUso": "sim",
        "propriedades": {
          "ada": false,
          "agi": false,
          "alo": false,
          "arr": false,
          "dst": false,
          "dms": false,
          "dup": false,
          "lev": false,
          "mun": false,
          "ver": false
        },
        "origin": "",
        "tags": [],
        "chatFlavor": "",
        "ativacao": {
          "custo": null,
          "condicao": "",
          "execucao": "",
          "qtd": "",
          "special": ""
        },
        "consume": {
          "amount": null,
          "mpMultiplier": false,
          "type": "",
          "target": ""
        },
        "encantos": {
          "lancinante": false,
          "keen": null,
          "bane": null,
          "throwable": null,
          "assassin": null,
          "seeking": null,
          "frost": null,
          "caster": null,
          "corrosive": null,
          "dancing": null,
          "defending": null,
          "destructive": null,
          "lacerating": null,
          "draining": null,
          "shock": null,
          "energy": null,
          "excruciating": null,
          "flaming": null,
          "formidable": null,
          "lancinating": false,
          "magnificent": null,
          "merciful": null,
          "unholy": null,
          "holy": null,
          "bloodthirsty": null,
          "thundering": null,
          "sepulchral": null,
          "speed": null,
          "poisonous": null
        },
        "melhorias": {
          "accurate": null,
          "pungent": null,
          "cruel": null,
          "atrocious": null,
          "balanced": null,
          "harmonized": null,
          "injection": null,
          "massive": null,
          "specialmaterial": null,
          "scope": null,
          "precise": null,
          "golden": null,
          "gems": null,
          "discreet": null,
          "macabre": null
        },
        "chatGif": "",
        "upgrades": {
          "melhoria1": "",
          "melhoria2": "",
          "melhoria3": "",
          "melhoria4": "",
          "material": "",
          "encanto1": "",
          "encanto2": "",
          "encanto3": ""
        },
        "proficiencia": "natural",
        "proposito": "corpo-a-corpo",
        "empunhadura": "leve",
        "size": "normal",
        "ataques": 0
      },
      "effects": [],
      "sort": 0,
      "ownership": {
        "default": 0,
        "tIn9sSkrT3mDWirx": 3
      },
      "flags": {},
      "_stats": {
        "systemId": "tormenta20",
        "systemVersion": "1.4.1004",
        "coreVersion": "10.286",
        "createdTime": 1666318097513,
        "modifiedTime": 1667030205881,
        "lastModifiedBy": "tIn9sSkrT3mDWirx"
      },
      "_id": "dipSYz2IAVIItwcJ",
      "_key": "!actors.items!FF9PpLugg4L34Jh1.dipSYz2IAVIItwcJ"
    },
    {
      "folder": "0V7x5o397UvG3xKP",
      "name": "Insanidade da Tormenta",
      "type": "poder",
      "img": "icons/magic/unholy/strike-body-explode-disintegrate.webp",
      "system": {
        "description": {
          "value": "<p style=\"text-align: justify;\">&nbsp;2d12 PM (Vontade CD 42 evita).</p>\n<p style=\"text-align: justify;\">Uma criatura que veja um ou mais lefeu deve fazer um teste de Vontade contra o lefeu de maior ND. Se falhar, perde os PM indicados (+1 PM para cada lefeu al&eacute;m do primeiro). Se for reduzida a 0 PM, fica confusa. Uma criatura s&oacute; &eacute; afetada por esta habilidade uma vez por dia.</p>",
          "unidentified": ""
        },
        "source": "",
        "ativacao": {
          "execucao": "",
          "custo": 0,
          "qtd": "",
          "condicao": "",
          "special": ""
        },
        "duracao": {
          "value": 0,
          "units": "",
          "special": ""
        },
        "target": {
          "value": null,
          "width": null,
          "type": ""
        },
        "range": {
          "value": null,
          "units": ""
        },
        "consume": {
          "type": "",
          "target": "",
          "amount": null,
          "mpMultiplier": false
        },
        "efeito": "",
        "alcance": "none",
        "alvo": "",
        "area": "",
        "resistencia": {
          "pericia": "",
          "atributo": "",
          "bonus": 0,
          "txt": ""
        },
        "rolls": [
          {
            "name": "Dano",
            "key": "dano0",
            "type": "dano",
            "parts": [
              [
                "-2d12",
                "curapm",
                ""
              ]
            ],
            "versatil": ""
          }
        ],
        "tipo": "ability",
        "subtipo": "",
        "origin": "",
        "tags": [],
        "chatFlavor": "",
        "chatGif": ""
      },
      "effects": [
        {
          "label": "Confuso",
          "duration": {
            "rounds": 999,
            "startTime": null,
            "seconds": null,
            "combat": null,
            "turns": null,
            "startRound": null,
            "startTurn": null
          },
          "icon": "systems/tormenta20/icons/conditions/confuso.svg",
          "flags": {
            "core": {
              "statusId": "confuso"
            },
            "tormenta20": {
              "condition": true,
              "durationScene": true,
              "category": "mental"
            }
          },
          "_id": "yU7T8jfy826XrLMo",
          "changes": [],
          "disabled": false,
          "origin": null,
          "tint": null,
          "transfer": true,
          "_key": "!actors.items.effects!FF9PpLugg4L34Jh1.SADg9xY46Gfm1Hbw.yU7T8jfy826XrLMo"
        }
      ],
      "sort": 0,
      "ownership": {
        "default": 0,
        "tIn9sSkrT3mDWirx": 3
      },
      "flags": {
        "core": {
          "sourceId": "Item.8nFwKzbB32HSlNC5"
        }
      },
      "_stats": {
        "systemId": "tormenta20",
        "systemVersion": "1.4.1004",
        "coreVersion": "10.286",
        "createdTime": 1667028374851,
        "modifiedTime": 1667030296564,
        "lastModifiedBy": "tIn9sSkrT3mDWirx"
      },
      "_id": "SADg9xY46Gfm1Hbw",
      "_key": "!actors.items!FF9PpLugg4L34Jh1.SADg9xY46Gfm1Hbw"
    },
    {
      "folder": "0V7x5o397UvG3xKP",
      "name": "Imunidades Aberrantes",
      "type": "poder",
      "img": "icons/magic/defensive/shield-barrier-glowing-triangle-red.webp",
      "system": {
        "description": {
          "value": "<p style=\"text-align: justify;\">Dem&ocirc;nios Aberrantes s&atilde;o imunes a acertos cr&iacute;ticos, &aacute;cido, cansa&ccedil;o, eletricidade, fogo, frio, luz, paralisia, metabolismo, metamorfose, trevas e veneno.</p>",
          "unidentified": ""
        },
        "source": "",
        "ativacao": {
          "execucao": "",
          "custo": 0,
          "qtd": "",
          "condicao": "",
          "special": ""
        },
        "duracao": {
          "value": 0,
          "units": "",
          "special": ""
        },
        "target": {
          "value": null,
          "width": null,
          "type": ""
        },
        "range": {
          "value": null,
          "units": ""
        },
        "consume": {
          "type": "",
          "target": "",
          "amount": null,
          "mpMultiplier": false
        },
        "efeito": "",
        "alcance": "none",
        "alvo": "",
        "area": "",
        "resistencia": {
          "pericia": "",
          "atributo": "",
          "bonus": 0,
          "txt": ""
        },
        "rolls": [],
        "tipo": "ability",
        "subtipo": "",
        "origin": "",
        "tags": [],
        "chatFlavor": "",
        "chatGif": ""
      },
      "effects": [],
      "sort": 2500000,
      "ownership": {
        "default": 0,
        "tIn9sSkrT3mDWirx": 3
      },
      "flags": {
        "core": {
          "sourceId": "Item.KmlXhUC00mqcCPNx"
        }
      },
      "_stats": {
        "systemId": "tormenta20",
        "systemVersion": "1.4.1004",
        "coreVersion": "10.286",
        "createdTime": 1666320099383,
        "modifiedTime": 1667030269790,
        "lastModifiedBy": "tIn9sSkrT3mDWirx"
      },
      "_id": "F0myghc3PmahvYIG",
      "_key": "!actors.items!FF9PpLugg4L34Jh1.F0myghc3PmahvYIG"
    },
    {
      "folder": "0V7x5o397UvG3xKP",
      "name": "Percepção Temporal",
      "type": "poder",
      "img": "icons/creatures/eyes/slime-single-red.webp",
      "system": {
        "description": {
          "value": "<p>Um lefeu soma sua Sabedoria em testes de ataque, Defesa e Reflexos (j&aacute; contabilizado na ficha).</p>",
          "unidentified": ""
        },
        "source": "",
        "ativacao": {
          "execucao": "",
          "custo": 0,
          "qtd": "",
          "condicao": "",
          "special": ""
        },
        "duracao": {
          "value": 0,
          "units": "",
          "special": ""
        },
        "target": {
          "value": null,
          "width": null,
          "type": ""
        },
        "range": {
          "value": null,
          "units": ""
        },
        "consume": {
          "type": "",
          "target": "",
          "amount": null,
          "mpMultiplier": false
        },
        "efeito": "",
        "alcance": "none",
        "alvo": "",
        "area": "",
        "resistencia": {
          "pericia": "",
          "atributo": "",
          "bonus": 0,
          "txt": ""
        },
        "rolls": [],
        "tipo": "ability",
        "subtipo": "",
        "origin": "",
        "tags": [],
        "chatFlavor": "",
        "chatGif": ""
      },
      "effects": [],
      "sort": 3600000,
      "ownership": {
        "default": 0,
        "tIn9sSkrT3mDWirx": 3
      },
      "flags": {
        "core": {
          "sourceId": "Item.5hX4IRxSL81T6Oo8"
        }
      },
      "_stats": {
        "systemId": "tormenta20",
        "systemVersion": "1.4.1004",
        "coreVersion": "10.286",
        "createdTime": 1666319947131,
        "modifiedTime": 1667030270628,
        "lastModifiedBy": "tIn9sSkrT3mDWirx"
      },
      "_id": "nWKwjFvjZmCc1aTQ",
      "_key": "!actors.items!FF9PpLugg4L34Jh1.nWKwjFvjZmCc1aTQ"
    },
    {
      "name": "Visão Ampla",
      "type": "poder",
      "img": "systems/tormenta20/icons/poderes/ameacas/visao-ampla.webp",
      "system": {
        "description": {
          "value": "<p>Um lefeu recebe +5 em Percep&ccedil;&atilde;o e n&atilde;o pode ser flanqueado.</p>",
          "chat": "",
          "unidentified": ""
        },
        "source": "",
        "ativacao": {
          "execucao": "",
          "custo": 0,
          "qtd": "",
          "condicao": "",
          "special": ""
        },
        "duracao": {
          "value": 0,
          "units": "",
          "special": ""
        },
        "target": {
          "value": null,
          "width": null,
          "units": "",
          "type": ""
        },
        "range": {
          "value": null,
          "units": ""
        },
        "consume": {
          "type": "",
          "target": "",
          "amount": null,
          "mpMultiplier": false
        },
        "efeito": "",
        "alcance": "none",
        "alvo": "",
        "area": "",
        "resistencia": {
          "pericia": "",
          "atributo": "",
          "bonus": 0,
          "txt": ""
        },
        "rolls": [],
        "tipo": "ability",
        "subtipo": "",
        "origin": "",
        "tags": [],
        "chatFlavor": "",
        "chatGif": "",
        "rolltags": []
      },
      "effects": [
        {
          "name": "Visão Ampla",
          "icon": "systems/tormenta20/icons/poderes/ameacas/visao-ampla.webp",
          "origin": "Compendium.tormenta20.habilidades-de-criaturas.Item.EIYfP5jU2e73gtyR",
          "tint": "#FFFFFF",
          "flags": {
            "tormenta20": {
              "onuse": false,
              "durationScene": false
            }
          },
          "duration": {
            "startTime": null,
            "seconds": null,
            "combat": null,
            "rounds": null,
            "turns": null,
            "startRound": null,
            "startTurn": null
          },
          "disabled": false,
          "_id": "hzHR5CmkAoSjbmwI",
          "changes": [
            {
              "key": "system.pericias.perc.bonus",
              "mode": 2,
              "value": "5",
              "priority": null
            }
          ],
          "description": "",
          "transfer": true,
          "statuses": [],
          "_key": "!actors.items.effects!FF9PpLugg4L34Jh1.hhw58Lt5d8KOwhdl.hzHR5CmkAoSjbmwI"
        }
      ],
      "flags": {
        "core": {
          "sourceId": "Compendium.tormenta20.habilidades-de-criaturas.Item.EIYfP5jU2e73gtyR"
        }
      },
      "_stats": {
        "systemId": "tormenta20",
        "systemVersion": "1.4.203d2",
        "coreVersion": "11.315",
        "createdTime": 1666320018824,
        "modifiedTime": 1700000707407,
        "lastModifiedBy": "5frcpPVF3cVfLwZA"
      },
      "_id": "hhw58Lt5d8KOwhdl",
      "folder": null,
      "sort": 3700000,
      "ownership": {
        "default": 0,
        "tIn9sSkrT3mDWirx": 3,
        "5frcpPVF3cVfLwZA": 3
      },
      "_key": "!actors.items!FF9PpLugg4L34Jh1.hhw58Lt5d8KOwhdl"
    }
  ],
  "effects": [
    {
      "label": "Confuso",
      "duration": {
        "rounds": 999,
        "startTime": 0,
        "seconds": null,
        "combat": null,
        "turns": null,
        "startRound": null,
        "startTurn": null
      },
      "icon": "systems/tormenta20/icons/conditions/confuso.svg",
      "flags": {
        "core": {
          "statusId": "confuso"
        },
        "tormenta20": {
          "condition": true,
          "durationScene": true,
          "category": "mental"
        }
      },
      "_id": "Wla6DCDkDrKDeHaP",
      "changes": [],
      "disabled": false,
      "origin": "Actor.FF9PpLugg4L34Jh1.Item.SADg9xY46Gfm1Hbw",
      "tint": null,
      "transfer": false,
      "_key": "!actors.effects!FF9PpLugg4L34Jh1.Wla6DCDkDrKDeHaP"
    },
    {
      "name": "Visão Ampla",
      "icon": "systems/tormenta20/icons/poderes/ameacas/visao-ampla.webp",
      "origin": "Compendium.tormenta20.ameacas.Actor.FF9PpLugg4L34Jh1.Item.hhw58Lt5d8KOwhdl",
      "tint": "#FFFFFF",
      "flags": {
        "tormenta20": {
          "onuse": false,
          "durationScene": false
        }
      },
      "duration": {
        "startTime": 0,
        "seconds": null,
        "combat": null,
        "rounds": null,
        "turns": null,
        "startRound": null,
        "startTurn": null
      },
      "disabled": false,
      "_id": "3pWXaRzHgn4PyiKt",
      "changes": [
        {
          "key": "system.pericias.perc.bonus",
          "mode": 2,
          "value": "5",
          "priority": null
        }
      ],
      "description": "",
      "transfer": false,
      "statuses": [],
      "_key": "!actors.effects!FF9PpLugg4L34Jh1.3pWXaRzHgn4PyiKt"
    }
  ],
  "folder": "Z9WAGfE8htpoQNbZ",
  "sort": 100001,
  "flags": {
    "exportSource": {
      "world": "andreverse-t20",
      "system": "tormenta20",
      "coreVersion": "0.6.6",
      "systemVersion": "0.9.71"
    },
    "editing": false,
    "tormenta20": {
      "sheet": {},
      "lvlconfig": {
        "pv": {},
        "pm": {}
      },
      "version": "1.3.0.0"
    },
    "core": {
      "sourceId": "Compendium.tormenta20.ameacas.FF9PpLugg4L34Jh1"
    }
  },
  "system": {
    "atributos": {
      "for": {
        "value": 0,
        "bonus": 0,
        "base": 17,
        "racial": 0
      },
      "des": {
        "value": 0,
        "bonus": 0,
        "base": -1,
        "racial": 0
      },
      "con": {
        "value": 0,
        "bonus": 0,
        "base": 10,
        "racial": 0
      },
      "int": {
        "value": 0,
        "bonus": 0,
        "base": -3,
        "racial": 0
      },
      "sab": {
        "value": 0,
        "bonus": 0,
        "base": 0,
        "racial": 0
      },
      "car": {
        "value": 0,
        "bonus": 0,
        "base": -4,
        "racial": 0
      }
    },
    "attributes": {
      "cd": 42,
      "pv": {
        "value": 900,
        "min": -500,
        "max": 900,
        "temp": 0
      },
      "pm": {
        "value": 0,
        "min": 0,
        "max": 0,
        "temp": 0
      },
      "movement": {
        "burrow": 0,
        "climb": 0,
        "fly": 0,
        "swim": 0,
        "walk": 12,
        "unit": "m",
        "hover": false,
        "notes": ""
      },
      "defesa": {
        "base": 50,
        "value": 0,
        "outros": 0,
        "atributo": "des",
        "pda": 0,
        "bonus": [],
        "condi": 0
      },
      "sentidos": {
        "value": [
          "escuro"
        ],
        "custom": ""
      },
      "conjuracao": "int",
      "nivel": {
        "value": 1,
        "xp": {
          "value": 0,
          "pct": 0,
          "proximo": 0
        }
      },
      "nd": "16",
      "carga": {
        "value": 0,
        "base": 10,
        "bonus": [],
        "max": 0,
        "pct": 0,
        "encumbered": false
      },
      "treino": 0
    },
    "detalhes": {
      "biography": {
        "value": "",
        "public": ""
      },
      "raca": "lefeu",
      "tipo": "mon",
      "alinhamento": "",
      "divindade": "",
      "nd": "",
      "equipamento": "",
      "resistencias": "redução de dano 10",
      "tesouro": "Nenhum.",
      "role": "solo",
      "origem": "",
      "ataquescac": "Quatro pancadas +48 (4d12+24)."
    },
    "tracos": {
      "tamanho": "col",
      "resistencias": {
        "perda": {
          "value": 0,
          "base": 0,
          "bonus": [],
          "imunidade": false,
          "vulnerabilidade": false
        },
        "acido": {
          "value": 0,
          "base": 0,
          "bonus": [],
          "imunidade": false,
          "vulnerabilidade": false
        },
        "corte": {
          "value": 0,
          "base": 0,
          "bonus": [],
          "imunidade": false,
          "vulnerabilidade": false
        },
        "eletricidade": {
          "value": 0,
          "base": 0,
          "bonus": [],
          "imunidade": false,
          "vulnerabilidade": false
        },
        "essencia": {
          "value": 0,
          "base": 0,
          "bonus": [],
          "imunidade": false,
          "vulnerabilidade": false
        },
        "fogo": {
          "value": 0,
          "base": 0,
          "bonus": [],
          "imunidade": false,
          "vulnerabilidade": false
        },
        "frio": {
          "value": 0,
          "base": 0,
          "bonus": [],
          "imunidade": false,
          "vulnerabilidade": false
        },
        "impacto": {
          "value": 0,
          "base": 0,
          "bonus": [],
          "imunidade": false,
          "vulnerabilidade": false
        },
        "luz": {
          "value": 0,
          "base": 0,
          "bonus": [],
          "imunidade": false,
          "vulnerabilidade": false
        },
        "psiquico": {
          "value": 0,
          "base": 0,
          "bonus": [],
          "imunidade": false,
          "vulnerabilidade": false
        },
        "perfuracao": {
          "value": 0,
          "base": 0,
          "bonus": [],
          "imunidade": false,
          "vulnerabilidade": false
        },
        "trevas": {
          "value": 0,
          "base": 0,
          "bonus": [],
          "imunidade": false,
          "vulnerabilidade": false
        },
        "dano": {
          "value": 10,
          "imunidade": false,
          "vulnerabilidade": false
        }
      },
      "ic": {
        "value": [
          "cansaco",
          "exausto",
          "fatigado",
          "luz",
          "metabolismo",
          "doente",
          "enjoado",
          "sangrando",
          "metamorfose",
          "petrificado",
          "paralisado",
          "trevas",
          "veneno",
          "envenenado"
        ],
        "custom": ""
      },
      "idiomas": {
        "value": [
          "comum"
        ]
      }
    },
    "dinheiro": {
      "tl": 0,
      "to": 0,
      "tp": 0,
      "tc": 0
    },
    "resources": {
      "primary": {
        "value": 0,
        "max": 0,
        "label": ""
      },
      "secondary": {
        "value": 0,
        "max": 0,
        "label": ""
      },
      "tertiary": {
        "value": 0,
        "max": 0,
        "label": ""
      },
      "deathsave": {
        "value": 0,
        "max": 3,
        "label": ""
      },
      "shadow": {
        "value": 0,
        "max": 5,
        "label": ""
      },
      "catarse": {
        "value": 0,
        "max": 3,
        "label": ""
      }
    },
    "pericias": {
      "acro": {
        "value": 0,
        "atributo": "des",
        "outros": 0,
        "treinado": false,
        "st": false,
        "pda": false,
        "size": false,
        "condi": 0,
        "bonus": [],
        "custom": false,
        "label": "",
        "nome": ""
      },
      "ades": {
        "value": 0,
        "atributo": "car",
        "outros": 0,
        "treinado": false,
        "st": false,
        "pda": false,
        "size": false,
        "condi": 0,
        "bonus": [],
        "custom": false,
        "label": "",
        "nome": ""
      },
      "atle": {
        "value": 0,
        "atributo": "for",
        "outros": 0,
        "treinado": false,
        "st": false,
        "pda": false,
        "size": false,
        "condi": 0,
        "bonus": [],
        "custom": false,
        "label": "",
        "nome": ""
      },
      "atua": {
        "value": 0,
        "atributo": "car",
        "outros": 0,
        "treinado": false,
        "st": false,
        "pda": false,
        "size": false,
        "condi": 0,
        "bonus": [],
        "custom": false,
        "label": "",
        "nome": ""
      },
      "cava": {
        "value": 0,
        "atributo": "des",
        "outros": 0,
        "treinado": false,
        "st": false,
        "pda": false,
        "size": false,
        "condi": 0,
        "bonus": [],
        "custom": false,
        "label": "",
        "nome": ""
      },
      "conh": {
        "value": 0,
        "atributo": "int",
        "outros": 0,
        "treinado": false,
        "st": false,
        "pda": false,
        "size": false,
        "condi": 0,
        "bonus": [],
        "custom": false,
        "label": "",
        "nome": ""
      },
      "cura": {
        "value": 0,
        "atributo": "sab",
        "outros": 0,
        "treinado": false,
        "st": false,
        "pda": false,
        "size": false,
        "condi": 0,
        "bonus": [],
        "custom": false,
        "label": "",
        "nome": ""
      },
      "dipl": {
        "value": 0,
        "atributo": "car",
        "outros": 0,
        "treinado": false,
        "st": false,
        "pda": false,
        "size": false,
        "condi": 0,
        "bonus": [],
        "custom": false,
        "label": "",
        "nome": ""
      },
      "enga": {
        "value": 0,
        "atributo": "car",
        "outros": 0,
        "treinado": false,
        "st": false,
        "pda": false,
        "size": false,
        "condi": 0,
        "bonus": [],
        "custom": false,
        "label": "",
        "nome": ""
      },
      "fort": {
        "value": 30,
        "atributo": "con",
        "outros": 30,
        "treinado": false,
        "st": false,
        "pda": false,
        "size": false,
        "condi": 0,
        "bonus": [],
        "custom": false,
        "label": "",
        "nome": ""
      },
      "furt": {
        "value": 0,
        "atributo": "des",
        "outros": 0,
        "treinado": false,
        "st": false,
        "pda": false,
        "size": false,
        "condi": 0,
        "bonus": [],
        "custom": false,
        "label": "",
        "nome": ""
      },
      "guer": {
        "value": 0,
        "atributo": "int",
        "outros": 0,
        "treinado": false,
        "st": false,
        "pda": false,
        "size": false,
        "condi": 0,
        "bonus": [],
        "custom": false,
        "label": "",
        "nome": ""
      },
      "inic": {
        "value": 11,
        "atributo": "des",
        "outros": -2,
        "treinado": true,
        "st": false,
        "pda": false,
        "size": false,
        "condi": 0,
        "bonus": [],
        "custom": false,
        "label": "",
        "nome": ""
      },
      "inti": {
        "value": 0,
        "atributo": "car",
        "outros": 0,
        "treinado": false,
        "st": false,
        "pda": false,
        "size": false,
        "condi": 0,
        "bonus": [],
        "custom": false,
        "label": "",
        "nome": ""
      },
      "intu": {
        "value": 0,
        "atributo": "sab",
        "outros": 0,
        "treinado": false,
        "label": "",
        "st": false,
        "pda": false,
        "bonus": [],
        "size": false,
        "condi": 0,
        "custom": false,
        "nome": ""
      },
      "inve": {
        "value": 0,
        "atributo": "int",
        "outros": 0,
        "treinado": false,
        "st": false,
        "pda": false,
        "size": false,
        "condi": 0,
        "bonus": [],
        "custom": false,
        "label": "",
        "nome": ""
      },
      "joga": {
        "value": 0,
        "atributo": "car",
        "outros": 0,
        "treinado": false,
        "st": false,
        "pda": false,
        "size": false,
        "condi": 0,
        "bonus": [],
        "custom": false,
        "label": "",
        "nome": ""
      },
      "ladi": {
        "value": 0,
        "atributo": "des",
        "outros": 0,
        "treinado": false,
        "st": false,
        "pda": false,
        "size": false,
        "condi": 0,
        "bonus": [],
        "custom": false,
        "label": "",
        "nome": ""
      },
      "luta": {
        "value": 0,
        "atributo": "for",
        "outros": 0,
        "treinado": false,
        "st": false,
        "pda": false,
        "size": false,
        "condi": 0,
        "bonus": [],
        "custom": false,
        "label": "",
        "nome": ""
      },
      "mist": {
        "value": 0,
        "atributo": "int",
        "outros": 0,
        "treinado": false,
        "st": false,
        "pda": false,
        "size": false,
        "condi": 0,
        "bonus": [],
        "custom": false,
        "label": "",
        "nome": ""
      },
      "nobr": {
        "value": 0,
        "atributo": "int",
        "outros": 0,
        "treinado": false,
        "st": false,
        "pda": false,
        "size": false,
        "condi": 0,
        "bonus": [],
        "custom": false,
        "label": "",
        "nome": ""
      },
      "ofi0": {
        "value": 0,
        "atributo": "int",
        "outros": 0,
        "treinado": false,
        "st": false,
        "pda": false,
        "size": false,
        "condi": 0,
        "bonus": [],
        "custom": false,
        "label": "",
        "nome": ""
      },
      "perc": {
        "value": 12,
        "atributo": "sab",
        "outros": -1,
        "treinado": false,
        "st": false,
        "pda": false,
        "size": false,
        "condi": 0,
        "bonus": [],
        "custom": false,
        "label": "",
        "nome": ""
      },
      "pilo": {
        "value": 0,
        "atributo": "des",
        "outros": 0,
        "treinado": false,
        "st": false,
        "pda": false,
        "size": false,
        "condi": 0,
        "bonus": [],
        "custom": false,
        "label": "",
        "nome": ""
      },
      "pont": {
        "value": 0,
        "atributo": "des",
        "outros": 0,
        "treinado": false,
        "st": false,
        "pda": false,
        "size": false,
        "condi": 0,
        "bonus": [],
        "custom": false,
        "label": "",
        "nome": ""
      },
      "refl": {
        "value": 24,
        "atributo": "des",
        "outros": 24,
        "treinado": false,
        "st": false,
        "pda": false,
        "size": false,
        "condi": 0,
        "bonus": [],
        "custom": false,
        "label": "",
        "nome": ""
      },
      "reli": {
        "value": 0,
        "atributo": "sab",
        "outros": 0,
        "treinado": false,
        "st": false,
        "pda": false,
        "size": false,
        "condi": 0,
        "bonus": [],
        "custom": false,
        "label": "",
        "nome": ""
      },
      "sobr": {
        "value": 0,
        "atributo": "sab",
        "outros": 0,
        "treinado": false,
        "st": false,
        "pda": false,
        "size": false,
        "condi": 0,
        "bonus": [],
        "custom": false,
        "label": "",
        "nome": ""
      },
      "vont": {
        "value": 16,
        "atributo": "sab",
        "outros": 16,
        "treinado": false,
        "st": false,
        "pda": false,
        "size": false,
        "condi": 0,
        "bonus": [],
        "custom": false,
        "label": "",
        "nome": ""
      },
      "_pc0": {
        "value": 0,
        "atributo": "for",
        "outros": 0,
        "treinado": false,
        "st": false,
        "pda": false,
        "size": false,
        "condi": 0,
        "bonus": [],
        "custom": false,
        "label": "",
        "nome": ""
      }
    },
    "modificadores": {
      "atributos": {
        "geral": [
          ""
        ],
        "fisicos": [
          ""
        ],
        "mentais": [
          ""
        ],
        "for": [
          ""
        ],
        "des": [
          ""
        ],
        "con": [
          ""
        ],
        "int": [
          ""
        ],
        "sab": [
          ""
        ],
        "car": [
          ""
        ]
      },
      "dano": {
        "geral": [
          ""
        ],
        "cac": [
          ""
        ],
        "ad": [
          ""
        ],
        "mag": [
          ""
        ],
        "alq": [
          ""
        ]
      },
      "custoPM": "0",
      "pericias": {
        "geral": [
          ""
        ],
        "semataque": [
          ""
        ],
        "ataque": [
          ""
        ],
        "resistencia": [
          ""
        ],
        "atr": {
          "for": [
            ""
          ],
          "des": [
            ""
          ],
          "con": [
            ""
          ],
          "int": [
            ""
          ],
          "sab": [
            ""
          ],
          "car": [
            ""
          ]
        }
      },
      "ataque": {
        "geral": [],
        "cac": [],
        "ad": []
      }
    },
    "builder": {
      "attributes": {
        "cr": "",
        "size": "",
        "attack": {
          "value": 0,
          "cr": ""
        },
        "damage": {
          "value": 0,
          "cr": ""
        },
        "defense": {
          "value": 0,
          "cr": ""
        },
        "fort": {
          "value": 0,
          "rank": 2,
          "cr": ""
        },
        "refl": {
          "value": 0,
          "rank": 1,
          "cr": ""
        },
        "vont": {
          "value": 0,
          "rank": 0,
          "cr": ""
        },
        "topsave": {
          "value": 0,
          "cr": ""
        },
        "midsave": {
          "value": 0,
          "cr": ""
        },
        "botsave": {
          "value": 0,
          "cr": ""
        },
        "hp": {
          "value": 0,
          "cr": ""
        },
        "mp": {
          "value": 0,
          "cr": ""
        },
        "dc": {
          "value": 0,
          "cr": ""
        }
      },
      "details": {
        "concept": "",
        "creatureType": "",
        "role": "",
        "treasure": ""
      }
    }
  },
  "ownership": {
    "default": 0
  },
  "prototypeToken": {
    "flags": {},
    "name": "Besouro Aberrante",
    "displayName": 50,
    "width": 4,
    "height": 4,
    "lockRotation": false,
    "rotation": 0,
    "actorLink": false,
    "disposition": -1,
    "displayBars": 0,
    "bar1": {
      "attribute": "attributes.pv"
    },
    "bar2": {
      "attribute": "attributes.pm"
    },
    "randomImg": false,
    "alpha": 1,
    "light": {
      "dim": 0,
      "bright": 0.1,
      "angle": 360,
      "color": "#530609",
      "alpha": 0.25,
      "animation": {
        "type": "emanation",
        "speed": 5,
        "intensity": 5,
        "reverse": false
      },
      "coloration": 1,
      "attenuation": 0.5,
      "luminosity": 0.5,
      "saturation": 0,
      "contrast": 0,
      "shadows": 0,
      "darkness": {
        "min": 0,
        "max": 1
      }
    },
    "texture": {
      "src": "systems/tormenta20/icons/ameacas/besouro-aberrante.png",
      "tint": null,
      "scaleX": 1.5,
      "scaleY": 1.5,
      "offsetX": 0,
      "offsetY": 0,
      "rotation": 0
    },
    "sight": {
      "angle": 360,
      "enabled": true,
      "range": 30,
      "brightness": 1,
      "visionMode": "basic",
      "color": null,
      "attenuation": 0.1,
      "saturation": 0,
      "contrast": 0
    },
    "detectionModes": [],
    "appendNumber": false,
    "prependAdjective": false
  },
  "_stats": {
    "systemId": "tormenta20",
    "systemVersion": "1.4.203d2",
    "coreVersion": "11.315",
    "createdTime": 1661997945933,
    "modifiedTime": 1700004794451,
    "lastModifiedBy": "5frcpPVF3cVfLwZA"
  },
  "_key": "!actors!FF9PpLugg4L34Jh1"
}
