{
  "_id": "WMcZXuIIRzCPzr6a",
  "name": "Colosso Supremo",
  "type": "npc",
  "img": "systems/tormenta20/icons/ameacas/colosso-supremo.png",
  "items": [
    {
      "type": "poder",
      "name": "Balistas",
      "img": "icons/weapons/artillery/ballista-wood-green.webp",
      "system": {
        "description": {
          "value": "O colosso possui duas balistas, uma em cada ombro. Cada balista é tripulada por soldados que a carregam e a disparam em rodadas alternadas (bônus de ataque +39, 6d8 pontos de dano de perfuração, crítico 19, alcance médio). É possível atacar as tripulações para impedir os disparos. Cada tripulação possui Defesa 26, 50 PV e usa os testes de resistência do colosso",
          "unidentified": ""
        },
        "source": "",
        "ativacao": {
          "execucao": "free",
          "custo": 0,
          "qtd": "",
          "condicao": "",
          "special": ""
        },
        "duracao": {
          "value": 0,
          "units": "",
          "special": ""
        },
        "target": {
          "value": null,
          "width": null,
          "type": ""
        },
        "range": {
          "value": null,
          "units": ""
        },
        "consume": {
          "type": "",
          "target": "",
          "amount": null,
          "mpMultiplier": false
        },
        "efeito": "",
        "alcance": "none",
        "alvo": "",
        "area": "",
        "resistencia": {
          "pericia": "",
          "atributo": "",
          "bonus": 0,
          "txt": ""
        },
        "rolls": [],
        "tipo": "ability",
        "subtipo": "",
        "origin": "",
        "tags": [],
        "chatFlavor": "",
        "chatGif": ""
      },
      "effects": [],
      "folder": null,
      "sort": 0,
      "ownership": {
        "default": 0,
        "tIn9sSkrT3mDWirx": 3
      },
      "flags": {},
      "_stats": {
        "systemId": "tormenta20",
        "systemVersion": "1.4.1004",
        "coreVersion": "10.286",
        "createdTime": 1667012012171,
        "modifiedTime": 1667012098190,
        "lastModifiedBy": "tIn9sSkrT3mDWirx"
      },
      "_id": "WaAtui7aJ9t2vcUy",
      "_key": "!actors.items!WMcZXuIIRzCPzr6a.WaAtui7aJ9t2vcUy"
    },
    {
      "folder": "0V7x5o397UvG3xKP",
      "name": "Fumos Tóxicos",
      "type": "poder",
      "img": "icons/skills/toxins/bottle-open-vapors-pink.webp",
      "system": {
        "description": {
          "value": "Uma criatura que comece seu turno em alcance curto do colosso perde 4d6 PV e fica enjoada (Fortitude CD 38 evita). Veneno",
          "unidentified": ""
        },
        "source": "",
        "ativacao": {
          "execucao": "",
          "custo": 0,
          "qtd": "",
          "condicao": "",
          "special": ""
        },
        "duracao": {
          "value": 0,
          "units": "",
          "special": ""
        },
        "target": {
          "value": null,
          "width": null,
          "type": ""
        },
        "range": {
          "value": null,
          "units": ""
        },
        "consume": {
          "type": "",
          "target": "",
          "amount": null,
          "mpMultiplier": false
        },
        "efeito": "",
        "alcance": "short",
        "alvo": "",
        "area": "",
        "resistencia": {
          "pericia": "",
          "atributo": "",
          "bonus": 0,
          "txt": "Fortitude evita"
        },
        "rolls": [],
        "tipo": "ability",
        "subtipo": "",
        "origin": "",
        "tags": [],
        "chatFlavor": "",
        "chatGif": ""
      },
      "effects": [
        {
          "label": "enjoado",
          "icon": "systems/tormenta20/icons/conditions/enjoado.svg",
          "origin": "Item.kz0MElg9fKyxgx4a",
          "tint": "#FFFFFF",
          "flags": {
            "tormenta20": {
              "onuse": false,
              "durationScene": false
            }
          },
          "duration": {
            "rounds": 1,
            "startTime": null,
            "seconds": null,
            "combat": null,
            "turns": null,
            "startRound": null,
            "startTurn": null
          },
          "disabled": false,
          "_id": "15RGaTmwEo8s4cC7",
          "changes": [],
          "transfer": false,
          "_key": "!actors.items.effects!WMcZXuIIRzCPzr6a.iyRHwPujSriaKVlC.15RGaTmwEo8s4cC7"
        }
      ],
      "sort": 1400000,
      "ownership": {
        "default": 0,
        "tIn9sSkrT3mDWirx": 3
      },
      "flags": {},
      "_stats": {
        "systemId": "tormenta20",
        "systemVersion": "1.4.1004",
        "coreVersion": "10.286",
        "createdTime": 1666321513948,
        "modifiedTime": 1667012012173,
        "lastModifiedBy": "tIn9sSkrT3mDWirx"
      },
      "_id": "iyRHwPujSriaKVlC",
      "_key": "!actors.items!WMcZXuIIRzCPzr6a.iyRHwPujSriaKVlC"
    },
    {
      "folder": "0V7x5o397UvG3xKP",
      "name": "Varrer",
      "type": "poder",
      "img": "icons/skills/melee/strike-sword-slashing-red.webp",
      "system": {
        "description": {
          "value": "Uma vez por rodada, quando o colosso supremo faz um ataque corpo a corpo e reduz os pontos de vida do alvo para 0 ou menos, pode realizar um ataque adicional contra outra criatura dentro do seu alcance.",
          "unidentified": ""
        },
        "source": "",
        "ativacao": {
          "execucao": "free",
          "custo": 0,
          "qtd": "",
          "condicao": "",
          "special": ""
        },
        "duracao": {
          "value": 0,
          "units": "",
          "special": ""
        },
        "target": {
          "value": null,
          "width": null,
          "type": ""
        },
        "range": {
          "value": null,
          "units": ""
        },
        "consume": {
          "type": "",
          "target": "",
          "amount": null,
          "mpMultiplier": false
        },
        "efeito": "",
        "alcance": "none",
        "alvo": "",
        "area": "",
        "resistencia": {
          "pericia": "",
          "atributo": "",
          "bonus": 0,
          "txt": ""
        },
        "rolls": [],
        "tipo": "ability",
        "subtipo": "",
        "origin": "",
        "tags": [],
        "chatFlavor": "",
        "chatGif": ""
      },
      "effects": [],
      "sort": 3400000,
      "ownership": {
        "default": 0,
        "tIn9sSkrT3mDWirx": 3
      },
      "flags": {},
      "_stats": {
        "systemId": "tormenta20",
        "systemVersion": "1.4.1004",
        "coreVersion": "10.286",
        "createdTime": 1666321513948,
        "modifiedTime": 1667012012175,
        "lastModifiedBy": "tIn9sSkrT3mDWirx"
      },
      "_id": "Les7mWCKEPD3VEnV",
      "_key": "!actors.items!WMcZXuIIRzCPzr6a.Les7mWCKEPD3VEnV"
    },
    {
      "type": "arma",
      "name": "Espada titânica",
      "img": "icons/weapons/swords/greatsword-guard-gold-worn.webp",
      "system": {
        "description": {
          "value": "<section class=\"secret\">Espada titânica</section>",
          "unidentified": ""
        },
        "source": "",
        "equipado": 0,
        "carregado": true,
        "peso": 0,
        "espacos": 0,
        "qtd": 1,
        "preco": 0,
        "pv": {
          "value": 0,
          "min": 0,
          "max": 0
        },
        "rd": 0,
        "rolls": [
          {
            "name": "Ataque",
            "key": "ataque0",
            "type": "ataque",
            "parts": [
              [
                "1d20",
                "",
                ""
              ],
              [
                "",
                "",
                ""
              ],
              [
                "+39",
                "",
                ""
              ]
            ],
            "versatil": ""
          },
          {
            "name": "Dano",
            "key": "dano1",
            "type": "dano",
            "parts": [
              [
                "4d12+30",
                "corte",
                ""
              ],
              [
                "",
                "",
                ""
              ]
            ],
            "versatil": ""
          }
        ],
        "criticoM": 19,
        "criticoX": 2,
        "alcance": "",
        "tipoUso": "sim",
        "propriedades": {
          "ada": false,
          "agi": false,
          "alo": false,
          "arr": false,
          "dst": false,
          "dms": false,
          "dup": false,
          "lev": false,
          "mun": false,
          "ver": false,
          "des": false
        },
        "proficiencia": "exotica",
        "proposito": "corpo-a-corpo",
        "empunhadura": "duas",
        "origin": "",
        "tags": [],
        "chatFlavor": "",
        "chatGif": "",
        "ativacao": {
          "custo": 0,
          "condicao": "",
          "execucao": "",
          "qtd": "",
          "special": ""
        },
        "consume": {
          "amount": 0,
          "mpMultiplier": false,
          "target": "",
          "type": ""
        },
        "upgrades": {
          "melhoria1": "",
          "melhoria2": "",
          "melhoria3": "",
          "melhoria4": "",
          "material": "",
          "encanto1": "",
          "encanto2": "",
          "encanto3": ""
        },
        "melhorias": {},
        "encantos": {},
        "size": "normal",
        "ataques": 0
      },
      "effects": [],
      "folder": null,
      "sort": 0,
      "ownership": {
        "default": 0,
        "tIn9sSkrT3mDWirx": 3
      },
      "flags": {},
      "_stats": {
        "systemId": "tormenta20",
        "systemVersion": "1.4.1004",
        "coreVersion": "10.286",
        "createdTime": 1667012012176,
        "modifiedTime": 1667012201175,
        "lastModifiedBy": "tIn9sSkrT3mDWirx"
      },
      "_id": "casgZ6ERAfUmeKwh",
      "_key": "!actors.items!WMcZXuIIRzCPzr6a.casgZ6ERAfUmeKwh"
    },
    {
      "name": "Balista",
      "type": "arma",
      "img": "icons/weapons/artillery/ballista-wood-green.webp",
      "effects": [],
      "flags": {
        "core": {
          "sourceId": "Compendium.tormenta20.equipamentos.iYY0Jr19T5ERm43G"
        }
      },
      "system": {
        "description": {
          "value": "<section class=\"secret\">Balista</section><p style=\"text-align: justify;\">Vers&atilde;o maior e mais potente da besta leve. Recarregar uma besta pesada &eacute; uma a&ccedil;&atilde;o padr&atilde;o.</p>",
          "unidentified": ""
        },
        "source": "",
        "equipado": 0,
        "carregado": true,
        "peso": 4,
        "espacos": 10,
        "qtd": 2,
        "preco": 0,
        "pv": {
          "value": 0,
          "min": 0,
          "max": 0
        },
        "rd": 0,
        "rolls": [
          {
            "name": "Ataque",
            "key": "ataque0",
            "type": "ataque",
            "parts": [
              [
                "1d20",
                "",
                ""
              ],
              [
                "",
                "",
                ""
              ],
              [
                "+39",
                "",
                ""
              ]
            ],
            "versatil": ""
          },
          {
            "name": "Dano",
            "key": "dano1",
            "type": "dano",
            "parts": [
              [
                "6d8",
                "perfuracao",
                ""
              ],
              [
                "",
                "",
                ""
              ]
            ],
            "versatil": ""
          }
        ],
        "criticoM": 19,
        "criticoX": 2,
        "alcance": "medium",
        "tipoUso": "sim",
        "propriedades": {
          "ada": false,
          "agi": false,
          "alo": false,
          "arr": false,
          "dst": false,
          "dms": false,
          "dup": false,
          "lev": false,
          "mun": false,
          "ver": false,
          "adaptavel": false,
          "agil": false,
          "alongada": false,
          "arremesso": false,
          "ataqueDistancia": true,
          "duasMaos": true,
          "dupla": false,
          "leve": false,
          "municao": true,
          "versatil": false,
          "des": false
        },
        "encantos": {
          "arremesso": false,
          "lancinante": false,
          "lancinating": false
        },
        "ativacao": {
          "custo": null,
          "condicao": "",
          "execucao": "",
          "qtd": "",
          "special": ""
        },
        "chatFlavor": "",
        "consume": {
          "type": "",
          "target": "",
          "amount": null,
          "mpMultiplier": false
        },
        "origin": "",
        "tags": [],
        "chatGif": "",
        "upgrades": {
          "melhoria1": "",
          "melhoria2": "",
          "melhoria3": "",
          "melhoria4": "",
          "material": "",
          "encanto1": "",
          "encanto2": "",
          "encanto3": ""
        },
        "melhorias": {},
        "proficiencia": "marcial",
        "proposito": "disparo",
        "empunhadura": "duas",
        "size": "normal",
        "ataques": 0
      },
      "ownership": {
        "default": 0,
        "tIn9sSkrT3mDWirx": 3
      },
      "_stats": {
        "systemId": "tormenta20",
        "systemVersion": "1.4.1004",
        "coreVersion": "10.286",
        "createdTime": 1664312772417,
        "modifiedTime": 1667012093884,
        "lastModifiedBy": "tIn9sSkrT3mDWirx"
      },
      "folder": "brhICwdHcOUqvMPi",
      "sort": 3300000,
      "_id": "M7BYMFlbkkxppO76",
      "_key": "!actors.items!WMcZXuIIRzCPzr6a.M7BYMFlbkkxppO76"
    },
    {
      "folder": "0V7x5o397UvG3xKP",
      "name": "Goblins Consertadores",
      "type": "poder",
      "img": "icons/skills/trades/construction-carpentry-hammer-gray.webp",
      "system": {
        "description": {
          "value": "<p style=\"text-align: justify;\">Goblins especialmente pequenos rastejam por dentro dos dutos do colosso fazendo reparos, sendo a fonte da cura acelerada do construto. Por estarem dentro do colosso, os goblins s&atilde;o imunes a dano, mas ainda podem ser afetados por efeitos mentais. Eles possuem Vontade +3 (mas recebem a resist&ecirc;ncia a magia do colosso) e, se forem afetados por qualquer condi&ccedil;&atilde;o, a cura acelerada deixa de funcionar.</p>",
          "unidentified": ""
        },
        "source": "",
        "ativacao": {
          "execucao": "",
          "custo": 0,
          "qtd": "",
          "condicao": "",
          "special": ""
        },
        "duracao": {
          "value": 0,
          "units": "",
          "special": ""
        },
        "target": {
          "value": null,
          "width": null,
          "type": ""
        },
        "range": {
          "value": null,
          "units": ""
        },
        "consume": {
          "type": "",
          "target": "",
          "amount": null,
          "mpMultiplier": false
        },
        "efeito": "",
        "alcance": "none",
        "alvo": "",
        "area": "",
        "resistencia": {
          "pericia": "",
          "atributo": "",
          "bonus": 0,
          "txt": ""
        },
        "rolls": [],
        "tipo": "ability",
        "subtipo": "",
        "origin": "",
        "tags": [],
        "chatFlavor": "",
        "chatGif": ""
      },
      "effects": [
        {
          "label": "Cura Acelerada",
          "icon": "icons/skills/trades/construction-carpentry-hammer-gray.webp",
          "origin": "Item.n59OF2MBGj6wtLFB",
          "tint": "#FFFFFF",
          "flags": {
            "tormenta20": {
              "onuse": false,
              "durationScene": false
            }
          },
          "duration": {
            "rounds": 1,
            "startTime": null,
            "seconds": null,
            "combat": null,
            "turns": null,
            "startRound": null,
            "startTurn": null
          },
          "disabled": false,
          "_id": "MCUvln3aGbaEJM8o",
          "changes": [
            {
              "key": "roll",
              "mode": 0,
              "value": "20",
              "priority": null
            }
          ],
          "transfer": true,
          "_key": "!actors.items.effects!WMcZXuIIRzCPzr6a.jmcx2PiVYloviWQh.MCUvln3aGbaEJM8o"
        }
      ],
      "sort": 1500000,
      "ownership": {
        "default": 0,
        "tIn9sSkrT3mDWirx": 3
      },
      "flags": {
        "core": {
          "sourceId": "Item.n59OF2MBGj6wtLFB"
        }
      },
      "_stats": {
        "systemId": "tormenta20",
        "systemVersion": "1.4.1004",
        "coreVersion": "10.286",
        "createdTime": 1666321513948,
        "modifiedTime": 1667012211136,
        "lastModifiedBy": "tIn9sSkrT3mDWirx"
      },
      "_id": "jmcx2PiVYloviWQh",
      "_key": "!actors.items!WMcZXuIIRzCPzr6a.jmcx2PiVYloviWQh"
    },
    {
      "folder": "0V7x5o397UvG3xKP",
      "name": "Jato de Chamas",
      "type": "poder",
      "img": "icons/creatures/abilities/dragon-fire-breath-orange.webp",
      "system": {
        "description": {
          "value": "<p style=\"text-align: justify;\">O colosso dispara um jato de chamas que atinge um cone de 12m. Criaturas na &aacute;rea sofrem 8d8+10 pontos de dano de fogo (Ref CD 38 reduz &agrave; metade).</p>",
          "unidentified": ""
        },
        "source": "",
        "ativacao": {
          "execucao": "move",
          "custo": 0,
          "qtd": "",
          "condicao": "",
          "special": ""
        },
        "duracao": {
          "value": 0,
          "units": "",
          "special": ""
        },
        "target": {
          "value": null,
          "width": null,
          "type": ""
        },
        "range": {
          "value": null,
          "units": ""
        },
        "consume": {
          "type": "",
          "target": "",
          "amount": null,
          "mpMultiplier": false
        },
        "efeito": "",
        "alcance": "none",
        "alvo": "",
        "area": "Cone 12m",
        "resistencia": {
          "pericia": "",
          "atributo": "",
          "bonus": 0,
          "txt": "Reflexos Metade"
        },
        "rolls": [
          {
            "name": "Dano",
            "key": "dano0",
            "type": "dano",
            "parts": [
              [
                "8d8+10",
                "fogo",
                ""
              ]
            ],
            "versatil": ""
          }
        ],
        "tipo": "racial",
        "subtipo": "",
        "origin": "",
        "tags": [],
        "chatFlavor": "",
        "chatGif": ""
      },
      "effects": [],
      "sort": 3800000,
      "ownership": {
        "default": 0,
        "tIn9sSkrT3mDWirx": 3
      },
      "flags": {
        "core": {
          "sourceId": "Item.1FFdF6MtV64OoIVK"
        }
      },
      "_stats": {
        "systemId": "tormenta20",
        "systemVersion": "1.4.1004",
        "coreVersion": "10.286",
        "createdTime": 1666318061707,
        "modifiedTime": 1667012326418,
        "lastModifiedBy": "tIn9sSkrT3mDWirx"
      },
      "_id": "SHrDe5wuIWkPnNMc",
      "_key": "!actors.items!WMcZXuIIRzCPzr6a.SHrDe5wuIWkPnNMc"
    },
    {
      "folder": "0V7x5o397UvG3xKP",
      "name": "Passar por Cima",
      "type": "poder",
      "img": "icons/skills/movement/ball-spinning-blue.webp",
      "system": {
        "description": {
          "value": "<p style=\"text-align: justify;\">O colosso percorre at&eacute; o dobro do seu deslocamento, passando por qualquer criatura Grande ou menor. Uma criatura atropelada sofre 6d8+15 pontos de dano de impacto (Reflexos CD 38 reduz &agrave; metade).</p>",
          "unidentified": ""
        },
        "source": "",
        "ativacao": {
          "execucao": "full",
          "custo": 0,
          "qtd": "",
          "condicao": "",
          "special": ""
        },
        "duracao": {
          "value": 0,
          "units": "",
          "special": ""
        },
        "target": {
          "value": null,
          "width": null,
          "type": ""
        },
        "range": {
          "value": null,
          "units": ""
        },
        "consume": {
          "type": "",
          "target": "",
          "amount": null,
          "mpMultiplier": false
        },
        "efeito": "",
        "alcance": "none",
        "alvo": "",
        "area": "",
        "resistencia": {
          "pericia": "",
          "atributo": "",
          "bonus": 0,
          "txt": ""
        },
        "rolls": [
          {
            "name": "Dano",
            "key": "dano0",
            "type": "dano",
            "parts": [
              [
                "6d8+15",
                "impacto",
                ""
              ]
            ],
            "versatil": ""
          }
        ],
        "tipo": "ability",
        "subtipo": "",
        "origin": "",
        "tags": [],
        "chatFlavor": "",
        "chatGif": ""
      },
      "effects": [
        {
          "label": "Marrada",
          "icon": "icons/svg/upgrade.svg",
          "origin": "Item.O33OJJxfLmdoYa33",
          "tint": "#FFFFFF",
          "flags": {
            "tormenta20": {
              "onuse": true,
              "durationScene": false,
              "self": false,
              "attack": true,
              "skill": false,
              "ability": false,
              "power": false,
              "equipment": false,
              "spell": false,
              "consumable": false,
              "items": "",
              "aumenta": false,
              "custo": ""
            }
          },
          "duration": {
            "startTime": null,
            "seconds": null,
            "combat": null,
            "rounds": null,
            "turns": null,
            "startRound": null,
            "startTurn": null
          },
          "disabled": true,
          "_id": "Q9Nx00b81V4boOgR",
          "changes": [
            {
              "key": "ataque",
              "mode": 2,
              "value": "2",
              "priority": 0
            },
            {
              "key": "dano",
              "mode": 2,
              "value": "2",
              "priority": 0
            }
          ],
          "transfer": true,
          "_key": "!actors.items.effects!WMcZXuIIRzCPzr6a.aHHwjYFkyIHuEhlF.Q9Nx00b81V4boOgR"
        }
      ],
      "sort": 2200000,
      "ownership": {
        "default": 0,
        "tIn9sSkrT3mDWirx": 3
      },
      "flags": {
        "core": {
          "sourceId": "Item.O33OJJxfLmdoYa33"
        }
      },
      "_stats": {
        "systemId": "tormenta20",
        "systemVersion": "1.4.1004",
        "coreVersion": "10.286",
        "createdTime": 1666321513948,
        "modifiedTime": 1667012473170,
        "lastModifiedBy": "tIn9sSkrT3mDWirx"
      },
      "_id": "aHHwjYFkyIHuEhlF",
      "_key": "!actors.items!WMcZXuIIRzCPzr6a.aHHwjYFkyIHuEhlF"
    },
    {
      "folder": "JS9AvIp3HW4Rs7UD",
      "name": "Engrenagens",
      "type": "tesouro",
      "img": "systems/tormenta20/icons/itens/gerais/engrenagens.webp",
      "system": {
        "description": {
          "value": "<p><span class=\"fontstyle0\"><strong style=\"text-align: justify;\">[Tesouro Especial]</strong></span></p>\n<p><span class=\"fontstyle0\" style=\"font-family: var(--font-primary); font-size: var(--font-size-14);\">As engrenagens conta como T$ 1.000 em mat&eacute;ria-prima para fabricar engenhocas (CD para extrair 29).</span></p>",
          "unidentified": ""
        },
        "source": "T20, pg. 296 (JdA)",
        "carregado": true,
        "peso": 0,
        "espacos": 1,
        "qtd": 1,
        "preco": 1000,
        "pv": {
          "value": 0,
          "min": 0,
          "max": 0
        },
        "rd": 0,
        "container": false,
        "origin": "",
        "chatFlavor": "",
        "rolls": [],
        "tags": [],
        "chatGif": "",
        "ativacao": {
          "custo": 0,
          "condicao": "",
          "execucao": "",
          "qtd": "",
          "special": ""
        },
        "consume": {
          "amount": 0,
          "mpMultiplier": false,
          "target": "",
          "type": ""
        },
        "duracao": {
          "units": "",
          "value": 0,
          "special": ""
        },
        "range": {
          "units": "",
          "value": 0
        },
        "target": {
          "type": "",
          "value": 0,
          "width": 0
        },
        "alcance": "",
        "alvo": "",
        "area": "",
        "efeito": "",
        "resistencia": {
          "txt": "",
          "pericia": "",
          "atributo": "",
          "bonus": 0
        }
      },
      "effects": [],
      "sort": 200000,
      "ownership": {
        "default": 0,
        "RzS5vw1t6rOSWsrq": 3,
        "tIn9sSkrT3mDWirx": 3
      },
      "flags": {
        "core": {
          "sourceId": "Item.0rmobUebP6LxbNV3"
        }
      },
      "_stats": {
        "systemId": "tormenta20",
        "systemVersion": "1.4.1004",
        "coreVersion": "10.286",
        "createdTime": 1664672967531,
        "modifiedTime": 1667012599192,
        "lastModifiedBy": "tIn9sSkrT3mDWirx"
      },
      "_id": "7naHPNVbSz7nZZWe",
      "_key": "!actors.items!WMcZXuIIRzCPzr6a.7naHPNVbSz7nZZWe"
    }
  ],
  "effects": [
    {
      "label": "Cura Acelerada",
      "icon": "icons/skills/trades/construction-carpentry-hammer-gray.webp",
      "origin": "Actor.WMcZXuIIRzCPzr6a.Item.jmcx2PiVYloviWQh",
      "tint": "#FFFFFF",
      "flags": {
        "tormenta20": {
          "onuse": false,
          "durationScene": false
        }
      },
      "duration": {
        "rounds": 1,
        "startTime": 0,
        "seconds": null,
        "combat": null,
        "turns": null,
        "startRound": null,
        "startTurn": null
      },
      "disabled": false,
      "_id": "9Qa1cAA0R5CxD2GW",
      "changes": [
        {
          "key": "roll",
          "mode": 0,
          "value": "20",
          "priority": null
        }
      ],
      "transfer": false,
      "_key": "!actors.effects!WMcZXuIIRzCPzr6a.9Qa1cAA0R5CxD2GW"
    },
    {
      "label": "Marrada",
      "icon": "icons/svg/upgrade.svg",
      "origin": "Actor.WMcZXuIIRzCPzr6a.Item.aHHwjYFkyIHuEhlF",
      "tint": "#FFFFFF",
      "flags": {
        "tormenta20": {
          "onuse": true,
          "durationScene": false,
          "self": false,
          "attack": true,
          "skill": false,
          "ability": false,
          "power": false,
          "equipment": false,
          "spell": false,
          "consumable": false,
          "items": "",
          "aumenta": false,
          "custo": ""
        }
      },
      "duration": {
        "startTime": 0,
        "seconds": null,
        "combat": null,
        "rounds": null,
        "turns": null,
        "startRound": null,
        "startTurn": null
      },
      "disabled": true,
      "_id": "EIWypGnvDtwgMGwP",
      "changes": [
        {
          "key": "ataque",
          "mode": 2,
          "value": "2",
          "priority": 0
        },
        {
          "key": "dano",
          "mode": 2,
          "value": "2",
          "priority": 0
        }
      ],
      "transfer": false,
      "_key": "!actors.effects!WMcZXuIIRzCPzr6a.EIWypGnvDtwgMGwP"
    },
    {
      "name": "+5 Resistência a Magia",
      "icon": "icons/svg/upgrade.svg",
      "origin": "Compendium.tormenta20.ameacas.Actor.WMcZXuIIRzCPzr6a",
      "tint": "#FFFFFF",
      "flags": {
        "tormenta20": {
          "onuse": true,
          "durationScene": false,
          "self": false,
          "attack": false,
          "skill": true,
          "ability": false,
          "power": false,
          "equipment": false,
          "spell": false,
          "consumable": false,
          "items": "Fortitude;Reflexos;Vontade",
          "aumenta": false,
          "custo": ""
        }
      },
      "duration": {
        "startTime": 0,
        "seconds": null,
        "combat": null,
        "rounds": null,
        "turns": null,
        "startRound": null,
        "startTurn": null
      },
      "disabled": true,
      "_id": "MHuiS571FAZ5UH6Z",
      "changes": [
        {
          "key": "roll",
          "mode": 2,
          "value": "5",
          "priority": 0
        }
      ],
      "description": "",
      "transfer": true,
      "statuses": [],
      "_key": "!actors.effects!WMcZXuIIRzCPzr6a.MHuiS571FAZ5UH6Z"
    }
  ],
  "folder": "fOnJIKdih0dHm50y",
  "sort": 100001,
  "flags": {
    "editing": false,
    "tormenta20": {
      "sheet": {},
      "lvlconfig": {
        "pv": {},
        "pm": {}
      },
      "version": "1.3.0.0"
    },
    "core": {
      "sourceId": "Compendium.tormenta20.ameacas.WMcZXuIIRzCPzr6a"
    }
  },
  "system": {
    "atributos": {
      "for": {
        "value": 0,
        "bonus": 0,
        "base": 15,
        "racial": 0
      },
      "des": {
        "value": 0,
        "bonus": 0,
        "base": -1,
        "racial": 0
      },
      "con": {
        "value": 0,
        "bonus": 0,
        "base": 10,
        "racial": 0
      },
      "int": {
        "value": 0,
        "bonus": 0,
        "base": 0,
        "racial": 0
      },
      "sab": {
        "value": 0,
        "bonus": 0,
        "base": -5,
        "racial": 0
      },
      "car": {
        "value": 0,
        "bonus": 0,
        "base": -5,
        "racial": 0
      }
    },
    "attributes": {
      "cd": 38,
      "pv": {
        "value": 675,
        "min": -500,
        "max": 675,
        "temp": 0
      },
      "pm": {
        "value": 0,
        "min": 0,
        "max": 0,
        "temp": 0
      },
      "movement": {
        "burrow": 0,
        "climb": 0,
        "fly": 0,
        "swim": 0,
        "walk": 12,
        "unit": "m",
        "hover": false,
        "notes": ""
      },
      "defesa": {
        "base": 46,
        "value": 0,
        "outros": 0,
        "atributo": "des",
        "pda": 0,
        "bonus": [],
        "condi": 0
      },
      "sentidos": {
        "value": [],
        "custom": ""
      },
      "conjuracao": "int",
      "nivel": {
        "value": 1,
        "xp": {
          "value": 0,
          "pct": 0,
          "proximo": 0
        }
      },
      "nd": "14",
      "carga": {
        "value": 0,
        "base": 10,
        "bonus": [],
        "max": 0,
        "pct": 0,
        "encumbered": false
      },
      "treino": 0
    },
    "detalhes": {
      "biography": {
        "value": "",
        "public": ""
      },
      "raca": "",
      "tipo": "con",
      "alinhamento": "",
      "divindade": "",
      "nd": "",
      "equipamento": "",
      "resistencias": "cura acelerada 20, redução de dano 10, resistência a magia +5",
      "tesouro": "1d6 engrenagens (CD 29 para extrair; cada engrenagem conta como T$ 1.000 em matéria-prima para fabricar engenhocas).",
      "role": "solo",
      "origem": "",
      "ataquescac": "Espada titânica +39 (4d12+30, 19)."
    },
    "tracos": {
      "tamanho": "col",
      "resistencias": {
        "perda": {
          "value": 0,
          "base": 0,
          "bonus": [],
          "imunidade": false,
          "vulnerabilidade": false
        },
        "acido": {
          "value": 0,
          "base": 0,
          "bonus": [],
          "imunidade": false,
          "vulnerabilidade": false
        },
        "corte": {
          "value": 0,
          "base": 0,
          "bonus": [],
          "imunidade": false,
          "vulnerabilidade": false
        },
        "eletricidade": {
          "value": 0,
          "base": 0,
          "bonus": [],
          "imunidade": false,
          "vulnerabilidade": false
        },
        "essencia": {
          "value": 0,
          "base": 0,
          "bonus": [],
          "imunidade": false,
          "vulnerabilidade": false
        },
        "fogo": {
          "value": 0,
          "base": 0,
          "bonus": [],
          "imunidade": false,
          "vulnerabilidade": false
        },
        "frio": {
          "value": 0,
          "base": 0,
          "bonus": [],
          "imunidade": false,
          "vulnerabilidade": false
        },
        "impacto": {
          "value": 0,
          "base": 0,
          "bonus": [],
          "imunidade": false,
          "vulnerabilidade": false
        },
        "luz": {
          "value": 0,
          "base": 0,
          "bonus": [],
          "imunidade": false,
          "vulnerabilidade": false
        },
        "psiquico": {
          "value": 0,
          "base": 0,
          "bonus": [],
          "imunidade": false,
          "vulnerabilidade": false
        },
        "perfuracao": {
          "value": 0,
          "base": 0,
          "bonus": [],
          "imunidade": false,
          "vulnerabilidade": false
        },
        "trevas": {
          "value": 0,
          "base": 0,
          "bonus": [],
          "imunidade": false,
          "vulnerabilidade": false
        },
        "dano": {
          "value": 10,
          "imunidade": false,
          "vulnerabilidade": false
        }
      },
      "ic": {
        "value": [],
        "custom": ""
      },
      "idiomas": {
        "value": [
          "comum"
        ]
      }
    },
    "dinheiro": {
      "tl": 0,
      "to": 0,
      "tp": 0,
      "tc": 0
    },
    "resources": {
      "primary": {
        "value": 0,
        "max": 0,
        "label": ""
      },
      "secondary": {
        "value": 0,
        "max": 0,
        "label": ""
      },
      "tertiary": {
        "value": 0,
        "max": 0,
        "label": ""
      },
      "deathsave": {
        "value": 0,
        "max": 3,
        "label": ""
      },
      "shadow": {
        "value": 0,
        "max": 5,
        "label": ""
      },
      "catarse": {
        "value": 0,
        "max": 3,
        "label": ""
      }
    },
    "pericias": {
      "acro": {
        "value": 0,
        "atributo": "des",
        "outros": 0,
        "treinado": false,
        "st": false,
        "pda": false,
        "size": false,
        "condi": 0,
        "bonus": [],
        "custom": false,
        "label": "",
        "nome": ""
      },
      "ades": {
        "value": 0,
        "atributo": "car",
        "outros": 0,
        "treinado": false,
        "st": false,
        "pda": false,
        "size": false,
        "condi": 0,
        "bonus": [],
        "custom": false,
        "label": "",
        "nome": ""
      },
      "atle": {
        "value": 0,
        "atributo": "for",
        "outros": 0,
        "treinado": false,
        "st": false,
        "pda": false,
        "size": false,
        "condi": 0,
        "bonus": [],
        "custom": false,
        "label": "",
        "nome": ""
      },
      "atua": {
        "value": 0,
        "atributo": "car",
        "outros": 0,
        "treinado": false,
        "st": false,
        "pda": false,
        "size": false,
        "condi": 0,
        "bonus": [],
        "custom": false,
        "label": "",
        "nome": ""
      },
      "cava": {
        "value": 0,
        "atributo": "des",
        "outros": 0,
        "treinado": false,
        "st": false,
        "pda": false,
        "size": false,
        "condi": 0,
        "bonus": [],
        "custom": false,
        "label": "",
        "nome": ""
      },
      "conh": {
        "value": 0,
        "atributo": "int",
        "outros": 0,
        "treinado": false,
        "st": false,
        "pda": false,
        "size": false,
        "condi": 0,
        "bonus": [],
        "custom": false,
        "label": "",
        "nome": ""
      },
      "cura": {
        "value": 0,
        "atributo": "sab",
        "outros": 0,
        "treinado": false,
        "st": false,
        "pda": false,
        "size": false,
        "condi": 0,
        "bonus": [],
        "custom": false,
        "label": "",
        "nome": ""
      },
      "dipl": {
        "value": 0,
        "atributo": "car",
        "outros": 0,
        "treinado": false,
        "st": false,
        "pda": false,
        "size": false,
        "condi": 0,
        "bonus": [],
        "custom": false,
        "label": "",
        "nome": ""
      },
      "enga": {
        "value": 0,
        "atributo": "car",
        "outros": 0,
        "treinado": false,
        "st": false,
        "pda": false,
        "size": false,
        "condi": 0,
        "bonus": [],
        "custom": false,
        "label": "",
        "nome": ""
      },
      "fort": {
        "value": 31,
        "atributo": "con",
        "outros": 31,
        "treinado": false,
        "st": false,
        "pda": false,
        "size": false,
        "condi": 0,
        "bonus": [],
        "custom": false,
        "label": "",
        "nome": ""
      },
      "furt": {
        "value": 0,
        "atributo": "des",
        "outros": 0,
        "treinado": false,
        "st": false,
        "pda": false,
        "size": false,
        "condi": 0,
        "bonus": [],
        "custom": false,
        "label": "",
        "nome": ""
      },
      "guer": {
        "value": 0,
        "atributo": "int",
        "outros": 0,
        "treinado": false,
        "st": false,
        "pda": false,
        "size": false,
        "condi": 0,
        "bonus": [],
        "custom": false,
        "label": "",
        "nome": ""
      },
      "inic": {
        "value": 8,
        "atributo": "des",
        "outros": -2,
        "treinado": true,
        "st": false,
        "pda": false,
        "size": false,
        "condi": 0,
        "bonus": [],
        "custom": false,
        "label": "",
        "nome": ""
      },
      "inti": {
        "value": 0,
        "atributo": "car",
        "outros": 0,
        "treinado": false,
        "st": false,
        "pda": false,
        "size": false,
        "condi": 0,
        "bonus": [],
        "custom": false,
        "label": "",
        "nome": ""
      },
      "intu": {
        "value": 0,
        "atributo": "sab",
        "outros": 0,
        "treinado": false,
        "label": "",
        "st": false,
        "pda": false,
        "bonus": [],
        "size": false,
        "condi": 0,
        "custom": false,
        "nome": ""
      },
      "inve": {
        "value": 0,
        "atributo": "int",
        "outros": 0,
        "treinado": false,
        "st": false,
        "pda": false,
        "size": false,
        "condi": 0,
        "bonus": [],
        "custom": false,
        "label": "",
        "nome": ""
      },
      "joga": {
        "value": 0,
        "atributo": "car",
        "outros": 0,
        "treinado": false,
        "st": false,
        "pda": false,
        "size": false,
        "condi": 0,
        "bonus": [],
        "custom": false,
        "label": "",
        "nome": ""
      },
      "ladi": {
        "value": 0,
        "atributo": "des",
        "outros": 0,
        "treinado": false,
        "st": false,
        "pda": false,
        "size": false,
        "condi": 0,
        "bonus": [],
        "custom": false,
        "label": "",
        "nome": ""
      },
      "luta": {
        "value": 0,
        "atributo": "for",
        "outros": 0,
        "treinado": false,
        "st": false,
        "pda": false,
        "size": false,
        "condi": 0,
        "bonus": [],
        "custom": false,
        "label": "",
        "nome": ""
      },
      "mist": {
        "value": 0,
        "atributo": "int",
        "outros": 0,
        "treinado": false,
        "st": false,
        "pda": false,
        "size": false,
        "condi": 0,
        "bonus": [],
        "custom": false,
        "label": "",
        "nome": ""
      },
      "nobr": {
        "value": 0,
        "atributo": "int",
        "outros": 0,
        "treinado": false,
        "st": false,
        "pda": false,
        "size": false,
        "condi": 0,
        "bonus": [],
        "custom": false,
        "label": "",
        "nome": ""
      },
      "ofi0": {
        "value": 0,
        "atributo": "int",
        "outros": 0,
        "treinado": false,
        "st": false,
        "pda": false,
        "size": false,
        "condi": 0,
        "bonus": [],
        "custom": false,
        "label": "",
        "nome": ""
      },
      "perc": {
        "value": 9,
        "atributo": "sab",
        "outros": 3,
        "treinado": true,
        "st": false,
        "pda": false,
        "size": false,
        "condi": 0,
        "bonus": [],
        "custom": false,
        "label": "",
        "nome": ""
      },
      "pilo": {
        "value": 0,
        "atributo": "des",
        "outros": 0,
        "treinado": false,
        "st": false,
        "pda": false,
        "size": false,
        "condi": 0,
        "bonus": [],
        "custom": false,
        "label": "",
        "nome": ""
      },
      "pont": {
        "value": 0,
        "atributo": "des",
        "outros": 0,
        "treinado": false,
        "st": false,
        "pda": false,
        "size": false,
        "condi": 0,
        "bonus": [],
        "custom": false,
        "label": "",
        "nome": ""
      },
      "refl": {
        "value": 19,
        "atributo": "des",
        "outros": 19,
        "treinado": false,
        "st": false,
        "pda": false,
        "size": false,
        "condi": 0,
        "bonus": [],
        "custom": false,
        "label": "",
        "nome": ""
      },
      "reli": {
        "value": 0,
        "atributo": "sab",
        "outros": 0,
        "treinado": false,
        "st": false,
        "pda": false,
        "size": false,
        "condi": 0,
        "bonus": [],
        "custom": false,
        "label": "",
        "nome": ""
      },
      "sobr": {
        "value": 0,
        "atributo": "sab",
        "outros": 0,
        "treinado": false,
        "st": false,
        "pda": false,
        "size": false,
        "condi": 0,
        "bonus": [],
        "custom": false,
        "label": "",
        "nome": ""
      },
      "vont": {
        "value": 3,
        "atributo": "sab",
        "outros": 20,
        "treinado": false,
        "st": false,
        "pda": false,
        "size": false,
        "condi": 0,
        "bonus": [],
        "custom": false,
        "label": "",
        "nome": ""
      },
      "_pc0": {
        "value": 0,
        "atributo": "for",
        "outros": 0,
        "treinado": false,
        "st": false,
        "pda": false,
        "size": false,
        "condi": 0,
        "bonus": [],
        "custom": false,
        "label": "",
        "nome": ""
      }
    },
    "modificadores": {
      "atributos": {
        "geral": [
          ""
        ],
        "fisicos": [
          ""
        ],
        "mentais": [
          ""
        ],
        "for": [
          ""
        ],
        "des": [
          ""
        ],
        "con": [
          ""
        ],
        "int": [
          ""
        ],
        "sab": [
          ""
        ],
        "car": [
          ""
        ]
      },
      "dano": {
        "geral": [
          ""
        ],
        "cac": [
          ""
        ],
        "ad": [
          ""
        ],
        "mag": [
          ""
        ],
        "alq": [
          ""
        ]
      },
      "custoPM": "0",
      "pericias": {
        "geral": [
          ""
        ],
        "semataque": [
          ""
        ],
        "ataque": [
          ""
        ],
        "resistencia": [
          ""
        ],
        "atr": {
          "for": [
            ""
          ],
          "des": [
            ""
          ],
          "con": [
            ""
          ],
          "int": [
            ""
          ],
          "sab": [
            ""
          ],
          "car": [
            ""
          ]
        }
      },
      "ataque": {
        "geral": [],
        "cac": [],
        "ad": []
      }
    },
    "builder": {
      "attributes": {
        "cr": "",
        "size": "",
        "attack": {
          "value": 0,
          "cr": ""
        },
        "damage": {
          "value": 0,
          "cr": ""
        },
        "defense": {
          "value": 0,
          "cr": ""
        },
        "fort": {
          "value": 0,
          "rank": 2,
          "cr": ""
        },
        "refl": {
          "value": 0,
          "rank": 1,
          "cr": ""
        },
        "vont": {
          "value": 0,
          "rank": 0,
          "cr": ""
        },
        "topsave": {
          "value": 0,
          "cr": ""
        },
        "midsave": {
          "value": 0,
          "cr": ""
        },
        "botsave": {
          "value": 0,
          "cr": ""
        },
        "hp": {
          "value": 0,
          "cr": ""
        },
        "mp": {
          "value": 0,
          "cr": ""
        },
        "dc": {
          "value": 0,
          "cr": ""
        }
      },
      "details": {
        "concept": "",
        "creatureType": "",
        "role": "",
        "treasure": ""
      }
    }
  },
  "ownership": {
    "default": 0
  },
  "prototypeToken": {
    "flags": {},
    "name": "Colosso Supremo",
    "displayName": 0,
    "width": 6,
    "height": 6,
    "lockRotation": false,
    "rotation": 0,
    "actorLink": false,
    "disposition": -1,
    "displayBars": 0,
    "bar1": {
      "attribute": "attributes.pv"
    },
    "bar2": {
      "attribute": "attributes.pm"
    },
    "randomImg": false,
    "alpha": 1,
    "light": {
      "dim": 0,
      "bright": 0,
      "angle": 360,
      "color": null,
      "alpha": 1,
      "animation": {
        "speed": 5,
        "intensity": 5,
        "type": null,
        "reverse": false
      },
      "coloration": 1,
      "attenuation": 0.5,
      "luminosity": 0.5,
      "saturation": 0,
      "contrast": 0,
      "shadows": 0,
      "darkness": {
        "min": 0,
        "max": 1
      }
    },
    "texture": {
      "src": "systems/tormenta20/icons/ameacas/colosso-supremo.png",
      "tint": null,
      "scaleX": 1.5,
      "scaleY": 1.5,
      "offsetX": 0,
      "offsetY": 0,
      "rotation": 0
    },
    "sight": {
      "angle": 360,
      "enabled": true,
      "range": 30,
      "brightness": 1,
      "visionMode": "basic",
      "color": null,
      "attenuation": 0.1,
      "saturation": 0,
      "contrast": 0
    },
    "detectionModes": [],
    "appendNumber": false,
    "prependAdjective": false
  },
  "_stats": {
    "systemId": "tormenta20",
    "systemVersion": "1.4.203d2",
    "coreVersion": "11.315",
    "createdTime": 1661997945966,
    "modifiedTime": 1700003848165,
    "lastModifiedBy": "5frcpPVF3cVfLwZA"
  },
  "_key": "!actors!WMcZXuIIRzCPzr6a"
}
