{
  "_id": "G7CDTFhKKlvssbYh",
  "name": "Goblin Engenhoqueiro",
  "type": "npc",
  "img": "systems/tormenta20/icons/ameacas/goblin-engenhoqueiro.png",
  "items": [
    {
      "type": "poder",
      "name": "Engenhocas",
      "img": "icons/svg/item-bag.svg",
      "system": {
        "description": {
          "value": "O goblin engenhoqueiro faz um teste de Ofício (engenhoqueiro) contra CD 15 para ativar uma de suas engenhocas. Para cada engenhoca, a CD aumenta em +5 a cada nova ativação no mesmo dia. Se passar no teste, a engenhoca é ativada. Se falhar, ela enguiça e não pode mais ser usada nesta cena",
          "unidentified": ""
        },
        "source": "",
        "ativacao": {
          "execucao": "action",
          "custo": 0,
          "qtd": "0",
          "condicao": "",
          "special": ""
        },
        "duracao": {
          "value": 0,
          "units": "",
          "special": ""
        },
        "target": {
          "value": null,
          "width": null,
          "type": ""
        },
        "range": {
          "value": null,
          "units": ""
        },
        "consume": {
          "type": "",
          "target": "",
          "amount": null,
          "mpMultiplier": false
        },
        "efeito": "",
        "alcance": "",
        "alvo": "",
        "area": "",
        "resistencia": {
          "pericia": "",
          "atributo": "",
          "bonus": 0,
          "txt": ""
        },
        "rolls": [],
        "tipo": "",
        "subtipo": "",
        "origin": "",
        "tags": [],
        "chatFlavor": "",
        "chatGif": ""
      },
      "effects": [],
      "folder": null,
      "sort": 0,
      "ownership": {
        "default": 0,
        "tIn9sSkrT3mDWirx": 3
      },
      "flags": {},
      "_stats": {
        "systemId": "tormenta20",
        "systemVersion": "1.4.1004",
        "coreVersion": "10.286",
        "createdTime": 1667016244054,
        "modifiedTime": 1667016244054,
        "lastModifiedBy": "tIn9sSkrT3mDWirx"
      },
      "_id": "o0UGbbd8OmWL3qcx",
      "_key": "!actors.items!G7CDTFhKKlvssbYh.o0UGbbd8OmWL3qcx"
    },
    {
      "name": "Adaga",
      "type": "arma",
      "img": "systems/tormenta20/icons/itens/equipamentos/adaga.webp",
      "effects": [],
      "flags": {
        "core": {
          "sourceId": "Compendium.tormenta20.equipamentos.XuObO7LzBBNoIsGv"
        }
      },
      "system": {
        "description": {
          "value": "<section class=\"secret\">Adaga</section><p style=\"text-align: justify;\">Esta faca afiada &eacute; usada por muitos habitantes adultos do Reinado, embora seja favorita de ladr&otilde;es e assassinos, por ser facilmente escondida (fornece +5 em testes de Ladinagem para ocult&aacute;-la). Quando ataca com uma adaga, voc&ecirc; pode usar sua Destreza em vez de For&ccedil;a nos testes de ataque. Uma adaga pode ser arremessada.</p>",
          "chat": "",
          "unidentified": ""
        },
        "source": "T20, pg. 146 (JdA)",
        "equipado": 0,
        "equipado2": {
          "slot": 0,
          "type": "hand"
        },
        "carregado": true,
        "peso": 0.5,
        "espacos": 1,
        "qtd": 1,
        "preco": 2,
        "pv": {
          "value": 0,
          "min": 0,
          "max": 0
        },
        "rd": 0,
        "rolls": [
          {
            "name": "Ataque",
            "key": "ataque0",
            "type": "ataque",
            "parts": [
              [
                "1d20",
                "",
                ""
              ],
              [
                "pont",
                "",
                ""
              ],
              [
                "+8",
                "",
                ""
              ]
            ]
          },
          {
            "name": "Dano",
            "key": "dano1",
            "type": "dano",
            "parts": [
              [
                "1d4+3",
                "perfuracao",
                ""
              ],
              [
                "",
                "",
                ""
              ]
            ],
            "versatil": ""
          }
        ],
        "criticoM": 19,
        "criticoX": 2,
        "alcance": "short",
        "tipoUso": "sim",
        "propriedades": {
          "ada": false,
          "agi": false,
          "alo": false,
          "arr": false,
          "dst": false,
          "dms": false,
          "dup": false,
          "lev": false,
          "mun": false,
          "ver": false,
          "adaptavel": false,
          "agil": false,
          "alongada": false,
          "arremesso": true,
          "ataqueDistancia": false,
          "duasMaos": false,
          "dupla": false,
          "leve": true,
          "municao": false,
          "versatil": false,
          "des": false,
          "hib": false
        },
        "encantos": {
          "arremesso": false,
          "lancinante": false,
          "keen": null,
          "bane": null,
          "throwable": null,
          "assassin": null,
          "seeking": null,
          "frost": null,
          "caster": null,
          "corrosive": null,
          "dancing": null,
          "defending": null,
          "destructive": null,
          "lacerating": null,
          "draining": null,
          "shock": null,
          "energy": null,
          "excruciating": null,
          "flaming": null,
          "formidable": null,
          "lancinating": false,
          "magnificent": null,
          "merciful": null,
          "unholy": null,
          "holy": null,
          "bloodthirsty": null,
          "thundering": null,
          "sepulchral": null,
          "speed": null,
          "poisonous": null
        },
        "ativacao": {
          "custo": null,
          "condicao": "",
          "execucao": "",
          "qtd": "",
          "special": ""
        },
        "chatFlavor": "",
        "consume": {
          "type": "",
          "target": "",
          "amount": null,
          "mpMultiplier": false
        },
        "melhorias": {
          "accurate": null,
          "pungent": null,
          "cruel": null,
          "atrocious": null,
          "balanced": null,
          "harmonized": null,
          "injection": null,
          "massive": null,
          "specialmaterial": null,
          "scope": null,
          "precise": null,
          "golden": null,
          "gems": null,
          "discreet": null,
          "macabre": null
        },
        "origin": "",
        "tags": [],
        "chatGif": "",
        "upgrades": {
          "melhoria1": "",
          "melhoria2": "",
          "melhoria3": "",
          "melhoria4": "",
          "material": "",
          "encanto1": "",
          "encanto2": "",
          "encanto3": ""
        },
        "proficiencia": "simples",
        "proposito": "arremesso",
        "empunhadura": "leve",
        "size": "normal",
        "ataques": 0
      },
      "ownership": {
        "default": 0,
        "tIn9sSkrT3mDWirx": 3
      },
      "_stats": {
        "systemId": "tormenta20",
        "systemVersion": "1.4.203d2",
        "coreVersion": "11.315",
        "createdTime": 1664312772409,
        "modifiedTime": 1700236661060,
        "lastModifiedBy": "5frcpPVF3cVfLwZA"
      },
      "folder": "brhICwdHcOUqvMPi",
      "sort": 2000000,
      "_id": "2UPqF3nwrVmYV0sa",
      "_key": "!actors.items!G7CDTFhKKlvssbYh.2UPqF3nwrVmYV0sa"
    },
    {
      "name": "Besta leve",
      "type": "arma",
      "img": "systems/tormenta20/icons/itens/equipamentos/besta-leve.webp",
      "effects": [],
      "flags": {
        "core": {
          "sourceId": "Compendium.tormenta20.equipamentos.dUtNefh57IswhzOr"
        }
      },
      "system": {
        "description": {
          "value": "<section class=\"secret\">Besta leve</section><p style=\"text-align: justify;\">Um arco montado sobre uma coronha de madeira com um gatilho, a besta leve &eacute; uma arma que dispara virotes com grande pot&ecirc;ncia. Recarregar uma besta leve &eacute; uma a&ccedil;&atilde;o de movimento.</p>",
          "chat": "",
          "unidentified": ""
        },
        "source": "T20, pg. 146 (JdA)",
        "equipado": 0,
        "equipado2": {
          "slot": 0,
          "type": "hand"
        },
        "carregado": true,
        "peso": 3,
        "espacos": 1,
        "qtd": 1,
        "preco": 35,
        "pv": {
          "value": 0,
          "min": 0,
          "max": 0
        },
        "rd": 0,
        "rolls": [
          {
            "name": "Ataque",
            "key": "ataque0",
            "type": "ataque",
            "parts": [
              [
                "1d20",
                "",
                ""
              ],
              [
                "pont",
                "",
                ""
              ],
              [
                "+9",
                "",
                ""
              ]
            ]
          },
          {
            "name": "Dano",
            "key": "dano1",
            "type": "dano",
            "parts": [
              [
                "1d8+3",
                "perfuracao",
                ""
              ],
              [
                "",
                "",
                ""
              ]
            ],
            "versatil": ""
          }
        ],
        "criticoM": 19,
        "criticoX": 2,
        "alcance": "medium",
        "tipoUso": "sim",
        "propriedades": {
          "ada": false,
          "agi": false,
          "alo": false,
          "arr": false,
          "dst": false,
          "dms": false,
          "dup": false,
          "lev": false,
          "mun": false,
          "ver": false,
          "adaptavel": false,
          "agil": false,
          "alongada": false,
          "arremesso": false,
          "ataqueDistancia": true,
          "duasMaos": true,
          "dupla": false,
          "leve": false,
          "municao": true,
          "versatil": false,
          "des": false,
          "hib": false
        },
        "encantos": {
          "arremesso": false,
          "lancinante": false,
          "lancinating": false
        },
        "ativacao": {
          "custo": null,
          "condicao": "",
          "execucao": "",
          "qtd": "",
          "special": ""
        },
        "chatFlavor": "",
        "consume": {
          "type": "",
          "target": "",
          "amount": null,
          "mpMultiplier": false
        },
        "origin": "",
        "tags": [],
        "chatGif": "",
        "upgrades": {
          "melhoria1": "",
          "melhoria2": "",
          "melhoria3": "",
          "melhoria4": "",
          "material": "",
          "encanto1": "",
          "encanto2": "",
          "encanto3": ""
        },
        "melhorias": {},
        "proficiencia": "simples",
        "proposito": "disparo",
        "empunhadura": "duas",
        "size": "normal",
        "ataques": 0
      },
      "ownership": {
        "default": 0,
        "tIn9sSkrT3mDWirx": 3
      },
      "_stats": {
        "systemId": "tormenta20",
        "systemVersion": "1.4.203d2",
        "coreVersion": "11.315",
        "createdTime": 1664312772412,
        "modifiedTime": 1700236670022,
        "lastModifiedBy": "5frcpPVF3cVfLwZA"
      },
      "folder": "brhICwdHcOUqvMPi",
      "sort": 3400000,
      "_id": "FhYXHLdWVWBIiWnn",
      "_key": "!actors.items!G7CDTFhKKlvssbYh.FhYXHLdWVWBIiWnn"
    },
    {
      "name": "Asa de Bambu",
      "type": "magia",
      "img": "systems/tormenta20/icons/magias/voo.webp",
      "effects": [
        {
          "_id": "CRX7wBp8q9Zkv9z2",
          "changes": [
            {
              "key": "system.attributes.movement.fly",
              "mode": 2,
              "value": "12",
              "priority": null
            }
          ],
          "disabled": false,
          "duration": {
            "rounds": 1,
            "startTime": null,
            "seconds": null,
            "combat": null,
            "turns": null,
            "startRound": null,
            "startTurn": null
          },
          "icon": "systems/tormenta20/icons/magias/voo.webp",
          "label": "Asa de Bambu",
          "origin": "Item.TNU7KWJ843G0GKJN",
          "transfer": false,
          "flags": {
            "tormenta20": {
              "onuse": false,
              "durationScene": true
            }
          },
          "tint": null,
          "_key": "!actors.items.effects!G7CDTFhKKlvssbYh.2S4WblATzzZFZSBU.CRX7wBp8q9Zkv9z2"
        }
      ],
      "flags": {
        "core": {
          "sourceId": "Item.Vlk6hS0fo0iWKkKi"
        }
      },
      "system": {
        "description": {
          "value": "<p style=\"text-align: justify;\">O engenhoqueiro recebe deslocamento de voo 12m at&eacute; o fim da cena.</p>",
          "unidentified": ""
        },
        "source": "T20, pg. 211 (JdA)",
        "ativacao": {
          "execucao": "action",
          "custo": 0,
          "qtd": "",
          "condicao": "",
          "special": ""
        },
        "duracao": {
          "value": 0,
          "units": "scene",
          "special": ""
        },
        "target": {
          "value": null,
          "width": null,
          "type": ""
        },
        "range": {
          "value": null,
          "units": ""
        },
        "consume": {
          "type": "",
          "target": "",
          "amount": null,
          "mpMultiplier": false
        },
        "efeito": "",
        "alcance": "self",
        "alvo": "você",
        "area": "",
        "resistencia": {
          "pericia": "",
          "atributo": "",
          "bonus": 0,
          "txt": ""
        },
        "rolls": [],
        "tipo": "uni",
        "circulo": "1",
        "preparada": false,
        "escola": "tra",
        "chatFlavor": "",
        "origin": "",
        "tags": [],
        "chatGif": ""
      },
      "ownership": {
        "default": 0,
        "tIn9sSkrT3mDWirx": 3
      },
      "_stats": {
        "systemId": "tormenta20",
        "systemVersion": "1.4.1004",
        "coreVersion": "10.286",
        "createdTime": 1664310461901,
        "modifiedTime": 1667016777171,
        "lastModifiedBy": "tIn9sSkrT3mDWirx"
      },
      "folder": "0V7x5o397UvG3xKP",
      "sort": 425000,
      "_id": "2S4WblATzzZFZSBU",
      "_key": "!actors.items!G7CDTFhKKlvssbYh.2S4WblATzzZFZSBU"
    },
    {
      "name": "Cospe-chamas",
      "type": "magia",
      "img": "systems/tormenta20/icons/magias/explosao-de-chamas.webp",
      "effects": [
        {
          "label": "Em Chamas",
          "icon": "systems/tormenta20/icons/conditions/em-chamas.svg",
          "origin": "Item.cp13FGeg0C2uihk3",
          "tint": "#FFFFFF",
          "flags": {
            "tormenta20": {
              "onuse": false,
              "durationScene": false
            }
          },
          "duration": {
            "rounds": 1,
            "startTime": null,
            "seconds": null,
            "combat": null,
            "turns": null,
            "startRound": null,
            "startTurn": null
          },
          "disabled": false,
          "_id": "a0SlKjWxq2sT8Dam",
          "changes": [],
          "transfer": false,
          "_key": "!actors.items.effects!G7CDTFhKKlvssbYh.hZHBWWoRVpBnxu7r.a0SlKjWxq2sT8Dam"
        }
      ],
      "flags": {
        "core": {
          "sourceId": "Item.dmZrFf0OW2mDIVUM"
        },
        "cf": null
      },
      "system": {
        "description": {
          "value": "<p>Produz um cone de chamas de 9m. Criaturas na &aacute;rea sofrem 6d6 pontos de dano de fogo e ficam em chamas (Reflexos CD 19 reduz o dano &agrave; metade e evita a condi&ccedil;&atilde;o).</p>",
          "unidentified": ""
        },
        "source": "T20, pg. 193 (JdA)",
        "ativacao": {
          "execucao": "action",
          "custo": 0,
          "qtd": "",
          "condicao": "",
          "special": ""
        },
        "duracao": {
          "value": 0,
          "units": "inst",
          "special": ""
        },
        "target": {
          "value": null,
          "width": null,
          "type": ""
        },
        "range": {
          "value": null,
          "units": ""
        },
        "consume": {
          "type": "",
          "target": "",
          "amount": null,
          "mpMultiplier": false
        },
        "efeito": "",
        "alcance": "self",
        "alvo": "",
        "area": "Cone de 9m",
        "resistencia": {
          "pericia": "",
          "atributo": "",
          "bonus": 0,
          "txt": "Reflexos reduz à metade"
        },
        "rolls": [
          {
            "name": "Dano",
            "key": "dano0",
            "type": "dano",
            "parts": [
              [
                "6d6",
                "fogo",
                ""
              ]
            ],
            "versatil": ""
          }
        ],
        "tipo": "uni",
        "circulo": "1",
        "preparada": false,
        "escola": "evo",
        "chatFlavor": "",
        "origin": "",
        "tags": [],
        "chatGif": ""
      },
      "ownership": {
        "default": 0,
        "tIn9sSkrT3mDWirx": 3
      },
      "_stats": {
        "systemId": "tormenta20",
        "systemVersion": "1.4.1004",
        "coreVersion": "10.286",
        "createdTime": 1664310461907,
        "modifiedTime": 1667016796566,
        "lastModifiedBy": "tIn9sSkrT3mDWirx"
      },
      "folder": "0V7x5o397UvG3xKP",
      "sort": 575000,
      "_id": "hZHBWWoRVpBnxu7r",
      "_key": "!actors.items!G7CDTFhKKlvssbYh.hZHBWWoRVpBnxu7r"
    },
    {
      "name": "Gritador",
      "type": "magia",
      "img": "systems/tormenta20/icons/magias/perdicao.webp",
      "effects": [
        {
          "_id": "Nzx93ileTOT6jhFR",
          "changes": [
            {
              "key": "system.modificadores.ataque.geral",
              "mode": 2,
              "value": "-2",
              "priority": null
            },
            {
              "key": "system.modificadores.dano.geral",
              "mode": 2,
              "value": "-2",
              "priority": null
            }
          ],
          "disabled": false,
          "duration": {
            "rounds": 1,
            "startTime": null,
            "seconds": null,
            "combat": null,
            "turns": null,
            "startRound": null,
            "startTurn": null
          },
          "icon": "systems/tormenta20/icons/magias/perdicao.webp",
          "label": "Gritador",
          "origin": "Item.sMwaPJUeQEl5NK2f",
          "transfer": false,
          "flags": {
            "tormenta20": {
              "onuse": false,
              "durationScene": true
            },
            "t20": null
          },
          "tint": null,
          "_key": "!actors.items.effects!G7CDTFhKKlvssbYh.2racARRKADCUoo82.Nzx93ileTOT6jhFR"
        }
      ],
      "flags": {
        "core": {
          "sourceId": "Item.FVpNBFNhi0XAVGXE"
        },
        "tormenta20": {
          "version": "1.3.0.0"
        },
        "importid": "fStd1y5azxP3rRkt",
        "cf": null
      },
      "system": {
        "description": {
          "value": "<p style=\"text-align: justify;\">Produz um ru&iacute;do ensurdecedor. Todas as criaturas em alcance curto escolhidas pelo goblin engenhoqueiro sofrem &minus;2 em testes de ataque e rolagens de dano at&eacute; o fim da cena.</p>",
          "unidentified": ""
        },
        "source": "",
        "ativacao": {
          "execucao": "action",
          "custo": 0,
          "qtd": "",
          "condicao": "",
          "special": ""
        },
        "duracao": {
          "value": 0,
          "units": "scene",
          "special": ""
        },
        "target": {
          "value": null,
          "width": null,
          "type": ""
        },
        "range": {
          "value": null,
          "units": ""
        },
        "consume": {
          "type": "",
          "target": "",
          "amount": null,
          "mpMultiplier": false
        },
        "efeito": "",
        "alcance": "short",
        "alvo": "Criaturas Escolhidas",
        "area": "",
        "resistencia": {
          "pericia": "",
          "atributo": "",
          "bonus": 0,
          "txt": "nenhuma"
        },
        "rolls": [],
        "tipo": "uni",
        "circulo": "1",
        "preparada": false,
        "escola": "nec",
        "chatFlavor": "",
        "origin": "",
        "tags": [],
        "chatGif": ""
      },
      "ownership": {
        "default": 0,
        "tIn9sSkrT3mDWirx": 3
      },
      "_stats": {
        "systemId": "tormenta20",
        "systemVersion": "1.4.1004",
        "coreVersion": "10.286",
        "createdTime": 1664310461780,
        "modifiedTime": 1667016787830,
        "lastModifiedBy": "tIn9sSkrT3mDWirx"
      },
      "folder": "0V7x5o397UvG3xKP",
      "sort": 350000,
      "_id": "2racARRKADCUoo82",
      "_key": "!actors.items!G7CDTFhKKlvssbYh.2racARRKADCUoo82"
    },
    {
      "_id": "IQAC5CPvyaBWHX8c",
      "name": "Instrumentos de Engenhoqueiro",
      "type": "tesouro",
      "img": "systems/tormenta20/icons/itens/gerais/instrumentos-de-oficio.webp",
      "effects": [],
      "flags": {
        "core": {
          "sourceId": "Compendium.tormenta20.equipamentos.mMPUi2VjdE3rNGkg"
        }
      },
      "system": {
        "description": {
          "value": "<p style=\"text-align: justify;\">Existe uma versão deste item para cada perícia de Ofício. Por exemplo, martelo, pregos e serrote para Ofício (carpinteiro), pergaminhos em branco, tinta e pena para Ofício (escriba) e assim por diante. Um personagem sem os instrumentos de seu Ofício sofre –5 nessa perícia.</p>",
          "unidentified": ""
        },
        "source": "T20, pg. 158 (JdA)",
        "carregado": true,
        "peso": 4,
        "espacos": 1,
        "qtd": 1,
        "preco": 30,
        "pv": {
          "value": 0,
          "min": 0,
          "max": 0
        },
        "rd": 0,
        "container": false,
        "rolls": [],
        "origin": "",
        "tags": [],
        "chatFlavor": "",
        "chatGif": "",
        "ativacao": {
          "custo": 0,
          "condicao": "",
          "execucao": "",
          "qtd": "",
          "special": ""
        },
        "consume": {
          "amount": 0,
          "mpMultiplier": false,
          "target": "",
          "type": ""
        },
        "duracao": {
          "units": "",
          "value": 0,
          "special": ""
        },
        "range": {
          "units": "",
          "value": 0
        },
        "target": {
          "type": "",
          "value": 0,
          "width": 0
        },
        "alcance": "",
        "alvo": "",
        "area": "",
        "efeito": "",
        "resistencia": {
          "txt": "",
          "pericia": "",
          "atributo": "",
          "bonus": 0
        }
      },
      "ownership": {
        "default": 0,
        "tIn9sSkrT3mDWirx": 3
      },
      "_stats": {
        "systemId": "tormenta20",
        "systemVersion": "1.4.1004",
        "coreVersion": "10.286",
        "createdTime": 1664312772419,
        "modifiedTime": 1667016691119,
        "lastModifiedBy": "tIn9sSkrT3mDWirx"
      },
      "folder": "w4rSzYhuNhz6tMkJ",
      "sort": 350000,
      "_key": "!actors.items!G7CDTFhKKlvssbYh.IQAC5CPvyaBWHX8c"
    },
    {
      "_id": "hleu9WdBDNVb8mic",
      "name": "Virotes",
      "type": "consumivel",
      "img": "systems/tormenta20/icons/itens/equipamentos/virotes.webp",
      "effects": [],
      "flags": {
        "core": {
          "sourceId": "Compendium.tormenta20.equipamentos.pG2mhXPGveTdGuDG"
        }
      },
      "system": {
        "description": {
          "value": "<p style=\"text-align: justify;\">Uma aljava com 20 setas de madeira. Recarregar uma besta leve &eacute; uma a&ccedil;&atilde;o de movimento; j&aacute; recarregar uma besta pesada &eacute; uma a&ccedil;&atilde;o padr&atilde;o.</p>",
          "unidentified": ""
        },
        "source": "T20, pg. 151 (JdA)",
        "carregado": true,
        "peso": 0.075,
        "espacos": 0.05,
        "qtd": 10,
        "preco": 2,
        "pv": {
          "value": 0,
          "min": 0,
          "max": 0
        },
        "rd": 0,
        "ativacao": {
          "execucao": "",
          "custo": 0,
          "qtd": "",
          "condicao": "",
          "special": ""
        },
        "duracao": {
          "value": 0,
          "units": "",
          "special": ""
        },
        "target": {
          "value": null,
          "width": null,
          "type": ""
        },
        "range": {
          "value": null,
          "units": ""
        },
        "consume": {
          "type": "",
          "target": "",
          "amount": null,
          "mpMultiplier": false
        },
        "efeito": "",
        "alcance": "none",
        "alvo": "",
        "area": "",
        "resistencia": {
          "pericia": "",
          "atributo": "",
          "bonus": 0,
          "txt": ""
        },
        "rolls": [],
        "tipo": "ammo",
        "chatFlavor": "",
        "melhorias": {
          "accurate": null,
          "pungent": null,
          "cruel": null,
          "atrocious": null,
          "balanced": null,
          "harmonized": null,
          "injection": null,
          "massive": null,
          "specialmaterial": null,
          "scope": null,
          "precise": null,
          "golden": null,
          "gems": null,
          "discreet": null,
          "macabre": null
        },
        "encantos": {
          "keen": null,
          "bane": null,
          "throwable": null,
          "assassin": null,
          "seeking": null,
          "frost": null,
          "caster": null,
          "corrosive": null,
          "dancing": null,
          "defending": null,
          "destructive": null,
          "lacerating": null,
          "draining": null,
          "shock": null,
          "energy": null,
          "excruciating": null,
          "flaming": null,
          "formidable": null,
          "lancinating": null,
          "magnificent": null,
          "merciful": null,
          "unholy": null,
          "holy": null,
          "bloodthirsty": null,
          "thundering": null,
          "sepulchral": null,
          "speed": null,
          "poisonous": null
        },
        "origin": "",
        "tags": [],
        "chatGif": "",
        "upgrades": {
          "melhoria1": "",
          "melhoria2": "",
          "melhoria3": "",
          "melhoria4": "",
          "material": "",
          "encanto1": "",
          "encanto2": "",
          "encanto3": ""
        },
        "subtipo": ""
      },
      "ownership": {
        "default": 0,
        "tIn9sSkrT3mDWirx": 3
      },
      "_stats": {
        "systemId": "tormenta20",
        "systemVersion": "1.4.1004",
        "coreVersion": "10.286",
        "createdTime": 1664312772421,
        "modifiedTime": 1667016696209,
        "lastModifiedBy": "tIn9sSkrT3mDWirx"
      },
      "folder": "I6NNvV3PwdDmfJ2K",
      "sort": 125000,
      "_key": "!actors.items!G7CDTFhKKlvssbYh.hleu9WdBDNVb8mic"
    }
  ],
  "effects": [],
  "folder": "Du7lCUo0cmGGsOJZ",
  "sort": 100001,
  "flags": {
    "exportSource": {
      "world": "andreverse-t20",
      "system": "tormenta20",
      "coreVersion": "0.6.6",
      "systemVersion": "0.9.71"
    },
    "editing": false,
    "tormenta20": {
      "sheet": {},
      "lvlconfig": {
        "pv": {},
        "pm": {}
      },
      "version": "1.3.0.0"
    },
    "core": {
      "sourceId": "Compendium.tormenta20.ameacas.G7CDTFhKKlvssbYh"
    }
  },
  "system": {
    "atributos": {
      "for": {
        "value": 0,
        "bonus": 0,
        "base": 0,
        "racial": 0
      },
      "des": {
        "value": 0,
        "bonus": 0,
        "base": 2,
        "racial": 0
      },
      "con": {
        "value": 0,
        "bonus": 0,
        "base": 2,
        "racial": 0
      },
      "int": {
        "value": 0,
        "bonus": 0,
        "base": 3,
        "racial": 0
      },
      "sab": {
        "value": 0,
        "bonus": 0,
        "base": -1,
        "racial": 0
      },
      "car": {
        "value": 0,
        "bonus": 0,
        "base": 0,
        "racial": 0
      }
    },
    "attributes": {
      "cd": 19,
      "pv": {
        "value": 74,
        "min": -500,
        "max": 74,
        "temp": 0
      },
      "pm": {
        "value": 0,
        "min": 0,
        "max": 0,
        "temp": 0
      },
      "movement": {
        "burrow": 0,
        "climb": 0,
        "fly": 0,
        "swim": 0,
        "walk": 9,
        "unit": "m",
        "hover": false,
        "notes": ""
      },
      "defesa": {
        "base": 19,
        "value": 0,
        "outros": 0,
        "atributo": "des",
        "pda": 0,
        "bonus": [],
        "condi": 0
      },
      "sentidos": {
        "value": [
          "escuro"
        ],
        "custom": ""
      },
      "conjuracao": "int",
      "nivel": {
        "value": 1,
        "xp": {
          "value": 0,
          "pct": 0,
          "proximo": 0
        }
      },
      "nd": "3",
      "carga": {
        "value": 0,
        "base": 10,
        "bonus": [],
        "max": 0,
        "pct": 0,
        "encumbered": false
      },
      "treino": 0
    },
    "detalhes": {
      "biography": {
        "value": "",
        "public": ""
      },
      "raca": "goblin",
      "tipo": "hum",
      "alinhamento": "",
      "divindade": "",
      "nd": "",
      "equipamento": "",
      "resistencias": "",
      "tesouro": "Padrão.",
      "role": "special",
      "origem": "",
      "ataquescac": "Adaga +8 (1d4+3, 19).",
      "ataquesad": "Besta leve +9 (1d8+3, 19)."
    },
    "tracos": {
      "tamanho": "peq",
      "resistencias": {
        "perda": {
          "value": 0,
          "base": 0,
          "bonus": [],
          "imunidade": false,
          "vulnerabilidade": false
        },
        "acido": {
          "value": 0,
          "base": 0,
          "bonus": [],
          "imunidade": false,
          "vulnerabilidade": false
        },
        "corte": {
          "value": 0,
          "base": 0,
          "bonus": [],
          "imunidade": false,
          "vulnerabilidade": false
        },
        "eletricidade": {
          "value": 0,
          "base": 0,
          "bonus": [],
          "imunidade": false,
          "vulnerabilidade": false
        },
        "essencia": {
          "value": 0,
          "base": 0,
          "bonus": [],
          "imunidade": false,
          "vulnerabilidade": false
        },
        "fogo": {
          "value": 0,
          "base": 0,
          "bonus": [],
          "imunidade": false,
          "vulnerabilidade": false
        },
        "frio": {
          "value": 0,
          "base": 0,
          "bonus": [],
          "imunidade": false,
          "vulnerabilidade": false
        },
        "impacto": {
          "value": 0,
          "base": 0,
          "bonus": [],
          "imunidade": false,
          "vulnerabilidade": false
        },
        "luz": {
          "value": 0,
          "base": 0,
          "bonus": [],
          "imunidade": false,
          "vulnerabilidade": false
        },
        "psiquico": {
          "value": 0,
          "base": 0,
          "bonus": [],
          "imunidade": false,
          "vulnerabilidade": false
        },
        "perfuracao": {
          "value": 0,
          "base": 0,
          "bonus": [],
          "imunidade": false,
          "vulnerabilidade": false
        },
        "trevas": {
          "value": 0,
          "base": 0,
          "bonus": [],
          "imunidade": false,
          "vulnerabilidade": false
        },
        "dano": {
          "value": 0,
          "imunidade": false,
          "vulnerabilidade": false
        }
      },
      "ic": {
        "value": [],
        "custom": ""
      },
      "idiomas": {
        "value": [
          "comum"
        ]
      }
    },
    "dinheiro": {
      "tl": 0,
      "to": 0,
      "tp": 0,
      "tc": 0
    },
    "resources": {
      "primary": {
        "value": 0,
        "max": 0,
        "label": ""
      },
      "secondary": {
        "value": 0,
        "max": 0,
        "label": ""
      },
      "tertiary": {
        "value": 0,
        "max": 0,
        "label": ""
      },
      "deathsave": {
        "value": 0,
        "max": 3,
        "label": ""
      },
      "shadow": {
        "value": 0,
        "max": 5,
        "label": ""
      },
      "catarse": {
        "value": 0,
        "max": 3,
        "label": ""
      }
    },
    "pericias": {
      "acro": {
        "value": 0,
        "atributo": "des",
        "outros": 0,
        "treinado": false,
        "st": false,
        "pda": false,
        "size": false,
        "condi": 0,
        "bonus": [],
        "custom": false,
        "label": "",
        "nome": ""
      },
      "ades": {
        "value": 0,
        "atributo": "car",
        "outros": 0,
        "treinado": false,
        "st": false,
        "pda": false,
        "size": false,
        "condi": 0,
        "bonus": [],
        "custom": false,
        "label": "",
        "nome": ""
      },
      "atle": {
        "value": 0,
        "atributo": "for",
        "outros": 0,
        "treinado": false,
        "st": false,
        "pda": false,
        "size": false,
        "condi": 0,
        "bonus": [],
        "custom": false,
        "label": "",
        "nome": ""
      },
      "atua": {
        "value": 0,
        "atributo": "car",
        "outros": 0,
        "treinado": false,
        "st": false,
        "pda": false,
        "size": false,
        "condi": 0,
        "bonus": [],
        "custom": false,
        "label": "",
        "nome": ""
      },
      "cava": {
        "value": 0,
        "atributo": "des",
        "outros": 0,
        "treinado": false,
        "st": false,
        "pda": false,
        "size": false,
        "condi": 0,
        "bonus": [],
        "custom": false,
        "label": "",
        "nome": ""
      },
      "conh": {
        "value": 0,
        "atributo": "int",
        "outros": 0,
        "treinado": false,
        "st": false,
        "pda": false,
        "size": false,
        "condi": 0,
        "bonus": [],
        "custom": false,
        "label": "",
        "nome": ""
      },
      "cura": {
        "value": 0,
        "atributo": "sab",
        "outros": 0,
        "treinado": false,
        "st": false,
        "pda": false,
        "size": false,
        "condi": 0,
        "bonus": [],
        "custom": false,
        "label": "",
        "nome": ""
      },
      "dipl": {
        "value": 0,
        "atributo": "car",
        "outros": 0,
        "treinado": false,
        "st": false,
        "pda": false,
        "size": false,
        "condi": 0,
        "bonus": [],
        "custom": false,
        "label": "",
        "nome": ""
      },
      "enga": {
        "value": 0,
        "atributo": "car",
        "outros": 0,
        "treinado": false,
        "st": false,
        "pda": false,
        "size": false,
        "condi": 0,
        "bonus": [],
        "custom": false,
        "label": "",
        "nome": ""
      },
      "fort": {
        "value": 3,
        "atributo": "con",
        "outros": 3,
        "treinado": false,
        "st": false,
        "pda": false,
        "size": false,
        "condi": 0,
        "bonus": [],
        "custom": false,
        "label": "",
        "nome": ""
      },
      "furt": {
        "value": 7,
        "atributo": "des",
        "outros": 0,
        "treinado": true,
        "st": false,
        "pda": false,
        "size": false,
        "condi": 0,
        "bonus": [],
        "custom": false,
        "label": "",
        "nome": ""
      },
      "guer": {
        "value": 0,
        "atributo": "int",
        "outros": 0,
        "treinado": false,
        "st": false,
        "pda": false,
        "size": false,
        "condi": 0,
        "bonus": [],
        "custom": false,
        "label": "",
        "nome": ""
      },
      "inic": {
        "value": 5,
        "atributo": "des",
        "outros": 0,
        "treinado": true,
        "st": false,
        "pda": false,
        "size": false,
        "condi": 0,
        "bonus": [],
        "custom": false,
        "label": "",
        "nome": ""
      },
      "inti": {
        "value": 0,
        "atributo": "car",
        "outros": 0,
        "treinado": false,
        "st": false,
        "pda": false,
        "size": false,
        "condi": 0,
        "bonus": [],
        "custom": false,
        "label": "",
        "nome": ""
      },
      "intu": {
        "value": 0,
        "atributo": "sab",
        "outros": 0,
        "treinado": false,
        "label": "",
        "st": false,
        "pda": false,
        "bonus": [],
        "size": false,
        "condi": 0,
        "custom": false,
        "nome": ""
      },
      "inve": {
        "value": 0,
        "atributo": "int",
        "outros": 0,
        "treinado": false,
        "st": false,
        "pda": false,
        "size": false,
        "condi": 0,
        "bonus": [],
        "custom": false,
        "label": "",
        "nome": ""
      },
      "joga": {
        "value": 0,
        "atributo": "car",
        "outros": 0,
        "treinado": false,
        "st": false,
        "pda": false,
        "size": false,
        "condi": 0,
        "bonus": [],
        "custom": false,
        "label": "",
        "nome": ""
      },
      "ladi": {
        "value": 0,
        "atributo": "des",
        "outros": 0,
        "treinado": false,
        "st": false,
        "pda": false,
        "size": false,
        "condi": 0,
        "bonus": [],
        "custom": false,
        "label": "",
        "nome": ""
      },
      "luta": {
        "value": 0,
        "atributo": "for",
        "outros": 0,
        "treinado": false,
        "st": false,
        "pda": false,
        "size": false,
        "condi": 0,
        "bonus": [],
        "custom": false,
        "label": "",
        "nome": ""
      },
      "mist": {
        "value": 0,
        "atributo": "int",
        "outros": 0,
        "treinado": false,
        "st": false,
        "pda": false,
        "size": false,
        "condi": 0,
        "bonus": [],
        "custom": false,
        "label": "",
        "nome": ""
      },
      "nobr": {
        "value": 0,
        "atributo": "int",
        "outros": 0,
        "treinado": false,
        "st": false,
        "pda": false,
        "size": false,
        "condi": 0,
        "bonus": [],
        "custom": false,
        "label": "",
        "nome": ""
      },
      "ofi0": {
        "value": 0,
        "atributo": "int",
        "outros": 0,
        "treinado": false,
        "st": false,
        "pda": false,
        "size": false,
        "condi": 0,
        "bonus": [],
        "custom": false,
        "label": "",
        "nome": ""
      },
      "perc": {
        "value": 2,
        "atributo": "sab",
        "outros": 0,
        "treinado": true,
        "st": false,
        "pda": false,
        "size": false,
        "condi": 0,
        "bonus": [],
        "custom": false,
        "label": "",
        "nome": ""
      },
      "pilo": {
        "value": 0,
        "atributo": "des",
        "outros": 0,
        "treinado": false,
        "st": false,
        "pda": false,
        "size": false,
        "condi": 0,
        "bonus": [],
        "custom": false,
        "label": "",
        "nome": ""
      },
      "pont": {
        "value": 0,
        "atributo": "des",
        "outros": 0,
        "treinado": false,
        "st": false,
        "pda": false,
        "size": false,
        "condi": 0,
        "bonus": [],
        "custom": false,
        "label": "",
        "nome": ""
      },
      "refl": {
        "value": 15,
        "atributo": "des",
        "outros": 15,
        "treinado": false,
        "st": false,
        "pda": false,
        "size": false,
        "condi": 0,
        "bonus": [],
        "custom": false,
        "label": "",
        "nome": ""
      },
      "reli": {
        "value": 0,
        "atributo": "sab",
        "outros": 0,
        "treinado": false,
        "st": false,
        "pda": false,
        "size": false,
        "condi": 0,
        "bonus": [],
        "custom": false,
        "label": "",
        "nome": ""
      },
      "sobr": {
        "value": 0,
        "atributo": "sab",
        "outros": 0,
        "treinado": false,
        "st": false,
        "pda": false,
        "size": false,
        "condi": 0,
        "bonus": [],
        "custom": false,
        "label": "",
        "nome": ""
      },
      "vont": {
        "value": 9,
        "atributo": "sab",
        "outros": 9,
        "treinado": false,
        "st": false,
        "pda": false,
        "size": false,
        "condi": 0,
        "bonus": [],
        "custom": false,
        "label": "",
        "nome": ""
      },
      "_pc0": {
        "value": 0,
        "atributo": "for",
        "outros": 0,
        "treinado": false,
        "st": false,
        "pda": false,
        "size": false,
        "condi": 0,
        "bonus": [],
        "custom": false,
        "label": "",
        "nome": ""
      },
      "ofi1": {
        "treinado": true,
        "label": "Engenhoqueiro",
        "atributo": "int",
        "outros": 4,
        "condi": 0
      }
    },
    "modificadores": {
      "atributos": {
        "geral": [
          ""
        ],
        "fisicos": [
          ""
        ],
        "mentais": [
          ""
        ],
        "for": [
          ""
        ],
        "des": [
          ""
        ],
        "con": [
          ""
        ],
        "int": [
          ""
        ],
        "sab": [
          ""
        ],
        "car": [
          ""
        ]
      },
      "dano": {
        "geral": [
          ""
        ],
        "cac": [
          ""
        ],
        "ad": [
          ""
        ],
        "mag": [
          ""
        ],
        "alq": [
          ""
        ]
      },
      "custoPM": "0",
      "pericias": {
        "geral": [
          ""
        ],
        "semataque": [
          ""
        ],
        "ataque": [
          ""
        ],
        "resistencia": [
          ""
        ],
        "atr": {
          "for": [
            ""
          ],
          "des": [
            ""
          ],
          "con": [
            ""
          ],
          "int": [
            ""
          ],
          "sab": [
            ""
          ],
          "car": [
            ""
          ]
        }
      },
      "ataque": {
        "geral": [],
        "cac": [],
        "ad": []
      }
    },
    "builder": {
      "attributes": {
        "cr": "",
        "size": "",
        "attack": {
          "value": 0,
          "cr": ""
        },
        "damage": {
          "value": 0,
          "cr": ""
        },
        "defense": {
          "value": 0,
          "cr": ""
        },
        "fort": {
          "value": 0,
          "rank": 2,
          "cr": ""
        },
        "refl": {
          "value": 0,
          "rank": 1,
          "cr": ""
        },
        "vont": {
          "value": 0,
          "rank": 0,
          "cr": ""
        },
        "topsave": {
          "value": 0,
          "cr": ""
        },
        "midsave": {
          "value": 0,
          "cr": ""
        },
        "botsave": {
          "value": 0,
          "cr": ""
        },
        "hp": {
          "value": 0,
          "cr": ""
        },
        "mp": {
          "value": 0,
          "cr": ""
        },
        "dc": {
          "value": 0,
          "cr": ""
        }
      },
      "details": {
        "concept": "",
        "creatureType": "",
        "role": "",
        "treasure": ""
      }
    }
  },
  "ownership": {
    "default": 0
  },
  "prototypeToken": {
    "flags": {},
    "name": "Goblin Engenhoqueiro",
    "displayName": 50,
    "width": 1,
    "height": 1,
    "lockRotation": false,
    "rotation": 0,
    "actorLink": false,
    "disposition": -1,
    "displayBars": 0,
    "bar1": {
      "attribute": "attributes.pv"
    },
    "bar2": {
      "attribute": "attributes.pm"
    },
    "randomImg": false,
    "alpha": 1,
    "light": {
      "dim": 0,
      "bright": 0,
      "angle": 360,
      "color": null,
      "alpha": 1,
      "animation": {
        "speed": 5,
        "intensity": 5,
        "type": null,
        "reverse": false
      },
      "coloration": 1,
      "attenuation": 0.5,
      "luminosity": 0.5,
      "saturation": 0,
      "contrast": 0,
      "shadows": 0,
      "darkness": {
        "min": 0,
        "max": 1
      }
    },
    "texture": {
      "src": "systems/tormenta20/icons/ameacas/goblin-engenhoqueiro.png",
      "tint": null,
      "scaleX": 0.8,
      "scaleY": 0.8,
      "offsetX": 0,
      "offsetY": 0,
      "rotation": 0
    },
    "sight": {
      "angle": 360,
      "enabled": true,
      "range": 30,
      "brightness": 1,
      "visionMode": "basic",
      "color": null,
      "attenuation": 0.1,
      "saturation": 0,
      "contrast": 0
    },
    "detectionModes": [],
    "appendNumber": false,
    "prependAdjective": false
  },
  "_stats": {
    "systemId": "tormenta20",
    "systemVersion": "1.4.203d2",
    "coreVersion": "11.315",
    "createdTime": 1661997945934,
    "modifiedTime": 1700236670022,
    "lastModifiedBy": "5frcpPVF3cVfLwZA"
  },
  "_key": "!actors!G7CDTFhKKlvssbYh"
}
