{
  "folder": null,
  "name": "ND 02",
  "sorting": "a",
  "type": "Actor",
  "_id": "HaKm5o3jKqN2gqzC",
  "sort": 0,
  "flags": {},
  "_stats": {
    "systemId": null,
    "systemVersion": null,
    "coreVersion": null,
    "createdTime": null,
    "modifiedTime": null,
    "lastModifiedBy": null
  },
  "_key": "!folders!HaKm5o3jKqN2gqzC"
}
