{
  "folder": null,
  "name": "ND 05",
  "sorting": "a",
  "type": "Actor",
  "_id": "3f9xztQPcDuxpro9",
  "sort": 0,
  "flags": {},
  "_stats": {
    "systemId": null,
    "systemVersion": null,
    "coreVersion": null,
    "createdTime": null,
    "modifiedTime": null,
    "lastModifiedBy": null
  },
  "_key": "!folders!3f9xztQPcDuxpro9"
}
