{
  "folder": null,
  "name": "ND 01",
  "sorting": "a",
  "type": "Actor",
  "_id": "8XlH23kFTHxFTTnB",
  "sort": 0,
  "flags": {},
  "_stats": {
    "systemId": null,
    "systemVersion": null,
    "coreVersion": null,
    "createdTime": null,
    "modifiedTime": null,
    "lastModifiedBy": null
  },
  "_key": "!folders!8XlH23kFTHxFTTnB"
}
