{
  "folder": null,
  "name": "ND 08",
  "sorting": "a",
  "type": "Actor",
  "_id": "OVtfmqNjTqq1TrCR",
  "sort": 0,
  "flags": {},
  "_stats": {
    "systemId": null,
    "systemVersion": null,
    "coreVersion": null,
    "createdTime": null,
    "modifiedTime": null,
    "lastModifiedBy": null
  },
  "_key": "!folders!OVtfmqNjTqq1TrCR"
}
