{
  "folder": null,
  "name": "ND 19",
  "sorting": "a",
  "type": "Actor",
  "_id": "io9IP0j10mIlkbyg",
  "sort": 0,
  "flags": {},
  "_stats": {
    "systemId": null,
    "systemVersion": null,
    "coreVersion": null,
    "createdTime": null,
    "modifiedTime": null,
    "lastModifiedBy": null
  },
  "_key": "!folders!io9IP0j10mIlkbyg"
}
