{
  "folder": null,
  "name": "ND 13",
  "sorting": "a",
  "type": "Actor",
  "_id": "eYqBCuGHEzXn7fzy",
  "sort": 0,
  "flags": {},
  "_stats": {
    "systemId": null,
    "systemVersion": null,
    "coreVersion": null,
    "createdTime": null,
    "modifiedTime": null,
    "lastModifiedBy": null
  },
  "_key": "!folders!eYqBCuGHEzXn7fzy"
}
