{
  "_id": "vAEW5YDnI2ECPVRs",
  "name": "Necromante",
  "type": "npc",
  "img": "systems/tormenta20/icons/ameacas/necromante.png",
  "items": [
    {
      "folder": "0V7x5o397UvG3xKP",
      "name": "Magias",
      "type": "poder",
      "img": "icons/magic/symbols/runes-star-magenta.webp",
      "system": {
        "description": {
          "value": "O necromante lança magias como um arcanista de 7º nível (CD 26, 28 para necromancia*)",
          "unidentified": ""
        },
        "source": "",
        "ativacao": {
          "execucao": "",
          "custo": 0,
          "qtd": "",
          "condicao": "",
          "special": ""
        },
        "duracao": {
          "value": 0,
          "units": "",
          "special": ""
        },
        "target": {
          "value": null,
          "width": null,
          "type": ""
        },
        "range": {
          "value": null,
          "units": ""
        },
        "consume": {
          "type": "",
          "target": "",
          "amount": null,
          "mpMultiplier": false
        },
        "efeito": "",
        "alcance": "none",
        "alvo": "",
        "area": "",
        "resistencia": {
          "pericia": "",
          "atributo": "",
          "bonus": 0,
          "txt": ""
        },
        "rolls": [],
        "tipo": "racial",
        "subtipo": "",
        "origin": "",
        "tags": [],
        "chatFlavor": "",
        "chatGif": ""
      },
      "effects": [],
      "sort": 2100000,
      "ownership": {
        "default": 0,
        "tIn9sSkrT3mDWirx": 3
      },
      "flags": {},
      "_stats": {
        "systemId": "tormenta20",
        "systemVersion": "1.4.1004",
        "coreVersion": "10.286",
        "createdTime": 1666319236120,
        "modifiedTime": 1667014282119,
        "lastModifiedBy": "tIn9sSkrT3mDWirx"
      },
      "_id": "iJs6HBJ0wUNLDQZx",
      "_key": "!actors.items!vAEW5YDnI2ECPVRs.iJs6HBJ0wUNLDQZx"
    },
    {
      "name": "Amedrontar",
      "type": "magia",
      "img": "systems/tormenta20/icons/magias/amedrontar.webp",
      "effects": [
        {
          "_id": "OciQRYsZfkxrckgc",
          "flags": {
            "t20": null,
            "tormenta20": {
              "onuse": true,
              "self": true,
              "custo": "2",
              "attack": false,
              "skill": false,
              "ability": false,
              "power": false,
              "spell": false,
              "consumable": false,
              "aumenta": false,
              "durationScene": false,
              "items": ""
            }
          },
          "changes": [],
          "disabled": true,
          "duration": {
            "startTime": null,
            "seconds": null,
            "combat": null,
            "rounds": null,
            "turns": null,
            "startRound": null,
            "startTurn": null
          },
          "icon": "icons/svg/upgrade.svg",
          "label": "alvos que falhem na resistência ficam apavorados por 1d4+1 rodadas, em vez de apenas 1.",
          "origin": "Item.dx8QPZrPlrOrzLQU",
          "tint": null,
          "transfer": false,
          "_key": "!actors.items.effects!vAEW5YDnI2ECPVRs.wPwIA1PBv0s2u2EI.OciQRYsZfkxrckgc"
        },
        {
          "_id": "iywixWPGn64reD5Q",
          "flags": {
            "t20": null,
            "tormenta20": {
              "onuse": true,
              "self": true,
              "custo": "2",
              "attack": false,
              "skill": false,
              "ability": false,
              "power": false,
              "spell": false,
              "consumable": false,
              "aumenta": false,
              "durationScene": false,
              "items": ""
            }
          },
          "changes": [],
          "disabled": true,
          "duration": {
            "startTime": null,
            "seconds": null,
            "combat": null,
            "rounds": null,
            "turns": null,
            "startRound": null,
            "startTurn": null
          },
          "icon": "icons/svg/upgrade.svg",
          "label": "muda o alvo para 1 criatura.",
          "origin": "Item.dx8QPZrPlrOrzLQU",
          "tint": null,
          "transfer": false,
          "_key": "!actors.items.effects!vAEW5YDnI2ECPVRs.wPwIA1PBv0s2u2EI.iywixWPGn64reD5Q"
        },
        {
          "_id": "8UpVbn31ZXEq8328",
          "flags": {
            "t20": null,
            "tormenta20": {
              "onuse": true,
              "self": true,
              "custo": "5"
            }
          },
          "changes": [],
          "disabled": true,
          "duration": {
            "startTime": null,
            "seconds": null,
            "combat": null,
            "rounds": null,
            "turns": null,
            "startRound": null,
            "startTurn": null
          },
          "icon": "icons/svg/upgrade.svg",
          "label": "afeta todos os alvos válidos a sua escolha dentro do alcance.",
          "origin": "Item.dx8QPZrPlrOrzLQU",
          "transfer": false,
          "tint": null,
          "_key": "!actors.items.effects!vAEW5YDnI2ECPVRs.wPwIA1PBv0s2u2EI.8UpVbn31ZXEq8328"
        },
        {
          "_id": "f4qLZKk0usOOS9yV",
          "changes": [],
          "disabled": false,
          "duration": {
            "rounds": 1,
            "startTime": null,
            "seconds": null,
            "combat": null,
            "turns": null,
            "startRound": null,
            "startTurn": null
          },
          "icon": "systems/tormenta20/icons/magias/amedrontar.webp",
          "label": "Amedrontado",
          "origin": "Item.p238CZtFsOfXHxuZ",
          "transfer": false,
          "flags": {
            "tormenta20": {
              "onuse": false,
              "durationScene": true
            }
          },
          "tint": null,
          "_key": "!actors.items.effects!vAEW5YDnI2ECPVRs.wPwIA1PBv0s2u2EI.f4qLZKk0usOOS9yV"
        }
      ],
      "flags": {
        "core": {
          "sourceId": "Item.FFmQzSgam5bmfIub"
        }
      },
      "system": {
        "description": {
          "value": "<section class=\"secret\">Amedrontar* (Padrão, 7 PM) Animais e humanoides a escolha do necromante em alcance curto ficam apavorados por 1d4+1 rodadas e depois abalados (Vontade reduz para abalado)</section><p style=\"text-align: justify;\">O alvo &eacute; envolvido por energias sombrias e assustadoras. Se falhar na resist&ecirc;ncia, fica apavorado por 1 rodada, depois abalado. Se passar, fica abalado por 1d4 rodadas.</p>",
          "unidentified": ""
        },
        "source": "T20, pg. 179 (JdA)",
        "ativacao": {
          "execucao": "action",
          "custo": 1,
          "qtd": "",
          "condicao": "",
          "special": ""
        },
        "duracao": {
          "value": 0,
          "units": "scene",
          "special": ""
        },
        "target": {
          "value": null,
          "width": null,
          "type": ""
        },
        "range": {
          "value": null,
          "units": ""
        },
        "consume": {
          "type": "",
          "target": "",
          "amount": null,
          "mpMultiplier": false
        },
        "efeito": "",
        "alcance": "short",
        "alvo": "1 animal ou humanoide",
        "area": "",
        "resistencia": {
          "pericia": "",
          "atributo": "",
          "bonus": 2,
          "txt": "Vontade parcial"
        },
        "rolls": [],
        "tipo": "arc",
        "circulo": "1",
        "preparada": false,
        "escola": "nec",
        "chatFlavor": "",
        "origin": "",
        "tags": [],
        "chatGif": ""
      },
      "ownership": {
        "default": 0,
        "tIn9sSkrT3mDWirx": 3
      },
      "_stats": {
        "systemId": "tormenta20",
        "systemVersion": "1.4.1004",
        "coreVersion": "10.286",
        "createdTime": 1664310462805,
        "modifiedTime": 1667014749117,
        "lastModifiedBy": "tIn9sSkrT3mDWirx"
      },
      "folder": "lcJeISkhj7LBBvIt",
      "sort": 0,
      "_id": "wPwIA1PBv0s2u2EI",
      "_key": "!actors.items!vAEW5YDnI2ECPVRs.wPwIA1PBv0s2u2EI"
    },
    {
      "name": "Armadura Arcana",
      "type": "magia",
      "img": "systems/tormenta20/icons/magias/armadura-arcana.webp",
      "effects": [
        {
          "_id": "W1WgvYbVsADr5MNL",
          "flags": {
            "t20": null,
            "tormenta20": {
              "onuse": true,
              "self": true,
              "custo": "1",
              "aumenta": false,
              "attack": false,
              "skill": false,
              "ability": false,
              "power": false,
              "spell": false,
              "consumable": false,
              "durationScene": false
            }
          },
          "changes": [
            {
              "key": "execucao",
              "mode": 5,
              "value": "reacao",
              "priority": null
            },
            {
              "key": "system.attributes.defesa.bonus",
              "mode": 2,
              "value": "2",
              "priority": null
            },
            {
              "key": "duracao",
              "mode": 5,
              "value": "1 turno",
              "priority": null
            }
          ],
          "disabled": true,
          "duration": {
            "startTime": null,
            "seconds": null,
            "combat": null,
            "rounds": null,
            "turns": null,
            "startRound": null,
            "startTurn": null
          },
          "icon": "icons/svg/upgrade.svg",
          "label": "muda a execução para reação. Em vez do normal, você cria um escudo mágico que fornece +6 na Defesa contra o próximo ataque que sofrer até o fim do turno atual (cumulativo com o bônus fornecido pelo efeito básico desta magia e armaduras).",
          "origin": "Item.6tacmHJDvuMoxe8v",
          "tint": null,
          "transfer": false,
          "_key": "!actors.items.effects!vAEW5YDnI2ECPVRs.hRwxfSGmJGUcHiGB.W1WgvYbVsADr5MNL"
        },
        {
          "_id": "cOarntwGdXunJRyH",
          "flags": {
            "t20": null,
            "tormenta20": {
              "onuse": true,
              "self": true,
              "custo": "2",
              "aumenta": true,
              "attack": false,
              "skill": false,
              "ability": false,
              "power": false,
              "spell": false,
              "consumable": false,
              "durationScene": false
            }
          },
          "changes": [
            {
              "key": "system.attributes.defesa.bonus",
              "mode": 2,
              "value": "1",
              "priority": null
            }
          ],
          "disabled": true,
          "duration": {
            "startTime": null,
            "seconds": null,
            "combat": null,
            "rounds": null,
            "turns": null,
            "startRound": null,
            "startTurn": null
          },
          "icon": "icons/svg/upgrade.svg",
          "label": "aumenta o bônus na Defesa em +1.",
          "origin": "Item.6tacmHJDvuMoxe8v",
          "tint": null,
          "transfer": false,
          "_key": "!actors.items.effects!vAEW5YDnI2ECPVRs.hRwxfSGmJGUcHiGB.cOarntwGdXunJRyH"
        },
        {
          "_id": "CRwrKNwVnkcuyYGR",
          "flags": {
            "t20": null,
            "tormenta20": {
              "onuse": true,
              "self": true,
              "custo": "2",
              "aumenta": false,
              "attack": false,
              "skill": false,
              "ability": false,
              "power": false,
              "spell": false,
              "consumable": false,
              "durationScene": false
            }
          },
          "changes": [
            {
              "key": "duracao",
              "value": "1 dia",
              "mode": 5,
              "priority": null
            }
          ],
          "disabled": true,
          "duration": {
            "startTime": null,
            "seconds": null,
            "combat": null,
            "rounds": null,
            "turns": null,
            "startRound": null,
            "startTurn": null
          },
          "icon": "icons/svg/upgrade.svg",
          "label": "muda a duração para 1 dia. Requer 2º círculo.",
          "origin": "Item.6tacmHJDvuMoxe8v",
          "tint": null,
          "transfer": false,
          "_key": "!actors.items.effects!vAEW5YDnI2ECPVRs.hRwxfSGmJGUcHiGB.CRwrKNwVnkcuyYGR"
        },
        {
          "_id": "DXFHELXQkzrakHqN",
          "flags": {
            "t20": null,
            "tormenta20": {
              "onuse": false,
              "durationScene": true
            }
          },
          "changes": [
            {
              "key": "system.attributes.defesa.bonus",
              "mode": 2,
              "value": "4",
              "priority": null
            }
          ],
          "disabled": false,
          "duration": {
            "startTime": null,
            "rounds": 999,
            "seconds": null,
            "combat": null,
            "turns": null,
            "startRound": null,
            "startTurn": null
          },
          "icon": "systems/tormenta20/icons/magias/armadura-arcana.webp",
          "label": "Armadura Arcana",
          "origin": "Item.6tacmHJDvuMoxe8v",
          "tint": null,
          "transfer": false,
          "_key": "!actors.items.effects!vAEW5YDnI2ECPVRs.hRwxfSGmJGUcHiGB.DXFHELXQkzrakHqN"
        }
      ],
      "flags": {
        "core": {
          "sourceId": "Item.tgkYUPq9MY1YItoL"
        }
      },
      "system": {
        "description": {
          "value": "<section class=\"secret\">Armadura Arcana (Padrão, 7 PM) O necromante recebe +7 na Defesa por um dia</section><p style=\"text-align:justify;\">Esta magia cria uma pel&iacute;cula protetora invis&iacute;vel, mas tang&iacute;vel, fornecendo +4 na Defesa. Esse b&ocirc;nus &eacute; cumulativo com outras magias, mas n&atilde;o com b&ocirc;nus fornecido por armaduras.</p>",
          "unidentified": ""
        },
        "source": "T20, pg. 181 (JdA)",
        "ativacao": {
          "execucao": "action",
          "custo": 1,
          "qtd": "",
          "condicao": "",
          "special": ""
        },
        "duracao": {
          "value": 0,
          "units": "scene",
          "special": ""
        },
        "target": {
          "value": null,
          "width": null,
          "type": ""
        },
        "range": {
          "value": null,
          "units": ""
        },
        "consume": {
          "type": "",
          "target": "",
          "amount": null,
          "mpMultiplier": false
        },
        "efeito": "",
        "alcance": "self",
        "alvo": "Você",
        "area": "",
        "resistencia": {
          "pericia": "",
          "atributo": "",
          "bonus": 0,
          "txt": ""
        },
        "rolls": [],
        "tipo": "arc",
        "circulo": "1",
        "preparada": false,
        "escola": "abj",
        "chatFlavor": "",
        "origin": "",
        "tags": [],
        "chatGif": ""
      },
      "ownership": {
        "default": 0,
        "tIn9sSkrT3mDWirx": 3
      },
      "_stats": {
        "systemId": "tormenta20",
        "systemVersion": "1.4.1004",
        "coreVersion": "10.286",
        "createdTime": 1664310462898,
        "modifiedTime": 1667014282121,
        "lastModifiedBy": "tIn9sSkrT3mDWirx"
      },
      "folder": "NYUuIsxegsarXqXr",
      "sort": 0,
      "_id": "hRwxfSGmJGUcHiGB",
      "_key": "!actors.items!vAEW5YDnI2ECPVRs.hRwxfSGmJGUcHiGB"
    },
    {
      "name": "Adaga",
      "type": "arma",
      "img": "systems/tormenta20/icons/itens/equipamentos/adaga.webp",
      "effects": [],
      "flags": {
        "core": {
          "sourceId": "Compendium.tormenta20.equipamentos.XuObO7LzBBNoIsGv"
        }
      },
      "system": {
        "description": {
          "value": "<section class=\"secret\">Adaga</section><p style=\"text-align: justify;\">Esta faca afiada &eacute; usada por muitos habitantes adultos do Reinado, embora seja favorita de ladr&otilde;es e assassinos, por ser facilmente escondida (fornece +5 em testes de Ladinagem para ocult&aacute;-la). Quando ataca com uma adaga, voc&ecirc; pode usar sua Destreza em vez de For&ccedil;a nos testes de ataque. Uma adaga pode ser arremessada.</p>",
          "chat": "",
          "unidentified": ""
        },
        "source": "T20, pg. 146 (JdA)",
        "equipado": 0,
        "equipado2": {
          "slot": 0,
          "type": "hand"
        },
        "carregado": true,
        "peso": 0.5,
        "espacos": 1,
        "qtd": 1,
        "preco": 2,
        "pv": {
          "value": 0,
          "min": 0,
          "max": 0
        },
        "rd": 0,
        "rolls": [
          {
            "name": "Ataque",
            "key": "ataque0",
            "type": "ataque",
            "parts": [
              [
                "1d20",
                "",
                ""
              ],
              [
                "luta",
                "",
                ""
              ],
              [
                "+22",
                "",
                ""
              ]
            ]
          },
          {
            "name": "Dano",
            "key": "dano1",
            "type": "dano",
            "parts": [
              [
                "1d4",
                "perfuracao",
                ""
              ],
              [
                "",
                "",
                ""
              ],
              [
                "1d8",
                "trevas",
                ""
              ]
            ],
            "versatil": ""
          }
        ],
        "criticoM": 19,
        "criticoX": 2,
        "alcance": "short",
        "tipoUso": "sim",
        "propriedades": {
          "ada": false,
          "agi": false,
          "alo": false,
          "arr": false,
          "dst": false,
          "dms": false,
          "dup": false,
          "lev": false,
          "mun": false,
          "ver": false,
          "adaptavel": false,
          "agil": false,
          "alongada": false,
          "arremesso": true,
          "ataqueDistancia": false,
          "duasMaos": false,
          "dupla": false,
          "leve": true,
          "municao": false,
          "versatil": false,
          "des": false,
          "hib": false
        },
        "encantos": {
          "arremesso": false,
          "lancinante": false,
          "keen": null,
          "bane": null,
          "throwable": null,
          "assassin": null,
          "seeking": null,
          "frost": null,
          "caster": null,
          "corrosive": null,
          "dancing": null,
          "defending": null,
          "destructive": null,
          "lacerating": null,
          "draining": null,
          "shock": null,
          "energy": null,
          "excruciating": null,
          "flaming": null,
          "formidable": null,
          "lancinating": false,
          "magnificent": null,
          "merciful": null,
          "unholy": null,
          "holy": null,
          "bloodthirsty": null,
          "thundering": null,
          "sepulchral": null,
          "speed": null,
          "poisonous": null
        },
        "ativacao": {
          "custo": null,
          "condicao": "",
          "execucao": "",
          "qtd": "",
          "special": ""
        },
        "chatFlavor": "",
        "consume": {
          "type": "",
          "target": "",
          "amount": null,
          "mpMultiplier": false
        },
        "melhorias": {
          "accurate": null,
          "pungent": null,
          "cruel": null,
          "atrocious": null,
          "balanced": null,
          "harmonized": null,
          "injection": null,
          "massive": null,
          "specialmaterial": null,
          "scope": null,
          "precise": null,
          "golden": null,
          "gems": null,
          "discreet": null,
          "macabre": null
        },
        "origin": "",
        "tags": [],
        "chatGif": "",
        "upgrades": {
          "melhoria1": "",
          "melhoria2": "",
          "melhoria3": "",
          "melhoria4": "",
          "material": "",
          "encanto1": "",
          "encanto2": "",
          "encanto3": ""
        },
        "proficiencia": "simples",
        "proposito": "arremesso",
        "empunhadura": "leve",
        "size": "normal",
        "ataques": 0
      },
      "ownership": {
        "default": 0,
        "tIn9sSkrT3mDWirx": 3
      },
      "_stats": {
        "systemId": "tormenta20",
        "systemVersion": "1.4.203d2",
        "coreVersion": "11.315",
        "createdTime": 1664312772409,
        "modifiedTime": 1700237119899,
        "lastModifiedBy": "5frcpPVF3cVfLwZA"
      },
      "folder": "brhICwdHcOUqvMPi",
      "sort": 2000000,
      "_id": "8f5UoaOfJfqDxTPX",
      "_key": "!actors.items!vAEW5YDnI2ECPVRs.8f5UoaOfJfqDxTPX"
    },
    {
      "_id": "jAP3pacPLcarsdne",
      "name": "Essência de mana",
      "type": "consumivel",
      "img": "systems/tormenta20/icons/itens/gerais/essencia-mana.webp",
      "effects": [],
      "flags": {
        "core": {
          "sourceId": "Compendium.tormenta20.equipamentos.JC6bm2uh4g7oaGge"
        }
      },
      "system": {
        "description": {
          "value": "<p style=\"text-align: justify;\">Esta po&ccedil;&atilde;o feita de ervas raras e compostos alqu&iacute;micos recupera energia pessoal. Beber a ess&ecirc;ncia de mana &eacute; uma a&ccedil;&atilde;o padr&atilde;o e recupera 1d4 pontos de mana.&nbsp;</p>",
          "unidentified": ""
        },
        "source": "T20, pg. 160 (JdA)",
        "carregado": true,
        "peso": 0.1,
        "espacos": 0.5,
        "qtd": 1,
        "preco": 50,
        "pv": {
          "value": 0,
          "min": 0,
          "max": 0
        },
        "rd": 0,
        "ativacao": {
          "execucao": "action",
          "custo": 0,
          "qtd": "",
          "condicao": "",
          "special": ""
        },
        "duracao": {
          "value": 0,
          "units": "inst",
          "special": ""
        },
        "target": {
          "value": null,
          "width": null,
          "type": ""
        },
        "range": {
          "value": null,
          "units": ""
        },
        "consume": {
          "type": "",
          "target": "",
          "amount": null,
          "mpMultiplier": false
        },
        "efeito": "",
        "alcance": "none",
        "alvo": "",
        "area": "",
        "resistencia": {
          "pericia": "",
          "atributo": "sab",
          "bonus": 0,
          "txt": ""
        },
        "rolls": [
          {
            "name": "Dano",
            "key": "dano0",
            "type": "dano",
            "parts": [
              [
                "1d4",
                "curapm",
                ""
              ]
            ],
            "versatil": ""
          }
        ],
        "tipo": "alchemy",
        "chatFlavor": "",
        "origin": "",
        "tags": [],
        "chatGif": "",
        "upgrades": {
          "melhoria1": "",
          "melhoria2": "",
          "melhoria3": "",
          "melhoria4": "",
          "material": "",
          "encanto1": "",
          "encanto2": "",
          "encanto3": ""
        },
        "melhorias": {},
        "encantos": {},
        "subtipo": ""
      },
      "ownership": {
        "default": 0,
        "tIn9sSkrT3mDWirx": 3
      },
      "_stats": {
        "systemId": "tormenta20",
        "systemVersion": "1.4.1004",
        "coreVersion": "10.286",
        "createdTime": 1664312772400,
        "modifiedTime": 1667014302327,
        "lastModifiedBy": "tIn9sSkrT3mDWirx"
      },
      "folder": "Rvyvmtb2gy31hYRB",
      "sort": 500000,
      "_key": "!actors.items!vAEW5YDnI2ECPVRs.jAP3pacPLcarsdne"
    },
    {
      "folder": "0V7x5o397UvG3xKP",
      "name": "Ergam-se!",
      "type": "poder",
      "img": "icons/magic/death/hand-dirt-undead-zombie.webp",
      "system": {
        "description": {
          "value": "<p style=\"text-align: justify;\">&nbsp;O necromante conjura seis mortos-vivos feitos de sombra em espa&ccedil;os desocupados em alcance curto. No turno do necromante, cada morto-vivo pode andar (deslocamento 9m) e causar dano a uma criatura adjacente (2d8 pontos de dano de trevas). Os mortos-vivos t&ecirc;m For 3, Des 3, Defesa 25 e todos os outros atributos nulos; eles t&ecirc;m 1 PV e falham automaticamente em qualquer teste de resist&ecirc;ncia ou oposto, mas s&atilde;o imunes a atordoamento, dano n&atilde;o letal, doen&ccedil;a, encantamento, fadiga, frio, ilus&atilde;o, paralisia, sono e veneno.</p>",
          "unidentified": ""
        },
        "source": "",
        "ativacao": {
          "execucao": "full",
          "custo": 5,
          "qtd": "",
          "condicao": "",
          "special": ""
        },
        "duracao": {
          "value": 0,
          "units": "",
          "special": ""
        },
        "target": {
          "value": null,
          "width": null,
          "type": ""
        },
        "range": {
          "value": null,
          "units": ""
        },
        "consume": {
          "type": "",
          "target": "",
          "amount": null,
          "mpMultiplier": false
        },
        "efeito": "",
        "alcance": "none",
        "alvo": "",
        "area": "",
        "resistencia": {
          "pericia": "",
          "atributo": "",
          "bonus": 0,
          "txt": ""
        },
        "rolls": [],
        "tipo": "ability",
        "subtipo": "",
        "origin": "",
        "tags": [],
        "chatFlavor": "",
        "chatGif": ""
      },
      "effects": [],
      "sort": 0,
      "ownership": {
        "default": 0,
        "tIn9sSkrT3mDWirx": 3
      },
      "flags": {
        "core": {
          "sourceId": "Item.e8AoR7GZxlL0Zlu1"
        }
      },
      "_stats": {
        "systemId": "tormenta20",
        "systemVersion": "1.4.1004",
        "coreVersion": "10.286",
        "createdTime": 1667014338508,
        "modifiedTime": 1667014594452,
        "lastModifiedBy": "tIn9sSkrT3mDWirx"
      },
      "_id": "5o7XHMWGuGCerjp9",
      "_key": "!actors.items!vAEW5YDnI2ECPVRs.5o7XHMWGuGCerjp9"
    },
    {
      "folder": "0V7x5o397UvG3xKP",
      "name": "Sacrificar Servo",
      "type": "poder",
      "img": "icons/magic/death/skull-fire-white-yellow.webp",
      "system": {
        "description": {
          "value": "<p style=\"text-align: justify;\">Uma vez por rodada, quando sofre dano, o necromante sacrifica um de seus esqueletos conjurados para reduzir esse dano a 0.</p>",
          "unidentified": ""
        },
        "source": "",
        "ativacao": {
          "execucao": "reaction",
          "custo": 0,
          "qtd": "",
          "condicao": "",
          "special": ""
        },
        "duracao": {
          "value": 0,
          "units": "",
          "special": ""
        },
        "target": {
          "value": null,
          "width": null,
          "type": ""
        },
        "range": {
          "value": null,
          "units": ""
        },
        "consume": {
          "type": "",
          "target": "",
          "amount": null,
          "mpMultiplier": false
        },
        "efeito": "",
        "alcance": "none",
        "alvo": "",
        "area": "",
        "resistencia": {
          "pericia": "",
          "atributo": "",
          "bonus": 0,
          "txt": ""
        },
        "rolls": [],
        "tipo": "ability",
        "subtipo": "",
        "origin": "",
        "tags": [],
        "chatFlavor": "",
        "chatGif": ""
      },
      "effects": [],
      "sort": 0,
      "ownership": {
        "default": 0,
        "tIn9sSkrT3mDWirx": 3
      },
      "flags": {
        "core": {
          "sourceId": "Item.f92G6rEprRvW3FxU"
        }
      },
      "_stats": {
        "systemId": "tormenta20",
        "systemVersion": "1.4.1004",
        "coreVersion": "10.286",
        "createdTime": 1667014611157,
        "modifiedTime": 1667014718227,
        "lastModifiedBy": "tIn9sSkrT3mDWirx"
      },
      "_id": "io8v2JSOFUx6MGgZ",
      "_key": "!actors.items!vAEW5YDnI2ECPVRs.io8v2JSOFUx6MGgZ"
    },
    {
      "_id": "GPm3N7mryDF24SwL",
      "name": "Crânio Voador",
      "type": "magia",
      "img": "systems/tormenta20/icons/magias/cranio-voador.webp",
      "effects": [
        {
          "_id": "x0QdIwqPvXe9Bzfb",
          "flags": {
            "t20": null,
            "tormenta20": {
              "onuse": true,
              "self": true,
              "custo": "2",
              "aumenta": true,
              "attack": false,
              "skill": false,
              "ability": false,
              "power": false,
              "spell": false,
              "consumable": false,
              "durationScene": false
            }
          },
          "changes": [
            {
              "key": "dano",
              "mode": 0,
              "value": "1d8",
              "priority": null
            }
          ],
          "disabled": true,
          "duration": {
            "startTime": null,
            "seconds": null,
            "combat": null,
            "rounds": null,
            "turns": null,
            "startRound": null,
            "startTurn": null
          },
          "icon": "icons/svg/upgrade.svg",
          "label": "aumenta o dano em +1d8+1.",
          "origin": "Compendium.tormenta20.magias.CgK2xhGbfCc6BkWy",
          "transfer": false,
          "tint": null,
          "_key": "!actors.items.effects!vAEW5YDnI2ECPVRs.GPm3N7mryDF24SwL.x0QdIwqPvXe9Bzfb"
        },
        {
          "_id": "1bhqEPuTjaCOg8O9",
          "flags": {
            "t20": null,
            "tormenta20": {
              "onuse": true,
              "self": true,
              "custo": "2",
              "aumenta": true
            }
          },
          "changes": [],
          "disabled": true,
          "duration": {
            "startTime": null,
            "seconds": null,
            "combat": null,
            "rounds": null,
            "turns": null,
            "startRound": null,
            "startTurn": null
          },
          "icon": "icons/svg/upgrade.svg",
          "label": "aumenta o número de alvos em +1.",
          "origin": "Compendium.tormenta20.magias.CgK2xhGbfCc6BkWy",
          "transfer": false,
          "tint": null,
          "_key": "!actors.items.effects!vAEW5YDnI2ECPVRs.GPm3N7mryDF24SwL.1bhqEPuTjaCOg8O9"
        }
      ],
      "flags": {
        "core": {
          "sourceId": "Item.tfbIOeQgec4chEX9"
        }
      },
      "system": {
        "description": {
          "value": "<section class=\"secret\">\n<p style=\"text-align: justify;\">(Padr&atilde;o, 6 PM) Um cr&acirc;nio de energia negativa causa 6d8+6 pontos de dano de trevas em uma criatura em alcance m&eacute;dio e deixa todas as criaturas a 3m do alvo abaladas (Fortitude reduz &agrave; metade e evita a condi&ccedil;&atilde;o).</p>\n</section>\n<p style=\"text-align: justify;\">Esta magia cria um cr&acirc;nio envolto em energia negativa. Quando atinge o alvo, causa 4d8+4 pontos de dano de trevas e se desfaz emitindo um som horrendo, deixando abalado o alvo e todos os inimigos num raio de 3m dele (criaturas j&aacute; abaladas ficam apavoradas por 1d4 rodadas). Passar no teste de resist&ecirc;ncia diminui o dano &agrave; metade e evita a condi&ccedil;&atilde;o (as demais criaturas na &aacute;rea tamb&eacute;m tem direito ao teste de resist&ecirc;ncia, para evitar a condi&ccedil;&atilde;o).</p>",
          "unidentified": ""
        },
        "source": "T20, pg. 188 (JdA)",
        "ativacao": {
          "execucao": "action",
          "custo": 3,
          "qtd": "",
          "condicao": "",
          "special": ""
        },
        "duracao": {
          "value": 0,
          "units": "inst",
          "special": ""
        },
        "target": {
          "value": null,
          "width": null,
          "type": ""
        },
        "range": {
          "value": null,
          "units": ""
        },
        "consume": {
          "type": "",
          "target": "",
          "amount": null,
          "mpMultiplier": false
        },
        "efeito": "",
        "alcance": "medium",
        "alvo": "1 criatura",
        "area": "",
        "resistencia": {
          "pericia": "",
          "atributo": "",
          "bonus": 0,
          "txt": "Fortitude reduz à metade"
        },
        "rolls": [
          {
            "name": "Dano",
            "key": "dano0",
            "type": "dano",
            "parts": [
              [
                "4d8+4",
                "trevas",
                ""
              ]
            ],
            "versatil": ""
          }
        ],
        "tipo": "arc",
        "circulo": "2",
        "preparada": false,
        "escola": "nec",
        "chatFlavor": "",
        "origin": "",
        "tags": [],
        "chatGif": ""
      },
      "ownership": {
        "default": 0,
        "tIn9sSkrT3mDWirx": 3
      },
      "_stats": {
        "systemId": "tormenta20",
        "systemVersion": "1.4.1004",
        "coreVersion": "10.286",
        "createdTime": 1664310461799,
        "modifiedTime": 1667014841644,
        "lastModifiedBy": "tIn9sSkrT3mDWirx"
      },
      "folder": "On2IxWYbBpvDPuP1",
      "sort": 0,
      "_key": "!actors.items!vAEW5YDnI2ECPVRs.GPm3N7mryDF24SwL"
    },
    {
      "_id": "WoyWSYhMaI9eEcty",
      "name": "Toque Vampírico",
      "type": "magia",
      "img": "systems/tormenta20/icons/magias/toque-vampirico.webp",
      "effects": [
        {
          "_id": "5E8DwOxwvQNlJJN4",
          "flags": {
            "t20": null,
            "tormenta20": {
              "onuse": true,
              "self": true,
              "custo": "1",
              "aumenta": false,
              "attack": false,
              "skill": false,
              "ability": false,
              "power": false,
              "spell": false,
              "consumable": false,
              "items": "",
              "durationScene": false
            }
          },
          "changes": [],
          "disabled": true,
          "duration": {
            "startTime": null,
            "seconds": null,
            "combat": null,
            "rounds": null,
            "turns": null,
            "startRound": null,
            "startTurn": null
          },
          "icon": "icons/svg/upgrade.svg",
          "label": "muda a resistência para nenhum. Como parte da execução da magia, você pode fazer um ataque corpo a corpo contra o alvo. Se acertar, causa o dano do ataque e da magia, e recupera pontos de vida iguais à metade do dano da magia.",
          "origin": "Compendium.tormenta20.magias.6KvwDBikOdbzhRGv",
          "transfer": false,
          "tint": null,
          "_key": "!actors.items.effects!vAEW5YDnI2ECPVRs.WoyWSYhMaI9eEcty.5E8DwOxwvQNlJJN4"
        },
        {
          "_id": "Fp3cotDEql0E2Dur",
          "flags": {
            "t20": null,
            "tormenta20": {
              "onuse": true,
              "self": true,
              "custo": "2",
              "aumenta": true
            }
          },
          "changes": [
            {
              "key": "dano",
              "value": "2d6",
              "mode": 0,
              "priority": null
            }
          ],
          "disabled": true,
          "duration": {
            "startTime": null,
            "seconds": null,
            "combat": null,
            "rounds": null,
            "turns": null,
            "startRound": null,
            "startTurn": null
          },
          "icon": "icons/svg/upgrade.svg",
          "label": "aumenta o dano em +2d6.",
          "origin": "Compendium.tormenta20.magias.6KvwDBikOdbzhRGv",
          "transfer": false,
          "tint": null,
          "_key": "!actors.items.effects!vAEW5YDnI2ECPVRs.WoyWSYhMaI9eEcty.Fp3cotDEql0E2Dur"
        },
        {
          "_id": "F7eldvQNlVrQTK7z",
          "flags": {
            "t20": null,
            "tormenta20": {
              "onuse": true,
              "self": true,
              "custo": "2",
              "aumenta": false
            }
          },
          "changes": [
            {
              "key": "alcance",
              "value": "pessoal",
              "mode": 5,
              "priority": null
            },
            {
              "key": "alvo",
              "value": "você",
              "mode": 5,
              "priority": null
            },
            {
              "key": "duracao",
              "value": "Cena",
              "mode": 5,
              "priority": null
            },
            {
              "key": "dano",
              "value": "3d6",
              "mode": 0,
              "priority": null
            }
          ],
          "disabled": true,
          "duration": {
            "startTime": null,
            "seconds": null,
            "combat": null,
            "rounds": null,
            "turns": null,
            "startRound": null,
            "startTurn": null
          },
          "icon": "icons/svg/upgrade.svg",
          "label": "muda o alcance para pessoal, o alvo para você e a duração para cena. Em vez do normal, a cada rodada você pode gastar uma ação padrão para tocar 1 criatura e causar 3d6 pontos de dano. Você recupera pontos de vida iguais à metade do dano causado. Requer 3º círculo.",
          "origin": "Compendium.tormenta20.magias.6KvwDBikOdbzhRGv",
          "transfer": false,
          "tint": null,
          "_key": "!actors.items.effects!vAEW5YDnI2ECPVRs.WoyWSYhMaI9eEcty.F7eldvQNlVrQTK7z"
        },
        {
          "label": "Toque Vampírico (Cena)",
          "icon": "systems/tormenta20/icons/magias/toque-vampirico.webp",
          "origin": "Item.6KvwDBikOdbzhRGv",
          "tint": "#FFFFFF",
          "flags": {
            "tormenta20": {
              "onuse": false,
              "durationScene": true
            }
          },
          "duration": {
            "rounds": 1,
            "startTime": null,
            "seconds": null,
            "combat": null,
            "turns": null,
            "startRound": null,
            "startTurn": null
          },
          "disabled": false,
          "_id": "RB6jjU1XtXMWaS9K",
          "changes": [],
          "transfer": false,
          "_key": "!actors.items.effects!vAEW5YDnI2ECPVRs.WoyWSYhMaI9eEcty.RB6jjU1XtXMWaS9K"
        }
      ],
      "flags": {
        "core": {
          "sourceId": "Item.pXsAXnZf1UW8Jc1z"
        }
      },
      "system": {
        "description": {
          "value": "<section class=\"secret\">\n<p style=\"text-align: justify;\">(Padr&atilde;o, 6 PM) O necromante toca em uma criatura e causa 10d6 pontos de dano de trevas (Fortitude reduz &agrave; metade) e recupera pontos de vida iguais &agrave; metade do dano causado.</p>\n</section>\n<p style=\"text-align: justify;\">Sua m&atilde;o brilha com energia sombria, causando 6d6 pontos de dano de trevas. Voc&ecirc; recupera pontos de vida iguais &agrave; metade do dano causado (se causou algum dano).</p>",
          "unidentified": ""
        },
        "source": "T20, pg. 209 (JdA)",
        "ativacao": {
          "execucao": "action",
          "custo": 3,
          "qtd": "",
          "condicao": "",
          "special": ""
        },
        "duracao": {
          "value": 0,
          "units": "inst",
          "special": ""
        },
        "target": {
          "value": null,
          "width": null,
          "type": ""
        },
        "range": {
          "value": null,
          "units": ""
        },
        "consume": {
          "type": "",
          "target": "",
          "amount": null,
          "mpMultiplier": false
        },
        "efeito": "",
        "alcance": "touch",
        "alvo": "1 criatura",
        "area": "",
        "resistencia": {
          "pericia": "",
          "atributo": "",
          "bonus": 0,
          "txt": "Fortitude reduz à metade"
        },
        "rolls": [
          {
            "name": "Dano",
            "key": "dano0",
            "type": "dano",
            "parts": [
              [
                "6d6",
                "trevas",
                ""
              ]
            ],
            "versatil": ""
          }
        ],
        "tipo": "arc",
        "circulo": "2",
        "preparada": false,
        "escola": "nec",
        "chatFlavor": "",
        "origin": "",
        "tags": [],
        "chatGif": ""
      },
      "ownership": {
        "default": 0,
        "tIn9sSkrT3mDWirx": 3
      },
      "_stats": {
        "systemId": "tormenta20",
        "systemVersion": "1.4.1004",
        "coreVersion": "10.286",
        "createdTime": 1664310461763,
        "modifiedTime": 1667014870255,
        "lastModifiedBy": "tIn9sSkrT3mDWirx"
      },
      "folder": "On2IxWYbBpvDPuP1",
      "sort": 0,
      "_key": "!actors.items!vAEW5YDnI2ECPVRs.WoyWSYhMaI9eEcty"
    }
  ],
  "effects": [],
  "folder": "V7cGpJ4M5tIhe0sM",
  "sort": 100001,
  "flags": {
    "editing": false,
    "tormenta20": {
      "sheet": {},
      "lvlconfig": {
        "pv": {},
        "pm": {}
      },
      "version": "1.3.0.0"
    },
    "core": {
      "sourceId": "Compendium.tormenta20.ameacas.vAEW5YDnI2ECPVRs"
    }
  },
  "system": {
    "atributos": {
      "for": {
        "value": 0,
        "bonus": 0,
        "base": 3,
        "racial": 0
      },
      "des": {
        "value": 0,
        "bonus": 0,
        "base": 3,
        "racial": 0
      },
      "con": {
        "value": 0,
        "bonus": 0,
        "base": 0,
        "racial": 0
      },
      "int": {
        "value": 0,
        "bonus": 0,
        "base": 0,
        "racial": 0
      },
      "sab": {
        "value": 0,
        "bonus": 0,
        "base": 0,
        "racial": 0
      },
      "car": {
        "value": 0,
        "bonus": 0,
        "base": 0,
        "racial": 0
      }
    },
    "attributes": {
      "cd": 26,
      "pv": {
        "value": 180,
        "min": -500,
        "max": 180,
        "temp": 0
      },
      "pm": {
        "value": 55,
        "min": 0,
        "max": 55,
        "temp": 0
      },
      "movement": {
        "burrow": 0,
        "climb": 0,
        "fly": 0,
        "swim": 0,
        "walk": 12,
        "unit": "m",
        "hover": false,
        "notes": ""
      },
      "defesa": {
        "base": 23,
        "value": 0,
        "outros": 0,
        "atributo": "des",
        "pda": 0,
        "bonus": [],
        "condi": 0
      },
      "sentidos": {
        "value": [],
        "custom": ""
      },
      "conjuracao": "int",
      "nivel": {
        "value": 1,
        "xp": {
          "value": 0,
          "pct": 0,
          "proximo": 0
        }
      },
      "nd": "7",
      "carga": {
        "value": 0,
        "base": 10,
        "bonus": [],
        "max": 0,
        "pct": 0,
        "encumbered": false
      },
      "treino": 0
    },
    "detalhes": {
      "biography": {
        "value": "",
        "public": ""
      },
      "raca": "elfo",
      "tipo": "hum",
      "alinhamento": "",
      "divindade": "",
      "nd": "",
      "equipamento": "",
      "resistencias": "",
      "tesouro": "Dobro.",
      "role": "special",
      "origem": "",
      "ataquescac": "Adaga +22 (1d4 mais 1d8 de trevas, 19)."
    },
    "tracos": {
      "tamanho": "med",
      "resistencias": {
        "perda": {
          "value": 0,
          "base": 0,
          "bonus": [],
          "imunidade": false,
          "vulnerabilidade": false
        },
        "acido": {
          "value": 0,
          "base": 0,
          "bonus": [],
          "imunidade": false,
          "vulnerabilidade": false
        },
        "corte": {
          "value": 0,
          "base": 0,
          "bonus": [],
          "imunidade": false,
          "vulnerabilidade": false
        },
        "eletricidade": {
          "value": 0,
          "base": 0,
          "bonus": [],
          "imunidade": false,
          "vulnerabilidade": false
        },
        "essencia": {
          "value": 0,
          "base": 0,
          "bonus": [],
          "imunidade": false,
          "vulnerabilidade": false
        },
        "fogo": {
          "value": 0,
          "base": 0,
          "bonus": [],
          "imunidade": false,
          "vulnerabilidade": false
        },
        "frio": {
          "value": 0,
          "base": 0,
          "bonus": [],
          "imunidade": false,
          "vulnerabilidade": false
        },
        "impacto": {
          "value": 0,
          "base": 0,
          "bonus": [],
          "imunidade": false,
          "vulnerabilidade": false
        },
        "luz": {
          "value": 0,
          "base": 0,
          "bonus": [],
          "imunidade": false,
          "vulnerabilidade": false
        },
        "psiquico": {
          "value": 0,
          "base": 0,
          "bonus": [],
          "imunidade": false,
          "vulnerabilidade": false
        },
        "perfuracao": {
          "value": 0,
          "base": 0,
          "bonus": [],
          "imunidade": false,
          "vulnerabilidade": false
        },
        "trevas": {
          "value": 0,
          "base": 0,
          "bonus": [],
          "imunidade": false,
          "vulnerabilidade": false
        },
        "dano": {
          "value": 0,
          "imunidade": false,
          "vulnerabilidade": false
        }
      },
      "ic": {
        "value": [],
        "custom": ""
      },
      "idiomas": {
        "value": [
          "comum"
        ]
      }
    },
    "dinheiro": {
      "tl": 0,
      "to": 0,
      "tp": 0,
      "tc": 0
    },
    "resources": {
      "primary": {
        "value": 0,
        "max": 0,
        "label": ""
      },
      "secondary": {
        "value": 0,
        "max": 0,
        "label": ""
      },
      "tertiary": {
        "value": 0,
        "max": 0,
        "label": ""
      },
      "deathsave": {
        "value": 0,
        "max": 3,
        "label": ""
      },
      "shadow": {
        "value": 0,
        "max": 5,
        "label": ""
      },
      "catarse": {
        "value": 0,
        "max": 3,
        "label": ""
      }
    },
    "pericias": {
      "acro": {
        "value": 0,
        "atributo": "des",
        "outros": 0,
        "treinado": false,
        "st": false,
        "pda": false,
        "size": false,
        "condi": 0,
        "bonus": [],
        "custom": false,
        "label": "",
        "nome": ""
      },
      "ades": {
        "value": 0,
        "atributo": "car",
        "outros": 0,
        "treinado": false,
        "st": false,
        "pda": false,
        "size": false,
        "condi": 0,
        "bonus": [],
        "custom": false,
        "label": "",
        "nome": ""
      },
      "atle": {
        "value": 0,
        "atributo": "for",
        "outros": 0,
        "treinado": false,
        "st": false,
        "pda": false,
        "size": false,
        "condi": 0,
        "bonus": [],
        "custom": false,
        "label": "",
        "nome": ""
      },
      "atua": {
        "value": 0,
        "atributo": "car",
        "outros": 0,
        "treinado": false,
        "st": false,
        "pda": false,
        "size": false,
        "condi": 0,
        "bonus": [],
        "custom": false,
        "label": "",
        "nome": ""
      },
      "cava": {
        "value": 0,
        "atributo": "des",
        "outros": 0,
        "treinado": false,
        "st": false,
        "pda": false,
        "size": false,
        "condi": 0,
        "bonus": [],
        "custom": false,
        "label": "",
        "nome": ""
      },
      "conh": {
        "value": 14,
        "atributo": "int",
        "outros": 7,
        "treinado": true,
        "st": false,
        "pda": false,
        "size": false,
        "condi": 0,
        "bonus": [],
        "custom": false,
        "label": "",
        "nome": ""
      },
      "cura": {
        "value": 0,
        "atributo": "sab",
        "outros": 0,
        "treinado": false,
        "st": false,
        "pda": false,
        "size": false,
        "condi": 0,
        "bonus": [],
        "custom": false,
        "label": "",
        "nome": ""
      },
      "dipl": {
        "value": 0,
        "atributo": "car",
        "outros": 0,
        "treinado": false,
        "st": false,
        "pda": false,
        "size": false,
        "condi": 0,
        "bonus": [],
        "custom": false,
        "label": "",
        "nome": ""
      },
      "enga": {
        "value": 0,
        "atributo": "car",
        "outros": 0,
        "treinado": false,
        "st": false,
        "pda": false,
        "size": false,
        "condi": 0,
        "bonus": [],
        "custom": false,
        "label": "",
        "nome": ""
      },
      "fort": {
        "value": 7,
        "atributo": "con",
        "outros": 7,
        "treinado": false,
        "st": false,
        "pda": false,
        "size": false,
        "condi": 0,
        "bonus": [],
        "custom": false,
        "label": "",
        "nome": ""
      },
      "furt": {
        "value": 0,
        "atributo": "des",
        "outros": 0,
        "treinado": false,
        "st": false,
        "pda": false,
        "size": false,
        "condi": 0,
        "bonus": [],
        "custom": false,
        "label": "",
        "nome": ""
      },
      "guer": {
        "value": 0,
        "atributo": "int",
        "outros": 0,
        "treinado": false,
        "st": false,
        "pda": false,
        "size": false,
        "condi": 0,
        "bonus": [],
        "custom": false,
        "label": "",
        "nome": ""
      },
      "inic": {
        "value": 9,
        "atributo": "des",
        "outros": 3,
        "treinado": false,
        "st": false,
        "pda": false,
        "size": false,
        "condi": 0,
        "bonus": [],
        "custom": false,
        "label": "",
        "nome": ""
      },
      "inti": {
        "value": 0,
        "atributo": "car",
        "outros": 0,
        "treinado": false,
        "st": false,
        "pda": false,
        "size": false,
        "condi": 0,
        "bonus": [],
        "custom": false,
        "label": "",
        "nome": ""
      },
      "intu": {
        "value": 0,
        "atributo": "sab",
        "outros": 0,
        "treinado": false,
        "label": "",
        "st": false,
        "pda": false,
        "bonus": [],
        "size": false,
        "condi": 0,
        "custom": false,
        "nome": ""
      },
      "inve": {
        "value": 0,
        "atributo": "int",
        "outros": 0,
        "treinado": false,
        "st": false,
        "pda": false,
        "size": false,
        "condi": 0,
        "bonus": [],
        "custom": false,
        "label": "",
        "nome": ""
      },
      "joga": {
        "value": 0,
        "atributo": "car",
        "outros": 0,
        "treinado": false,
        "st": false,
        "pda": false,
        "size": false,
        "condi": 0,
        "bonus": [],
        "custom": false,
        "label": "",
        "nome": ""
      },
      "ladi": {
        "value": 0,
        "atributo": "des",
        "outros": 0,
        "treinado": false,
        "st": false,
        "pda": false,
        "size": false,
        "condi": 0,
        "bonus": [],
        "custom": false,
        "label": "",
        "nome": ""
      },
      "luta": {
        "value": 0,
        "atributo": "for",
        "outros": 0,
        "treinado": false,
        "st": false,
        "pda": false,
        "size": false,
        "condi": 0,
        "bonus": [],
        "custom": false,
        "label": "",
        "nome": ""
      },
      "mist": {
        "value": 16,
        "atributo": "int",
        "outros": 9,
        "treinado": true,
        "st": false,
        "pda": false,
        "size": false,
        "condi": 0,
        "bonus": [],
        "custom": false,
        "label": "",
        "nome": ""
      },
      "nobr": {
        "value": 0,
        "atributo": "int",
        "outros": 0,
        "treinado": false,
        "st": false,
        "pda": false,
        "size": false,
        "condi": 0,
        "bonus": [],
        "custom": false,
        "label": "",
        "nome": ""
      },
      "ofi0": {
        "value": 0,
        "atributo": "int",
        "outros": 0,
        "treinado": false,
        "st": false,
        "pda": false,
        "size": false,
        "condi": 0,
        "bonus": [],
        "custom": false,
        "label": "",
        "nome": ""
      },
      "perc": {
        "value": 9,
        "atributo": "sab",
        "outros": 2,
        "treinado": true,
        "st": false,
        "pda": false,
        "size": false,
        "condi": 0,
        "bonus": [],
        "custom": false,
        "label": "",
        "nome": ""
      },
      "pilo": {
        "value": 0,
        "atributo": "des",
        "outros": 0,
        "treinado": false,
        "st": false,
        "pda": false,
        "size": false,
        "condi": 0,
        "bonus": [],
        "custom": false,
        "label": "",
        "nome": ""
      },
      "pont": {
        "value": 0,
        "atributo": "des",
        "outros": 0,
        "treinado": false,
        "st": false,
        "pda": false,
        "size": false,
        "condi": 0,
        "bonus": [],
        "custom": false,
        "label": "",
        "nome": ""
      },
      "refl": {
        "value": 14,
        "atributo": "des",
        "outros": 14,
        "treinado": false,
        "st": false,
        "pda": false,
        "size": false,
        "condi": 0,
        "bonus": [],
        "custom": false,
        "label": "",
        "nome": ""
      },
      "reli": {
        "value": 0,
        "atributo": "sab",
        "outros": 0,
        "treinado": false,
        "st": false,
        "pda": false,
        "size": false,
        "condi": 0,
        "bonus": [],
        "custom": false,
        "label": "",
        "nome": ""
      },
      "sobr": {
        "value": 0,
        "atributo": "sab",
        "outros": 0,
        "treinado": false,
        "st": false,
        "pda": false,
        "size": false,
        "condi": 0,
        "bonus": [],
        "custom": false,
        "label": "",
        "nome": ""
      },
      "vont": {
        "value": 20,
        "atributo": "sab",
        "outros": 20,
        "treinado": false,
        "st": false,
        "pda": false,
        "size": false,
        "condi": 0,
        "bonus": [],
        "custom": false,
        "label": "",
        "nome": ""
      },
      "_pc0": {
        "value": 0,
        "atributo": "for",
        "outros": 0,
        "treinado": false,
        "st": false,
        "pda": false,
        "size": false,
        "condi": 0,
        "bonus": [],
        "custom": false,
        "label": "",
        "nome": ""
      }
    },
    "modificadores": {
      "atributos": {
        "geral": [
          ""
        ],
        "fisicos": [
          ""
        ],
        "mentais": [
          ""
        ],
        "for": [
          ""
        ],
        "des": [
          ""
        ],
        "con": [
          ""
        ],
        "int": [
          ""
        ],
        "sab": [
          ""
        ],
        "car": [
          ""
        ]
      },
      "dano": {
        "geral": [
          ""
        ],
        "cac": [
          ""
        ],
        "ad": [
          ""
        ],
        "mag": [
          ""
        ],
        "alq": [
          ""
        ]
      },
      "custoPM": "0",
      "pericias": {
        "geral": [
          ""
        ],
        "semataque": [
          ""
        ],
        "ataque": [
          ""
        ],
        "resistencia": [
          ""
        ],
        "atr": {
          "for": [
            ""
          ],
          "des": [
            ""
          ],
          "con": [
            ""
          ],
          "int": [
            ""
          ],
          "sab": [
            ""
          ],
          "car": [
            ""
          ]
        }
      },
      "ataque": {
        "geral": [],
        "cac": [],
        "ad": []
      }
    },
    "builder": {
      "attributes": {
        "cr": "",
        "size": "",
        "attack": {
          "value": 0,
          "cr": ""
        },
        "damage": {
          "value": 0,
          "cr": ""
        },
        "defense": {
          "value": 0,
          "cr": ""
        },
        "fort": {
          "value": 0,
          "rank": 2,
          "cr": ""
        },
        "refl": {
          "value": 0,
          "rank": 1,
          "cr": ""
        },
        "vont": {
          "value": 0,
          "rank": 0,
          "cr": ""
        },
        "topsave": {
          "value": 0,
          "cr": ""
        },
        "midsave": {
          "value": 0,
          "cr": ""
        },
        "botsave": {
          "value": 0,
          "cr": ""
        },
        "hp": {
          "value": 0,
          "cr": ""
        },
        "mp": {
          "value": 0,
          "cr": ""
        },
        "dc": {
          "value": 0,
          "cr": ""
        }
      },
      "details": {
        "concept": "",
        "creatureType": "",
        "role": "",
        "treasure": ""
      }
    }
  },
  "ownership": {
    "default": 0
  },
  "prototypeToken": {
    "flags": {},
    "name": "Necromante",
    "displayName": 50,
    "width": 1,
    "height": 1,
    "lockRotation": false,
    "rotation": 0,
    "actorLink": false,
    "disposition": -1,
    "displayBars": 0,
    "bar1": {
      "attribute": "attributes.pv"
    },
    "bar2": {
      "attribute": "attributes.pm"
    },
    "randomImg": false,
    "alpha": 1,
    "light": {
      "dim": 0,
      "bright": 0,
      "angle": 360,
      "color": null,
      "alpha": 1,
      "animation": {
        "speed": 5,
        "intensity": 5,
        "type": null,
        "reverse": false
      },
      "coloration": 1,
      "attenuation": 0.5,
      "luminosity": 0.5,
      "saturation": 0,
      "contrast": 0,
      "shadows": 0,
      "darkness": {
        "min": 0,
        "max": 1
      }
    },
    "texture": {
      "src": "systems/tormenta20/icons/ameacas/necromante.png",
      "tint": null,
      "scaleX": 0.8,
      "scaleY": 0.8,
      "offsetX": 0,
      "offsetY": 0,
      "rotation": 0
    },
    "sight": {
      "angle": 360,
      "enabled": true,
      "range": 9,
      "brightness": 1,
      "visionMode": "basic",
      "color": null,
      "attenuation": 0.1,
      "saturation": 0,
      "contrast": 0
    },
    "detectionModes": [],
    "appendNumber": false,
    "prependAdjective": false
  },
  "_stats": {
    "systemId": "tormenta20",
    "systemVersion": "1.4.203d2",
    "coreVersion": "11.315",
    "createdTime": 1661997946031,
    "modifiedTime": 1700237119899,
    "lastModifiedBy": "5frcpPVF3cVfLwZA"
  },
  "_key": "!actors!vAEW5YDnI2ECPVRs"
}
