{
  "name": "Aço-Rubi",
  "type": "consumivel",
  "img": "systems/tormenta20/icons/itens/gerais/aco-rubi.webp",
  "system": {
    "description": {
      "value": "<p><span class=\"fontstyle0\"><strong style=\"text-align: justify;\">[Material Especial]</strong></span></p>\n<p>Este metal tem a apar&ecirc;ncia de vidro avermelhado, mas &eacute; duro como a&ccedil;o. A&ccedil;o-rubi &eacute; car&iacute;ssimo e comercializado apenas por uma guilda de ferreiros da cidade doss an&otilde;es. Os an&otilde;es mant&eacute;m a origem deste material em segredo, mas suspeita-se de que ele seja minerado das profundezas de uma &aacute;rea de Tormenta.</p>\n<p><strong>Arma.</strong> Quando faz um ataque, voc&ecirc; pode pagar 1 PM para ignorar qualquer tipo de resist&ecirc;ncia ou imunidade a dano contra este ataque.<br><strong>Armadura e Escudo.</strong> Fornece uma chance de ignorar o dano extra de acertos cr&iacute;ticos e ataques furtivos: armaduras leves e escudos, 25% (1 em 1d4); armaduras pesadas, 50% (qualquer valor par em qualquer dado), cumulativas entre si.<br><strong>Esot&eacute;rico.</strong> Permite que voc&ecirc; pague +2 PM ao lan&ccedil;ar uma magia para que ela ignore qualquer tipo de resist&ecirc;ncia ou imunidade a dano.</p>\n<p>&nbsp;</p>\n<p><span class=\"fontstyle0\"><strong style=\"text-align: justify;\">Pre&ccedil;os:</strong></span></p>\n<p><span class=\"fontstyle0\"><span style=\"text-align: justify;\">Armas, Armaduras pesadas e Esot&eacute;ricos:&nbsp; +T$ 6000</span></span></p>\n<p><span class=\"fontstyle0\"><span style=\"text-align: justify;\">Armaduras leves e Escudo:&nbsp; +T$ 3000</span></span></p>",
      "chat": "",
      "unidentified": ""
    },
    "source": "T20, pg. 166 (JdA)",
    "equipado": false,
    "equipado2": {
      "slot": 0,
      "type": ""
    },
    "carregado": true,
    "peso": 0,
    "espacos": 1,
    "qtd": 1,
    "preco": 6000,
    "pv": {
      "value": 0,
      "min": 0,
      "max": 0
    },
    "rd": 0,
    "ativacao": {
      "execucao": "",
      "custo": 0,
      "qtd": "",
      "condicao": "",
      "special": ""
    },
    "duracao": {
      "value": 0,
      "units": "",
      "special": ""
    },
    "target": {
      "value": null,
      "width": null,
      "units": "",
      "type": ""
    },
    "range": {
      "value": null,
      "units": ""
    },
    "consume": {
      "type": "",
      "target": "",
      "amount": null,
      "mpMultiplier": false
    },
    "efeito": "",
    "alcance": "none",
    "alvo": "",
    "area": "",
    "resistencia": {
      "pericia": "",
      "atributo": "",
      "bonus": 0,
      "txt": ""
    },
    "rolls": [],
    "tipo": "material",
    "uses": {
      "autoDestroy": false
    },
    "origin": "",
    "chatFlavor": "",
    "subtipo": "",
    "tags": [],
    "chatGif": "",
    "upgrades": {
      "melhoria1": "",
      "melhoria2": "",
      "melhoria3": "",
      "melhoria4": "",
      "material": "",
      "encanto1": "",
      "encanto2": "",
      "encanto3": ""
    },
    "melhorias": {},
    "encantos": {}
  },
  "effects": [],
  "flags": {},
  "_stats": {
    "systemId": "tormenta20",
    "systemVersion": "1.4.200",
    "coreVersion": "11.299",
    "createdTime": 1664672303538,
    "modifiedTime": 1685245416490,
    "lastModifiedBy": "ZWR5Tn3AhSIFqwp6"
  },
  "_id": "uh2znrkRMO7MXXh0",
  "folder": "xqMxYK1BhlZ6ktNc",
  "sort": 100000,
  "ownership": {
    "default": 0,
    "tIn9sSkrT3mDWirx": 3
  },
  "_key": "!items!uh2znrkRMO7MXXh0"
}
