{
  "_id": "7KL4b6CtfUP0rFqi",
  "name": "Azagaia",
  "type": "arma",
  "img": "systems/tormenta20/icons/itens/equipamentos/azagaia.webp",
  "effects": [],
  "folder": "6yKwaoggW8DufEjj",
  "sort": 250000,
  "flags": {
    "core": {
      "sheetClass": "",
      "sourceId": "Compendium.tormenta20.equipamentos.7KL4b6CtfUP0rFqi"
    }
  },
  "system": {
    "description": {
      "value": "<p style=\"text-align:justify;\">Uma lança leve e flexível, própria para arremesso. Pode ser usada como arma corpo a corpo, mas você sofre uma penalidade de –5 no teste de ataque.</p>",
      "chat": "",
      "unidentified": ""
    },
    "source": "T20, pg. 146 (JdA)",
    "equipado": 0,
    "equipado2": {
      "slot": 0,
      "type": "hand"
    },
    "carregado": true,
    "peso": 1,
    "espacos": 1,
    "qtd": 1,
    "preco": 1,
    "pv": {
      "value": 0,
      "min": 0,
      "max": 0
    },
    "rd": 0,
    "rolls": [
      {
        "name": "Ataque",
        "key": "ataque0",
        "type": "ataque",
        "parts": [
          [
            "1d20",
            "",
            ""
          ],
          [
            "pont",
            "",
            ""
          ],
          [
            "0",
            "",
            ""
          ]
        ],
        "versatil": ""
      },
      {
        "name": "Dano",
        "key": "dano1",
        "type": "dano",
        "parts": [
          [
            "1d6",
            "perfuracao",
            ""
          ],
          [
            "@for",
            "",
            ""
          ]
        ],
        "versatil": ""
      }
    ],
    "criticoM": 20,
    "criticoX": 2,
    "alcance": "medium",
    "tipoUso": "sim",
    "propriedades": {
      "ada": false,
      "agi": false,
      "alo": false,
      "dup": false,
      "ver": false,
      "adaptavel": false,
      "agil": false,
      "alongada": false,
      "arremesso": true,
      "ataqueDistancia": true,
      "duasMaos": false,
      "dupla": false,
      "leve": false,
      "municao": true,
      "versatil": false,
      "des": false
    },
    "encantos": {
      "arremesso": false,
      "lancinante": false,
      "lancinating": false
    },
    "ativacao": {
      "custo": null,
      "condicao": "",
      "execucao": "",
      "qtd": "",
      "special": ""
    },
    "chatFlavor": "",
    "consume": {
      "type": "",
      "target": "",
      "amount": null,
      "mpMultiplier": false
    },
    "origin": "",
    "tags": [],
    "chatGif": "",
    "upgrades": {
      "melhoria1": "",
      "melhoria2": "",
      "melhoria3": "",
      "melhoria4": "",
      "material": "",
      "encanto1": "",
      "encanto2": "",
      "encanto3": ""
    },
    "melhorias": {},
    "ataques": 0,
    "proficiencia": "simples",
    "proposito": "arremesso",
    "empunhadura": "uma",
    "size": "normal"
  },
  "ownership": {
    "default": 0
  },
  "_stats": {
    "systemId": "tormenta20",
    "systemVersion": "1.4.116",
    "coreVersion": "11.298",
    "createdTime": 1664312772393,
    "modifiedTime": 1684809353177,
    "lastModifiedBy": "ZWR5Tn3AhSIFqwp6"
  },
  "_key": "!items!7KL4b6CtfUP0rFqi"
}
