{
  "_id": "26L5Yr66Qmiu02oY",
  "name": "Bálsamo restaurador",
  "type": "consumivel",
  "img": "systems/tormenta20/icons/itens/gerais/balsamo-restaurador.webp",
  "effects": [],
  "folder": "FUrcrKKV6smuHI1v",
  "sort": 200000,
  "flags": {
    "core": {
      "sourceId": "Compendium.tormenta20.equipamentos.26L5Yr66Qmiu02oY"
    }
  },
  "system": {
    "description": {
      "value": "<p style=\"text-align: justify;\">Uma pasta verde e fedorenta, feita de ervas medicinais. Esfregar essa pasta em um ferimento &eacute; uma a&ccedil;&atilde;o completa e recupera 2d4 pontos de vida.&nbsp;</p>",
      "chat": "",
      "unidentified": ""
    },
    "source": "T20, pg. 160 (JdA)",
    "equipado": false,
    "equipado2": {
      "slot": 0,
      "type": ""
    },
    "carregado": true,
    "peso": 0.5,
    "espacos": 0.5,
    "qtd": 1,
    "preco": 10,
    "pv": {
      "value": 0,
      "min": 0,
      "max": 0
    },
    "rd": 0,
    "ativacao": {
      "execucao": "full",
      "custo": 0,
      "qtd": "",
      "condicao": "",
      "special": ""
    },
    "duracao": {
      "value": 0,
      "units": "inst",
      "special": ""
    },
    "target": {
      "value": null,
      "width": null,
      "units": "",
      "type": ""
    },
    "range": {
      "value": null,
      "units": ""
    },
    "consume": {
      "type": "",
      "target": "",
      "amount": null,
      "mpMultiplier": false
    },
    "efeito": "",
    "alcance": "none",
    "alvo": "",
    "area": "",
    "resistencia": {
      "pericia": "",
      "atributo": "sab",
      "bonus": 0,
      "txt": ""
    },
    "rolls": [
      {
        "name": "Dano",
        "key": "dano0",
        "type": "dano",
        "parts": [
          [
            "2d4",
            "curapv"
          ]
        ]
      }
    ],
    "tipo": "alchemy",
    "uses": {
      "autoDestroy": false
    },
    "chatFlavor": "",
    "origin": "",
    "tags": [],
    "chatGif": "",
    "upgrades": {
      "melhoria1": "",
      "melhoria2": "",
      "melhoria3": "",
      "melhoria4": "",
      "material": "",
      "encanto1": "",
      "encanto2": "",
      "encanto3": ""
    },
    "melhorias": {},
    "encantos": {},
    "subtipo": ""
  },
  "ownership": {
    "default": 0
  },
  "_stats": {
    "systemId": "tormenta20",
    "systemVersion": "1.4.116",
    "coreVersion": "11.298",
    "createdTime": 1664312772390,
    "modifiedTime": 1684616983645,
    "lastModifiedBy": "ZWR5Tn3AhSIFqwp6"
  },
  "_key": "!items!26L5Yr66Qmiu02oY"
}
