{
  "name": "Batata Ambiciosa",
  "type": "consumivel",
  "img": "systems/tormenta20/icons/itens/gerais/batata-ambiciosa.webp",
  "system": {
    "description": {
      "value": "<p style=\"text-align: justify;\">Batatas cortadas em tiras e mergulhadas em &oacute;leo fervente. Gordurentas e pouco nutritivas, s&atilde;o o tipo de prato que s&oacute; &eacute; servido numa metr&oacute;pole. Apesar disso, s&atilde;o uma unanimidade! Gostosas, deixam qualquer um empolgado para realizar fa&ccedil;anhas. Voc&ecirc; recebe +1d6 num &uacute;nico teste a sua escolha realizado nesse dia.</p>\n<p style=\"text-align: justify;\">Para n&atilde;o esquecer, deixe 1d6 em cima da sua ficha. De prefer&ecirc;ncia, amarelo.</p>",
      "chat": "",
      "unidentified": ""
    },
    "source": "T20, pg. 162 (JdA)",
    "equipado": false,
    "equipado2": {
      "slot": 0,
      "type": ""
    },
    "carregado": true,
    "peso": 0.5,
    "espacos": 0.5,
    "qtd": 1,
    "preco": 2,
    "pv": {
      "value": 0,
      "min": 0,
      "max": 0
    },
    "rd": 0,
    "ativacao": {
      "execucao": "",
      "custo": 0,
      "qtd": "",
      "condicao": "",
      "special": ""
    },
    "duracao": {
      "value": 0,
      "units": "",
      "special": ""
    },
    "target": {
      "value": null,
      "width": null,
      "units": "",
      "type": ""
    },
    "range": {
      "value": null,
      "units": ""
    },
    "consume": {
      "type": "",
      "target": "",
      "amount": null,
      "mpMultiplier": false
    },
    "efeito": "",
    "alcance": "none",
    "alvo": "",
    "area": "",
    "resistencia": {
      "pericia": "",
      "atributo": "",
      "bonus": 0,
      "txt": ""
    },
    "rolls": [],
    "tipo": "food",
    "uses": {
      "autoDestroy": false
    },
    "chatFlavor": "",
    "origin": "",
    "tags": [],
    "subtipo": "",
    "chatGif": "",
    "upgrades": {
      "melhoria1": "",
      "melhoria2": "",
      "melhoria3": "",
      "melhoria4": "",
      "material": "",
      "encanto1": "",
      "encanto2": "",
      "encanto3": ""
    },
    "melhorias": {},
    "encantos": {}
  },
  "effects": [
    {
      "label": "Batata Ambiciosa: Soma +1d6 em um único  teste a sua escolha.",
      "icon": "icons/svg/upgrade.svg",
      "origin": "Item.MT4QgnaAwWgr4pet",
      "tint": "#FFFFFF",
      "flags": {
        "tormenta20": {
          "onuse": true,
          "durationScene": false,
          "self": false,
          "attack": true,
          "skill": true,
          "ability": true,
          "power": false,
          "spell": false,
          "consumable": false,
          "items": "",
          "aumenta": false,
          "custo": ""
        }
      },
      "duration": {
        "startTime": null,
        "seconds": null,
        "combat": null,
        "rounds": null,
        "turns": null,
        "startRound": null,
        "startTurn": null
      },
      "disabled": true,
      "_id": "mhMNYFNWFT6UyhFS",
      "changes": [
        {
          "key": "roll",
          "mode": 2,
          "value": "1d6",
          "priority": 0
        }
      ],
      "transfer": true,
      "_key": "!items.effects!GkIO0G6YH5VjXNIK.mhMNYFNWFT6UyhFS"
    },
    {
      "label": "Batata Ambiciosa",
      "icon": "systems/tormenta20/icons/itens/batata-ambiciosa.webp",
      "origin": "Item.GkIO0G6YH5VjXNIK",
      "tint": "#FFFFFF",
      "flags": {
        "tormenta20": {
          "onuse": false,
          "durationScene": true
        }
      },
      "duration": {
        "rounds": 1,
        "startTime": null,
        "seconds": null,
        "combat": null,
        "turns": null,
        "startRound": null,
        "startTurn": null
      },
      "disabled": false,
      "_id": "5yh5XJIsTAEKzTxi",
      "changes": [],
      "transfer": false,
      "_key": "!items.effects!GkIO0G6YH5VjXNIK.5yh5XJIsTAEKzTxi"
    }
  ],
  "flags": {
    "core": {
      "sourceId": "Item.3LefusVANWmllIec"
    }
  },
  "_stats": {
    "systemId": "tormenta20",
    "systemVersion": "1.4.116",
    "coreVersion": "11.298",
    "createdTime": 1663365561715,
    "modifiedTime": 1684617048818,
    "lastModifiedBy": "ZWR5Tn3AhSIFqwp6"
  },
  "_id": "GkIO0G6YH5VjXNIK",
  "folder": "sO4Gcu7Fm1dJ1sxI",
  "sort": 100000,
  "ownership": {
    "default": 0,
    "tIn9sSkrT3mDWirx": 3
  },
  "_key": "!items!GkIO0G6YH5VjXNIK"
}
