{
  "_id": "HyJBwTLK0vY5F1Vp",
  "name": "Bordão",
  "type": "arma",
  "img": "systems/tormenta20/icons/itens/equipamentos/bordao.webp",
  "effects": [],
  "folder": "6yKwaoggW8DufEjj",
  "sort": 175000,
  "flags": {
    "core": {
      "sourceId": "Compendium.tormenta20.equipamentos.HyJBwTLK0vY5F1Vp"
    }
  },
  "system": {
    "description": {
      "value": "<p style=\"text-align: justify;\">Um cajado apreciado por viajantes e camponeses por sua praticidade e f&aacute;cil acesso (seu pre&ccedil;o &eacute; zero). O bord&atilde;o &eacute; uma arma <em>dupla</em></p>",
      "chat": "",
      "unidentified": ""
    },
    "source": "T20, pg. 147 (JdA)",
    "equipado": 0,
    "equipado2": {
      "slot": 0,
      "type": "hand"
    },
    "carregado": true,
    "peso": 2,
    "espacos": 2,
    "qtd": 1,
    "preco": 0,
    "pv": {
      "value": 0,
      "min": 0,
      "max": 0
    },
    "rd": 0,
    "rolls": [
      {
        "name": "Ataque",
        "key": "ataque0",
        "type": "ataque",
        "parts": [
          [
            "1d20",
            "",
            ""
          ],
          [
            "luta",
            "",
            ""
          ],
          [
            "0",
            "",
            ""
          ]
        ],
        "versatil": ""
      },
      {
        "name": "Dano",
        "key": "dano1",
        "type": "dano",
        "parts": [
          [
            "1d6",
            "impacto",
            ""
          ],
          [
            "@for",
            "",
            ""
          ]
        ],
        "versatil": ""
      }
    ],
    "criticoM": 20,
    "criticoX": 2,
    "alcance": "",
    "tipoUso": "sim",
    "propriedades": {
      "ada": false,
      "agi": false,
      "alo": false,
      "dup": true,
      "ver": false,
      "adaptavel": false,
      "agil": false,
      "alongada": false,
      "arremesso": false,
      "ataqueDistancia": false,
      "duasMaos": true,
      "dupla": true,
      "leve": false,
      "municao": false,
      "versatil": false,
      "des": false
    },
    "encantos": {
      "arremesso": false,
      "lancinante": false,
      "lancinating": false
    },
    "ativacao": {
      "custo": null,
      "condicao": "",
      "execucao": "",
      "qtd": "",
      "special": ""
    },
    "chatFlavor": "",
    "consume": {
      "type": "",
      "target": "",
      "amount": null,
      "mpMultiplier": false
    },
    "origin": "",
    "tags": [],
    "chatGif": "",
    "upgrades": {
      "melhoria1": "",
      "melhoria2": "",
      "melhoria3": "",
      "melhoria4": "",
      "material": "",
      "encanto1": "",
      "encanto2": "",
      "encanto3": ""
    },
    "melhorias": {},
    "ataques": 0,
    "proficiencia": "simples",
    "proposito": "corpo-a-corpo",
    "empunhadura": "duas",
    "size": "normal"
  },
  "ownership": {
    "default": 0
  },
  "_stats": {
    "systemId": "tormenta20",
    "systemVersion": "1.4.116",
    "coreVersion": "11.298",
    "createdTime": 1664312772399,
    "modifiedTime": 1684809353177,
    "lastModifiedBy": "ZWR5Tn3AhSIFqwp6"
  },
  "_key": "!items!HyJBwTLK0vY5F1Vp"
}
