{
  "name": "Coleção de Livros",
  "type": "equipamento",
  "img": "systems/tormenta20/icons/itens/gerais/colecao-de-livros.webp",
  "system": {
    "description": {
      "value": "<p>Uma pequena cole&ccedil;&atilde;o de tomos e tratados sobre um assunto. Fornece +1 em Conhecimento, Guerra, Misticismo, Nobreza ou Religi&atilde;o (definido quando o item &eacute; comprado ou fabricado).</p>",
      "chat": "",
      "unidentified": ""
    },
    "source": "T20, pg. 158 (JdA)",
    "equipado": false,
    "equipado2": {
      "slot": 0,
      "type": "hand"
    },
    "carregado": true,
    "peso": 0,
    "espacos": 1,
    "qtd": 1,
    "preco": 75,
    "pv": {
      "value": 0,
      "min": 0,
      "max": 0
    },
    "rd": 0,
    "tipo": "ferramenta",
    "armadura": {
      "value": 0,
      "penalidade": 0,
      "maxAtr": 0
    },
    "origin": "",
    "tags": [],
    "chatFlavor": "",
    "chatGif": "",
    "rolls": [],
    "ativacao": {
      "custo": 0,
      "condicao": "",
      "execucao": "",
      "qtd": "",
      "special": ""
    },
    "upgrades": {
      "melhoria1": "",
      "melhoria2": "",
      "melhoria3": "",
      "melhoria4": "",
      "material": "",
      "encanto1": "",
      "encanto2": "",
      "encanto3": ""
    },
    "melhorias": {},
    "encantos": {}
  },
  "effects": [],
  "flags": {},
  "_stats": {
    "systemId": "tormenta20",
    "systemVersion": "1.4.116",
    "coreVersion": "11.298",
    "createdTime": 1667249399310,
    "modifiedTime": 1684809353177,
    "lastModifiedBy": "ZWR5Tn3AhSIFqwp6"
  },
  "_id": "jhJviQkVaDYk28yY",
  "folder": "VqWdhvUwkVTlura5",
  "sort": 200000,
  "ownership": {
    "default": 0,
    "tIn9sSkrT3mDWirx": 3
  },
  "_key": "!items!jhJviQkVaDYk28yY"
}
