{
  "name": "Consumíveis",
  "sorting": "a",
  "folder": null,
  "type": "Item",
  "_id": "vJ3nxvT9nhOts2Xv",
  "sort": 0,
  "color": null,
  "flags": {},
  "_stats": {
    "systemId": "tormenta20",
    "systemVersion": "1.4.200",
    "coreVersion": "11.299",
    "createdTime": null,
    "modifiedTime": 1685245447955,
    "lastModifiedBy": "ZWR5Tn3AhSIFqwp6"
  },
  "_key": "!folders!vJ3nxvT9nhOts2Xv"
}
