{
  "_id": "zhN019SNUiYzz3aU",
  "name": "Corda (10m)",
  "type": "tesouro",
  "img": "systems/tormenta20/icons/itens/gerais/corda.webp",
  "effects": [],
  "folder": "0G5uMjOsWAFaPYAZ",
  "sort": 25000,
  "flags": {
    "core": {
      "sourceId": "Compendium.tormenta20.equipamentos.zhN019SNUiYzz3aU"
    }
  },
  "system": {
    "description": {
      "value": "<p style=\"text-align: justify;\">Um rolo com 10 metros de corda de c&acirc;nhamo, o mesmo tipo usado em navios. Possui diversas utilidades: pode ajudar a descer um buraco ou muro (+5 em testes de Atletismo nessas situa&ccedil;&otilde;es), amarrar pessoas etc. Dar um n&oacute; firme ou especial (por exemplo, capaz de deslizar, se desfazer com um pux&atilde;o etc.) exige um teste de Destreza (CD 15). Arrebentar a corda exige 2 pontos de dano de corte ou uma a&ccedil;&atilde;o padr&atilde;o e um teste de For&ccedil;a (CD 20).</p>",
      "chat": "",
      "unidentified": ""
    },
    "source": "T20, pg. 155 (JdA)",
    "equipado": false,
    "equipado2": {
      "slot": 0,
      "type": ""
    },
    "carregado": true,
    "peso": 5,
    "espacos": 1,
    "qtd": 1,
    "preco": 1,
    "pv": {
      "value": 0,
      "min": 0,
      "max": 0
    },
    "rd": 0,
    "container": false,
    "rolls": [],
    "origin": "",
    "tags": [],
    "chatFlavor": "",
    "chatGif": "",
    "ativacao": {
      "custo": 0,
      "condicao": "",
      "execucao": "",
      "qtd": "",
      "special": ""
    },
    "consume": {
      "amount": 0,
      "mpMultiplier": false,
      "target": "",
      "type": ""
    },
    "duracao": {
      "units": "",
      "value": 0,
      "special": ""
    },
    "range": {
      "units": "",
      "value": 0
    },
    "target": {
      "type": "",
      "value": 0,
      "width": 0
    },
    "alcance": "",
    "alvo": "",
    "area": "",
    "efeito": "",
    "resistencia": {
      "txt": "",
      "pericia": "",
      "atributo": "",
      "bonus": 0
    }
  },
  "ownership": {
    "default": 0
  },
  "_stats": {
    "systemId": "tormenta20",
    "systemVersion": "1.4.116",
    "coreVersion": "11.298",
    "createdTime": 1664312773035,
    "modifiedTime": 1684617278616,
    "lastModifiedBy": "ZWR5Tn3AhSIFqwp6"
  },
  "_key": "!items!zhN019SNUiYzz3aU"
}
