{
  "name": "Couro de Dragão",
  "type": "consumivel",
  "img": "systems/tormenta20/icons/itens/gerais/couro-de-dragao.webp",
  "system": {
    "description": {
      "value": "<p><span class=\"fontstyle0\"><strong style=\"text-align: justify;\">[Tesouro Especial] <strong>[Material Especial]</strong></strong></span></p>\n<p>Cobi&ccedil;ado por artes&atilde;os em toda Arton, o couro escamado de um drag&atilde;o verdadeiro &eacute; um material especial que pode ser empregado para fabricar certos itens superiores. Tanto o couro bruto quanto itens de couro de drag&atilde;o n&atilde;o existem &agrave; venda; a &uacute;nica maneira de obter esse material &eacute; derrotar um drag&atilde;o. <span class=\"fontstyle0\">(</span><span class=\"fontstyle0\">CD para extrair depende do drag&atilde;o).</span></p>\n<p>&nbsp;</p>\n<p><span class=\"fontstyle0\"><strong>Armaduras leves e escudos</strong> (exigem uma pe&ccedil;a para ser fabricado): Defesa +1, redu&ccedil;&atilde;o de dano 10 contra o tipo de dano do sopro do drag&atilde;o e resist&ecirc;ncia a magia +2. </span></p>\n<p><span class=\"fontstyle0\"><strong>Armaduras pesadas</strong> (exigem tr&ecirc;s pe&ccedil;as): Defesa +2, redu&ccedil;&atilde;o de dano 20 contra o tipo de dano do sopro do drag&atilde;o e resist&ecirc;ncia a magia +5. </span></p>\n<p><span class=\"fontstyle0\"><strong>Esot&eacute;rico </strong>(Exige 1 Pe&ccedil;a). Quando lan&ccedil;a uma magia que cause dano do mesmo tipo do sopro do drag&atilde;o, voc&ecirc; pode gastar 1 PM para aumentar o dano da magia em +1 por dado.</span></p>\n<p>&nbsp;</p>\n<p>&nbsp;</p>",
      "chat": "",
      "unidentified": ""
    },
    "source": "T20, pg. 311 (JdA)",
    "equipado": false,
    "equipado2": {
      "slot": 0,
      "type": ""
    },
    "carregado": true,
    "peso": 0,
    "espacos": 1,
    "qtd": 1,
    "preco": 0,
    "pv": {
      "value": 0,
      "min": 0,
      "max": 0
    },
    "rd": 0,
    "ativacao": {
      "execucao": "",
      "custo": 0,
      "qtd": "",
      "condicao": "",
      "special": ""
    },
    "duracao": {
      "value": 0,
      "units": "",
      "special": ""
    },
    "target": {
      "value": null,
      "width": null,
      "units": "",
      "type": ""
    },
    "range": {
      "value": null,
      "units": ""
    },
    "consume": {
      "type": "",
      "target": "",
      "amount": null,
      "mpMultiplier": false
    },
    "efeito": "",
    "alcance": "none",
    "alvo": "",
    "area": "",
    "resistencia": {
      "pericia": "",
      "atributo": "",
      "bonus": 0,
      "txt": ""
    },
    "rolls": [],
    "tipo": "material",
    "uses": {
      "autoDestroy": false
    },
    "origin": "",
    "tags": [],
    "chatFlavor": "",
    "subtipo": "",
    "chatGif": "",
    "upgrades": {
      "melhoria1": "",
      "melhoria2": "",
      "melhoria3": "",
      "melhoria4": "",
      "material": "",
      "encanto1": "",
      "encanto2": "",
      "encanto3": ""
    },
    "melhorias": {},
    "encantos": {}
  },
  "effects": [],
  "flags": {},
  "_stats": {
    "systemId": "tormenta20",
    "systemVersion": "1.4.116",
    "coreVersion": "11.298",
    "createdTime": 1665585143695,
    "modifiedTime": 1684617334736,
    "lastModifiedBy": "ZWR5Tn3AhSIFqwp6"
  },
  "_id": "DW3ObnlHoKVffcrS",
  "folder": "5PDivJJGRX0EFLEP",
  "sort": 300000,
  "ownership": {
    "default": 0,
    "tIn9sSkrT3mDWirx": 3
  },
  "_key": "!items!DW3ObnlHoKVffcrS"
}
