{
  "name": "Espinho de Mantícora",
  "type": "tesouro",
  "img": "systems/tormenta20/icons/itens/gerais/espinho.webp",
  "system": {
    "description": {
      "value": "<p><span class=\"fontstyle0\"><strong style=\"text-align: justify;\">[Tesouro Especial]</strong></span></p>\n<p><span class=\"fontstyle0\">Os espinhos da mant&iacute;cora valem T$ 150 como mat&eacute;ria-prima para fabricar flechas superiores </span><span class=\"fontstyle0\" style=\"font-family: var(--font-primary); font-size: var(--font-size-14);\">(</span><span class=\"fontstyle0\" style=\"font-family: var(--font-primary); font-size: var(--font-size-14);\">CD para extrair 17).</span></p>\n<p>&nbsp;</p>\n<p>&nbsp;</p>\n<p>&nbsp;</p>",
      "chat": "",
      "unidentified": ""
    },
    "source": "T20, pg. 287 (JdA)",
    "equipado": false,
    "equipado2": {
      "slot": 0,
      "type": ""
    },
    "carregado": true,
    "peso": 0,
    "espacos": 0,
    "qtd": 1,
    "preco": 150,
    "pv": {
      "value": 0,
      "min": 0,
      "max": 0
    },
    "rd": 0,
    "container": false,
    "rolls": [],
    "origin": "",
    "chatFlavor": "",
    "tags": [],
    "chatGif": "",
    "ativacao": {
      "custo": 0,
      "condicao": "",
      "execucao": "",
      "qtd": "",
      "special": ""
    },
    "consume": {
      "amount": 0,
      "mpMultiplier": false,
      "target": "",
      "type": ""
    },
    "duracao": {
      "units": "",
      "value": 0,
      "special": ""
    },
    "range": {
      "units": "",
      "value": 0
    },
    "target": {
      "type": "",
      "value": 0,
      "width": 0
    },
    "alcance": "",
    "alvo": "",
    "area": "",
    "efeito": "",
    "resistencia": {
      "txt": "",
      "pericia": "",
      "atributo": "",
      "bonus": 0
    }
  },
  "effects": [],
  "flags": {
    "exportSource": {
      "world": "tormentaverse",
      "system": "tormenta20",
      "coreVersion": "10.286",
      "systemVersion": "1.4.006"
    }
  },
  "_stats": {
    "systemId": "tormenta20",
    "systemVersion": "1.4.116",
    "coreVersion": "11.298",
    "createdTime": null,
    "modifiedTime": 1684617424529,
    "lastModifiedBy": "ZWR5Tn3AhSIFqwp6"
  },
  "_id": "3i3lkiwxfMxyWO31",
  "folder": "5PDivJJGRX0EFLEP",
  "sort": 112500,
  "ownership": {
    "default": 0,
    "tIn9sSkrT3mDWirx": 3
  },
  "_key": "!items!3i3lkiwxfMxyWO31"
}
