{
  "name": "Farrapos de Ermitão",
  "type": "equipamento",
  "img": "systems/tormenta20/icons/itens/gerais/farrapos-de-ermitao.webp",
  "system": {
    "description": {
      "value": "<p>Trapos e &ldquo;adornados&rdquo; com plantas e ra&iacute;zes. Uma pessoa vestindo farrapos de ermit&atilde;o n&atilde;o parece muito civilizada, e sofre &ndash;2 em Diplomacia e em testes de Investiga&ccedil;&atilde;o para interrogar. Entretanto, recebe +2 em Adestramento.</p>",
      "chat": "",
      "unidentified": ""
    },
    "source": "T20, pg. 159 (JdA)",
    "equipado": false,
    "equipado2": {
      "slot": 0,
      "type": "body"
    },
    "carregado": true,
    "peso": 0,
    "espacos": 1,
    "qtd": 1,
    "preco": 1,
    "pv": {
      "value": 0,
      "min": 0,
      "max": 0
    },
    "rd": 0,
    "tipo": "traje",
    "armadura": {
      "value": 0,
      "penalidade": 0,
      "maxAtr": 0
    },
    "origin": "",
    "tags": [],
    "chatFlavor": "",
    "ativacao": {
      "custo": null,
      "condicao": "",
      "execucao": "",
      "qtd": "",
      "special": ""
    },
    "rolls": [],
    "melhorias": {
      "enhanced": null,
      "golden": null,
      "gems": null,
      "discreet": null,
      "macabre": null
    },
    "chatGif": "",
    "upgrades": {
      "melhoria1": "",
      "melhoria2": "",
      "melhoria3": "",
      "melhoria4": "",
      "material": "",
      "encanto1": "",
      "encanto2": "",
      "encanto3": ""
    },
    "encantos": {}
  },
  "effects": [
    {
      "label": "Farrapos de Ermitão",
      "icon": "systems/tormenta20/icons/itens/gerais/farrapos-de-ermitao.webp",
      "origin": "Item.NaAzX8LMFw2Sk8qE",
      "tint": "#FFFFFF",
      "flags": {
        "tormenta20": {
          "onuse": false,
          "durationScene": false
        }
      },
      "duration": {
        "startTime": null,
        "seconds": null,
        "combat": null,
        "rounds": null,
        "turns": null,
        "startRound": null,
        "startTurn": null
      },
      "disabled": false,
      "_id": "rZP5TlmG1CgD0ojW",
      "changes": [
        {
          "key": "system.pericias.dipl.bonus",
          "mode": 2,
          "value": "-2",
          "priority": null
        },
        {
          "key": "system.pericias.inve.bonus",
          "mode": 2,
          "value": "-2",
          "priority": null
        },
        {
          "key": "system.pericias.ades.bonus",
          "mode": 2,
          "value": "2",
          "priority": null
        }
      ],
      "transfer": true,
      "_key": "!items.effects!NaAzX8LMFw2Sk8qE.rZP5TlmG1CgD0ojW"
    }
  ],
  "flags": {},
  "_stats": {
    "systemId": "tormenta20",
    "systemVersion": "1.4.116",
    "coreVersion": "11.298",
    "createdTime": 1665687009302,
    "modifiedTime": 1684809353177,
    "lastModifiedBy": "ZWR5Tn3AhSIFqwp6"
  },
  "_id": "NaAzX8LMFw2Sk8qE",
  "folder": "3kNyXnAknru6qWyM",
  "sort": 1200000,
  "ownership": {
    "default": 0,
    "tIn9sSkrT3mDWirx": 3
  },
  "_key": "!items!NaAzX8LMFw2Sk8qE"
}
