{
  "name": "Ferramenta pesada",
  "type": "arma",
  "img": "systems/tormenta20/icons/itens/gerais/ferramenta-pesada.webp",
  "system": {
    "description": {
      "value": "<p style=\"text-align:justify;\"><strong>[Item de Origem]</strong>&nbsp;<br /><br /><br /><br /><br /><br /><br /><br /><br /><br /><br /><br /><br /><br /><br /><br /><br /></p>",
      "chat": "",
      "unidentified": ""
    },
    "source": "T20, pg. 89 (JdA)",
    "equipado": 0,
    "equipado2": {
      "slot": 0,
      "type": "hand"
    },
    "carregado": true,
    "peso": 6,
    "espacos": 1,
    "qtd": 1,
    "preco": 12,
    "pv": {
      "value": 0,
      "min": 0,
      "max": 0
    },
    "rd": 0,
    "rolls": [
      {
        "name": "Ataque",
        "key": "ataque0",
        "type": "ataque",
        "parts": [
          [
            "1d20",
            "",
            ""
          ],
          [
            "",
            "",
            ""
          ],
          [
            "0",
            "",
            ""
          ]
        ],
        "versatil": ""
      },
      {
        "name": "Dano",
        "key": "dano1",
        "type": "dano",
        "parts": [
          [
            "1d8",
            "impacto",
            ""
          ],
          [
            "",
            "",
            ""
          ]
        ],
        "versatil": ""
      }
    ],
    "criticoM": 20,
    "criticoX": 2,
    "alcance": "",
    "tipoUso": "sim",
    "propriedades": {
      "ada": false,
      "agi": false,
      "alo": false,
      "dup": false,
      "ver": false,
      "adaptavel": false,
      "agil": false,
      "alongada": false,
      "arremesso": false,
      "ataqueDistancia": false,
      "duasMaos": false,
      "dupla": false,
      "leve": false,
      "municao": false,
      "versatil": false,
      "des": false
    },
    "ativacao": {
      "custo": null,
      "condicao": "",
      "execucao": "",
      "qtd": "",
      "special": ""
    },
    "chatFlavor": "",
    "encantos": {
      "lancinante": false,
      "lancinating": false
    },
    "origin": "",
    "consume": {
      "amount": null,
      "type": "",
      "target": "",
      "mpMultiplier": false
    },
    "tags": [],
    "chatGif": "",
    "upgrades": {
      "melhoria1": "",
      "melhoria2": "",
      "melhoria3": "",
      "melhoria4": "",
      "material": "",
      "encanto1": "",
      "encanto2": "",
      "encanto3": ""
    },
    "melhorias": {},
    "ataques": 0,
    "proficiencia": "simples",
    "proposito": "corpo-a-corpo",
    "empunhadura": "uma",
    "size": "normal"
  },
  "effects": [],
  "flags": {
    "autoanimations": {
      "killAnim": false,
      "override": false,
      "animType": "t1",
      "animName": "",
      "hmAnim": "a1",
      "color": "n1",
      "dtvar": "dt1",
      "explosion": false,
      "explodeVariant": "ev1",
      "explodeColor": "ec1",
      "explodeRadius": "0",
      "explodeLoop": "1",
      "selfRadius": "5",
      "animTint": "#ffffff",
      "auraOpacity": 0.75,
      "ctaOption": false
    },
    "tormenta20": {
      "version": "1.3.0.0"
    },
    "core": {
      "sourceId": "Compendium.world.equipamentos-extra.wGnSF9uDD6wvMWVC"
    },
    "exportSource": {
      "world": "tormentaverse",
      "system": "tormenta20",
      "coreVersion": "10.286",
      "systemVersion": "1.4.006"
    }
  },
  "_stats": {
    "systemId": "tormenta20",
    "systemVersion": "1.4.116",
    "coreVersion": "11.298",
    "createdTime": null,
    "modifiedTime": 1684809353177,
    "lastModifiedBy": "ZWR5Tn3AhSIFqwp6"
  },
  "_id": "FX43nQcWjWrhuhPt",
  "folder": "jMEkEeU9nUclA8No",
  "sort": 112500,
  "ownership": {
    "default": 0,
    "tIn9sSkrT3mDWirx": 3
  },
  "_key": "!items!FX43nQcWjWrhuhPt"
}
