{
  "name": "Gorro de Ervas",
  "type": "equipamento",
  "img": "systems/tormenta20/icons/itens/gerais/gorro-de-ervas.webp",
  "system": {
    "description": {
      "value": "<p style=\"text-align: justify;\">Formado por duas camadas de tecido, este chap&eacute;u &eacute; preenchido com ervas preparadas para auxiliar a concentra&ccedil;&atilde;o do usu&aacute;rio. Fornece +1 em Vontade.</p>",
      "chat": "",
      "unidentified": ""
    },
    "source": "T20, pg. 159 (JdA)",
    "equipado": false,
    "equipado2": {
      "slot": 0,
      "type": "body"
    },
    "carregado": true,
    "peso": 0.1,
    "espacos": 1,
    "qtd": 1,
    "preco": 75,
    "pv": {
      "value": 0,
      "min": 0,
      "max": 0
    },
    "rd": 0,
    "tipo": "traje",
    "armadura": {
      "value": 0,
      "penalidade": 0,
      "maxAtr": 0
    },
    "rolls": [],
    "origin": "",
    "tags": [],
    "chatFlavor": "",
    "ativacao": {
      "custo": null,
      "condicao": "",
      "execucao": "",
      "qtd": "",
      "special": ""
    },
    "melhorias": {
      "enhanced": null,
      "golden": null,
      "gems": null,
      "discreet": null,
      "macabre": null
    },
    "chatGif": "",
    "upgrades": {
      "melhoria1": "",
      "melhoria2": "",
      "melhoria3": "",
      "melhoria4": "",
      "material": "",
      "encanto1": "",
      "encanto2": "",
      "encanto3": ""
    },
    "encantos": {}
  },
  "effects": [
    {
      "label": "Gorro de Ervas",
      "icon": "systems/tormenta20/icons/itens/gerais/gorro-de-ervas.webp",
      "origin": "Item.vfgEloFPf9c65ui9",
      "tint": "#FFFFFF",
      "flags": {
        "tormenta20": {
          "onuse": false,
          "durationScene": false
        }
      },
      "duration": {
        "startTime": null,
        "seconds": null,
        "combat": null,
        "rounds": null,
        "turns": null,
        "startRound": null,
        "startTurn": null
      },
      "disabled": false,
      "_id": "lEXTWCZksrJ74lC7",
      "changes": [
        {
          "key": "system.pericias.vont.bonus",
          "mode": 2,
          "value": "1",
          "priority": null
        }
      ],
      "transfer": true,
      "_key": "!items.effects!vfgEloFPf9c65ui9.lEXTWCZksrJ74lC7"
    }
  ],
  "flags": {
    "core": {
      "sourceId": "Item.oT1tZGBnQuUkJmUJ"
    }
  },
  "_stats": {
    "systemId": "tormenta20",
    "systemVersion": "1.4.116",
    "coreVersion": "11.298",
    "createdTime": 1663532558587,
    "modifiedTime": 1684809353177,
    "lastModifiedBy": "ZWR5Tn3AhSIFqwp6"
  },
  "_id": "vfgEloFPf9c65ui9",
  "folder": "3kNyXnAknru6qWyM",
  "sort": 1100000,
  "ownership": {
    "default": 0,
    "tIn9sSkrT3mDWirx": 3
  },
  "_key": "!items!vfgEloFPf9c65ui9"
}
