{
  "_id": "0yzCqLRmvb6rOcOI",
  "name": "Item Admirador",
  "type": "tesouro",
  "img": "systems/tormenta20/icons/itens/gerais/item-admirador.webp",
  "effects": [],
  "folder": "jMEkEeU9nUclA8No",
  "sort": 100782,
  "flags": {
    "core": {
      "sourceId": "Compendium.tormenta20.equipamentos.0yzCqLRmvb6rOcOI"
    }
  },
  "system": {
    "description": {
      "value": "<p style=\"text-align: justify;\"><strong>[Item de Origem]</strong>&nbsp;</p>\n<p style=\"text-align: justify;\">um item&nbsp; sem valor recebido de um admirador</p>",
      "chat": "",
      "unidentified": ""
    },
    "source": "T20, pg. 90 (JdA)",
    "equipado": false,
    "equipado2": {
      "slot": 0,
      "type": ""
    },
    "carregado": true,
    "peso": 0,
    "espacos": 0,
    "qtd": 1,
    "preco": 0,
    "pv": {
      "value": 0,
      "min": 0,
      "max": 0
    },
    "rd": 0,
    "container": false,
    "rolls": [],
    "origin": "",
    "tags": [],
    "chatFlavor": "",
    "chatGif": "",
    "ativacao": {
      "custo": 0,
      "condicao": "",
      "execucao": "",
      "qtd": "",
      "special": ""
    },
    "consume": {
      "amount": 0,
      "mpMultiplier": false,
      "target": "",
      "type": ""
    },
    "duracao": {
      "units": "",
      "value": 0,
      "special": ""
    },
    "range": {
      "units": "",
      "value": 0
    },
    "target": {
      "type": "",
      "value": 0,
      "width": 0
    },
    "alcance": "",
    "alvo": "",
    "area": "",
    "efeito": "",
    "resistencia": {
      "txt": "",
      "pericia": "",
      "atributo": "",
      "bonus": 0
    }
  },
  "ownership": {
    "default": 0
  },
  "_stats": {
    "systemId": "tormenta20",
    "systemVersion": "1.4.116",
    "coreVersion": "11.298",
    "createdTime": 1664312772389,
    "modifiedTime": 1684617563601,
    "lastModifiedBy": "ZWR5Tn3AhSIFqwp6"
  },
  "_key": "!items!0yzCqLRmvb6rOcOI"
}
