{
  "_id": "nv2dOJuba2y2O5TE",
  "name": "Maça de guerra",
  "type": "arma",
  "img": "systems/tormenta20/icons/itens/equipamentos/maca-de-guerra.webp",
  "effects": [],
  "folder": "gPXFBgeZ55y1tJDq",
  "sort": 500000,
  "flags": {
    "core": {
      "sourceId": "Compendium.tormenta20.equipamentos.nv2dOJuba2y2O5TE"
    }
  },
  "system": {
    "description": {
      "value": "<p style=\"text-align:justify;\">Uma versão mais perigosa da maça comum, com uma cabeça formada por grandes placas de metal. O peso da maça de guerra torna seu golpe poderoso, mas desajeitado, impondo &ndash;2 em testes de ataque. Uma maça de guerra é muito pesada e desbalanceada para ser usada sem treinamento especial, por isso é uma arma exótica.</p>",
      "chat": "",
      "unidentified": ""
    },
    "source": "Guia NPC, pg. 23 (1.1)",
    "equipado": 0,
    "equipado2": {
      "slot": 0,
      "type": "hand"
    },
    "carregado": true,
    "peso": 6,
    "espacos": 1,
    "qtd": 1,
    "preco": 25,
    "pv": {
      "value": 0,
      "min": 0,
      "max": 0
    },
    "rd": 0,
    "rolls": [
      {
        "name": "Ataque",
        "key": "ataque0",
        "type": "ataque",
        "parts": [
          [
            "1d20",
            ""
          ],
          [
            "luta",
            ""
          ],
          [
            "-2",
            ""
          ]
        ]
      },
      {
        "name": "Dano",
        "key": "dano1",
        "type": "dano",
        "parts": [
          [
            "1d12",
            "impacto"
          ],
          [
            "@for",
            ""
          ]
        ],
        "versatil": ""
      }
    ],
    "criticoM": 20,
    "criticoX": 3,
    "alcance": "",
    "tipoUso": "sim",
    "propriedades": {
      "ada": false,
      "agi": false,
      "alo": false,
      "dup": false,
      "ver": false,
      "adaptavel": false,
      "agil": false,
      "alongada": false,
      "arremesso": false,
      "ataqueDistancia": false,
      "duasMaos": false,
      "dupla": false,
      "leve": false,
      "municao": false,
      "versatil": false,
      "des": false
    },
    "ativacao": {
      "custo": null,
      "condicao": "",
      "execucao": "",
      "qtd": "",
      "special": ""
    },
    "chatFlavor": "",
    "consume": {
      "type": "",
      "target": "",
      "amount": null,
      "mpMultiplier": false
    },
    "encantos": {
      "lancinante": false,
      "lancinating": false
    },
    "origin": "",
    "tags": [],
    "chatGif": "",
    "upgrades": {
      "melhoria1": "",
      "melhoria2": "",
      "melhoria3": "",
      "melhoria4": "",
      "material": "",
      "encanto1": "",
      "encanto2": "",
      "encanto3": ""
    },
    "melhorias": {},
    "ataques": 0,
    "proficiencia": "exotica",
    "proposito": "corpo-a-corpo",
    "empunhadura": "uma",
    "size": "normal"
  },
  "ownership": {
    "default": 0
  },
  "_stats": {
    "systemId": "tormenta20",
    "systemVersion": "1.4.116",
    "coreVersion": "11.298",
    "createdTime": 1664312772420,
    "modifiedTime": 1684809353177,
    "lastModifiedBy": "ZWR5Tn3AhSIFqwp6"
  },
  "_key": "!items!nv2dOJuba2y2O5TE"
}
