{
  "_id": "0QLhtTZeNl25J8sg",
  "name": "Pé de cabra",
  "type": "tesouro",
  "img": "systems/tormenta20/icons/itens/gerais/pe-de-cabra.webp",
  "effects": [],
  "folder": "0G5uMjOsWAFaPYAZ",
  "sort": 782,
  "flags": {
    "core": {
      "sourceId": "Compendium.tormenta20.equipamentos.0QLhtTZeNl25J8sg"
    }
  },
  "system": {
    "description": {
      "value": "<p style=\"text-align: justify;\">&nbsp;Esta barra de ferro fornece +5 em testes de For&ccedil;a para abrir portas, janelas e ba&uacute;s fechados. Um p&eacute; de cabra pode ser usado como arma, com as estat&iacute;sticas de uma clava.</p>",
      "chat": "",
      "unidentified": ""
    },
    "source": "T20, pg. 155 (JdA)",
    "equipado": false,
    "equipado2": {
      "slot": 0,
      "type": ""
    },
    "carregado": true,
    "peso": 2.5,
    "espacos": 1,
    "qtd": 1,
    "preco": 2,
    "pv": {
      "value": 0,
      "min": 0,
      "max": 0
    },
    "rd": 0,
    "container": false,
    "rolls": [],
    "origin": "",
    "tags": [],
    "chatFlavor": "",
    "chatGif": "",
    "ativacao": {
      "custo": 0,
      "condicao": "",
      "execucao": "",
      "qtd": "",
      "special": ""
    },
    "consume": {
      "amount": 0,
      "mpMultiplier": false,
      "target": "",
      "type": ""
    },
    "duracao": {
      "units": "",
      "value": 0,
      "special": ""
    },
    "range": {
      "units": "",
      "value": 0
    },
    "target": {
      "type": "",
      "value": 0,
      "width": 0
    },
    "alcance": "",
    "alvo": "",
    "area": "",
    "efeito": "",
    "resistencia": {
      "txt": "",
      "pericia": "",
      "atributo": "",
      "bonus": 0
    }
  },
  "ownership": {
    "default": 0
  },
  "_stats": {
    "systemId": "tormenta20",
    "systemVersion": "1.4.116",
    "coreVersion": "11.298",
    "createdTime": 1664312772387,
    "modifiedTime": 1684617941414,
    "lastModifiedBy": "ZWR5Tn3AhSIFqwp6"
  },
  "_key": "!items!0QLhtTZeNl25J8sg"
}
