{
  "_id": "TILlgOKqyS3Ps4le",
  "name": "Pistola",
  "type": "arma",
  "img": "systems/tormenta20/icons/itens/equipamentos/pistola.webp",
  "effects": [],
  "folder": "m1bMCY6G9Qq4FE6x",
  "sort": 300000,
  "flags": {
    "core": {
      "sourceId": "Compendium.tormenta20.equipamentos.TILlgOKqyS3Ps4le"
    }
  },
  "system": {
    "description": {
      "value": "<p style=\"text-align:justify;\">A arma de fogo mais comum. Uma pistola conta como uma arma leve para propósitos do poder Estilo de Duas Armas e similares. Recarregar uma pistola é uma ação padrão.</p>",
      "chat": "",
      "unidentified": ""
    },
    "source": "T20, pg. 150 (JdA)",
    "equipado": 0,
    "equipado2": {
      "slot": 0,
      "type": "hand"
    },
    "carregado": true,
    "peso": 1,
    "espacos": 1,
    "qtd": 1,
    "preco": 250,
    "pv": {
      "value": 0,
      "min": 0,
      "max": 0
    },
    "rd": 0,
    "rolls": [
      {
        "name": "Ataque",
        "key": "ataque0",
        "type": "ataque",
        "parts": [
          [
            "1d20",
            "",
            ""
          ],
          [
            "pont",
            "",
            ""
          ],
          [
            "0",
            "",
            ""
          ]
        ],
        "versatil": ""
      },
      {
        "name": "Dano",
        "key": "dano1",
        "type": "dano",
        "parts": [
          [
            "2d6",
            "perfuracao",
            ""
          ],
          [
            "",
            "",
            ""
          ]
        ],
        "versatil": ""
      }
    ],
    "criticoM": 19,
    "criticoX": 3,
    "alcance": "short",
    "tipoUso": "sim",
    "propriedades": {
      "ada": false,
      "agi": false,
      "alo": false,
      "dup": false,
      "ver": false,
      "adaptavel": false,
      "agil": false,
      "alongada": false,
      "arremesso": false,
      "ataqueDistancia": true,
      "duasMaos": false,
      "dupla": false,
      "leve": false,
      "municao": true,
      "versatil": false
    },
    "encantos": {
      "arremesso": false,
      "lancinante": false,
      "lancinating": false
    },
    "ativacao": {
      "custo": null,
      "condicao": "",
      "execucao": "",
      "qtd": "",
      "special": ""
    },
    "chatFlavor": "",
    "consume": {
      "type": "",
      "target": "",
      "amount": null,
      "mpMultiplier": false
    },
    "origin": "",
    "tags": [],
    "chatGif": "",
    "upgrades": {
      "melhoria1": "",
      "melhoria2": "",
      "melhoria3": "",
      "melhoria4": "",
      "material": "",
      "encanto1": "",
      "encanto2": "",
      "encanto3": ""
    },
    "melhorias": {},
    "ataques": 0,
    "proficiencia": "fogo",
    "proposito": "disparo",
    "empunhadura": "uma",
    "size": "normal"
  },
  "ownership": {
    "default": 0
  },
  "_stats": {
    "systemId": "tormenta20",
    "systemVersion": "1.4.116",
    "coreVersion": "11.298",
    "createdTime": 1664312772405,
    "modifiedTime": 1684809353177,
    "lastModifiedBy": "ZWR5Tn3AhSIFqwp6"
  },
  "_key": "!items!TILlgOKqyS3Ps4le"
}
