{
  "_id": "U46WyhdXk6LSjCps",
  "name": "Tatuagem",
  "type": "tesouro",
  "img": "systems/tormenta20/icons/itens/gerais/tatuagem.webp",
  "effects": [
    {
      "label": "Tatuagem",
      "icon": "systems/tormenta20/icons/itens/gerais/tatuagem.webp",
      "origin": "Item.U46WyhdXk6LSjCps",
      "tint": "#FFFFFF",
      "flags": {
        "tormenta20": {
          "onuse": false,
          "durationScene": false
        }
      },
      "duration": {
        "startTime": null,
        "seconds": null,
        "combat": null,
        "rounds": null,
        "turns": null,
        "startRound": null,
        "startTurn": null
      },
      "disabled": false,
      "_id": "6Grg40I5SBRTW3Fp",
      "changes": [
        {
          "key": "system.pericias.inti.bonus",
          "mode": 2,
          "value": "1",
          "priority": null
        }
      ],
      "transfer": true,
      "_key": "!items.effects!U46WyhdXk6LSjCps.6Grg40I5SBRTW3Fp"
    }
  ],
  "folder": "jMEkEeU9nUclA8No",
  "sort": 100007,
  "flags": {
    "tormenta20": {
      "version": "1.3.0.0"
    },
    "importid": "Jd2xCJUmauunKhH4",
    "cf": null,
    "core": {
      "sourceId": "Compendium.moduloguilda.world-guildaitem-1646800495579.bqKenZeiKBhBJwO5"
    }
  },
  "system": {
    "description": {
      "value": "<p style=\"text-align: justify;\"><strong>[Item de Origem]</strong>&nbsp;</p>",
      "chat": "",
      "unidentified": ""
    },
    "source": "T20, pg. 88 (JdA)",
    "equipado": false,
    "equipado2": {
      "slot": 0,
      "type": ""
    },
    "carregado": true,
    "peso": 0,
    "espacos": 0,
    "qtd": 1,
    "preco": 0,
    "pv": {
      "value": 0,
      "min": 0,
      "max": 0
    },
    "rd": 0,
    "container": false,
    "ativacao": {
      "execucao": "",
      "custo": 0,
      "qtd": "",
      "condicao": "",
      "special": ""
    },
    "duracao": {
      "value": 0,
      "units": "",
      "special": ""
    },
    "target": {
      "value": null,
      "width": null,
      "type": ""
    },
    "range": {
      "value": null,
      "units": ""
    },
    "consume": {
      "type": "",
      "target": "",
      "amount": null,
      "mpMultiplier": false
    },
    "efeito": "",
    "alcance": "none",
    "alvo": "",
    "area": "",
    "resistencia": {
      "pericia": "",
      "atributo": "",
      "bonus": 0,
      "txt": ""
    },
    "rolls": [],
    "chatFlavor": "",
    "origin": "",
    "tags": [],
    "chatGif": ""
  },
  "ownership": {
    "default": 0,
    "0bS8PF9mUpBd2z0H": 3
  },
  "_stats": {
    "systemId": "tormenta20",
    "systemVersion": "1.4.116",
    "coreVersion": "11.298",
    "createdTime": 1664312772406,
    "modifiedTime": 1684618088516,
    "lastModifiedBy": "ZWR5Tn3AhSIFqwp6"
  },
  "_key": "!items!U46WyhdXk6LSjCps"
}
