{
  "name": "Ao Por do Sol",
  "type": "poder",
  "img": "systems/tormenta20/icons/poderes/distincao.webp",
  "system": {
    "description": {
      "value": "<blockquote>\n<p style=\"text-align: justify;\">A justi&ccedil;a chega anunciada. Depois de receber o aviso do xerife, os malfeitores podem apenas se render</p>\n</blockquote>\n<p class=\"MsoNormal\" style=\"text-align: justify;\">Voc&ecirc; pode gastar uma a&ccedil;&atilde;o de movimento e 2 PM para recitar em voz alta os crimes de uma criatura em alcance m&eacute;dio. At&eacute; o final da cena, ou at&eacute; a criatura se render, voc&ecirc; recebe +2 na Defesa e em testes de ataque e rolagens de dano com cimitarra e pistola contra esta criatura. Para cada dois outros poderes de xerife do Sol que voc&ecirc; possui, voc&ecirc; pode gastar +1 PM para aumentar estes b&ocirc;nus em +1.</p>\n<p class=\"MsoNormal\" style=\"text-align: justify;\"><em><span style=\"mso-spacerun: yes;\">&nbsp;</span>Pr&eacute;-requisitos:</em> Ca&ccedil;ador de Bandidos.</p>",
      "chat": "",
      "unidentified": ""
    },
    "source": "Distinções, pg. 33-35",
    "ativacao": {
      "execucao": "move",
      "custo": 2,
      "qtd": "",
      "condicao": "",
      "special": ""
    },
    "duracao": {
      "value": 0,
      "units": "",
      "special": ""
    },
    "target": {
      "value": null,
      "width": null,
      "units": "",
      "type": ""
    },
    "range": {
      "value": null,
      "units": ""
    },
    "consume": {
      "type": "",
      "target": "",
      "amount": null,
      "mpMultiplier": false
    },
    "efeito": "",
    "alcance": "none",
    "alvo": "",
    "area": "",
    "resistencia": {
      "pericia": "",
      "atributo": "",
      "bonus": 0,
      "txt": ""
    },
    "rolls": [],
    "tipo": "distincao",
    "subtipo": "Xerife do Sol",
    "origin": "",
    "tags": [
      "XerifedoSol"
    ],
    "chatFlavor": "",
    "chatGif": ""
  },
  "effects": [
    {
      "label": "Ao Por do Sol",
      "icon": "systems/tormenta20/icons/poderes/distincao.webp",
      "origin": "Item.HkVDWzvGSMxF3Yx8",
      "tint": "#FFFFFF",
      "flags": {
        "tormenta20": {
          "onuse": false,
          "durationScene": true
        }
      },
      "duration": {
        "rounds": 1,
        "startTime": null,
        "seconds": null,
        "combat": null,
        "turns": null,
        "startRound": null,
        "startTurn": null
      },
      "disabled": false,
      "_id": "sCNDxxO66mzE4R3l",
      "changes": [
        {
          "key": "ataque",
          "mode": 2,
          "value": "2",
          "priority": null
        },
        {
          "key": "system.attributes.defesa.bonus",
          "mode": 2,
          "value": "2",
          "priority": null
        },
        {
          "key": "dano",
          "mode": 2,
          "value": "2",
          "priority": null
        }
      ],
      "transfer": true,
      "_key": "!items.effects!HkVDWzvGSMxF3Yx8.sCNDxxO66mzE4R3l"
    },
    {
      "label": "Novo Efeito",
      "icon": "icons/svg/upgrade.svg",
      "origin": "Item.HkVDWzvGSMxF3Yx8",
      "tint": "#FFFFFF",
      "flags": {
        "tormenta20": {
          "onuse": true,
          "durationScene": false,
          "self": true,
          "attack": false,
          "skill": false,
          "ability": false,
          "power": false,
          "equipment": false,
          "spell": false,
          "consumable": false,
          "items": "",
          "aumenta": true,
          "custo": "1"
        }
      },
      "duration": {
        "startTime": null,
        "seconds": null,
        "combat": null,
        "rounds": null,
        "turns": null,
        "startRound": null,
        "startTurn": null
      },
      "disabled": true,
      "_id": "JgNoI3srWrYfB3gu",
      "changes": [
        {
          "key": "system.attributes.defesa.bonus",
          "mode": 2,
          "value": "1",
          "priority": 0
        },
        {
          "key": "ataque",
          "mode": 2,
          "value": "1",
          "priority": 0
        },
        {
          "key": "dano",
          "mode": 2,
          "value": "1",
          "priority": 0
        }
      ],
      "transfer": false,
      "_key": "!items.effects!HkVDWzvGSMxF3Yx8.JgNoI3srWrYfB3gu"
    }
  ],
  "flags": {},
  "_stats": {
    "systemId": "tormenta20",
    "systemVersion": "1.4.116",
    "coreVersion": "11.298",
    "createdTime": 1667083101946,
    "modifiedTime": 1684614605298,
    "lastModifiedBy": "ZWR5Tn3AhSIFqwp6"
  },
  "_id": "HkVDWzvGSMxF3Yx8",
  "folder": "TcfLBMkSXCsZliFQ",
  "sort": 0,
  "ownership": {
    "default": 0,
    "tIn9sSkrT3mDWirx": 3
  },
  "_key": "!items!HkVDWzvGSMxF3Yx8"
}
