{
  "name": "Coração Duro",
  "type": "poder",
  "img": "systems/tormenta20/icons/poderes/distincao.webp",
  "system": {
    "description": {
      "value": "<blockquote>\n<p style=\"text-align: justify;\">N&atilde;o &eacute; f&aacute;cil encontrar algo que possa abalar o chap&eacute;u preto &mdash; a esta altura, ele pr&oacute;prio j&aacute; cometeu todo tipo de atrocidades na vida.</p>\n</blockquote>\n<p style=\"text-align: justify;\"><br>Voc&ecirc; &eacute; imune a condi&ccedil;&otilde;es de medo e recebe +2 em Vontade. Esse b&ocirc;nus aumenta em +1 para cada dois outros poderes de chap&eacute;u preto que possuir.</p>\n<p style=\"text-align: justify;\">Pr&eacute;-requisitos: treinado em Luta ou Pontaria, Presen&ccedil;a Aterradora.</p>",
      "chat": "",
      "unidentified": ""
    },
    "source": "Distinções, pg. 20",
    "ativacao": {
      "execucao": "",
      "custo": 0,
      "qtd": "",
      "condicao": "",
      "special": ""
    },
    "duracao": {
      "value": 0,
      "units": "",
      "special": ""
    },
    "target": {
      "value": null,
      "width": null,
      "units": "",
      "type": ""
    },
    "range": {
      "value": null,
      "units": ""
    },
    "consume": {
      "type": "",
      "target": "",
      "amount": null,
      "mpMultiplier": false
    },
    "efeito": "",
    "alcance": "none",
    "alvo": "",
    "area": "",
    "resistencia": {
      "pericia": "",
      "atributo": "",
      "bonus": 0,
      "txt": ""
    },
    "rolls": [],
    "tipo": "distincao",
    "subtipo": "Chapeu Preto",
    "origin": "",
    "tags": [
      "ChapeuPreto"
    ],
    "chatFlavor": "",
    "chatGif": ""
  },
  "effects": [
    {
      "label": "Coração Duro",
      "icon": "icons/magic/control/fear-fright-shadow-monster-red.webp",
      "origin": "Item.RpcuSPwa2GL3cAuS",
      "tint": "#FFFFFF",
      "flags": {
        "tormenta20": {
          "onuse": false,
          "durationScene": false
        }
      },
      "duration": {
        "startTime": null,
        "seconds": null,
        "combat": null,
        "rounds": null,
        "turns": null,
        "startRound": null,
        "startTurn": null
      },
      "disabled": false,
      "_id": "ZAveLLx0c5wBAXNF",
      "changes": [
        {
          "key": "system.pericias.vont.bonus",
          "mode": 2,
          "value": "(@ChapeuPreto2*1)",
          "priority": null
        },
        {
          "key": "system.tracos.ic.value",
          "mode": 2,
          "value": "medo",
          "priority": null
        },
        {
          "key": "system.pericias.vont.bonus",
          "mode": 2,
          "value": "1",
          "priority": null
        }
      ],
      "transfer": true,
      "_key": "!items.effects!RpcuSPwa2GL3cAuS.ZAveLLx0c5wBAXNF"
    }
  ],
  "flags": {},
  "_stats": {
    "systemId": "tormenta20",
    "systemVersion": "1.4.116",
    "coreVersion": "11.298",
    "createdTime": 1667074226526,
    "modifiedTime": 1684614605298,
    "lastModifiedBy": "ZWR5Tn3AhSIFqwp6"
  },
  "_id": "RpcuSPwa2GL3cAuS",
  "folder": "ELRx5oblpz3uQpB7",
  "sort": 0,
  "ownership": {
    "default": 0,
    "tIn9sSkrT3mDWirx": 3
  },
  "_key": "!items!RpcuSPwa2GL3cAuS"
}
