{
  "name": "Criar Flecha da Morte",
  "type": "poder",
  "img": "systems/tormenta20/icons/poderes/distincao.webp",
  "system": {
    "description": {
      "value": "<blockquote>\n<p style=\"text-align: justify;\">Tendo superado todos os tipos de inimigos, o arqueiro arcano aprende a infundir a ess&ecirc;ncia da morte em suas flechas.</p>\n</blockquote>\n<p style=\"text-align: justify;\">Voc&ecirc; pode gastar um dia para criar uma flecha da morte, uma flecha m&aacute;gica especial com custo de cria&ccedil;&atilde;o de T$ 100. Voc&ecirc; pode possuir uma flecha da morte por vez, mais uma flecha adicional para cada dois outros poderes de arqueiro arcano que possui (se criar uma al&eacute;m do seu limite, a flecha mais antiga perde seu poder). Quando dispara uma flecha da morte, voc&ecirc; recebe +2 na margem de amea&ccedil;a desse ataque e, se disparar esta flecha em conjunto com os poderes Flecha de Toque ou Flecha Explosiva, a CD para resistir a essas magias aumenta em +2. Esses b&ocirc;nus aumentam em +1 para cada dois outros poderes de arqueiro arcano que possui.</p>\n<p style=\"text-align: justify;\"><em>Pr&eacute;-requisitos:</em> Encantar Flechas, Flecha de Toque, deve ter feito um acerto cr&iacute;tico com um arco em uma criatura de cada tipo (veja T20, p. 270).</p>",
      "chat": "",
      "unidentified": ""
    },
    "source": "Distinções, pg. 16",
    "ativacao": {
      "execucao": "day",
      "custo": null,
      "qtd": "",
      "condicao": "",
      "special": ""
    },
    "duracao": {
      "value": 0,
      "units": "",
      "special": ""
    },
    "target": {
      "value": null,
      "width": null,
      "units": "",
      "type": ""
    },
    "range": {
      "value": null,
      "units": ""
    },
    "consume": {
      "type": "",
      "target": "",
      "amount": null,
      "mpMultiplier": false
    },
    "efeito": "",
    "alcance": "none",
    "alvo": "",
    "area": "",
    "resistencia": {
      "pericia": "",
      "atributo": "",
      "bonus": 0,
      "txt": ""
    },
    "rolls": [],
    "tipo": "distincao",
    "subtipo": "Arqueiro Arcano",
    "origin": "",
    "tags": [
      "Magico",
      "ArqueiroArcano"
    ],
    "chatFlavor": "",
    "chatGif": ""
  },
  "effects": [],
  "flags": {},
  "_stats": {
    "systemId": "tormenta20",
    "systemVersion": "1.4.116",
    "coreVersion": "11.298",
    "createdTime": 1665856654745,
    "modifiedTime": 1684614605298,
    "lastModifiedBy": "ZWR5Tn3AhSIFqwp6"
  },
  "_id": "bJ33FouogbBIF6cm",
  "folder": "Rj1a3BRGbCJZHIUT",
  "sort": 0,
  "ownership": {
    "default": 0,
    "tIn9sSkrT3mDWirx": 3
  },
  "_key": "!items!bJ33FouogbBIF6cm"
}
