{
  "folder": null,
  "name": "Gigante Furioso",
  "sorting": "a",
  "type": "Item",
  "_id": "Zr1HgroTTH1NqRJ3",
  "sort": 0,
  "flags": {},
  "_stats": {
    "systemId": null,
    "systemVersion": null,
    "coreVersion": null,
    "createdTime": null,
    "modifiedTime": null,
    "lastModifiedBy": null
  },
  "_key": "!folders!Zr1HgroTTH1NqRJ3"
}
