{
  "name": "Infantaria Arcana",
  "type": "poder",
  "img": "systems/tormenta20/icons/poderes/distincao.webp",
  "system": {
    "description": {
      "value": "<blockquote>\n<p style=\"text-align: justify;\">O arcano de guerra &eacute; perito em usar itens esot&eacute;ricos como ferramentas de combate.</p>\n</blockquote>\n<p class=\"MsoNormal\" style=\"text-align: justify;\">Se estiver empunhando dois itens esot&eacute;ricos, voc&ecirc; pode gastar 2 PM para canalizar uma magia atrav&eacute;s de ambos, combinando seus efeitos.</p>\n<p class=\"MsoNormal\" style=\"text-align: justify;\"><em>Pr&eacute;-requisitos</em>: Conjura&ccedil;&atilde;o Magib&eacute;lica, ter vencido dez combates usando um item esot&eacute;rico para lan&ccedil;ar uma magia hostil ao menos uma vez na cena.</p>",
      "chat": "",
      "unidentified": ""
    },
    "source": "Distinções, pg. 36-37",
    "ativacao": {
      "execucao": "",
      "custo": 0,
      "qtd": "",
      "condicao": "",
      "special": ""
    },
    "duracao": {
      "value": 0,
      "units": "",
      "special": ""
    },
    "target": {
      "value": null,
      "width": null,
      "units": "",
      "type": ""
    },
    "range": {
      "value": null,
      "units": ""
    },
    "consume": {
      "type": "",
      "target": "",
      "amount": null,
      "mpMultiplier": false
    },
    "efeito": "",
    "alcance": "none",
    "alvo": "",
    "area": "",
    "resistencia": {
      "pericia": "",
      "atributo": "",
      "bonus": 0,
      "txt": ""
    },
    "rolls": [],
    "tipo": "distincao",
    "subtipo": "Arcano de Guerra",
    "origin": "",
    "tags": [
      "ArcanodeGuerra"
    ],
    "chatFlavor": "",
    "chatGif": ""
  },
  "effects": [],
  "flags": {
    "core": {
      "sourceId": "Item.HkVDWzvGSMxF3Yx8"
    }
  },
  "_stats": {
    "systemId": "tormenta20",
    "systemVersion": "1.4.116",
    "coreVersion": "11.298",
    "createdTime": 1667083101946,
    "modifiedTime": 1684614605298,
    "lastModifiedBy": "ZWR5Tn3AhSIFqwp6"
  },
  "_id": "yE7eUH6ZvFSAgUKK",
  "folder": "XTLQDvRqYbTCPiCK",
  "sort": 0,
  "ownership": {
    "default": 0,
    "tIn9sSkrT3mDWirx": 3
  },
  "_key": "!items!yE7eUH6ZvFSAgUKK"
}
