{
  "name": "Manobra Maremoto",
  "type": "poder",
  "img": "systems/tormenta20/icons/poderes/distincao.webp",
  "system": {
    "description": {
      "value": "<blockquote>\n<p style=\"text-align: justify;\">Quando um guerreiro khubariano de elite decide que vai atingir um alvo, nada pode det&ecirc;-lo.</p>\n</blockquote>\n<p class=\"MsoNormal\" style=\"text-align: justify;\">Quando faz uma investida empunhando uma lan&ccedil;a ou duas espadas, voc&ecirc; pode gastar 4 PM para iniciar uma manobra maremoto. At&eacute; o final da rodada, seu deslocamento aumenta em +6m e voc&ecirc; ignora terreno dif&iacute;cil. Enquanto executa essa investida, voc&ecirc; pode superar objetos inanimados e criaturas em seu caminho. Contra objetos voc&ecirc; causa dano cr&iacute;tico autom&aacute;tico, se o objeto for destru&iacute;do, voc&ecirc; passa atrav&eacute;s dele. Contra criaturas, voc&ecirc; pode fazer uma manobra empurrar como parte da investida; se vencer, voc&ecirc; empurra a criatura 1,5m para o lado. Sua investida &eacute; interrompida se voc&ecirc; falhar em destruir um objeto ou empurrar uma criatura desta forma. Por fim, ao final da investida, voc&ecirc; faz seu ataque normalmente, com +1 na rolagem de dano para cada dois outros poderes de Presa de Coral que possuir.</p>\n<p class=\"MsoNormal\" style=\"text-align: justify;\"><em>Pr&eacute;-requisito</em>: um poder de Presa de Coral.</p>",
      "chat": "",
      "unidentified": ""
    },
    "source": "Distinções, pg. 40-41",
    "ativacao": {
      "execucao": "",
      "custo": 4,
      "qtd": "",
      "condicao": "",
      "special": ""
    },
    "duracao": {
      "value": 0,
      "units": "",
      "special": ""
    },
    "target": {
      "value": null,
      "width": null,
      "units": "",
      "type": ""
    },
    "range": {
      "value": null,
      "units": ""
    },
    "consume": {
      "type": "",
      "target": "",
      "amount": null,
      "mpMultiplier": false
    },
    "efeito": "",
    "alcance": "none",
    "alvo": "",
    "area": "",
    "resistencia": {
      "pericia": "",
      "atributo": "",
      "bonus": 0,
      "txt": ""
    },
    "rolls": [],
    "tipo": "distincao",
    "subtipo": "Presa de Coral",
    "origin": "",
    "tags": [
      "PresadeCoral"
    ],
    "chatFlavor": "",
    "chatGif": ""
  },
  "effects": [
    {
      "label": "Novo Efeito",
      "icon": "icons/svg/upgrade.svg",
      "origin": "Item.tZs2tuDa0JFfD3qI",
      "tint": "#FFFFFF",
      "flags": {
        "tormenta20": {
          "onuse": true,
          "durationScene": false,
          "self": true,
          "attack": false,
          "skill": false,
          "ability": false,
          "power": false,
          "equipment": false,
          "spell": false,
          "consumable": false,
          "items": "",
          "aumenta": false,
          "custo": "4"
        }
      },
      "duration": {
        "startTime": null,
        "seconds": null,
        "combat": null,
        "rounds": null,
        "turns": null,
        "startRound": null,
        "startTurn": null
      },
      "disabled": true,
      "_id": "8iLxhbmllGsz3fbv",
      "changes": [
        {
          "key": "system.attributes.movement.walk",
          "mode": 2,
          "value": "6",
          "priority": 0
        },
        {
          "key": "ataque",
          "mode": 2,
          "value": "(@PresadeCoral2*1)",
          "priority": 0
        }
      ],
      "transfer": false,
      "_key": "!items.effects!tZs2tuDa0JFfD3qI.8iLxhbmllGsz3fbv"
    },
    {
      "label": "Manobra Maremoto",
      "icon": "systems/tormenta20/icons/poderes/distincao.webp",
      "origin": "Item.tZs2tuDa0JFfD3qI",
      "tint": "#FFFFFF",
      "flags": {
        "tormenta20": {
          "onuse": false,
          "durationScene": false
        }
      },
      "duration": {
        "rounds": 1,
        "startTime": null,
        "seconds": null,
        "combat": null,
        "turns": null,
        "startRound": null,
        "startTurn": null
      },
      "disabled": false,
      "_id": "9mV68xAFSP5MmadE",
      "changes": [
        {
          "key": "system.attributes.movement.walk",
          "mode": 2,
          "value": "0",
          "priority": null
        },
        {
          "key": "ataque",
          "mode": 2,
          "value": "0",
          "priority": null
        }
      ],
      "transfer": true,
      "_key": "!items.effects!tZs2tuDa0JFfD3qI.9mV68xAFSP5MmadE"
    }
  ],
  "flags": {
    "core": {
      "sourceId": "Item.HkVDWzvGSMxF3Yx8"
    }
  },
  "_stats": {
    "systemId": "tormenta20",
    "systemVersion": "1.4.116",
    "coreVersion": "11.298",
    "createdTime": 1667083101946,
    "modifiedTime": 1684614605298,
    "lastModifiedBy": "ZWR5Tn3AhSIFqwp6"
  },
  "_id": "tZs2tuDa0JFfD3qI",
  "folder": "vsGbYK3LgW5Oreol",
  "sort": 0,
  "ownership": {
    "default": 0,
    "tIn9sSkrT3mDWirx": 3
  },
  "_key": "!items!tZs2tuDa0JFfD3qI"
}
