{
  "name": "Mobilidade Urbana",
  "type": "poder",
  "img": "systems/tormenta20/icons/poderes/distincao.webp",
  "system": {
    "description": {
      "value": "<blockquote>\n<p style=\"text-align: justify;\">O vigilante mascarado fica completamente &agrave; vontade em terreno urbano.</p>\n</blockquote>\n<p class=\"MsoNormal\" style=\"text-align: justify;\">Quando est&aacute; vestindo seu traje das sombras em terreno urbano, voc&ecirc; recebe +2 na Defesa e em Acrobacia, Atletismo, Investiga&ccedil;&atilde;o, Percep&ccedil;&atilde;o e Sobreviv&ecirc;ncia. Esse b&ocirc;nus aumenta em +1 para cada dois outros poderes de vigilante mascarado. Al&eacute;m disso, se estiver em terreno elevado (como em um telhado), voc&ecirc; pode gastar 2 PM para fazer uma investida pulando sobre um oponente no ch&atilde;o. Fa&ccedil;a um teste de Acrobacia para amortecer queda (Tormenta20, p. 115). Al&eacute;m dos efeitos normais da investida, para cada dado de dano de queda que voc&ecirc; reduzir desta forma, seu ataque causa +1d6 pontos de dano.</p>\n<p class=\"MsoNormal\" style=\"text-align: justify;\"><em>Pr&eacute;-requisitos:</em> treinado em Acrobacia, Traje das Sombras.</p>",
      "chat": "",
      "unidentified": ""
    },
    "source": "Distinções, pg. 31-32",
    "ativacao": {
      "execucao": "",
      "custo": 2,
      "qtd": "",
      "condicao": "",
      "special": ""
    },
    "duracao": {
      "value": 0,
      "units": "",
      "special": ""
    },
    "target": {
      "value": null,
      "width": null,
      "units": "",
      "type": ""
    },
    "range": {
      "value": null,
      "units": ""
    },
    "consume": {
      "type": "",
      "target": "",
      "amount": null,
      "mpMultiplier": false
    },
    "efeito": "",
    "alcance": "none",
    "alvo": "",
    "area": "",
    "resistencia": {
      "pericia": "",
      "atributo": "",
      "bonus": 0,
      "txt": ""
    },
    "rolls": [],
    "tipo": "distincao",
    "subtipo": "Vigilante Mascarado",
    "origin": "",
    "tags": [
      "VigilanteMascarado"
    ],
    "chatFlavor": "",
    "chatGif": ""
  },
  "effects": [
    {
      "label": "Mobilidade Urbana",
      "icon": "systems/tormenta20/icons/poderes/distincao.webp",
      "origin": "Item.JoIL3Q2PQaWrVcOX",
      "tint": "#FFFFFF",
      "flags": {
        "tormenta20": {
          "onuse": false,
          "durationScene": false
        }
      },
      "duration": {
        "startTime": null,
        "seconds": null,
        "combat": null,
        "rounds": null,
        "turns": null,
        "startRound": null,
        "startTurn": null
      },
      "disabled": false,
      "_id": "BVkhsf6kCcT7KgqY",
      "changes": [
        {
          "key": "system.attributes.defesa.bonus",
          "mode": 2,
          "value": "1+(@VigilanteMascarado2*1)",
          "priority": null
        },
        {
          "key": "system.pericias.acro.bonus",
          "mode": 2,
          "value": "1+(@VigilanteMascarado2*1)",
          "priority": null
        },
        {
          "key": "system.pericias.atle.bonus",
          "mode": 2,
          "value": "1+(@VigilanteMascarado2*1)",
          "priority": null
        },
        {
          "key": "system.pericias.inve.bonus",
          "mode": 2,
          "value": "1+(@VigilanteMascarado2*1)",
          "priority": null
        },
        {
          "key": "system.pericias.perc.bonus",
          "mode": 2,
          "value": "1+(@VigilanteMascarado2*1)",
          "priority": null
        },
        {
          "key": "system.pericias.sobr.bonus",
          "mode": 2,
          "value": "1+(@VigilanteMascarado2*1)",
          "priority": null
        }
      ],
      "transfer": true,
      "_key": "!items.effects!JoIL3Q2PQaWrVcOX.BVkhsf6kCcT7KgqY"
    }
  ],
  "flags": {},
  "_stats": {
    "systemId": "tormenta20",
    "systemVersion": "1.4.116",
    "coreVersion": "11.298",
    "createdTime": 1667083905345,
    "modifiedTime": 1684614605298,
    "lastModifiedBy": "ZWR5Tn3AhSIFqwp6"
  },
  "_id": "JoIL3Q2PQaWrVcOX",
  "folder": "NxFKO0AHIR0pQgBN",
  "sort": 0,
  "ownership": {
    "default": 0,
    "tIn9sSkrT3mDWirx": 3
  },
  "_key": "!items!JoIL3Q2PQaWrVcOX"
}
