{
  "name": "Presa Dupla: Corte da Correnteza",
  "type": "poder",
  "img": "systems/tormenta20/icons/poderes/distincao.webp",
  "system": {
    "description": {
      "value": "<blockquote>\n<p style=\"text-align: justify;\">Os Presas de Coral aprendem a usar espadas em pares para atacar de forma implac&aacute;vel e replicar a intensidade da correnteza mar&iacute;tima.</p>\n</blockquote>\n<p class=\"MsoNormal\" style=\"text-align: justify;\">Voc&ecirc; recebe +1 nas rolagens de dano com cimitarras, espadas curtas e espadas longas; para cada dois outros poderes de Presa de Coral que possuir, este b&ocirc;nus aumenta em +1. Al&eacute;m disso, se estiver empunhando duas dessas armas, voc&ecirc; pode gastar uma a&ccedil;&atilde;o padr&atilde;o e 4 PM para gir&aacute;-las em um arco e invocar um redemoinho de &aacute;gua salgada. Fa&ccedil;a um ataque corpo a corpo com cada uma das armas e compare-os com a Defesa de cada inimigo adjacente. Ent&atilde;o, fa&ccedil;a uma rolagem de dano para cada ataque, e aplique o resultado correspondente a cada inimigo atingido. Inimigos atingidos pelos dois ataques ficam sangrando.</p>\n<p class=\"MsoNormal\" style=\"text-align: justify;\"><em>Pr&eacute;-requisitos</em>: treinado em Iniciativa, Luta e Reflexos, Estilo de Duas Armas.</p>",
      "chat": "",
      "unidentified": ""
    },
    "source": "Distinções, pg. 40-41",
    "ativacao": {
      "execucao": "action",
      "custo": 4,
      "qtd": "",
      "condicao": "",
      "special": ""
    },
    "duracao": {
      "value": 0,
      "units": "",
      "special": ""
    },
    "target": {
      "value": null,
      "width": null,
      "units": "",
      "type": ""
    },
    "range": {
      "value": null,
      "units": ""
    },
    "consume": {
      "type": "",
      "target": "",
      "amount": null,
      "mpMultiplier": false
    },
    "efeito": "",
    "alcance": "none",
    "alvo": "",
    "area": "",
    "resistencia": {
      "pericia": "",
      "atributo": "",
      "bonus": 0,
      "txt": ""
    },
    "rolls": [],
    "tipo": "distincao",
    "subtipo": "Presa de Coral",
    "origin": "",
    "tags": [
      "PresadeCoral"
    ],
    "chatFlavor": "",
    "chatGif": ""
  },
  "effects": [],
  "flags": {
    "core": {
      "sourceId": "Item.HkVDWzvGSMxF3Yx8"
    }
  },
  "_stats": {
    "systemId": "tormenta20",
    "systemVersion": "1.4.116",
    "coreVersion": "11.298",
    "createdTime": 1667083101946,
    "modifiedTime": 1684614605298,
    "lastModifiedBy": "ZWR5Tn3AhSIFqwp6"
  },
  "_id": "GZMfer6vQDo3m7C1",
  "folder": "vsGbYK3LgW5Oreol",
  "sort": 0,
  "ownership": {
    "default": 0,
    "tIn9sSkrT3mDWirx": 3
  },
  "_key": "!items!GZMfer6vQDo3m7C1"
}
