{
  "folder": null,
  "name": "Presa de Coral",
  "sorting": "a",
  "type": "Item",
  "_id": "vsGbYK3LgW5Oreol",
  "sort": 0,
  "flags": {},
  "_stats": {
    "systemId": null,
    "systemVersion": null,
    "coreVersion": null,
    "createdTime": null,
    "modifiedTime": null,
    "lastModifiedBy": null
  },
  "_key": "!folders!vsGbYK3LgW5Oreol"
}
