{
  "name": "Rápido ou Morto",
  "type": "poder",
  "img": "systems/tormenta20/icons/poderes/distincao.webp",
  "system": {
    "description": {
      "value": "<blockquote>\n<p style=\"text-align: justify;\">Quanto mais not&oacute;rio o bandido, mais ele precisa estar preparado para lutar ou correr.</p>\n</blockquote>\n<p style=\"text-align: justify;\"><br>Voc&ecirc; recebe +2 em Iniciativa e +1,5m em seu deslocamento. Esses b&ocirc;nus aumentam respectivamente em +1 e +1,5m para cada dois outros poderes de chap&eacute;u preto que voc&ecirc; possuir.</p>\n<p style=\"text-align: justify;\">Pr&eacute;-requisitos: treinado em Iniciativa, Cora&ccedil;&atilde;o Duro.</p>",
      "chat": "",
      "unidentified": ""
    },
    "source": "Distinções, pg. 21",
    "ativacao": {
      "execucao": "",
      "custo": 0,
      "qtd": "",
      "condicao": "",
      "special": ""
    },
    "duracao": {
      "value": 0,
      "units": "",
      "special": ""
    },
    "target": {
      "value": null,
      "width": null,
      "units": "",
      "type": ""
    },
    "range": {
      "value": null,
      "units": ""
    },
    "consume": {
      "type": "",
      "target": "",
      "amount": null,
      "mpMultiplier": false
    },
    "efeito": "",
    "alcance": "none",
    "alvo": "",
    "area": "",
    "resistencia": {
      "pericia": "",
      "atributo": "",
      "bonus": 0,
      "txt": ""
    },
    "rolls": [],
    "tipo": "distincao",
    "subtipo": "Chapeu Preto",
    "origin": "",
    "tags": [
      "ChapeuPreto"
    ],
    "chatFlavor": "",
    "chatGif": ""
  },
  "effects": [
    {
      "label": "Rápido ou Morto - iniciativa",
      "icon": "systems/tormenta20/icons/poderes/distincao.webp",
      "origin": "Item.3ziIpicjqbTGNqPl",
      "tint": "#FFFFFF",
      "flags": {
        "tormenta20": {
          "onuse": false,
          "durationScene": false
        }
      },
      "duration": {
        "startTime": null,
        "seconds": null,
        "combat": null,
        "rounds": null,
        "turns": null,
        "startRound": null,
        "startTurn": null
      },
      "disabled": false,
      "_id": "2Ejm0rPsf7pFPNIC",
      "changes": [
        {
          "key": "system.pericias.inic.bonus",
          "mode": 2,
          "value": "1",
          "priority": null
        },
        {
          "key": "system.pericias.inic.bonus",
          "mode": 2,
          "value": "(@ChapeuPreto2*1)",
          "priority": null
        },
        {
          "key": "system.attributes.movement.walk",
          "mode": 2,
          "value": "1.5",
          "priority": null
        }
      ],
      "transfer": true,
      "_key": "!items.effects!3ziIpicjqbTGNqPl.2Ejm0rPsf7pFPNIC"
    }
  ],
  "flags": {},
  "_stats": {
    "systemId": "tormenta20",
    "systemVersion": "1.4.116",
    "coreVersion": "11.298",
    "createdTime": 1667074226526,
    "modifiedTime": 1684614605298,
    "lastModifiedBy": "ZWR5Tn3AhSIFqwp6"
  },
  "_id": "3ziIpicjqbTGNqPl",
  "folder": "ELRx5oblpz3uQpB7",
  "sort": 0,
  "ownership": {
    "default": 0,
    "tIn9sSkrT3mDWirx": 3
  },
  "_key": "!items!3ziIpicjqbTGNqPl"
}
