{
  "name": "Terremoto da Fúria",
  "type": "poder",
  "img": "systems/tormenta20/icons/poderes/distincao.webp",
  "system": {
    "description": {
      "value": "<blockquote>\n<p style=\"text-align: justify;\">Seu tamanho impressionante &eacute; capaz de abalar o pr&oacute;prio terreno onde voc&ecirc; pisa.</p>\n</blockquote>\n<p class=\"MsoNormal\" style=\"text-align: justify;\">Quando est&aacute; em f&uacute;ria, voc&ecirc; pode gastar uma a&ccedil;&atilde;o de movimento e 2 PM para pisotear o ch&atilde;o, gerando uma onda de choque em alcance curto ao seu redor. Criaturas na &aacute;rea sofrem dano de impacto igual a 1d6 + seu b&ocirc;nus de For&ccedil;a e ficam ca&iacute;das (Fortitude CD For reduz o dano &agrave; metade e evita a condi&ccedil;&atilde;o ca&iacute;do). Para cada categoria de tamanho acima de M&eacute;dia que voc&ecirc; tiver, o dano de seu pis&atilde;o aumenta em +1d6.</p>\n<p class=\"MsoNormal\" style=\"text-align: justify;\">Pr&eacute;-requisito: F&uacute;ria dos Gigantes.</p>",
      "chat": "",
      "unidentified": ""
    },
    "source": "Distinções, pg. 23",
    "ativacao": {
      "execucao": "move",
      "custo": 2,
      "qtd": "",
      "condicao": "",
      "special": ""
    },
    "duracao": {
      "value": 0,
      "units": "inst",
      "special": ""
    },
    "target": {
      "value": null,
      "width": null,
      "units": "",
      "type": ""
    },
    "range": {
      "value": null,
      "units": ""
    },
    "consume": {
      "type": "",
      "target": "",
      "amount": null,
      "mpMultiplier": false
    },
    "efeito": "",
    "alcance": "short",
    "alvo": "",
    "area": "esfera com 9m de raio",
    "resistencia": {
      "pericia": "",
      "atributo": "for",
      "bonus": 0,
      "txt": "Fortitude"
    },
    "rolls": [
      {
        "name": "Dano",
        "key": "dano0",
        "type": "dano",
        "parts": [
          [
            "1d6+@for",
            "dano",
            ""
          ]
        ],
        "versatil": ""
      }
    ],
    "tipo": "distincao",
    "subtipo": "Gigante Furioso",
    "origin": "",
    "tags": [
      "GiganteFurioso"
    ],
    "chatFlavor": "",
    "chatGif": ""
  },
  "effects": [
    {
      "label": "+1d6 por categoria de tamanho",
      "icon": "icons/svg/upgrade.svg",
      "origin": "Item.0FhqdRLuR3TMkehf",
      "tint": "#FFFFFF",
      "flags": {
        "tormenta20": {
          "onuse": true,
          "durationScene": false,
          "self": true,
          "attack": false,
          "skill": false,
          "ability": false,
          "power": false,
          "equipment": false,
          "spell": false,
          "consumable": false,
          "items": "",
          "aumenta": true,
          "custo": ""
        }
      },
      "duration": {
        "startTime": null,
        "seconds": null,
        "combat": null,
        "rounds": null,
        "turns": null,
        "startRound": null,
        "startTurn": null
      },
      "disabled": true,
      "_id": "q6iUJ3AlRvNTAq9m",
      "changes": [
        {
          "key": "dano",
          "mode": 0,
          "value": "1d6",
          "priority": 0
        }
      ],
      "transfer": false,
      "_key": "!items.effects!0FhqdRLuR3TMkehf.q6iUJ3AlRvNTAq9m"
    }
  ],
  "flags": {},
  "_stats": {
    "systemId": "tormenta20",
    "systemVersion": "1.4.116",
    "coreVersion": "11.298",
    "createdTime": 1667075515824,
    "modifiedTime": 1684614605298,
    "lastModifiedBy": "ZWR5Tn3AhSIFqwp6"
  },
  "_id": "0FhqdRLuR3TMkehf",
  "folder": "Zr1HgroTTH1NqRJ3",
  "sort": 0,
  "ownership": {
    "default": 0,
    "tIn9sSkrT3mDWirx": 3
  },
  "_key": "!items!0FhqdRLuR3TMkehf"
}
