{
  "_id": "xwI9ItqovNe5RMdF",
  "name": "Caçador",
  "type": "classe",
  "img": "systems/tormenta20/icons/classes/cacador.webp",
  "effects": [],
  "folder": null,
  "sort": 0,
  "flags": {
    "core": {
      "sourceId": "Compendium.tormenta20.classes.xwI9ItqovNe5RMdF"
    }
  },
  "system": {
    "description": {
      "value": "",
      "unidentified": ""
    },
    "source": "",
    "niveis": 1,
    "pvPorNivel": 4,
    "pmPorNivel": 4,
    "inicial": false,
    "rolls": [],
    "origin": "",
    "tags": [],
    "chatFlavor": "",
    "chatGif": ""
  },
  "ownership": {
    "default": 0
  },
  "_stats": {
    "systemId": "tormenta20",
    "systemVersion": "1.4.101",
    "coreVersion": "10.288",
    "createdTime": 1664312712758,
    "modifiedTime": 1668270628857,
    "lastModifiedBy": "tIn9sSkrT3mDWirx"
  },
  "_key": "!items!xwI9ItqovNe5RMdF"
}
